DCT_2000-03-28	O	O	O	O	O	O	tmx0	TIME	2000-03-28	O	O	NP0	B-NP	dct_2000-03-28	LS	O	O

HAVANA	t1	1	HAVANA	O	O	O+O+O	O	O	O	O	O	NP0	B-NP	havana	NNP	O	O
-LRB-	t2	1	-lrb-	O	O	O+O+O	O	O	O	O	O	NN1	I-NP	-lrb-	NNP	O	O
AP	t3	1	AP	O	O	O+O+O	O	O	O	O	O	NP0	I-NP	ap	NNP	O	O
-RRB-	t4	1	-rrb-	O	O	O+O+O	O	O	O	O	O	NN1	I-NP	-rrb-	NNP	t1:NAME||t2:NAME||t3:NAME||t5:P||t8:APPO	O
--	t5	1	--	O	O	O+O+O	O	O	O	O	O	NP0	O	--	:	O	O
President	t6	1	President	O	O	O+O+O	O	O	O	O	O	NP0	B-NP	president	NN	O	O
Fidel	t7	1	Fidel	O	O	O+O+O	O	O	O	O	O	NP0	I-NP	fidel	NNP	O	O
Castro	t8	1	Castro	O	O	O+O+O	O	O	O	O	O	NP0	I-NP	castro	NNP	t6:TITLE||t7:NAME	O
said	t9	1	say	e1	REPORTING	PAST+NONE+NEG	O	O	O	O	O	VVD	B-VP	say	VBD	t4:SBJ||t13:OBJ||t46:P	mainVb
Tuesday	t10	1	Tuesday	O	O	O	tmx1	DATE	2000-03-28	O	O	NP0	B-NP	tuesday	NNP	O	O
his	t11	1	he	O	O	O	O	O	O	O	O	DPS	B-NP	his	PRP$	O	O
government	t12	1	government	O	O	O	O	O	O	O	O	NN1	I-NP	government	NN	t11:NMOD	O
told	t13	1	tell	e2	REPORTING	PAST+NONE+NEG	O	O	O	O	O	VVD	B-VP	tell	VBD	t10:TMP||t12:SBJ||t15:OBJ||t17:OBJ	O
U.S.	t14	1	U.S.	O	O	O	O	O	O	O	O	NP0	B-NP	u.s.	NNP	O	O
officials	t15	1	official	O	O	O	O	O	O	O	O	NN2	I-NP	official	NNS	t14:NMOD	O
it	t16	1	it	O	O	O	O	O	O	O	O	PNP	B-NP	it	PRP	O	O
is	t17	1	be	O	O	O	O	O	O	O	O	VBZ	B-VP	be	VBZ	t16:SBJ||t18:VC	O
worried	t18	1	worry	O	O	O	O	O	O	O	O	AJ0	B-ADJP	worry	VBN	t19:OBJ	O
that	t19	1	that	O	O	O	O	O	O	O	O	CJT	B-SBAR	that	IN	t22:SUB	O
Miami-based	t20	1	miami-based	O	O	O	O	O	O	O	O	AJ0	B-NP	miami-base	NNP	O	O
exiles	t21	1	exile	O	O	O	O	O	O	O	O	NN2	I-NP	exile	VBZ	t20:SBJ	O
might	t22	1	might	O	O	O	O	O	O	O	O	VM0	B-VP	might	MD	t21:SBJ||t23:VC	O
take	t23	1	take	e5	OCCURRENCE	PRESENT+NONE+NEG	O	O	O	O	O	VVI	I-VP	take	VB	t25:OBJ||t26:DIR||t29:COORD||t33:ADV	O
Elian	t24	1	Elian	O	O	O	O	O	O	O	O	NP0	B-NP	elian	JJ	O	O
Gonzalez	t25	1	Gonzalez	O	O	O	O	O	O	O	O	NP0	I-NP	gonzalez	NNP	t24:NMOD	O
to	t26	1	to	O	O	O	O	O	O	O	O	PRP	B-PP	to	TO	t28:PMOD	O
another	t27	1	another	O	O	O	O	O	O	O	O	DT0	B-NP	another	DT	O	O
country	t28	1	country	O	O	O	O	O	O	O	O	NN1	I-NP	country	NN	t27:NMOD	O
or	t29	1	or	O	O	O	O	O	O	O	O	CJC	O	or	CC	t31:CONJ	O
even	t30	1	even	O	O	O	O	O	O	O	O	AV0	B-ADVP	even	RB	O	O
harm	t31	1	harm	e6	OCCURRENCE	PRESENT+NONE+NEG	O	O	O	O	O	VVB	B-VP	harm	VB	t30:ADV||t32:OBJ	O
him	t32	1	he	O	O	O	O	O	O	O	O	PNP	B-NP	him	PRP	O	O
if	t33	1	if	O	O	O	O	O	O	O	O	CJS	B-SBAR	if	IN	t35:SUB	O
they	t34	1	they	O	O	O	O	O	O	O	O	PNP	B-NP	they	PRP	O	O
lose	t35	1	lose	e7	OCCURRENCE	PRESENT+NONE+NEG	O	O	O	O	O	VVB	B-VP	lose	VBP	t34:SBJ||t37:OBJ	O
their	t36	1	they	O	O	O	O	O	O	O	O	DPS	B-NP	their	PRP$	O	O
battle	t37	1	battle	e26	OCCURRENCE	NONE+NONE+NEG	O	O	O	O	O	NN1	I-NP	battle	NN	t36:NMOD||t38:NMOD	O
to	t38	1	to	O	O	O	O	O	O	O	O	TO0	B-VP	to	TO	t39:IM	O
block	t39	1	block	e8	I_ACTION	INFINITIVE+NONE+NEG	O	O	O	O	O	VVI	I-VP	block	VB	t43:OBJ	O
the	t40	1	the	O	O	O	O	O	O	O	O	AT0	B-NP	the	DT	O	O
boy	t41	1	boy	O	O	O	O	O	O	O	O	NN1	I-NP	boy	NN	t40:NMOD||t42:SUFFIX	O
's	t42	1	's	O	O	O	O	O	O	O	O	POS	B-NP	's	POS	O	O
return	t43	1	return	e27	OCCURRENCE	NONE+NONE+NEG	O	O	O	O	O	NN1	I-NP	return	NN	t41:NMOD||t44:NMOD	O
to	t44	1	to	O	O	O	O	O	O	O	O	PRP	B-PP	to	TO	t45:PMOD	O
Cuba	t45	1	Cuba	O	O	O	O	O	O	O	O	NP0	B-NP	cuba	NNP	O	O
.	t46	1	.	O	O	O	O	O	O	O	O	PUN	O	.	.	O	O

Reading	t47	2	read	O	O	O	O	O	O	O	O	NP0	B-NP	reading	VBG	t48:ADV	O
from	t48	2	from	O	O	O	O	O	O	O	O	PRP	B-PP	from	IN	t51:PMOD	O
Cuban	t49	2	cuban	O	O	O	O	O	O	O	O	NP0	B-NP	cuban	JJ	O	O
intelligence	t50	2	intelligence	O	O	O	O	O	O	O	O	NN1	I-NP	intelligence	NN	O	O
documents	t51	2	document	O	O	O	O	O	O	O	O	NN2	I-NP	document	NNS	t49:NMOD||t50:NMOD||t52:LOC	O
on	t52	2	on	O	O	O	O	O	O	O	O	PRP	B-PP	on	IN	t54:PMOD	O
state	t53	2	state	O	O	O	O	O	O	O	O	NN1	B-NP	state	NN	O	O
television	t54	2	television	O	O	O	O	O	O	O	O	NN1	I-NP	television	NN	t53:NMOD	O
,	t55	2	,	O	O	O	O	O	O	O	O	PUN	O	,	,	O	O
Castro	t56	2	Castro	O	O	O	O	O	O	O	O	NP0	B-NP	castro	NNP	O	O
said	t57	2	say	e9	REPORTING	PAST+NONE+NEG	O	O	O	O	O	VVD	B-VP	say	VBD	t47:ADV||t55:P||t56:SBJ||t64:OBJ||t85:P	mainVb
a	t58	2	a	O	O	O	O	O	O	O	O	AT0	B-NP	a	DT	O	O
group	t59	2	group	O	O	O	O	O	O	O	O	NN1	I-NP	group	NN	t58:NMOD||t60:NMOD||t62:LOC	O
of	t60	2	of	O	O	O	O	O	O	O	O	PRF	B-PP	of	IN	t61:PMOD	O
Cuban-Americans	t61	2	Cuban-Americans	O	O	O	O	O	O	O	O	NN2	B-NP	cuban-american	NNS	O	O
in	t62	2	in	O	O	O	O	O	O	O	O	PRP	B-PP	in	IN	t63:PMOD	O
Miami	t63	2	Miami	O	O	O	O	O	O	O	O	NP0	B-NP	miami	NNP	O	O
was	t64	2	be	O	O	O	O	O	O	O	O	VBD	B-VP	be	VBD	t59:SBJ||t65:VC	O
studying	t65	2	study	e10	OCCURRENCE	PAST+PROGRESSIVE+NEG	O	O	O	O	O	VVG	I-VP	study	VBG	t67:OBJ	O
the	t66	2	the	O	O	O	O	O	O	O	O	AT0	B-NP	the	DT	O	O
possibility	t67	2	possibility	O	O	O	O	O	O	O	O	NN1	I-NP	possibility	NN	t66:NMOD||t68:NMOD	O
of	t68	2	of	O	O	O	O	O	O	O	O	PRF	B-PP	of	IN	t69:PMOD	O
taking	t69	2	take	e11	OCCURRENCE	PRESPART+NONE+NEG	O	O	O	O	O	VVG	B-VP	take	VBG	t74:OBJ||t75:ADV	O
Elian	t70	2	Elian	O	O	O	O	O	O	O	O	AJ0	B-NP	elian	JJ	t71:COORD	O
and	t71	2	and	O	O	O	O	O	O	O	O	CJC	I-NP	and	CC	t73:CONJ	O
his	t72	2	he	O	O	O	O	O	O	O	O	DPS	I-NP	his	PRP$	O	O
Miami	t73	2	Miami	O	O	O	O	O	O	O	O	NN1	I-NP	miami	NNP	t72:NMOD	O
relatives	t74	2	relative	O	O	O	O	O	O	O	O	VVZ	B-VP	relative	NNS	t70:NMOD	O
to	t75	2	to	O	O	O	O	O	O	O	O	PRP	B-PP	to	TO	t78:PMOD	O
a	t76	2	a	O	O	O	O	O	O	O	O	AT0	B-NP	a	DT	O	O
third	t77	2	third	O	O	O	O	O	O	O	O	ORD	I-NP	third	JJ	O	O
nation	t78	2	nation	O	O	O	O	O	O	O	O	NN1	I-NP	nation	NN	t76:NMOD||t77:NMOD||t79:P||t81:APPO	O
,	t79	2	,	O	O	O	O	O	O	O	O	PUN	O	,	,	O	O
probably	t80	2	probably	O	O	O	O	O	O	O	O	AV0	B-NP	probably	RB	O	O
Nicaragua	t81	2	Nicaragua	O	O	O	O	O	O	O	O	NP0	I-NP	nicaragua	NNP	t80:NMOD||t82:COORD	O
or	t82	2	or	O	O	O	O	O	O	O	O	CJC	I-NP	or	CC	t84:CONJ	O
Costa	t83	2	Costa	O	O	O	O	O	O	O	O	NP0	I-NP	costa	NNP	O	O
Rica	t84	2	Rica	O	O	O	O	O	O	O	O	NP0	I-NP	rica	NNP	t83:NAME	O
.	t85	2	.	O	O	O	O	O	O	O	O	PUN	O	.	.	O	O

Castro	t86	3	Castro	O	O	O	O	O	O	O	O	NP0	B-NP	castro	NNP	O	O
said	t87	3	say	e12	REPORTING	PAST+NONE+NEG	O	O	O	O	O	VVD	B-VP	say	VBD	t86:SBJ||t90:OBJ||t125:P||t126:P	mainVb
his	t88	3	he	O	O	O	O	O	O	O	O	DPS	B-NP	his	PRP$	O	O
government	t89	3	government	O	O	O	O	O	O	O	O	NN1	I-NP	government	NN	t88:NMOD	O
had	t90	3	have	O	O	O	O	O	O	O	O	VHD	B-VP	have	VBD	t89:SBJ||t91:VC	O
shared	t91	3	share	e13	OCCURRENCE	PAST+PERFECTIVE+NEG	O	O	O	O	O	VVN	I-VP	share	VBN	t93:OBJ	O
its	t92	3	its	O	O	O	O	O	O	O	O	DPS	B-NP	its	PRP$	O	O
concerns	t93	3	concern	O	O	O	O	O	O	O	O	NN2	I-NP	concern	NNS	t92:NMOD||t94:NMOD||t99:NMOD	O
with	t94	3	with	O	O	O	O	O	O	O	O	PRP	B-PP	with	IN	t98:PMOD	O
the	t95	3	the	O	O	O	O	O	O	O	O	AT0	B-NP	the	DT	O	O
U.S.	t96	3	U.S.	O	O	O	O	O	O	O	O	NP0	I-NP	u.s.	NNP	O	O
State	t97	3	State	O	O	O	O	O	O	O	O	NN1	I-NP	state	NNP	O	O
Department	t98	3	Department	O	O	O	O	O	O	O	O	NN1	I-NP	department	NNP	t95:NMOD||t96:NAME||t97:NAME	O
about	t99	3	about	O	O	O	O	O	O	O	O	PRP	B-PP	about	IN	t101:PMOD	O
the	t100	3	the	O	O	O	O	O	O	O	O	AT0	B-NP	the	DT	O	O
possibility	t101	3	possibility	O	O	O	O	O	O	O	O	NN1	I-NP	possibility	NN	t100:NMOD||t102:NMOD||t108:NMOD	O
of	t102	3	of	O	O	O	O	O	O	O	O	PRF	B-PP	of	IN	t106:PMOD	O
such	t103	3	such	O	O	O	O	O	O	O	O	DT0	B-NP	such	PDT	O	O
a	t104	3	a	O	O	O	O	O	O	O	O	AT0	I-NP	a	DT	O	O
move	t105	3	move	e31	OCCURRENCE	NONE+NONE+NEG	O	O	O	O	O	NN1	I-NP	move	NN	O	O
"	t106	3	"	O	O	O	O	O	O	O	O	PUQ	O	"	NN	t103:NMOD||t104:NMOD||t105:NMOD	O
which	t107	3	which	O	O	O	O	O	O	O	O	DTQ	B-NP	which	WDT	O	O
could	t108	3	could	O	O	O	O	O	O	O	O	VM0	B-VP	could	MD	t107:SBJ||t109:VC	O
cause	t109	3	cause	e14	OCCURRENCE	PAST+NONE+NEG	O	O	O	O	O	VVI	I-VP	cause	VB	t110:OBJ	O
damage	t110	3	damage	O	O	O	O	O	O	O	O	NN1	B-NP	damage	NN	t111:NMOD	O
not	t111	3	not	O	O	O	O	O	O	O	O	XX0	B-CONJP	not	RB	t112:DEP||t113:COORD	O
only	t112	3	only	O	O	O	O	O	O	O	O	AV0	I-CONJP	only	RB	O	O
to	t113	3	to	O	O	O	O	O	O	O	O	PRP	B-PP	to	TO	t115:PMOD||t116:P||t117:COORD	O
a	t114	3	a	O	O	O	O	O	O	O	O	AT0	B-NP	a	DT	O	O
child	t115	3	child	O	O	O	O	O	O	O	O	NN1	I-NP	child	NN	t114:NMOD	O
,	t116	3	,	O	O	O	O	O	O	O	O	PUN	O	,	,	O	O
but	t117	3	but	O	O	O	O	O	O	O	O	CJC	O	but	CC	t118:CONJ	O
to	t118	3	to	O	O	O	O	O	O	O	O	PRP	B-PP	to	TO	t120:PMOD	O
the	t119	3	the	O	O	O	O	O	O	O	O	AT0	B-NP	the	DT	O	O
reputation	t120	3	reputation	O	O	O	O	O	O	O	O	NN1	I-NP	reputation	NN	t119:NMOD||t121:NMOD	O
of	t121	3	of	O	O	O	O	O	O	O	O	PRF	B-PP	of	IN	t124:PMOD	O
the	t122	3	the	O	O	O	O	O	O	O	O	AT0	B-NP	the	DT	O	O
United	t123	3	United	O	O	O	O	O	O	O	O	NP0	I-NP	united	NNP	O	O
States	t124	3	States	O	O	O	O	O	O	O	O	NP0	I-NP	state	NNPS	t122:NMOD||t123:NAME	O
.	t125	3	.	O	O	O	O	O	O	O	O	PUN	O	.	.	O	O
"	t126	3	"	O	O	O	O	O	O	O	O	PUQ	O	"	)	O	O

A	t127	4	a	O	O	O	O	O	O	O	O	ZZ0	B-NP	a	DT	O	O
State	t128	4	State	O	O	O	O	O	O	O	O	NN1	I-NP	state	NNP	O	O
Department	t129	4	Department	O	O	O	O	O	O	O	O	NN1	I-NP	department	NNP	t128:NAME	O
duty	t130	4	duty	O	O	O	O	O	O	O	O	NN1	I-NP	duty	NN	O	O
officer	t131	4	officer	O	O	O	O	O	O	O	O	NN1	I-NP	officer	NN	t127:NMOD||t129:NMOD||t130:NMOD	O
said	t132	4	say	e15	REPORTING	PAST+NONE+NEG	O	O	O	O	O	VVD	B-VP	say	VBD	t131:SBJ||t134:OBJ||t149:P	mainVb
she	t133	4	she	O	O	O	O	O	O	O	O	PNP	B-NP	she	PRP	O	O
had	t134	4	have	O	O	O	O	O	O	O	O	VHD	B-VP	have	VBD	t133:SBJ||t136:OBJ||t137:LOC||t142:COORD	O
no	t135	4	no	O	O	O	O	O	O	O	O	AT0	B-NP	no	DT	O	O
information	t136	4	information	O	O	O	O	O	O	O	O	NN1	I-NP	information	NN	t135:NMOD	O
on	t137	4	on	O	O	O	O	O	O	O	O	PRP	B-PP	on	IN	t139:PMOD	O
a	t138	4	a	O	O	O	O	O	O	O	O	AT0	B-NP	a	DT	O	O
threat	t139	4	threat	e34	OCCURRENCE	NONE+NONE+NEG	O	O	O	O	O	NN1	I-NP	threat	NN	t138:NMOD||t140:NMOD	O
to	t140	4	to	O	O	O	O	O	O	O	O	PRP	B-PP	to	TO	t141:PMOD	O
Elian	t141	4	Elian	O	O	O	O	O	O	O	O	AJ0	B-NP	elian	JJ	O	O
and	t142	4	and	O	O	O	O	O	O	O	O	CJC	O	and	CC	t143:CONJ	O
was	t143	4	be	O	O	O	O	O	O	O	O	VBD	B-VP	be	VBD	t144:PRD	O
unaware	t144	4	unaware	O	O	O	O	O	O	O	O	AJ0	B-ADJP	unaware	JJ	t145:AMOD	O
of	t145	4	of	O	O	O	O	O	O	O	O	PRF	B-PP	of	IN	t148:PMOD	O
Castro	t146	4	Castro	O	O	O	O	O	O	O	O	NP0	B-NP	castro	NNP	t147:SUFFIX	O
's	t147	4	's	O	O	O	O	O	O	O	O	POS	B-NP	's	POS	O	O
remarks	t148	4	remark	O	O	O	O	O	O	O	O	NN2	I-NP	remark	NNS	t146:NMOD	O
.	t149	4	.	O	O	O	O	O	O	O	O	PUN	O	.	.	O	O

In	t150	5	in	O	O	O	O	O	O	O	O	PRP	B-PP	in	IN	t151:PMOD	O
Miami	t151	5	Miami	O	O	O	O	O	O	O	O	NP0	B-NP	miami	NNP	O	O
,	t152	5	,	O	O	O	O	O	O	O	O	PUN	O	,	,	O	O
the	t153	5	the	O	O	O	O	O	O	O	O	AT0	B-NP	the	DT	O	O
boy	t154	5	boy	O	O	O	O	O	O	O	O	NN1	I-NP	boy	NN	t153:NMOD||t155:SUFFIX	O
's	t155	5	's	O	O	O	O	O	O	O	O	POS	B-NP	's	POS	O	O
great-uncle	t156	5	great-uncle	O	O	O	O	O	O	O	O	NN1	I-NP	great-uncle	NN	t154:NMOD||t157:P||t159:APPO||t160:P	O
,	t157	5	,	O	O	O	O	O	O	O	O	PUN	O	,	,	O	O
Lazaro	t158	5	Lazaro	O	O	O	O	O	O	O	O	NP0	B-NP	lazaro	NNP	O	O
Gonzalez	t159	5	Gonzalez	O	O	O	O	O	O	O	O	NP0	I-NP	gonzalez	NNP	t158:NAME	O
,	t160	5	,	O	O	O	O	O	O	O	O	PUN	O	,	,	O	O
denied	t161	5	deny	e16	OCCURRENCE	PAST+NONE+NEG	O	O	O	O	O	VVD	B-VP	deny	VBD	t150:LOC||t152:P||t156:SBJ||t162:OBJ||t178:P	mainVb
that	t162	5	that	O	O	O	O	O	O	O	O	CJT	B-SBAR	that	IN	t164:SUB||t171:P||t172:COORD	O
he	t163	5	he	O	O	O	O	O	O	O	O	PNP	B-NP	he	PRP	O	O
would	t164	5	would	O	O	O	O	O	O	O	O	VM0	B-VP	would	MD	t163:SBJ||t165:VC	O
send	t165	5	send	e17	OCCURRENCE	PAST+NONE+NEG	O	O	O	O	O	VVI	I-VP	send	VB	t166:OBJ||t167:DIR	O
Elian	t166	5	Elian	O	O	O	O	O	O	O	O	AJ0	B-ADJP	elian	JJ	O	O
out	t167	5	out	O	O	O	O	O	O	O	O	PRP	B-PP	out	IN	t168:PMOD	O
of	t168	5	of	O	O	O	O	O	O	O	O	PRP	B-PP	of	IN	t170:PMOD	O
the	t169	5	the	O	O	O	O	O	O	O	O	AT0	B-NP	the	DT	O	O
country	t170	5	country	O	O	O	O	O	O	O	O	NN1	I-NP	country	NN	t169:NMOD	O
,	t171	5	,	O	O	O	O	O	O	O	O	PUN	O	,	,	O	O
or	t172	5	or	O	O	O	O	O	O	O	O	CJC	O	or	CC	t173:CONJ	O
that	t173	5	that	O	O	O	O	O	O	O	O	CJT	B-SBAR	that	IN	t176:SUB	O
he	t174	5	he	O	O	O	O	O	O	O	O	PNP	B-NP	he	PRP	t175:APPO	O
himself	t175	5	himself	O	O	O	O	O	O	O	O	PNX	B-NP	himself	PRP	O	O
would	t176	5	would	O	O	O	O	O	O	O	O	VM0	B-VP	would	MD	t174:SBJ||t177:VC	O
leave	t177	5	leave	e18	OCCURRENCE	PAST+NONE+NEG	O	O	O	O	O	VVI	I-VP	leave	VB	t179:OBJ	O
.	t178	5	.	O	O	O	O	O	O	O	O	PUN	O	.	.	O	O
"	t179	5	"	O	O	O	O	O	O	O	O	PUQ	O	"	PRP	O	O

It	t180	6	it	O	O	O	O	O	O	O	O	PNP	B-NP	it	PRP	O	O
never	t181	6	never	O	O	O	O	O	O	O	O	AV0	B-ADVP	never	RB	O	O
even	t182	6	even	O	O	O	O	O	O	O	O	AV0	B-ADVP	even	RB	O	O
entered	t183	6	enter	e19	OCCURRENCE	PAST+NONE+NEG	O	O	O	O	O	VVN	B-VP	enter	VBD	t180:SBJ||t181:TMP||t182:ADV||t185:OBJ||t187:ADV	O
my	t184	6	my	O	O	O	O	O	O	O	O	DPS	B-NP	my	PRP$	O	O
mind	t185	6	mind	O	O	O	O	O	O	O	O	NN1	I-NP	mind	NN	t184:NMOD	O
,	t186	6	,	O	O	O	O	O	O	O	O	PUN	O	,	,	O	O
"	t187	6	"	O	O	O	O	O	O	O	O	PUQ	O	"	TO	O	O
he	t188	6	he	O	O	O	O	O	O	O	O	PNP	B-NP	he	PRP	O	O
said	t189	6	say	e20	REPORTING	PAST+NONE+NEG	O	O	O	O	O	VVD	B-VP	say	VBD	t183:OBJ||t186:P||t188:SBJ||t190:P||t191:P	mainVb
.	t190	6	.	O	O	O	O	O	O	O	O	PUN	O	.	.	O	O
"	t191	6	"	O	O	O	O	O	O	O	O	PUQ	O	"	''	O	O

This	t192	7	this	O	O	O	O	O	O	O	O	DT0	B-NP	this	DT	O	O
is	t193	7	be	O	O	O	O	O	O	O	O	VBZ	B-VP	be	VBZ	t192:SBJ||t195:PRD||t196:P	mainVb
my	t194	7	my	O	O	O	O	O	O	O	O	DPS	B-NP	my	PRP$	O	O
home	t195	7	home	O	O	O	O	O	O	O	O	NN1	I-NP	home	NN	t194:NMOD||t197:NMOD	O
.	t196	7	.	O	O	O	O	O	O	O	O	PUN	O	.	.	O	O
"	t197	7	"	O	O	O	O	O	O	O	O	PUQ	O	"	NN	O	O

The	t198	8	the	O	O	O	O	O	O	O	O	AT0	B-NP	the	DT	O	O
Cuban	t199	8	cuban	O	O	O	O	O	O	O	O	AJ0	I-NP	cuban	JJ	O	O
leader	t200	8	leader	O	O	O	O	O	O	O	O	NN1	I-NP	leader	NN	t198:NMOD||t199:NMOD	O
first	t201	8	first	O	O	O	O	O	O	O	O	ORD	B-ADVP	first	RB	O	O
raised	t202	8	raise	e21	OCCURRENCE	PAST+NONE+NEG	O	O	O	O	O	VVN	I-ADVP	raise	VBD	t200:SBJ||t201:ADV||t204:OBJ||t205:TMP||t211:TMP||t212:TMP||t215:DIR||t221:P	mainVb
those	t203	8	those	O	O	O	O	O	O	O	O	DT0	B-NP	those	DT	O	O
worries	t204	8	worry	O	O	O	O	O	O	O	O	NN2	I-NP	worry	NNS	t203:NMOD	O
during	t205	8	during	O	O	O	O	O	O	O	O	PRP	B-PP	during	IN	t209:PMOD	O
another	t206	8	another	O	O	O	O	O	O	O	O	DT0	B-NP	another	DT	O	O
live	t207	8	live	O	O	O	O	O	O	O	O	AJ0	I-NP	live	JJ	O	O
television	t208	8	television	O	O	O	O	O	O	O	O	NN1	I-NP	television	NN	t207:NMOD	O
appearance	t209	8	appearance	e37	OCCURRENCE	NONE+NONE+NEG	O	O	O	O	O	NN1	I-NP	appearance	NN	t206:NMOD||t208:NMOD	O
Sunday	t210	8	Sunday	O	O	O	tmx2	DATE	2000-03-26	O	O	NP0	I-NP	sunday	NNP	O	O
night	t211	8	night	O	O	O	tmx2	DATE	2000-03-26	O	O	NN1	I-NP	night	NN	t210:NMOD	O
during	t212	8	during	O	O	O	O	O	O	O	O	PRP	B-PP	during	IN	t214:PMOD	O
a	t213	8	a	O	O	O	O	O	O	O	O	AT0	B-NP	a	DT	O	O
speech	t214	8	speech	e38	OCCURRENCE	NONE+NONE+NEG	O	O	O	O	O	NN1	I-NP	speech	NN	t213:NMOD	O
to	t215	8	to	O	O	O	O	O	O	O	O	PRP	B-PP	to	TO	t220:PMOD	O
about	t216	8	about	O	O	O	O	O	O	O	O	AV0	B-NP	about	CD	O	O
700	t217	8	700	O	O	O	O	O	O	O	O	CRD	I-NP	700	CD	t216:DEP	O
Cuban	t218	8	cuban	O	O	O	O	O	O	O	O	AJ0	I-NP	cuban	JJ	O	O
university	t219	8	university	O	O	O	O	O	O	O	O	NN1	I-NP	university	NN	O	O
students	t220	8	student	O	O	O	O	O	O	O	O	NN2	I-NP	student	NNS	t217:NMOD||t218:NMOD||t219:NMOD	O
.	t221	8	.	O	O	O	O	O	O	O	O	PUN	O	.	.	O	O

But	t222	9	but	O	O	O	O	O	O	O	O	CJC	O	but	CC	O	O
it	t223	9	it	O	O	O	O	O	O	O	O	PNP	B-NP	it	PRP	O	O
was	t224	9	be	O	O	O	O	O	O	O	O	VBD	B-VP	be	VBD	t222:DEP||t223:SBJ||t225:ADV||t226:PRD||t242:P	mainVb
not	t225	9	not	O	O	O	O	O	O	O	O	XX0	O	not	RB	O	O
until	t226	9	until	O	O	O	O	O	O	O	O	PRP	B-PP	until	IN	t230:SUB	O
Tuesday	t227	9	Tuesday	O	O	O	tmx3	DATE	2000-03-28	O	O	NP0	B-NP	tuesday	NNP	O	O
that	t228	9	that	O	O	O	O	O	O	O	O	CJT	B-SBAR	that	IN	O	O
Castro	t229	9	Castro	O	O	O	O	O	O	O	O	NP0	B-NP	castro	NNP	t227:NAME||t228:NAME	O
revealed	t230	9	reveal	e23	OCCURRENCE	PAST+NONE+NEG	O	O	O	O	O	VVD	B-VP	reveal	VBD	t229:SBJ||t231:OBJ	O
that	t231	9	that	O	O	O	O	O	O	O	O	CJT	B-SBAR	that	IN	t234:SUB	O
those	t232	9	those	O	O	O	O	O	O	O	O	DT0	B-NP	those	DT	O	O
concerns	t233	9	concern	O	O	O	O	O	O	O	O	NN2	I-NP	concern	NNS	t232:NMOD	O
had	t234	9	have	O	O	O	O	O	O	O	O	VHD	B-VP	have	VBD	t233:SBJ||t235:VC	O
been	t235	9	be	O	O	O	O	O	O	O	O	VBN	I-VP	be	VBN	t236:VC	O
shared	t236	9	share	e24	OCCURRENCE	PAST+PERFECTIVE+NEG	O	O	O	O	O	VVN	I-VP	share	VBN	t237:MNR||t238:ADV	O
directly	t237	9	directly	O	O	O	O	O	O	O	O	AV0	B-ADVP	directly	RB	O	O
with	t238	9	with	O	O	O	O	O	O	O	O	PRP	B-PP	with	IN	t241:PMOD	O
the	t239	9	the	O	O	O	O	O	O	O	O	AT0	B-NP	the	DT	O	O
U.S.	t240	9	U.S.	O	O	O	O	O	O	O	O	NP0	I-NP	u.s.	NNP	O	O
government	t241	9	government	O	O	O	O	O	O	O	O	NN1	I-NP	government	NN	t239:NMOD||t240:NMOD	O
.	t242	9	.	O	O	O	O	O	O	O	O	PUN	O	.	.	O	O
