DCT_1989-11-02	O	O	O	O	O	O	tmx0	DATE	1989-11-02	O	O	NP0	B-NP	dct_1989-11-02	LS	O	O

Travelers	t1	1	Travelers	O	O	O+O+O	O	O	O	O	O	NP0	B-NP	traveler	NNP	t2:POSTHON||t3:SUFFIX	O
Corp.	t2	1	Corp.	O	O	O+O+O	O	O	O	O	O	NP0	B-NP	corp.	NNP	O	O
's	t3	1	's	O	O	O+O+O	O	O	O	O	O	POS	B-NP	's	POS	O	O
third-quarter	t4	1	third-quarter	O	O	O+O+O	tmx28	DATE	1989-Q3	O	O	NN1	I-NP	third-quarter	JJ	O	O
net	t5	1	net	O	O	O+O+O	O	O	O	O	O	NN1	I-NP	net	JJ	O	O
income	t6	1	income	O	O	O+O+O	O	O	O	O	O	NN1	I-NP	income	NN	t1:NMOD||t4:NMOD||t5:NMOD	O
rose	t7	1	rise	e1	OCCURRENCE	PAST+NONE+POS	O	O	O	O	O	VVD	B-VP	rise	VBD	t6:SBJ||t9:EXT||t10:P||t12:ADV||t23:P	mainVb
11	t8	1	11	O	O	O	O	O	O	O	O	CRD	B-NP	11	CD	O	O
%	t9	1	%	O	O	O	O	O	O	O	O	UNC	I-NP	%	NN	t8:NMOD	O
,	t10	1	,	O	O	O	O	O	O	O	O	PUN	O	,	,	O	O
even	t11	1	even	O	O	O	O	O	O	O	O	CJS	B-SBAR	even	RB	O	O
though	t12	1	though	O	O	O	O	O	O	O	O	CJS	I-SBAR	though	IN	t11:DEP||t18:SUB	O
claims	t13	1	claim	O	O	O	O	O	O	O	O	NN2	B-NP	claim	NNS	t14:APPO	O
stemming	t14	1	stem	O	O	O	O	O	O	O	O	VVG	B-VP	stem	VBG	t15:ADV	O
from	t15	1	from	O	O	O	O	O	O	O	O	PRP	B-PP	from	IN	t17:PMOD	O
Hurricane	t16	1	Hurricane	O	O	O	O	O	O	O	O	NP0	B-NP	hurricane	NNP	O	O
Hugo	t17	1	Hugo	O	O	O	O	O	O	O	O	NP0	I-NP	hugo	NNP	t16:NAME	O
reduced	t18	1	reduce	e4	OCCURRENCE	PAST+NONE+POS	O	O	O	O	O	VVD	B-VP	reduce	VBD	t13:SBJ||t19:OBJ||t20:EXT	O
results	t19	1	result	O	O	O	O	O	O	O	O	NN2	B-NP	result	NNS	O	O
$	t20	1	$	O	O	O	O	O	O	O	O	CRD	B-NP	$	$	t21:DEP||t22:DEP	O
40	t21	1	40	O	O	O	O	O	O	O	O	CRD	I-NP	40	CD	O	O
million	t22	1	million	O	O	O	O	O	O	O	O	CRD	I-NP	million	CD	O	O
.	t23	1	.	O	O	O	O	O	O	O	O	PUN	O	.	.	O	O

Net	t24	2	net	O	O	O	O	O	O	O	O	NP0	B-NP	net	NN	O	O
advanced	t25	2	advance	e6	OCCURRENCE	PAST+NONE+POS	O	O	O	O	O	VVD	B-VP	advance	VBD	t24:SBJ||t26:DIR||t37:DIR||t66:P	mainVb
to	t26	2	to	O	O	O	O	O	O	O	O	PRP	B-PP	to	TO	t27:PMOD	O
$	t27	2	$	O	O	O	O	O	O	O	O	CRD	B-NP	$	$	t28:DEP||t29:DEP||t30:P||t31:COORD||t36:P	O
94.2	t28	2	94.2	O	O	O	O	O	O	O	O	CRD	I-NP	94.2	CD	O	O
million	t29	2	million	O	O	O	O	O	O	O	O	CRD	I-NP	million	CD	O	O
,	t30	2	,	O	O	O	O	O	O	O	O	PUN	O	,	,	O	O
or	t31	2	or	O	O	O	O	O	O	O	O	CJC	O	or	CC	t33:CONJ	O
89	t32	2	89	O	O	O	O	O	O	O	O	CRD	B-NP	89	CD	O	O
cents	t33	2	cent	O	O	O	O	O	O	O	O	NN2	I-NP	cent	NNS	t32:NMOD||t35:ADV	O
a	t34	2	a	O	O	O	O	O	O	O	O	AT0	B-NP	a	DT	O	O
share	t35	2	share	O	O	O	O	O	O	O	O	NN1	I-NP	share	NN	t34:NMOD	O
,	t36	2	,	O	O	O	O	O	O	O	O	PUN	O	,	,	O	O
from	t37	2	from	O	O	O	O	O	O	O	O	PRP	B-PP	from	IN	t38:PMOD	O
$	t38	2	$	O	O	O	O	O	O	O	O	CRD	B-NP	$	$	t39:DEP||t40:DEP||t41:P||t42:COORD||t47:P||t48:NMOD||t57:P||t58:NMOD	O
85	t39	2	85	O	O	O	O	O	O	O	O	CRD	I-NP	85	CD	O	O
million	t40	2	million	O	O	O	O	O	O	O	O	CRD	I-NP	million	CD	O	O
,	t41	2	,	O	O	O	O	O	O	O	O	PUN	O	,	,	O	O
or	t42	2	or	O	O	O	O	O	O	O	O	CJC	O	or	CC	t44:CONJ	O
83	t43	2	83	O	O	O	O	O	O	O	O	CRD	B-NP	83	CD	O	O
cents	t44	2	cent	O	O	O	O	O	O	O	O	NN2	I-NP	cent	NNS	t43:NMOD||t46:ADV	O
a	t45	2	a	O	O	O	O	O	O	O	O	AT0	B-NP	a	DT	O	O
share	t46	2	share	O	O	O	O	O	O	O	O	NN1	I-NP	share	NN	t45:NMOD	O
,	t47	2	,	O	O	O	O	O	O	O	O	PUN	O	,	,	O	O
including	t48	2	include	O	O	O	O	O	O	O	O	PRP	B-PP	include	VBG	t52:PMOD	O
net	t49	2	net	O	O	O	O	O	O	O	O	AJ0	B-NP	net	JJ	O	O
realized	t50	2	realize	O	O	O	O	O	O	O	O	AJ0	I-NP	realize	VBN	O	O
investment	t51	2	investment	O	O	O	O	O	O	O	O	NN1	I-NP	investment	NN	O	O
gains	t52	2	gain	e33	OCCURRENCE	NONE+NONE+POS	O	O	O	O	O	NN2	I-NP	gain	NNS	t49:NMOD||t50:NMOD||t51:NMOD||t53:NMOD	O
of	t53	2	of	O	O	O	O	O	O	O	O	PRF	B-PP	of	IN	t54:PMOD	O
$	t54	2	$	O	O	O	O	O	O	O	O	NN0	B-NP	$	$	t55:DEP||t56:DEP	O
31	t55	2	31	O	O	O	O	O	O	O	O	CRD	B-NP	31	CD	O	O
million	t56	2	million	O	O	O	O	O	O	O	O	CRD	I-NP	million	CD	O	O
,	t57	2	,	O	O	O	O	O	O	O	O	PUN	O	,	,	O	O
up	t58	2	up	O	O	O	O	O	O	O	O	AVP	B-ADVP	up	RB	t59:AMOD	O
from	t59	2	from	O	O	O	O	O	O	O	O	PRP	B-PP	from	IN	t60:PMOD||t65:TMP	O
$	t60	2	$	O	O	O	O	O	O	O	O	CRD	B-NP	$	$	t61:DEP||t62:DEP	O
10	t61	2	10	O	O	O	O	O	O	O	O	CRD	I-NP	10	CD	O	O
million	t62	2	million	O	O	O	O	O	O	O	O	CRD	I-NP	million	CD	O	O
a	t63	2	a	O	O	O	tmx40	DATE	1988-Q3	O	O	AT0	B-NP	a	DT	O	O
year	t64	2	year	O	O	O	tmx40	DATE	1988-Q3	O	O	NN1	I-NP	year	NN	t63:NMOD	O
ago	t65	2	ago	O	O	O	tmx40	DATE	1988-Q3	O	O	AV0	B-ADVP	ago	RB	t64:AMOD	O
.	t66	2	.	O	O	O	O	O	O	O	O	PUN	O	.	.	O	O

But	t67	3	but	O	O	O	O	O	O	O	O	CJC	O	but	CC	O	O
revenue	t68	3	revenue	O	O	O	O	O	O	O	O	NN1	B-NP	revenue	NN	O	O
declined	t69	3	decline	e8	OCCURRENCE	PAST+NONE+POS	O	O	O	O	O	VVD	B-VP	decline	VBD	t67:DEP||t68:SBJ||t70:DIR||t74:DIR||t78:P	mainVb
to	t70	3	to	O	O	O	O	O	O	O	O	PRP	B-PP	to	TO	t71:PMOD	O
$	t71	3	$	O	O	O	O	O	O	O	O	CRD	B-NP	$	$	t72:DEP||t73:DEP	O
3	t72	3	3	O	O	O	O	O	O	O	O	CRD	I-NP	3	CD	O	O
billion	t73	3	billion	O	O	O	O	O	O	O	O	CRD	I-NP	billion	CD	O	O
from	t74	3	from	O	O	O	O	O	O	O	O	PRP	B-PP	from	IN	t75:PMOD	O
$	t75	3	$	O	O	O	O	O	O	O	O	ZZ0	B-NP	$	$	t76:DEP||t77:DEP	O
3.2	t76	3	3.2	O	O	O	O	O	O	O	O	CRD	I-NP	3.2	CD	O	O
billion	t77	3	billion	O	O	O	O	O	O	O	O	CRD	I-NP	billion	CD	O	O
.	t78	3	.	O	O	O	O	O	O	O	O	PUN	O	.	.	O	O

Travelers	t79	4	Travelers	O	O	O	O	O	O	O	O	NN2	B-NP	traveler	NNS	O	O
estimated	t80	4	estimate	e45	I_ACTION	PAST+NONE+POS	O	O	O	O	O	VVD	B-VP	estimate	VBD	t79:SBJ||t81:OBJ||t100:P	mainVb
that	t81	4	that	O	O	O	O	O	O	O	O	CJT	B-SBAR	that	IN	t87:SUB	O
the	t82	4	the	O	O	O	O	O	O	O	O	AT0	B-NP	the	DT	O	O
California	t83	4	California	O	O	O	O	O	O	O	O	NP0	I-NP	california	NNP	O	O
earthquake	t84	4	earthquake	O	O	O	O	O	O	O	O	NN1	I-NP	earthquake	NN	t82:NMOD||t83:NMOD	O
last	t85	4	last	O	O	O	tmx47	DATE	1989-10	O	O	ORD	B-NP	last	JJ	O	O
month	t86	4	month	O	O	O	tmx47	DATE	1989-10	O	O	NN1	I-NP	month	NN	t85:NMOD	O
will	t87	4	will	O	O	O	O	O	O	O	O	VM0	B-VP	will	MD	t84:SBJ||t86:TMP||t88:VC	O
result	t88	4	result	e10	ASPECTUAL	FUTURE+NONE+POS	O	O	O	O	O	VVI	I-VP	result	VB	t89:ADV	O
in	t89	4	in	O	O	O	O	O	O	O	O	PRP	B-PP	in	IN	t93:PMOD	O
a	t90	4	a	O	O	O	O	O	O	O	O	AT0	B-NP	a	DT	O	O
fourth-quarter	t91	4	fourth-quarter	O	O	O	tmx48	DATE	1989-Q4	O	O	NN1	I-NP	fourth-quarter	NN	O	O
pre-tax	t92	4	pre-tax	O	O	O	O	O	O	O	O	NN1	I-NP	pre-tax	NN	t91:NMOD	O
charge	t93	4	charge	e49	OCCURRENCE	NONE+NONE+POS	O	O	O	O	O	NN1	I-NP	charge	NN	t90:NMOD||t92:NMOD||t94:NMOD	O
of	t94	4	of	O	O	O	O	O	O	O	O	PRF	B-PP	of	IN	t97:PMOD	O
less	t95	4	less	O	O	O	O	O	O	O	O	AV0	B-NP	less	JJR	O	O
than	t96	4	than	O	O	O	O	O	O	O	O	AV0	I-NP	than	IN	O	O
$	t97	4	$	O	O	O	O	O	O	O	O	NN0	I-NP	$	$	t95:DEP||t96:DEP||t98:DEP||t99:DEP	O
10	t98	4	10	O	O	O	O	O	O	O	O	CRD	I-NP	10	CD	O	O
million	t99	4	million	O	O	O	O	O	O	O	O	CRD	I-NP	million	CD	O	O
.	t100	4	.	O	O	O	O	O	O	O	O	PUN	O	.	.	O	O

The	t101	5	the	O	O	O	O	O	O	O	O	AT0	B-NP	the	DT	O	O
insurer	t102	5	insurer	O	O	O	O	O	O	O	O	NN1	I-NP	insurer	NN	t101:NMOD||t103:SUFFIX	O
's	t103	5	's	O	O	O	O	O	O	O	O	POS	B-NP	's	POS	O	O
earnings	t104	5	earnings	O	O	O	O	O	O	O	O	NN2	I-NP	earnings	NNS	t102:NMOD||t105:NMOD	O
from	t105	5	from	O	O	O	O	O	O	O	O	PRP	B-PP	from	IN	t108:PMOD	O
commercial	t106	5	commercial	O	O	O	O	O	O	O	O	AJ0	B-NP	commercial	JJ	O	O
property/casualty	t107	5	property/casualty	O	O	O	O	O	O	O	O	NN1	I-NP	property/casualty	NN	t106:NMOD	O
lines	t108	5	line	O	O	O	O	O	O	O	O	NN2	I-NP	line	NNS	t107:NMOD	O
fell	t109	5	fall	e12	OCCURRENCE	PAST+NONE+POS	O	O	O	O	O	VVD	B-VP	fell	VBD	t104:SBJ||t111:EXT||t112:TMP||t116:P||t117:ADV||t139:P	mainVb
59	t110	5	59	O	O	O	O	O	O	O	O	CRD	B-NP	59	CD	O	O
%	t111	5	%	O	O	O	O	O	O	O	O	UNC	I-NP	%	NN	t110:NMOD	O
in	t112	5	in	O	O	O	O	O	O	O	O	PRP	B-PP	in	IN	t115:PMOD	O
the	t113	5	the	O	O	O	tmx52	DATE	1989-Q3	O	O	AT0	B-NP	the	DT	O	O
latest	t114	5	latest	O	O	O	tmx52	DATE	1989-Q3	O	O	AJS	I-NP	latest	JJS	O	O
quarter	t115	5	quarter	O	O	O	tmx52	DATE	1989-Q3	O	O	NN1	I-NP	quarter	NN	t113:NMOD||t114:NMOD	O
,	t116	5	,	O	O	O	O	O	O	O	O	PUN	O	,	,	O	O
while	t117	5	while	O	O	O	O	O	O	O	O	CJS	B-SBAR	while	IN	t119:SUB	O
it	t118	5	it	O	O	O	O	O	O	O	O	PNP	B-NP	it	PRP	O	O
lost	t119	5	lose	e14	OCCURRENCE	PAST+NONE+POS	O	O	O	O	O	VVD	B-VP	lose	VBD	t118:SBJ||t120:OBJ||t123:LOC||t128:P||t129:ADV	O
$	t120	5	$	O	O	O	O	O	O	O	O	CRD	B-NP	$	$	t121:DEP||t122:DEP	O
7.2	t121	5	7.2	O	O	O	O	O	O	O	O	CRD	I-NP	7.2	CD	O	O
million	t122	5	million	O	O	O	O	O	O	O	O	CRD	I-NP	million	CD	O	O
in	t123	5	in	O	O	O	O	O	O	O	O	PRP	B-PP	in	IN	t127:PMOD	O
its	t124	5	its	O	O	O	O	O	O	O	O	DPS	B-NP	its	PRP$	O	O
personal	t125	5	personal	O	O	O	O	O	O	O	O	AJ0	I-NP	personal	JJ	O	O
property/casualty	t126	5	property/casualty	O	O	O	O	O	O	O	O	NN1	I-NP	property/casualty	NN	t125:NMOD	O
business	t127	5	business	O	O	O	O	O	O	O	O	NN1	I-NP	business	NN	t124:NMOD||t126:NMOD	O
,	t128	5	,	O	O	O	O	O	O	O	O	PUN	O	,	,	O	O
compared	t129	5	compare	O	O	O	O	O	O	O	O	VVN	B-PP	compare	VBN	t130:PMOD	O
with	t130	5	with	O	O	O	O	O	O	O	O	PRP	B-PP	with	IN	t131:PMOD	O
earnings	t131	5	earnings	e3000	OCCURRENCE	O	O	O	O	O	O	NN2	B-NP	earnings	NNS	t132:NMOD||t138:TMP	O
of	t132	5	of	O	O	O	O	O	O	O	O	PRF	B-PP	of	IN	t133:PMOD	O
$	t133	5	$	O	O	O	O	O	O	O	O	NN0	B-NP	$	$	t134:DEP||t135:DEP	O
6.1	t134	5	6.1	O	O	O	O	O	O	O	O	CRD	I-NP	6.1	CD	O	O
million	t135	5	million	O	O	O	O	O	O	O	O	CRD	I-NP	million	CD	O	O
a	t136	5	a	O	O	O	tmx51	DATE	1988-Q3	O	O	AT0	B-NP	a	DT	O	O
year	t137	5	year	O	O	O	tmx51	DATE	1988-Q3	O	O	NN1	I-NP	year	NN	t136:NMOD	O
ago	t138	5	ago	O	O	O	tmx51	DATE	1988-Q3	O	O	AV0	B-ADVP	ago	RB	t137:AMOD	O
.	t139	5	.	O	O	O	O	O	O	O	O	PUN	O	.	.	O	O

Travelers	t140	6	Travelers	O	O	O	O	O	O	O	O	NP0	B-NP	traveler	NNP	t141:SUFFIX	O
's	t141	6	's	O	O	O	O	O	O	O	O	POS	B-NP	's	POS	O	O
employee	t142	6	employee	O	O	O	O	O	O	O	O	NN1	I-NP	employee	NN	O	O
benefits	t143	6	benefit	O	O	O	O	O	O	O	O	VVZ	B-VP	benefit	NNS	t142:NMOD	O
group	t144	6	group	O	O	O	O	O	O	O	O	NN1	B-NP	group	NN	t140:NMOD||t143:NMOD||t145:P||t147:NMOD||t153:P	O
,	t145	6	,	O	O	O	O	O	O	O	O	PUN	O	,	,	O	O
which	t146	6	which	O	O	O	O	O	O	O	O	DTQ	B-NP	which	WDT	O	O
includes	t147	6	include	O	O	O	O	O	O	O	O	VVZ	B-VP	include	VBZ	t146:SBJ||t152:OBJ	O
its	t148	6	its	O	O	O	O	O	O	O	O	DPS	B-NP	its	PRP$	O	O
group	t149	6	group	O	O	O	O	O	O	O	O	NN1	I-NP	group	NN	O	O
health	t150	6	health	O	O	O	O	O	O	O	O	NN1	I-NP	health	NN	O	O
insurance	t151	6	insurance	O	O	O	O	O	O	O	O	NN1	I-NP	insurance	NN	t150:NMOD	O
operations	t152	6	operation	O	O	O	O	O	O	O	O	NN2	I-NP	operations	NNS	t148:NMOD||t149:NMOD||t151:NMOD	O
,	t153	6	,	O	O	O	O	O	O	O	O	PUN	O	,	,	O	O
posted	t154	6	post	O	O	O	O	O	O	O	O	VVD	B-VP	post	VBD	t144:SBJ||t155:OBJ||t160:P||t161:ADV||t171:P	mainVb
earnings	t155	6	earnings	O	O	O	O	O	O	O	O	NN2	B-NP	earnings	NNS	t156:NMOD	O
of	t156	6	of	O	O	O	O	O	O	O	O	PRF	B-PP	of	IN	t157:PMOD	O
$	t157	6	$	O	O	O	O	O	O	O	O	NN0	B-NP	$	$	t158:DEP||t159:DEP	O
24	t158	6	24	O	O	O	O	O	O	O	O	CRD	I-NP	24	CD	O	O
million	t159	6	million	O	O	O	O	O	O	O	O	CRD	I-NP	million	CD	O	O
,	t160	6	,	O	O	O	O	O	O	O	O	PUN	O	,	,	O	O
compared	t161	6	compare	O	O	O	O	O	O	O	O	VVN	B-PP	compare	VBN	t162:PMOD	O
with	t162	6	with	O	O	O	O	O	O	O	O	PRP	B-PP	with	IN	t164:PMOD	O
a	t163	6	a	O	O	O	O	O	O	O	O	AT0	B-NP	a	DT	O	O
loss	t164	6	loss	e21	OCCURRENCE	NONE+NONE+POS	O	O	O	O	O	NN1	I-NP	loss	NN	t163:NMOD||t165:NMOD	O
of	t165	6	of	O	O	O	O	O	O	O	O	PRF	B-PP	of	IN	t166:PMOD||t170:TMP	O
$	t166	6	$	O	O	O	O	O	O	O	O	NN0	B-NP	$	$	t167:DEP||t168:DEP	O
3	t167	6	3	O	O	O	O	O	O	O	O	CRD	I-NP	3	CD	O	O
million	t168	6	million	O	O	O	O	O	O	O	O	CRD	I-NP	million	CD	O	O
last	t169	6	last	O	O	O	tmx56	DATE	1988-Q3	O	O	ORD	B-NP	last	JJ	O	O
year	t170	6	year	O	O	O	tmx56	DATE	1988-Q3	O	O	NN1	I-NP	year	NN	t169:NMOD	O
.	t171	6	.	O	O	O	O	O	O	O	O	PUN	O	.	.	O	O

In	t172	7	in	O	O	O	O	O	O	O	O	PRP	B-PP	in	IN	t176:PMOD	O
the	t173	7	the	O	O	O	tmx58	DURATION	P9M	O	O	AT0	B-NP	the	DT	O	O
first	t174	7	first	O	O	O	tmx58	DURATION	P9M	O	O	ORD	I-NP	first	JJ	O	O
nine	t175	7	nine	O	O	O	tmx58	DURATION	P9M	O	O	CRD	I-NP	nine	CD	O	O
months	t176	7	month	O	O	O	tmx58	DURATION	P9M	O	O	NN2	I-NP	month	NNS	t173:NMOD||t174:NMOD||t175:NMOD	O
,	t177	7	,	O	O	O	O	O	O	O	O	PUN	O	,	,	O	O
net	t178	7	net	O	O	O	O	O	O	O	O	NN1	B-NP	net	NN	O	O
was	t179	7	be	O	O	O	O	O	O	O	O	VBD	B-VP	be	VBD	t172:TMP||t177:P||t178:SBJ||t180:PRD||t183:P||t184:ADV||t196:P	mainVb
$	t180	7	$	O	O	O	O	O	O	O	O	UNC	B-NP	$	$	t181:DEP||t182:DEP	O
306	t181	7	306	O	O	O	O	O	O	O	O	CRD	I-NP	306	CD	O	O
million	t182	7	million	O	O	O	O	O	O	O	O	CRD	I-NP	million	CD	O	O
,	t183	7	,	O	O	O	O	O	O	O	O	PUN	O	,	,	O	O
compared	t184	7	compare	O	O	O	O	O	O	O	O	VVN	B-PP	compare	VBN	t185:PMOD	O
with	t185	7	with	O	O	O	O	O	O	O	O	PRP	B-PP	with	IN	t187:PMOD	O
a	t186	7	a	O	O	O	O	O	O	O	O	AT0	B-NP	a	DT	O	O
loss	t187	7	loss	e23	OCCURRENCE	NONE+NONE+POS	O	O	O	O	O	NN1	I-NP	loss	NN	t186:NMOD||t188:NMOD||t192:TMP	O
of	t188	7	of	O	O	O	O	O	O	O	O	PRF	B-PP	of	IN	t189:PMOD	O
$	t189	7	$	O	O	O	O	O	O	O	O	NN0	B-NP	$	$	t190:DEP||t191:DEP	O
195	t190	7	195	O	O	O	O	O	O	O	O	CRD	I-NP	195	CD	O	O
million	t191	7	million	O	O	O	O	O	O	O	O	CRD	I-NP	million	CD	O	O
in	t192	7	in	O	O	O	O	O	O	O	O	PRP	B-PP	in	IN	t195:PMOD	O
the	t193	7	the	O	O	O	tmx59	DATE	1988	O	O	AT0	B-NP	the	DT	O	O
1988	t194	7	1988	O	O	O	tmx59	DATE	1988	O	O	CRD	I-NP	1988	CD	O	O
period	t195	7	period	O	O	O	tmx59	DATE	1988	O	O	NN1	I-NP	period	NN	t193:NMOD||t194:NMOD	O
.	t196	7	.	O	O	O	O	O	O	O	O	PUN	O	.	.	O	O

The	t197	8	the	O	O	O	O	O	O	O	O	AT0	B-NP	the	DT	O	O
year-ago	t198	8	year-ago	O	O	O	tmx60	DATE	1988	O	O	NN1	I-NP	year-ago	JJ	O	O
results	t199	8	result	e24	OCCURRENCE	NONE+NONE+POS	O	O	O	O	O	NN2	I-NP	result	NNS	t197:NMOD||t198:NMOD	O
included	t200	8	include	O	O	O	O	O	O	O	O	VVD	B-VP	include	VBD	t199:SBJ||t205:OBJ||t218:P	mainVb
a	t201	8	a	O	O	O	O	O	O	O	O	AT0	B-NP	a	DT	O	O
$	t202	8	$	O	O	O	O	O	O	O	O	CRD	I-NP	$	$	t203:DEP||t204:DEP	O
415	t203	8	415	O	O	O	O	O	O	O	O	CRD	I-NP	415	CD	O	O
million	t204	8	million	O	O	O	O	O	O	O	O	CRD	I-NP	million	CD	O	O
charge	t205	8	charge	e61	OCCURRENCE	NONE+NONE+POS	O	O	O	O	O	NN1	I-NP	charge	NN	t201:NMOD||t202:NMOD||t206:TMP||t211:NMOD	O
in	t206	8	in	O	O	O	O	O	O	O	O	PRP	B-PP	in	IN	t210:PMOD	O
the	t207	8	the	O	O	O	tmx62	DATE	1988-Q2	O	O	AT0	B-NP	the	DT	O	O
1988	t208	8	1988	O	O	O	tmx62	DATE	1988-Q2	O	O	CRD	I-NP	1988	CD	O	O
second	t209	8	second	O	O	O	tmx62	DATE	1988-Q2	O	O	ORD	I-NP	second	JJ	O	O
quarter	t210	8	quarter	O	O	O	tmx62	DATE	1988-Q2	O	O	NN1	I-NP	quarter	NN	t207:NMOD||t208:NMOD||t209:NMOD	O
for	t211	8	for	O	O	O	O	O	O	O	O	PRP	B-PP	for	IN	t212:PMOD	O
underperforming	t212	8	underperform	O	O	O	O	O	O	O	O	VVG	B-VP	underperform	VBG	t217:OBJ	O
real	t213	8	real	O	O	O	O	O	O	O	O	AJ0	B-NP	real	JJ	O	O
estate	t214	8	estate	O	O	O	O	O	O	O	O	NN1	I-NP	estate	NN	t213:NMOD||t215:COORD	O
and	t215	8	and	O	O	O	O	O	O	O	O	CJC	I-NP	and	CC	t216:CONJ	O
mortgage	t216	8	mortgage	O	O	O	O	O	O	O	O	NN1	I-NP	mortgage	NN	O	O
loans	t217	8	loan	O	O	O	O	O	O	O	O	NN2	I-NP	loan	NNS	t214:NMOD	O
.	t218	8	.	O	O	O	O	O	O	O	O	PUN	O	.	.	O	O
