DCT_1989-10-26	O	O	O	O	O	O	tmx0	DATE	1989-10-26	O	O	NN1	B-NP	dct_1989-10-26	LS	O	O

MGM	t1	1	MGM	O	O	O+O+O	O	O	O	O	O	NP0	B-NP	mgm	NNP	O	O
Grand	t2	1	Grand	O	O	O+O+O	O	O	O	O	O	AJ0	I-NP	grand	NNP	t1:NAME||t3:POSTHON	O
Inc.	t3	1	Inc.	O	O	O+O+O	O	O	O	O	O	NN1	I-NP	inc.	NNP	O	O
has	t4	1	have	O	O	O+O+O	O	O	O	O	O	VHZ	I-NP	have	VBZ	t2:SBJ||t5:VC||t41:P	mainVb
agreed	t5	1	agree	e1	I_STATE	PRESENT+PERFECTIVE+POS	O	O	O	O	O	VVN	B-ADJP	agree	VBN	t6:OPRD	O
to	t6	1	to	O	O	O	O	O	O	O	O	TO0	B-VP	to	TO	t7:IM	O
pay	t7	1	pay	e3	OCCURRENCE	INFINITIVE+NONE+POS	O	O	O	O	O	VVI	I-VP	pay	VB	t8:OBJ||t17:PRP	O
$	t8	1	$	O	O	O	O	O	O	O	O	NN0	B-NP	$	$	t9:DEP||t10:DEP||t11:COORD	O
93	t9	1	93	O	O	O	O	O	O	O	O	CRD	I-NP	93	CD	O	O
million	t10	1	million	O	O	O	O	O	O	O	O	CRD	I-NP	million	CD	O	O
and	t11	1	and	O	O	O	O	O	O	O	O	CJC	O	and	CC	t16:CONJ	O
nearly	t12	1	nearly	O	O	O	O	O	O	O	O	AV0	B-NP	nearly	CD	O	O
1.8	t13	1	1.8	O	O	O	O	O	O	O	O	CRD	I-NP	1.8	CD	O	O
million	t14	1	million	O	O	O	O	O	O	O	O	CRD	I-NP	million	CD	t12:DEP||t13:DEP	O
common	t15	1	common	O	O	O	O	O	O	O	O	AJ0	I-NP	common	JJ	O	O
shares	t16	1	share	O	O	O	O	O	O	O	O	NN2	I-NP	share	NNS	t14:NMOD||t15:NMOD	O
to	t17	1	to	O	O	O	O	O	O	O	O	TO0	B-VP	to	TO	t18:IM	O
buy	t18	1	buy	e5	OCCURRENCE	INFINITIVE+NONE+POS	O	O	O	O	O	VVI	I-VP	buy	VB	t20:OBJ||t31:PRP	O
117	t19	1	117	O	O	O	O	O	O	O	O	CRD	B-NP	117	CD	O	O
acres	t20	1	acre	O	O	O	O	O	O	O	O	NN2	I-NP	acres	NNS	t19:NMOD||t21:NMOD	O
of	t21	1	of	O	O	O	O	O	O	O	O	PRF	B-PP	of	IN	t22:PMOD	O
land	t22	1	land	O	O	O	O	O	O	O	O	NN1	B-NP	land	NN	t23:LOC	O
along	t23	1	along	O	O	O	O	O	O	O	O	PRP	B-PP	along	IN	t30:PMOD	O
the	t24	1	the	O	O	O	O	O	O	O	O	AT0	B-NP	the	DT	O	O
Las	t25	1	Las	O	O	O	O	O	O	O	O	NP0	I-NP	la	NNP	O	O
Vegas	t26	1	Vegas	O	O	O	O	O	O	O	O	NP0	I-NP	vega	NNP	t25:NAME	O
,	t27	1	,	O	O	O	O	O	O	O	O	PUN	O	,	,	O	O
Nev.	t28	1	Nev.	O	O	O	O	O	O	O	O	NP0	B-NP	nev.	NNP	t26:NMOD||t27:P||t29:P	O
,	t29	1	,	O	O	O	O	O	O	O	O	PUN	O	,	,	O	O
Strip	t30	1	Strip	O	O	O	O	O	O	O	O	NP0	B-NP	strip	NNP	t24:NMOD||t28:LOC	O
as	t31	1	as	O	O	O	O	O	O	O	O	PRP	B-PP	as	IN	t33:PMOD	O
a	t32	1	a	O	O	O	O	O	O	O	O	AT0	B-NP	a	DT	O	O
site	t33	1	site	O	O	O	O	O	O	O	O	NN1	I-NP	site	NN	t32:NMOD||t34:NMOD	O
for	t34	1	for	O	O	O	O	O	O	O	O	PRP	B-PP	for	IN	t40:PMOD	O
its	t35	1	its	O	O	O	O	O	O	O	O	DPS	B-NP	its	PRP$	O	O
planned	t36	1	planned	O	O	O	O	O	O	O	O	AJ0	I-NP	plan	VBN	O	O
movie-studio	t37	1	movie-studio	O	O	O	O	O	O	O	O	NN1	I-NP	movie-studio	NN	t38:COORD	O
and	t38	1	and	O	O	O	O	O	O	O	O	CJC	I-NP	and	CC	t39:CONJ	O
theme-park	t39	1	theme-park	O	O	O	O	O	O	O	O	NN1	I-NP	theme-park	NN	O	O
resort	t40	1	resort	O	O	O	O	O	O	O	O	NN1	I-NP	resort	NN	t35:NMOD||t36:NMOD||t37:NMOD	O
.	t41	1	.	O	O	O	O	O	O	O	O	PUN	O	.	.	O	O

Of	t42	2	of	O	O	O	O	O	O	O	O	PRF	B-PP	of	IN	t46:PMOD||t84:P	mainVb
the	t43	2	the	O	O	O	O	O	O	O	O	AT0	B-NP	the	DT	O	O
total	t44	2	total	O	O	O	O	O	O	O	O	AJ0	I-NP	total	JJ	O	O
purchase	t45	2	purchase	O	O	O	O	O	O	O	O	NN1	I-NP	purchase	NN	O	O
price	t46	2	price	O	O	O	O	O	O	O	O	NN1	I-NP	price	NN	t43:NMOD||t44:NMOD||t45:NMOD||t47:P||t51:COORD	O
,	t47	2	,	O	O	O	O	O	O	O	O	PUN	O	,	,	O	O
$	t48	2	$	O	O	O	O	O	O	O	O	NN1	B-NP	$	$	t49:DEP||t50:DEP	O
50	t49	2	50	O	O	O	O	O	O	O	O	CRD	I-NP	50	CD	O	O
million	t50	2	million	O	O	O	O	O	O	O	O	CRD	I-NP	million	CD	O	O
cash	t51	2	cash	O	O	O	O	O	O	O	O	NN1	I-NP	cash	NN	t48:NMOD||t52:COORD	O
and	t52	2	and	O	O	O	O	O	O	O	O	CJC	O	and	CC	t53:CONJ	O
$	t53	2	$	O	O	O	O	O	O	O	O	CRD	B-NP	$	$	t54:DEP||t55:DEP||t56:NMOD||t64:NMOD	O
30	t54	2	30	O	O	O	O	O	O	O	O	CRD	I-NP	30	CD	O	O
million	t55	2	million	O	O	O	O	O	O	O	O	CRD	I-NP	million	CD	O	O
in	t56	2	in	O	O	O	O	O	O	O	O	PRP	B-PP	in	IN	t58:PMOD	O
stock	t57	2	stock	O	O	O	O	O	O	O	O	NN1	B-NP	stock	NN	O	O
-LRB-	t58	2	-lrb-	O	O	O	O	O	O	O	O	NN1	I-NP	-lrb-	NN	t57:NMOD||t62:APPO	O
nearly	t59	2	nearly	O	O	O	O	O	O	O	O	AV0	B-NP	nearly	CD	O	O
1.8	t60	2	1.8	O	O	O	O	O	O	O	O	CRD	I-NP	1.8	CD	O	O
million	t61	2	million	O	O	O	O	O	O	O	O	CRD	I-NP	million	CD	t59:DEP||t60:DEP	O
shares	t62	2	share	O	O	O	O	O	O	O	O	NN2	I-NP	share	NNS	t61:NMOD	O
-RRB-	t63	2	-rrb-	O	O	O	O	O	O	O	O	NN1	I-NP	-rrb-	WDT	O	O
would	t64	2	would	O	O	O	O	O	O	O	O	VM0	B-VP	would	MD	t63:SBJ||t65:VC	O
be	t65	2	be	O	O	O	O	O	O	O	O	VBI	I-VP	be	VB	t66:VC	O
paid	t66	2	pay	e8	OCCURRENCE	NONE+NONE+POS	O	O	O	O	O	VVN	I-VP	pay	VBN	t67:OPRD	O
to	t67	2	to	O	O	O	O	O	O	O	O	TO0	I-VP	to	TO	t68:IM	O
buy	t68	2	buy	e11	OCCURRENCE	INFINITIVE+NONE+POS	O	O	O	O	O	VVI	I-VP	buy	VB	t74:OBJ||t76:ADV	O
the	t69	2	the	O	O	O	O	O	O	O	O	AT0	B-NP	the	DT	O	O
existing	t70	2	exist	O	O	O	O	O	O	O	O	AJ0	I-NP	exist	VBG	O	O
700-room	t71	2	700-room	O	O	O	O	O	O	O	O	NN1	I-NP	700-room	CD	O	O
Marina	t72	2	Marina	O	O	O	O	O	O	O	O	NP0	I-NP	marina	NNP	O	O
Hotel	t73	2	Hotel	O	O	O	O	O	O	O	O	NN1	I-NP	hotel	NNP	t72:NAME	O
amp	t74	2	amp	O	O	O	O	O	O	O	O	NN1	I-NP	amp	NN	t69:NMOD||t70:NMOD||t71:NMOD||t73:NMOD||t75:APPO	O
Casino	t75	2	Casino	O	O	O	O	O	O	O	O	NP0	I-NP	casino	NNP	O	O
from	t76	2	from	O	O	O	O	O	O	O	O	PRP	B-PP	from	IN	t78:PMOD	O
Southwest	t77	2	Southwest	O	O	O	O	O	O	O	O	NN1	B-NP	southwest	NNP	O	O
Securities	t78	2	Securities	O	O	O	O	O	O	O	O	NN2	I-NP	security	NNPS	t77:NAME||t79:P||t83:APPO	O
,	t79	2	,	O	O	O	O	O	O	O	O	PUN	O	,	,	O	O
a	t80	2	a	O	O	O	O	O	O	O	O	AT0	B-NP	a	DT	O	O
Nevada	t81	2	Nevada	O	O	O	O	O	O	O	O	NP0	I-NP	nevada	NNP	O	O
limited	t82	2	limited	O	O	O	O	O	O	O	O	AJ0	I-NP	limit	VBN	O	O
partnership	t83	2	partnership	O	O	O	O	O	O	O	O	NN1	I-NP	partnership	NN	t80:NMOD||t81:NMOD||t82:NMOD	O
.	t84	2	.	O	O	O	O	O	O	O	O	PUN	O	.	.	O	O

The	t85	3	the	O	O	O	O	O	O	O	O	AT0	B-NP	the	DT	O	O
remaining	t86	3	remain	O	O	O	O	O	O	O	O	AJ0	I-NP	remain	VBG	O	O
properties	t87	3	property	O	O	O	O	O	O	O	O	NN2	I-NP	property	NNS	t85:NMOD||t86:NMOD||t88:NMOD	O
to	t88	3	to	O	O	O	O	O	O	O	O	TO0	B-VP	to	TO	t89:IM	O
be	t89	3	be	O	O	O	O	O	O	O	O	VBI	I-VP	be	VB	t90:VC	O
acquired	t90	3	acquire	e13	OCCURRENCE	INFINITIVE+NONE+POS	O	O	O	O	O	VVN	I-VP	acquire	VBN	O	O
are	t91	3	be	O	O	O	O	O	O	O	O	VBB	B-VP	be	VBP	t87:SBJ||t98:PRD||t130:P	mainVb
the	t92	3	the	O	O	O	O	O	O	O	O	AT0	B-NP	the	DT	O	O
Tropicana	t93	3	Tropicana	O	O	O	O	O	O	O	O	NN1	I-NP	tropicana	NNP	O	O
Country	t94	3	Country	O	O	O	O	O	O	O	O	NN1	I-NP	country	NNP	O	O
Club	t95	3	Club	O	O	O	O	O	O	O	O	NN1	I-NP	club	NNP	t94:NAME	O
amp	t96	3	amp	O	O	O	O	O	O	O	O	NN1	I-NP	amp	NNP	O	O
Golf	t97	3	Golf	O	O	O	O	O	O	O	O	NP0	I-NP	golf	NNP	O	O
Course	t98	3	Course	O	O	O	O	O	O	O	O	NN1	I-NP	course	NNP	t92:NMOD||t93:NAME||t95:NAME||t96:NAME||t97:NAME||t99:P||t101:APPO||t117:P||t118:COORD	O
,	t99	3	,	O	O	O	O	O	O	O	O	PUN	O	,	,	O	O
a	t100	3	a	O	O	O	O	O	O	O	O	AT0	B-NP	a	DT	O	O
facility	t101	3	facility	O	O	O	O	O	O	O	O	NN1	I-NP	facility	NN	t100:NMOD||t103:APPO	O
jointly	t102	3	jointly	O	O	O	O	O	O	O	O	AV0	B-VP	jointly	RB	O	O
owned	t103	3	own	O	O	O	O	O	O	O	O	VVN	I-VP	own	VBN	t102:MNR||t104:LGS	O
by	t104	3	by	O	O	O	O	O	O	O	O	PRP	B-PP	by	IN	t105:PMOD	O
Ramada	t105	3	Ramada	O	O	O	O	O	O	O	O	NP0	B-NP	ramada	NNP	t106:POSTHON||t107:P||t108:NMOD||t112:P||t113:COORD	O
Inc.	t106	3	Inc.	O	O	O	O	O	O	O	O	NP0	I-NP	inc.	NNP	O	O
,	t107	3	,	O	O	O	O	O	O	O	O	PUN	O	,	,	O	O
of	t108	3	of	O	O	O	O	O	O	O	O	PRF	B-PP	of	IN	t111:PMOD	O
Phoenix	t109	3	Phoenix	O	O	O	O	O	O	O	O	NP0	B-NP	phoenix	NNP	O	O
,	t110	3	,	O	O	O	O	O	O	O	O	PUN	O	,	,	O	O
Ariz.	t111	3	Ariz.	O	O	O	O	O	O	O	O	NP0	B-NP	ariz.	NNP	t109:NMOD||t110:P	O
,	t112	3	,	O	O	O	O	O	O	O	O	PUN	O	,	,	O	O
and	t113	3	and	O	O	O	O	O	O	O	O	CJC	O	and	CC	t116:CONJ	O
the	t114	3	the	O	O	O	O	O	O	O	O	AT0	B-NP	the	DT	O	O
Jaffe	t115	3	Jaffe	O	O	O	O	O	O	O	O	NP0	I-NP	jaffe	NNP	O	O
family	t116	3	family	O	O	O	O	O	O	O	O	NN1	I-NP	family	NN	t114:NMOD||t115:NMOD	O
,	t117	3	,	O	O	O	O	O	O	O	O	PUN	O	,	,	O	O
and	t118	3	and	O	O	O	O	O	O	O	O	CJC	O	and	CC	t121:CONJ	O
a	t119	3	a	O	O	O	O	O	O	O	O	AT0	B-NP	a	DT	O	O
small	t120	3	small	O	O	O	O	O	O	O	O	AJ0	I-NP	small	JJ	O	O
parcel	t121	3	parcel	O	O	O	O	O	O	O	O	NN1	I-NP	parcel	NN	t119:NMOD||t120:NMOD||t122:APPO	O
owned	t122	3	own	O	O	O	O	O	O	O	O	VVN	B-VP	own	VBN	t123:LGS	O
by	t123	3	by	O	O	O	O	O	O	O	O	PRP	B-PP	by	IN	t129:PMOD	O
MGM	t124	3	MGM	O	O	O	O	O	O	O	O	NP0	B-NP	mgm	NNP	O	O
Grand	t125	3	Grand	O	O	O	O	O	O	O	O	AJ0	I-NP	grand	NNP	O	O
director	t126	3	director	O	O	O	O	O	O	O	O	NN1	I-NP	director	NN	O	O
James	t127	3	James	O	O	O	O	O	O	O	O	NP0	I-NP	james	NNP	O	O
D.	t128	3	D.	O	O	O	O	O	O	O	O	NP0	I-NP	d.	NNP	O	O
Aljian	t129	3	Aljian	O	O	O	O	O	O	O	O	NP0	I-NP	aljian	NNP	t124:NAME||t125:NAME||t126:NAME||t127:NAME||t128:NAME	O
.	t130	3	.	O	O	O	O	O	O	O	O	PUN	O	.	.	O	O

The	t131	4	the	O	O	O	O	O	O	O	O	AT0	B-NP	the	DT	O	O
purchase	t132	4	purchase	O	O	O	O	O	O	O	O	NN1	I-NP	purchase	NN	O	O
price	t133	4	price	O	O	O	O	O	O	O	O	NN1	I-NP	price	NN	t131:NMOD||t132:NMOD	O
was	t134	4	be	O	O	O	O	O	O	O	O	VBD	B-VP	be	VBD	t133:SBJ||t135:VC||t154:P	mainVb
disclosed	t135	4	disclose	e17	OCCURRENCE	PAST+NONE+POS	O	O	O	O	O	VVN	I-VP	disclose	VBN	t136:LOC	mainVb
in	t136	4	in	O	O	O	O	O	O	O	O	PRP	B-PP	in	IN	t139:PMOD	O
a	t137	4	a	O	O	O	O	O	O	O	O	AT0	B-NP	a	DT	O	O
preliminary	t138	4	preliminary	O	O	O	O	O	O	O	O	AJ0	I-NP	preliminary	JJ	O	O
prospectus	t139	4	prospectus	O	O	O	O	O	O	O	O	NN1	I-NP	prospectus	NN	t137:NMOD||t138:NMOD||t140:APPO	O
issued	t140	4	issue	e18	OCCURRENCE	PASTPART+NONE+POS	O	O	O	O	O	VVD	B-VP	issue	VBN	t141:MNR	O
in	t141	4	in	O	O	O	O	O	O	O	O	PRP	B-PP	in	IN	t142:PMOD	O
connection	t142	4	connection	O	O	O	O	O	O	O	O	PRP	B-NP	connection	NN	t143:NMOD	O
with	t143	4	with	O	O	O	O	O	O	O	O	PRP	B-PP	with	IN	t148:PMOD	O
MGM	t144	4	MGM	O	O	O	O	O	O	O	O	NP0	B-NP	mgm	NNP	O	O
Grand	t145	4	Grand	O	O	O	O	O	O	O	O	NP0	I-NP	grand	NNP	t144:NAME||t146:SUFFIX	O
's	t146	4	's	O	O	O	O	O	O	O	O	POS	B-NP	's	POS	O	O
planned	t147	4	planned	O	O	O	O	O	O	O	O	AJ0	I-NP	plan	VBN	O	O
offering	t148	4	offering	O	O	O	O	O	O	O	O	NN1	I-NP	offering	NN	t145:NMOD||t147:NMOD||t149:NMOD	O
of	t149	4	of	O	O	O	O	O	O	O	O	PRF	B-PP	of	IN	t153:PMOD	O
six	t150	4	six	O	O	O	O	O	O	O	O	CRD	B-NP	six	CD	O	O
million	t151	4	million	O	O	O	O	O	O	O	O	CRD	I-NP	million	CD	t150:DEP	O
common	t152	4	common	O	O	O	O	O	O	O	O	AJ0	I-NP	common	JJ	O	O
shares	t153	4	share	O	O	O	O	O	O	O	O	NN2	I-NP	share	NNS	t151:NMOD||t152:NMOD	O
.	t154	4	.	O	O	O	O	O	O	O	O	PUN	O	.	.	O	O

The	t155	5	the	O	O	O	O	O	O	O	O	AT0	B-NP	the	DT	O	O
luxury	t156	5	luxury	O	O	O	O	O	O	O	O	AJ0	I-NP	luxury	NN	O	O
airline	t157	5	airline	O	O	O	O	O	O	O	O	NN1	I-NP	airline	NN	t156:NMOD||t158:COORD	O
and	t158	5	and	O	O	O	O	O	O	O	O	CJC	I-NP	and	CC	t159:CONJ	O
casino	t159	5	casino	O	O	O	O	O	O	O	O	NN1	I-NP	casino	NN	O	O
company	t160	5	company	O	O	O	O	O	O	O	O	NN1	I-NP	company	NN	t155:NMOD||t157:NMOD||t161:P||t165:APPO||t174:P	O
,	t161	5	,	O	O	O	O	O	O	O	O	PUN	O	,	,	O	O
98.6	t162	5	98.6	O	O	O	O	O	O	O	O	CRD	B-NP	98.6	CD	O	O
%	t163	5	%	O	O	O	O	O	O	O	O	UNC	I-NP	%	NN	t162:NMOD||t164:HYPH	O
-	t164	5	-	O	O	O	O	O	O	O	O	PUN	O	-	HYPH	O	O
owned	t165	5	own	O	O	O	O	O	O	O	O	VVN	B-VP	own	VBN	t163:HMOD||t166:AMOD	O
by	t166	5	by	O	O	O	O	O	O	O	O	PRP	B-PP	by	IN	t167:PMOD	O
investor	t167	5	investor	O	O	O	O	O	O	O	O	NN1	B-NP	investor	NN	t169:APPO||t170:COORD	O
Kirk	t168	5	Kirk	O	O	O	O	O	O	O	O	NP0	I-NP	kirk	NNP	O	O
Kerkorian	t169	5	Kerkorian	O	O	O	O	O	O	O	O	NP0	I-NP	kerkorian	NNP	t168:NAME	O
and	t170	5	and	O	O	O	O	O	O	O	O	CJC	O	and	CC	t172:CONJ	O
his	t171	5	he	O	O	O	O	O	O	O	O	DPS	B-NP	his	PRP$	O	O
Tracinda	t172	5	Tracinda	O	O	O	O	O	O	O	O	NP0	I-NP	tracinda	NNP	t171:NMOD||t173:POSTHON	O
Corp.	t173	5	Corp.	O	O	O	O	O	O	O	O	NP0	B-NP	corp.	NNP	O	O
,	t174	5	,	O	O	O	O	O	O	O	O	PUN	O	,	,	O	O
earlier	t175	5	earlier	O	O	O	O	O	O	O	O	AV0	B-NP	earlier	RBR	O	O
this	t176	5	this	O	O	O	tmx95	DATE	1989-10	O	O	DT0	I-NP	this	DT	O	O
month	t177	5	month	O	O	O	tmx95	DATE	1989-10	O	O	NN1	I-NP	month	NN	t175:NMOD||t176:NMOD	O
announced	t178	5	announce	e22	I_ACTION	PAST+NONE+POS	O	O	O	O	O	VVD	B-VP	announce	VBD	t160:SBJ||t177:TMP||t180:OBJ||t185:P||t186:COORD||t193:P	mainVb
its	t179	5	its	O	O	O	O	O	O	O	O	DPS	B-NP	its	PRP$	O	O
agreements	t180	5	agreement	e23	I_STATE	NONE+NONE+POS	O	O	O	O	O	NN2	I-NP	agreement	NNS	t179:NMOD||t181:NMOD	O
to	t181	5	to	O	O	O	O	O	O	O	O	TO0	B-VP	to	TO	t182:IM	O
acquire	t182	5	acquire	e25	OCCURRENCE	INFINITIVE+NONE+POS	O	O	O	O	O	VVI	I-VP	acquire	VB	t184:OBJ	O
the	t183	5	the	O	O	O	O	O	O	O	O	AT0	B-NP	the	DT	O	O
properties	t184	5	property	O	O	O	O	O	O	O	O	NN2	I-NP	property	NNS	t183:NMOD	O
,	t185	5	,	O	O	O	O	O	O	O	O	PUN	O	,	,	O	O
but	t186	5	but	O	O	O	O	O	O	O	O	CJC	O	but	CC	t187:CONJ	O
did	t187	5	do	O	O	O	O	O	O	O	O	VDD	B-VP	do	VBD	t188:ADV||t189:VC	O
n't	t188	5	not	O	O	O	O	O	O	O	O	XX0	I-VP	not	RB	O	O
disclose	t189	5	disclose	e26	OCCURRENCE	PAST+NONE+NEG	O	O	O	O	O	VVI	I-VP	disclose	VB	t192:OBJ	O
the	t190	5	the	O	O	O	O	O	O	O	O	AT0	B-NP	the	DT	O	O
purchase	t191	5	purchase	O	O	O	O	O	O	O	O	NN1	I-NP	purchase	NN	O	O
price	t192	5	price	O	O	O	O	O	O	O	O	NN1	I-NP	price	NN	t190:NMOD||t191:NMOD	O
.	t193	5	.	O	O	O	O	O	O	O	O	PUN	O	.	.	O	O

The	t194	6	the	O	O	O	O	O	O	O	O	AT0	B-NP	the	DT	O	O
proposed	t195	6	propose	O	O	O	O	O	O	O	O	AJ0	I-NP	propose	VBN	O	O
stock	t196	6	stock	O	O	O	O	O	O	O	O	NN1	I-NP	stock	NN	t194:NMOD||t195:NMOD||t197:NMOD||t198:COORD||t206:NMOD	O
offering	t197	6	offering	e28	I_ACTION	NONE+NONE+POS	O	O	O	O	O	VVG	I-NP	offering	NN	O	O
and	t198	6	and	O	O	O	O	O	O	O	O	CJC	I-NP	and	CC	t199:CONJ	O
issuance	t199	6	issuance	e29	OCCURRENCE	NONE+NONE+POS	O	O	O	O	O	NN1	I-NP	issuance	NN	t200:NMOD	O
of	t200	6	of	O	O	O	O	O	O	O	O	PRF	B-PP	of	IN	t205:PMOD	O
nearly	t201	6	nearly	O	O	O	O	O	O	O	O	AV0	B-NP	nearly	CD	O	O
1.8	t202	6	1.8	O	O	O	O	O	O	O	O	CRD	I-NP	1.8	CD	O	O
million	t203	6	million	O	O	O	O	O	O	O	O	CRD	I-NP	million	CD	t201:DEP||t202:DEP	O
common	t204	6	common	O	O	O	O	O	O	O	O	AJ0	I-NP	common	JJ	O	O
shares	t205	6	share	O	O	O	O	O	O	O	O	NN2	I-NP	share	NNS	t203:NMOD||t204:NMOD	O
in	t206	6	in	O	O	O	O	O	O	O	O	PRP	B-PP	in	IN	t207:PMOD	O
connection	t207	6	connection	O	O	O	O	O	O	O	O	PRP	B-NP	connection	NN	t208:NMOD	O
with	t208	6	with	O	O	O	O	O	O	O	O	PRP	B-PP	with	IN	t211:PMOD	O
the	t209	6	the	O	O	O	O	O	O	O	O	AT0	B-NP	the	DT	O	O
land	t210	6	land	O	O	O	O	O	O	O	O	NN1	I-NP	land	NN	O	O
purchase	t211	6	purchase	O	O	O	O	O	O	O	O	NN1	I-NP	purchase	NN	t209:NMOD||t210:NMOD	O
will	t212	6	will	O	O	O	O	O	O	O	O	VM0	B-VP	will	MD	t196:SBJ||t213:VC||t241:P	mainVb
bring	t213	6	bring	e32	OCCURRENCE	FUTURE+NONE+POS	O	O	O	O	O	VVI	I-VP	bring	VB	t218:OBJ||t220:ADV||t237:ADV	mainVb
MGM	t214	6	MGM	O	O	O	O	O	O	O	O	NP0	B-NP	mgm	NNP	O	O
Grand	t215	6	Grand	O	O	O	O	O	O	O	O	NP0	I-NP	grand	NNP	t214:NAME||t216:SUFFIX	O
's	t216	6	's	O	O	O	O	O	O	O	O	POS	B-NP	's	POS	O	O
total	t217	6	total	O	O	O	O	O	O	O	O	AJ0	I-NP	total	JJ	O	O
shares	t218	6	share	O	O	O	O	O	O	O	O	NN2	I-NP	share	NNS	t215:NMOD||t217:NMOD||t219:APPO	O
outstanding	t219	6	outstanding	O	O	O	O	O	O	O	O	VVG	B-VP	outstanding	JJ	O	O
to	t220	6	to	O	O	O	O	O	O	O	O	PRP	B-PP	to	TO	t222:PMOD	O
28.7	t221	6	28.7	O	O	O	O	O	O	O	O	CRD	B-NP	28.7	CD	O	O
million	t222	6	million	O	O	O	O	O	O	O	O	CRD	I-NP	million	CD	t221:NMOD||t223:P||t228:NMOD||t236:P	O
,	t223	6	,	O	O	O	O	O	O	O	O	PUN	O	,	,	O	O
of	t224	6	of	O	O	O	O	O	O	O	O	PRF	B-PP	of	IN	t225:PMOD	O
which	t225	6	which	O	O	O	O	O	O	O	O	DTQ	B-NP	which	WDT	O	O
72	t226	6	72	O	O	O	O	O	O	O	O	CRD	B-NP	72	CD	O	O
%	t227	6	%	O	O	O	O	O	O	O	O	UNC	I-NP	%	NN	t224:NMOD||t226:NMOD	O
will	t228	6	will	O	O	O	O	O	O	O	O	VM0	B-VP	will	MD	t227:SBJ||t229:VC	O
be	t229	6	be	O	O	O	O	O	O	O	O	VBI	I-VP	be	VB	t230:VC	O
owned	t230	6	own	e33	STATE	FUTURE+NONE+POS	O	O	O	O	O	VVN	I-VP	own	VBN	t231:LGS	O
by	t231	6	by	O	O	O	O	O	O	O	O	PRP	B-PP	by	IN	t233:PMOD	O
Mr.	t232	6	Mr.	O	O	O	O	O	O	O	O	NP0	B-NP	mr.	NNP	O	O
Kerkorian	t233	6	Kerkorian	O	O	O	O	O	O	O	O	NP0	I-NP	kerkorian	NNP	t232:TITLE||t234:COORD	O
and	t234	6	and	O	O	O	O	O	O	O	O	CJC	I-NP	and	CC	t235:CONJ	O
Tracinda	t235	6	Tracinda	O	O	O	O	O	O	O	O	NP0	I-NP	tracinda	NNP	O	O
,	t236	6	,	O	O	O	O	O	O	O	O	PUN	O	,	,	O	O
according	t237	6	accord	e100	REPORTING	PRESPART+NONE+POS	O	O	O	O	O	PRP	B-PP	accord	VBG	t238:PMOD	O
to	t238	6	to	O	O	O	O	O	O	O	O	PRP	B-PP	to	TO	t240:PMOD	O
the	t239	6	the	O	O	O	O	O	O	O	O	AT0	B-NP	the	DT	O	O
prospectus	t240	6	prospectus	O	O	O	O	O	O	O	O	NN1	I-NP	prospectus	NN	t239:NMOD	O
.	t241	6	.	O	O	O	O	O	O	O	O	PUN	O	.	.	O	O

In	t242	7	in	O	O	O	O	O	O	O	O	PRP	B-PP	in	IN	t244:PMOD	O
over-the-counter	t243	7	over-the-counter	O	O	O	O	O	O	O	O	NN1	B-NP	over-the-counter	NN	O	O
trading	t244	7	trading	e34	OCCURRENCE	NONE+NONE+POS	O	O	O	O	O	NN1	I-NP	trading	NN	t243:NMOD	O
,	t245	7	,	O	O	O	O	O	O	O	O	PUN	O	,	,	O	O
MGM	t246	7	MGM	O	O	O	O	O	O	O	O	NP0	B-NP	mgm	NNP	O	O
Grand	t247	7	Grand	O	O	O	O	O	O	O	O	NP0	I-NP	grand	NNP	t246:NAME	O
was	t248	7	be	O	O	O	O	O	O	O	O	VBD	B-VP	be	VBD	t242:LOC||t245:P||t247:SBJ||t249:VC||t255:P	mainVb
bid	t249	7	bid	e35	OCCURRENCE	PAST+NONE+POS	O	O	O	O	O	AJ0	B-ADJP	bid	VBN	t250:ADV	O
at	t250	7	at	O	O	O	O	O	O	O	O	PRP	B-PP	at	IN	t251:PMOD	O
$	t251	7	$	O	O	O	O	O	O	O	O	NN1	B-NP	$	$	t252:NMOD||t254:ADV	O
17.50	t252	7	17.50	O	O	O	O	O	O	O	O	CRD	I-NP	17.50	CD	O	O
a	t253	7	a	O	O	O	O	O	O	O	O	AT0	B-NP	a	DT	O	O
share	t254	7	share	O	O	O	O	O	O	O	O	NN1	I-NP	share	NN	t253:NMOD	O
.	t255	7	.	O	O	O	O	O	O	O	O	PUN	O	.	.	O	O

Proceeds	t256	8	proceeds	O	O	O	O	O	O	O	O	NN2	B-NP	proceeds	NNS	t257:NMOD	O
from	t257	8	from	O	O	O	O	O	O	O	O	PRP	B-PP	from	IN	t259:PMOD	O
the	t258	8	the	O	O	O	O	O	O	O	O	AT0	B-NP	the	DT	O	O
offering	t259	8	offering	O	O	O	O	O	O	O	O	AJ0	I-NP	offering	NN	t258:NMOD	O
are	t260	8	be	O	O	O	O	O	O	O	O	VBB	B-VP	be	VBP	t256:SBJ||t261:VC||t296:P	mainVb
expected	t261	8	expect	e38	I_STATE	PRESENT+PERFECTIVE+POS	O	O	O	O	O	VVN	I-VP	expect	VBN	t262:OPRD	mainVb
to	t262	8	to	O	O	O	O	O	O	O	O	TO0	I-VP	to	TO	t263:IM	mainVb
be	t263	8	be	O	O	O	O	O	O	O	O	VBI	I-VP	be	VB	t264:VC	mainVb
used	t264	8	use	e40	OCCURRENCE	PASTPART+NONE+POS	O	O	O	O	O	VVN	I-VP	use	VBN	t265:OBJ	mainVb
for	t265	8	for	O	O	O	O	O	O	O	O	PRP	B-PP	for	IN	t266:PMOD||t286:P||t287:COORD	O
remodeling	t266	8	remodel	e41	OCCURRENCE	NONE+NONE+POS	O	O	O	O	O	VVG	B-VP	remodel	VBG	t272:OBJ||t276:P||t277:COORD	O
the	t267	8	the	O	O	O	O	O	O	O	O	AT0	B-NP	the	DT	O	O
company	t268	8	company	O	O	O	O	O	O	O	O	NN1	I-NP	company	NN	t267:NMOD||t269:SUFFIX	O
's	t269	8	's	O	O	O	O	O	O	O	O	POS	B-NP	's	POS	O	O
Desert	t270	8	Desert	O	O	O	O	O	O	O	O	NN1	I-NP	desert	NNP	O	O
Inn	t271	8	Inn	O	O	O	O	O	O	O	O	NN1	I-NP	inn	NNP	t270:NAME	O
resort	t272	8	resort	O	O	O	O	O	O	O	O	NN1	I-NP	resort	NN	t268:NMOD||t271:NMOD||t273:LOC	O
in	t273	8	in	O	O	O	O	O	O	O	O	PRP	B-PP	in	IN	t275:PMOD	O
Las	t274	8	Las	O	O	O	O	O	O	O	O	NP0	B-NP	la	NNP	O	O
Vegas	t275	8	Vegas	O	O	O	O	O	O	O	O	NP0	I-NP	vega	NNP	t274:NAME	O
,	t276	8	,	O	O	O	O	O	O	O	O	PUN	O	,	,	O	O
refurbishing	t277	8	refurbish	e101	OCCURRENCE	NONE+NONE+POS	O	O	O	O	O	VVG	B-VP	refurbish	VBG	t279:OBJ	O
certain	t278	8	certain	O	O	O	O	O	O	O	O	AJ0	B-NP	certain	JJ	O	O
aircraft	t279	8	aircraft	O	O	O	O	O	O	O	O	NN0	I-NP	aircraft	NN	t278:NMOD||t280:NMOD	O
of	t280	8	of	O	O	O	O	O	O	O	O	PRF	B-PP	of	IN	t285:PMOD	O
the	t281	8	the	O	O	O	O	O	O	O	O	AT0	B-NP	the	DT	O	O
MGM	t282	8	MGM	O	O	O	O	O	O	O	O	NP0	I-NP	mgm	NNP	O	O
Grand	t283	8	Grand	O	O	O	O	O	O	O	O	AJ0	I-NP	grand	NNP	t282:NAME	O
Air	t284	8	Air	O	O	O	O	O	O	O	O	NN1	I-NP	air	NNP	t283:NAME	O
unit	t285	8	unit	O	O	O	O	O	O	O	O	NN1	I-NP	unit	NN	t281:NMOD||t284:NMOD	O
,	t286	8	,	O	O	O	O	O	O	O	O	PUN	O	,	,	O	O
and	t287	8	and	O	O	O	O	O	O	O	O	CJC	O	and	CC	t288:CONJ	O
to	t288	8	to	O	O	O	O	O	O	O	O	TO0	B-VP	to	TO	t289:IM	O
acquire	t289	8	acquire	e43	OCCURRENCE	INFINITIVE+NONE+POS	O	O	O	O	O	VVI	I-VP	acquire	VB	t291:OBJ	O
the	t290	8	the	O	O	O	O	O	O	O	O	AT0	B-NP	the	DT	O	O
property	t291	8	property	O	O	O	O	O	O	O	O	NN1	I-NP	property	NN	t290:NMOD||t292:NMOD	O
for	t292	8	for	O	O	O	O	O	O	O	O	PRP	B-PP	for	IN	t295:PMOD	O
the	t293	8	the	O	O	O	O	O	O	O	O	AT0	B-NP	the	DT	O	O
new	t294	8	new	O	O	O	O	O	O	O	O	AJ0	I-NP	new	JJ	O	O
resort	t295	8	resort	O	O	O	O	O	O	O	O	NN1	I-NP	resort	NN	t293:NMOD||t294:NMOD	O
.	t296	8	.	O	O	O	O	O	O	O	O	PUN	O	.	.	O	O

The	t297	9	the	O	O	O	O	O	O	O	O	AT0	B-NP	the	DT	O	O
company	t298	9	company	O	O	O	O	O	O	O	O	NN1	I-NP	company	NN	t297:NMOD	O
said	t299	9	say	e44	REPORTING	PAST+NONE+POS	O	O	O	O	O	VVD	B-VP	say	VBD	t298:SBJ||t301:OBJ||t334:P	mainVb
it	t300	9	it	O	O	O	O	O	O	O	O	PNP	B-NP	it	PRP	O	O
estimates	t301	9	estimate	e45	I_STATE	PRESENT+NONE+POS	O	O	O	O	O	VVZ	B-VP	estimate	VBZ	t300:SBJ||t306:OBJ	O
the	t302	9	the	O	O	O	O	O	O	O	O	AT0	B-NP	the	DT	O	O
Desert	t303	9	Desert	O	O	O	O	O	O	O	O	NN1	I-NP	desert	NNP	O	O
Inn	t304	9	Inn	O	O	O	O	O	O	O	O	NN1	I-NP	inn	NNP	t303:NAME	O
remodeling	t305	9	remodeling	O	O	O	O	O	O	O	O	VVG	I-NP	remodeling	NN	t302:NMOD||t304:NMOD	O
will	t306	9	will	O	O	O	O	O	O	O	O	VM0	B-VP	will	MD	t305:SBJ||t307:VC||t312:P||t313:COORD	O
cost	t307	9	cost	e46	STATE	FUTURE+NONE+POS	O	O	O	O	O	VVI	I-VP	cost	VB	t309:OBJ	O
about	t308	9	about	O	O	O	O	O	O	O	O	PRP	B-NP	about	IN	O	O
$	t309	9	$	O	O	O	O	O	O	O	O	CRD	I-NP	$	$	t308:DEP||t310:DEP||t311:DEP	O
32	t310	9	32	O	O	O	O	O	O	O	O	CRD	I-NP	32	CD	O	O
million	t311	9	million	O	O	O	O	O	O	O	O	CRD	I-NP	million	CD	O	O
,	t312	9	,	O	O	O	O	O	O	O	O	PUN	O	,	,	O	O
and	t313	9	and	O	O	O	O	O	O	O	O	CJC	O	and	CC	t328:CONJ	O
the	t314	9	the	O	O	O	O	O	O	O	O	AT0	B-NP	the	DT	O	O
refurbishment	t315	9	refurbishment	e103	OCCURRENCE	NONE+NONE+POS	O	O	O	O	O	NN1	I-NP	refurbishment	NN	t314:NMOD||t316:NMOD	O
of	t316	9	of	O	O	O	O	O	O	O	O	PRF	B-PP	of	IN	t320:PMOD	O
the	t317	9	the	O	O	O	O	O	O	O	O	AT0	B-NP	the	DT	O	O
three	t318	9	three	O	O	O	O	O	O	O	O	CRD	I-NP	three	CD	O	O
DC-8-62	t319	9	dc-8-62	O	O	O	O	O	O	O	O	AJ0	I-NP	dc-8-62	NNP	O	O
aircraft	t320	9	aircraft	O	O	O	O	O	O	O	O	NN0	I-NP	aircraft	NN	t317:NMOD||t318:NMOD||t319:NMOD||t321:P||t322:APPO||t327:P	O
,	t321	9	,	O	O	O	O	O	O	O	O	PUN	O	,	,	O	O
made	t322	9	make	O	O	O	O	O	O	O	O	VVN	B-VP	make	VBN	t323:LGS	O
by	t323	9	by	O	O	O	O	O	O	O	O	PRP	B-PP	by	IN	t325:PMOD	O
McDonnell	t324	9	McDonnell	O	O	O	O	O	O	O	O	NP0	B-NP	mcdonnell	NNP	O	O
Douglas	t325	9	Douglas	O	O	O	O	O	O	O	O	NP0	I-NP	douglas	NNP	t324:NAME||t326:POSTHON	O
Corp.	t326	9	Corp.	O	O	O	O	O	O	O	O	NP0	B-NP	corp.	NNP	O	O
,	t327	9	,	O	O	O	O	O	O	O	O	PUN	O	,	,	O	O
will	t328	9	will	O	O	O	O	O	O	O	O	VM0	B-VP	will	MD	t315:SBJ||t329:VC	O
cost	t329	9	cost	e48	OCCURRENCE	FUTURE+NONE+POS	O	O	O	O	O	VVI	I-VP	cost	VB	t331:OBJ	O
around	t330	9	around	O	O	O	O	O	O	O	O	AVP	B-ADVP	around	IN	O	O
$	t331	9	$	O	O	O	O	O	O	O	O	CRD	B-NP	$	$	t330:DEP||t332:DEP||t333:DEP	O
24.5	t332	9	24.5	O	O	O	O	O	O	O	O	CRD	I-NP	24.5	CD	O	O
million	t333	9	million	O	O	O	O	O	O	O	O	CRD	I-NP	million	CD	O	O
.	t334	9	.	O	O	O	O	O	O	O	O	PUN	O	.	.	O	O

MGM	t335	10	MGM	O	O	O	O	O	O	O	O	NP0	B-NP	mgm	NNP	O	O
Grand	t336	10	Grand	O	O	O	O	O	O	O	O	NP0	I-NP	grand	NNP	t335:NAME	O
said	t337	10	say	e49	REPORTING	PAST+NONE+POS	O	O	O	O	O	VVD	B-VP	say	VBD	t336:SBJ||t342:OBJ||t360:P||t361:COORD||t385:P	mainVb
the	t338	10	the	O	O	O	O	O	O	O	O	AT0	B-NP	the	DT	O	O
latest	t339	10	latest	O	O	O	O	O	O	O	O	AJS	I-NP	latest	JJS	O	O
stock	t340	10	stock	O	O	O	O	O	O	O	O	NN1	I-NP	stock	NN	O	O
offering	t341	10	offering	O	O	O	O	O	O	O	O	VVG	I-NP	offering	NN	t338:NMOD||t339:NMOD||t340:NMOD	O
wo	t342	10	will	O	O	O	O	O	O	O	O	VM0	B-VP	wo	MD	t341:SBJ||t343:ADV||t344:VC	O
n't	t343	10	not	O	O	O	O	O	O	O	O	XX0	I-VP	not	RB	O	O
cover	t344	10	cover	e51	OCCURRENCE	FUTURE+NONE+NEG	O	O	O	O	O	VVI	I-VP	cover	VB	t351:OBJ	O
the	t345	10	the	O	O	O	O	O	O	O	O	AT0	B-NP	the	DT	O	O
$	t346	10	$	O	O	O	O	O	O	O	O	CRD	I-NP	$	$	t347:COORD	O
600	t347	10	600	O	O	O	O	O	O	O	O	CRD	I-NP	600	CD	t348:COORD	O
million	t348	10	million	O	O	O	O	O	O	O	O	CRD	I-NP	million	CD	t349:COORD	O
or	t349	10	or	O	O	O	O	O	O	O	O	CJC	O	or	CC	t350:CONJ	O
more	t350	10	more	O	O	O	O	O	O	O	O	AV0	B-NP	more	DT	O	O
cost	t351	10	cost	O	O	O	O	O	O	O	O	AJ0	I-NP	cost	NN	t345:NMOD||t346:NMOD||t352:NMOD	O
of	t352	10	of	O	O	O	O	O	O	O	O	PRF	B-PP	of	IN	t353:PMOD	O
building	t353	10	build	e2188	OCCURRENCE	NONE+NONE+POS	O	O	O	O	O	VVG	B-VP	build	VBG	t356:OBJ	O
the	t354	10	the	O	O	O	O	O	O	O	O	AT0	B-NP	the	DT	O	O
proposed	t355	10	propose	O	O	O	O	O	O	O	O	AJ0	I-NP	propose	VBN	O	O
resort	t356	10	resort	O	O	O	O	O	O	O	O	NN1	I-NP	resort	NN	t354:NMOD||t355:NMOD||t357:COORD	O
and	t357	10	and	O	O	O	O	O	O	O	O	CJC	I-NP	and	CC	t359:CONJ	O
theme	t358	10	theme	O	O	O	O	O	O	O	O	NN1	I-NP	theme	NN	O	O
park	t359	10	park	O	O	O	O	O	O	O	O	NN1	I-NP	park	NN	t358:NMOD	O
,	t360	10	,	O	O	O	O	O	O	O	O	PUN	O	,	,	O	O
and	t361	10	and	O	O	O	O	O	O	O	O	CJC	O	and	CC	t362:CONJ	O
added	t362	10	add	e54	REPORTING	PAST+NONE+POS	O	O	O	O	O	VVD	B-VP	add	VBD	t364:OBJ	O
it	t363	10	it	O	O	O	O	O	O	O	O	PNP	B-NP	it	PRP	O	O
will	t364	10	will	O	O	O	O	O	O	O	O	VM0	B-VP	will	MD	t363:SBJ||t365:VC	O
need	t365	10	need	e55	I_STATE	FUTURE+NONE+POS	O	O	O	O	O	VVI	I-VP	need	VB	t366:OPRD	O
to	t366	10	to	O	O	O	O	O	O	O	O	TO0	I-VP	to	TO	t367:IM	O
seek	t367	10	seek	e57	I_ACTION	INFINITIVE+NONE+POS	O	O	O	O	O	VVI	I-VP	seek	VB	t369:OBJ||t370:P||t372:ADV||t380:P||t381:TMP	O
additional	t368	10	additional	O	O	O	O	O	O	O	O	AJ0	B-NP	additional	JJ	O	O
financing	t369	10	financing	O	O	O	O	O	O	O	O	NN1	I-NP	financing	NN	t368:NMOD	O
,	t370	10	,	O	O	O	O	O	O	O	O	PUN	O	,	,	O	O
either	t371	10	either	O	O	O	O	O	O	O	O	AV0	B-ADVP	either	RB	O	O
through	t372	10	through	O	O	O	O	O	O	O	O	PRP	B-PP	through	IN	t371:DEP||t374:PMOD	O
bank	t373	10	bank	O	O	O	O	O	O	O	O	NN1	B-NP	bank	NN	O	O
borrowings	t374	10	borrowing	O	O	O	O	O	O	O	O	NN2	I-NP	borrowing	NNS	t373:NMOD||t375:COORD	O
or	t375	10	or	O	O	O	O	O	O	O	O	CJC	I-NP	or	CC	t379:CONJ	O
debt	t376	10	debt	O	O	O	O	O	O	O	O	NN1	I-NP	debt	NN	t377:COORD	O
and	t377	10	and	O	O	O	O	O	O	O	O	CJC	I-NP	and	CC	t378:CONJ	O
equity	t378	10	equity	O	O	O	O	O	O	O	O	NN1	I-NP	equity	NN	O	O
offerings	t379	10	offering	O	O	O	O	O	O	O	O	NN2	I-NP	offering	NNS	t376:NMOD	O
,	t380	10	,	O	O	O	O	O	O	O	O	PUN	O	,	,	O	O
at	t381	10	at	O	O	O	O	O	O	O	O	PRP	B-PP	at	IN	t384:PMOD	O
a	t382	10	a	O	O	O	tmx104	DATE	FUTURE_REF	O	O	AT0	B-NP	a	DT	O	O
later	t383	10	later	O	O	O	tmx104	DATE	FUTURE_REF	O	O	AJC	I-NP	later	JJ	O	O
date	t384	10	date	O	O	O	tmx104	DATE	FUTURE_REF	O	O	NN1	I-NP	date	NN	t382:NMOD||t383:NMOD	O
.	t385	10	.	O	O	O	O	O	O	O	O	PUN	O	.	.	O	O

Construction	t386	11	construction	e63	OCCURRENCE	NONE+NONE+POS	O	O	O	O	O	NN1	B-NP	construction	NN	O	O
is	t387	11	be	O	O	O	O	O	O	O	O	VBZ	B-VP	be	VBZ	t386:SBJ||t388:VC||t394:P	mainVb
set	t388	11	set	e64	STATE	PRESENT+NONE+POS	O	O	O	O	O	VVN	I-VP	set	VBN	t389:OPRD	mainVb
to	t389	11	to	O	O	O	O	O	O	O	O	TO0	I-VP	to	TO	t390:IM	mainVb
begin	t390	11	begin	e66	ASPECTUAL	INFINITIVE+NONE+POS	O	O	O	O	O	VVI	I-VP	begin	VB	t391:TMP	mainVb
in	t391	11	in	O	O	O	O	O	O	O	O	PRP	B-PP	in	IN	t393:PMOD	O
early	t392	11	early	O	O	O	tmx105	DATE	1991	O	O	AJ0	B-NP	early	JJ	O	O
1991	t393	11	1991	O	O	O	tmx105	DATE	1991	O	O	CRD	I-NP	1991	CD	t392:NMOD	O
.	t394	11	.	O	O	O	O	O	O	O	O	PUN	O	.	.	O	O

The	t395	12	the	O	O	O	O	O	O	O	O	AT0	B-NP	the	DT	O	O
resort	t396	12	resort	O	O	O	O	O	O	O	O	NN1	I-NP	resort	NN	t395:NMOD	O
will	t397	12	will	O	O	O	O	O	O	O	O	VM0	B-VP	will	MD	t396:SBJ||t398:VC||t421:P	mainVb
include	t398	12	include	O	O	O	O	O	O	O	O	VVI	I-VP	include	VB	t402:OBJ	mainVb
the	t399	12	the	O	O	O	O	O	O	O	O	AT0	B-NP	the	DT	O	O
MGM	t400	12	MGM	O	O	O	O	O	O	O	O	NP0	I-NP	mgm	NNP	O	O
Grand	t401	12	Grand	O	O	O	O	O	O	O	O	AJ0	I-NP	grand	NNP	t400:NAME	O
Hotel	t402	12	Hotel	O	O	O	O	O	O	O	O	NN1	I-NP	hotel	NNP	t399:NMOD||t401:NAME||t403:P||t408:APPO	O
,	t403	12	,	O	O	O	O	O	O	O	O	PUN	O	,	,	O	O
a	t404	12	a	O	O	O	O	O	O	O	O	AT0	B-NP	a	DT	O	O
multi-spired	t405	12	multi-spired	O	O	O	O	O	O	O	O	AJ0	I-NP	multi-spired	JJ	O	O
,	t406	12	,	O	O	O	O	O	O	O	O	PUN	O	,	,	O	O
castle-like	t407	12	castle-like	O	O	O	O	O	O	O	O	AJ0	B-NP	castle-like	JJ	O	O
facility	t408	12	facility	O	O	O	O	O	O	O	O	NN1	I-NP	facility	NN	t404:NMOD||t405:NMOD||t406:P||t407:NMOD||t410:NMOD	O
that	t409	12	that	O	O	O	O	O	O	O	O	CJT	B-NP	that	WDT	O	O
will	t410	12	will	O	O	O	O	O	O	O	O	VM0	B-VP	will	MD	t409:SBJ||t411:VC	O
include	t411	12	include	O	O	O	O	O	O	O	O	VVI	I-VP	include	VB	t413:OBJ	O
5,000	t412	12	5,000	O	O	O	O	O	O	O	O	CRD	B-NP	5,000	CD	O	O
rooms	t413	12	room	O	O	O	O	O	O	O	O	NN2	I-NP	rooms	NNS	t412:NMOD||t414:COORD	O
and	t414	12	and	O	O	O	O	O	O	O	O	CJC	O	and	CC	t417:CONJ	O
85,000	t415	12	85,000	O	O	O	O	O	O	O	O	CRD	B-NP	85,000	CD	O	O
square	t416	12	square	O	O	O	O	O	O	O	O	AJ0	I-NP	square	JJ	O	O
feet	t417	12	foot	O	O	O	O	O	O	O	O	NN2	I-NP	foot	NNS	t415:NMOD||t416:NMOD||t418:NMOD	O
of	t418	12	of	O	O	O	O	O	O	O	O	PRF	B-PP	of	IN	t420:PMOD	O
casino	t419	12	casino	O	O	O	O	O	O	O	O	NN1	B-NP	casino	NN	O	O
space	t420	12	space	O	O	O	O	O	O	O	O	NN1	I-NP	space	NN	t419:NMOD	O
.	t421	12	.	O	O	O	O	O	O	O	O	PUN	O	.	.	O	O

The	t422	13	the	O	O	O	O	O	O	O	O	AT0	B-NP	the	DT	O	O
facility	t423	13	facility	O	O	O	O	O	O	O	O	NN1	I-NP	facility	NN	t422:NMOD	O
will	t424	13	will	O	O	O	O	O	O	O	O	VM0	B-VP	will	MD	t423:SBJ||t425:VC||t429:P||t430:COORD	O
be	t425	13	be	O	O	O	O	O	O	O	O	VBI	I-VP	be	VB	t426:VC	O
marketed	t426	13	market	e69	OCCURRENCE	FUTURE+NONE+POS	O	O	O	O	O	VVN	I-VP	market	VBN	t427:ADV	O
toward	t427	13	toward	O	O	O	O	O	O	O	O	PRP	B-PP	toward	IN	t428:PMOD	O
families	t428	13	family	O	O	O	O	O	O	O	O	NN2	B-NP	family	NNS	O	O
,	t429	13	,	O	O	O	O	O	O	O	O	PUN	O	,	,	O	O
and	t430	13	and	O	O	O	O	O	O	O	O	CJC	O	and	CC	t433:CONJ	O
room	t431	13	room	O	O	O	O	O	O	O	O	NN1	B-NP	room	NN	O	O
rates	t432	13	rate	O	O	O	O	O	O	O	O	NN2	I-NP	rates	NNS	t431:NMOD	O
will	t433	13	will	O	O	O	O	O	O	O	O	VM0	B-VP	will	MD	t432:SBJ||t434:VC	O
be	t434	13	be	O	O	O	O	O	O	O	O	VBI	I-VP	be	VB	t436:PRD	O
between	t435	13	between	O	O	O	O	O	O	O	O	PRP	B-NP	between	IN	O	O
$	t436	13	$	O	O	O	O	O	O	O	O	CRD	I-NP	$	$	t435:DEP||t437:COORD||t442:ADV	O
35	t437	13	35	O	O	O	O	O	O	O	O	CRD	I-NP	35	CD	t438:COORD	O
and	t438	13	and	O	O	O	O	O	O	O	O	CJC	O	and	CC	t439:CONJ	O
$	t439	13	$	O	O	O	O	O	O	O	O	CRD	B-NP	$	$	t440:COORD	O
55	t440	13	55	O	O	O	O	O	O	O	O	CRD	B-NP	55	CD	O	O
a	t441	13	a	O	O	O	O	O	O	O	O	AT0	B-NP	a	DT	O	O
night	t442	13	night	O	O	O	O	O	O	O	O	NN1	I-NP	night	NN	t441:NMOD	O
,	t443	13	,	O	O	O	O	O	O	O	O	PUN	O	,	,	O	O
MGM	t444	13	MGM	O	O	O	O	O	O	O	O	NP0	B-NP	mgm	NNP	O	O
Grand	t445	13	Grand	O	O	O	O	O	O	O	O	NP0	I-NP	grand	NNP	t444:NAME	O
said	t446	13	say	e70	REPORTING	PAST+NONE+POS	O	O	O	O	O	VVD	B-VP	say	VBD	t424:OBJ||t443:P||t445:SBJ||t447:P	mainVb
.	t447	13	.	O	O	O	O	O	O	O	O	PUN	O	.	.	O	O

The	t448	14	the	O	O	O	O	O	O	O	O	AT0	B-NP	the	DT	O	O
prospectus	t449	14	prospectus	O	O	O	O	O	O	O	O	NN1	I-NP	prospectus	NN	t448:NMOD	O
did	t450	14	do	O	O	O	O	O	O	O	O	VDD	B-VP	do	VBD	t449:SBJ||t451:ADV||t452:VC||t491:P	mainVb
n't	t451	14	not	O	O	O	O	O	O	O	O	XX0	I-VP	not	RB	O	mainVb
include	t452	14	include	e71	STATE	PAST+NONE+NEG	O	O	O	O	O	VVI	I-VP	include	VB	t454:OBJ||t461:P||t462:ADV	mainVb
many	t453	14	many	O	O	O	O	O	O	O	O	DT0	B-NP	many	DT	O	O
details	t454	14	detail	O	O	O	O	O	O	O	O	NN2	I-NP	details	NNS	t453:NMOD||t455:NMOD	O
about	t455	14	about	O	O	O	O	O	O	O	O	PRP	B-PP	about	IN	t457:PMOD	O
the	t456	14	the	O	O	O	O	O	O	O	O	AT0	B-NP	the	DT	O	O
studio	t457	14	studio	O	O	O	O	O	O	O	O	NN1	I-NP	studio	NN	t456:NMOD||t458:COORD	O
and	t458	14	and	O	O	O	O	O	O	O	O	CJC	I-NP	and	CC	t460:CONJ	O
theme	t459	14	theme	O	O	O	O	O	O	O	O	NN1	I-NP	theme	NN	O	O
park	t460	14	park	O	O	O	O	O	O	O	O	NN1	I-NP	park	NN	t459:NMOD	O
,	t461	14	,	O	O	O	O	O	O	O	O	PUN	O	,	,	O	O
although	t462	14	although	O	O	O	O	O	O	O	O	CJS	B-SBAR	although	IN	t470:SUB	O
conceptual	t463	14	conceptual	O	O	O	O	O	O	O	O	AJ0	B-NP	conceptual	JJ	O	O
drawings	t464	14	drawing	O	O	O	O	O	O	O	O	NN2	I-NP	drawing	NNS	t463:NMOD||t465:P||t466:APPO||t469:P	O
,	t465	14	,	O	O	O	O	O	O	O	O	PUN	O	,	,	O	O
released	t466	14	release	e75	OCCURRENCE	PASTPART+NONE+POS	O	O	O	O	O	VVD	B-VP	release	VBN	t468:TMP	O
this	t467	14	this	O	O	O	tmx108	DATE	1989-10	O	O	DT0	B-NP	this	DT	O	O
month	t468	14	month	O	O	O	tmx108	DATE	1989-10	O	O	NN1	I-NP	month	NN	t467:NMOD	O
,	t469	14	,	O	O	O	O	O	O	O	O	PUN	O	,	,	O	O
show	t470	14	show	e76	REPORTING	PRESENT+NONE+POS	O	O	O	O	O	VVB	B-VP	show	VBP	t464:SBJ||t471:OBJ	O
that	t471	14	that	O	O	O	O	O	O	O	O	CJT	B-SBAR	that	IN	t473:SUB	O
it	t472	14	it	O	O	O	O	O	O	O	O	PNP	B-NP	it	PRP	O	O
may	t473	14	may	O	O	O	O	O	O	O	O	VM0	B-VP	may	MD	t472:SBJ||t474:VC	O
feature	t474	14	feature	e77	STATE	NONE+NONE+POS	O	O	O	O	O	VVI	I-VP	feature	VB	t477:OBJ	O
several	t475	14	several	O	O	O	O	O	O	O	O	DT0	B-NP	several	DT	O	O
"	t476	14	"	O	O	O	O	O	O	O	O	PUQ	I-NP	"	NN	t475:NMOD	O
themed	t477	14	theme	O	O	O	O	O	O	O	O	VVD	I-NP	theme	VBD	t476:SBJ||t479:OBJ	O
"	t478	14	"	O	O	O	O	O	O	O	O	PUQ	I-NP	"	PRP	O	O
areas	t479	14	area	O	O	O	O	O	O	O	O	NN2	I-NP	area	NNS	t478:NMOD||t480:APPO	O
similar	t480	14	similar	O	O	O	O	O	O	O	O	AJ0	B-ADJP	similar	JJ	t481:AMOD	O
to	t481	14	to	O	O	O	O	O	O	O	O	PRP	B-PP	to	TO	t482:PMOD	O
those	t482	14	those	O	O	O	O	O	O	O	O	DT0	B-NP	those	DT	t483:APPO	O
found	t483	14	find	O	O	O	O	O	O	O	O	VVN	B-VP	found	VBN	t484:LOC	O
at	t484	14	at	O	O	O	O	O	O	O	O	PRP	B-PP	at	IN	t485:PMOD	O
parks	t485	14	park	O	O	O	O	O	O	O	O	NN2	B-NP	parks	NNS	t486:APPO	O
built	t486	14	build	O	O	O	O	O	O	O	O	VVN	B-VP	build	VBN	t487:LGS	O
by	t487	14	by	O	O	O	O	O	O	O	O	PRP	B-PP	by	IN	t489:PMOD	O
Walt	t488	14	Walt	O	O	O	O	O	O	O	O	NP0	B-NP	walt	NNP	O	O
Disney	t489	14	Disney	O	O	O	O	O	O	O	O	NP0	I-NP	disney	NNP	t488:NAME||t490:POSTHON	O
Co.	t490	14	Co.	O	O	O	O	O	O	O	O	NN1	I-NP	co.	NNP	O	O
.	t491	14	.	O	O	O	O	O	O	O	O	PUN	O	.	.	O	O
