DCT_1989-10-30	O	O	O	O	O	O	tmx0	DATE	1989-10-30	O	O	NP0	B-NP	dct_1989-10-30	LS	O	O

Montedison	t1	1	Montedison	O	O	O+O+O	O	O	O	O	O	NP0	B-NP	montedison	NNP	O	O
S.p.A.	t2	1	S.p.A.	O	O	O+O+O	O	O	O	O	O	NP0	I-NP	s.p.a.	NNP	t1:NAME	O
definitively	t3	1	definitively	O	O	O+O+O	O	O	O	O	O	AV0	B-ADVP	definitively	RB	O	O
agreed	t4	1	agree	e1	I_STATE	PAST+NONE+POS	O	O	O	O	O	VVN	B-VP	agree	VBD	t2:SBJ||t3:MNR||t5:OPRD||t20:P	mainVb
to	t5	1	to	O	O	O	O	O	O	O	O	TO0	I-VP	to	TO	t6:IM	mainVb
buy	t6	1	buy	e2	OCCURRENCE	INFINITIVE+NONE+POS	O	O	O	O	O	VVI	I-VP	buy	VB	t7:OBJ||t16:ADV	mainVb
all	t7	1	all	O	O	O	O	O	O	O	O	DT0	B-NP	all	DT	t8:NMOD	O
of	t8	1	of	O	O	O	O	O	O	O	O	PRF	B-PP	of	IN	t12:PMOD	O
the	t9	1	the	O	O	O	O	O	O	O	O	AT0	B-NP	the	DT	O	O
publicly	t10	1	publicly	O	O	O	O	O	O	O	O	AV0	I-NP	publicly	RB	O	O
held	t11	1	held	O	O	O	O	O	O	O	O	VVN	I-NP	hold	VBN	t10:AMOD	O
shares	t12	1	share	O	O	O	O	O	O	O	O	NN2	I-NP	share	NNS	t9:NMOD||t11:NMOD||t13:NMOD	O
of	t13	1	of	O	O	O	O	O	O	O	O	PRF	B-PP	of	IN	t14:PMOD	O
Erbamont	t14	1	Erbamont	O	O	O	O	O	O	O	O	NP0	B-NP	erbamont	NNP	t15:POSTHON	O
N.V.	t15	1	N.V.	O	O	O	O	O	O	O	O	NP0	I-NP	n.v.	NNP	O	O
for	t16	1	for	O	O	O	O	O	O	O	O	PRP	B-PP	for	IN	t17:PMOD	O
$	t17	1	$	O	O	O	O	O	O	O	O	ZZ0	B-NP	$	$	t18:NMOD||t19:ADV	O
37	t18	1	37	O	O	O	O	O	O	O	O	CRD	I-NP	37	CD	O	O
each	t19	1	each	O	O	O	O	O	O	O	O	DT0	B-NP	each	DT	O	O
.	t20	1	.	O	O	O	O	O	O	O	O	PUN	O	.	.	O	O

Montedison	t21	2	Montedison	O	O	O	O	O	O	O	O	NP0	B-NP	montedison	NNP	O	O
now	t22	2	now	O	O	O	tmx3	DATE	PRESENT_REF	O	O	AV0	B-ADVP	now	RB	O	O
owns	t23	2	own	e4	STATE	PRESENT+NONE+POS	O	O	O	O	O	VVZ	B-VP	own	VBZ	t21:SBJ||t22:TMP||t26:OBJ||t32:P	mainVb
about	t24	2	about	O	O	O	O	O	O	O	O	AV0	B-NP	about	IN	O	O
72	t25	2	72	O	O	O	O	O	O	O	O	CRD	I-NP	72	CD	t24:DEP	O
%	t26	2	%	O	O	O	O	O	O	O	O	NN0	I-NP	%	NN	t25:NMOD||t27:NMOD	O
of	t27	2	of	O	O	O	O	O	O	O	O	PRF	B-PP	of	IN	t30:PMOD	O
Erbamont	t28	2	Erbamont	O	O	O	O	O	O	O	O	NP0	B-NP	erbamont	NNP	t29:SUFFIX	O
's	t29	2	's	O	O	O	O	O	O	O	O	POS	B-NP	's	POS	O	O
shares	t30	2	share	O	O	O	O	O	O	O	O	NN2	I-NP	share	NNS	t28:NMOD||t31:APPO	O
outstanding	t31	2	outstanding	O	O	O	O	O	O	O	O	VVG	B-VP	outstanding	JJ	O	O
.	t32	2	.	O	O	O	O	O	O	O	O	PUN	O	.	.	O	O

The	t33	3	the	O	O	O	O	O	O	O	O	AT0	B-NP	the	DT	O	O
companies	t34	3	company	O	O	O	O	O	O	O	O	NN2	I-NP	company	NNS	t33:NMOD	O
said	t35	3	say	e5	REPORTING	PAST+NONE+POS	O	O	O	O	O	VVD	B-VP	say	VBD	t34:SBJ||t38:OBJ||t51:P	mainVb
the	t36	3	the	O	O	O	O	O	O	O	O	AT0	B-NP	the	DT	O	O
accord	t37	3	accord	O	O	O	O	O	O	O	O	NN1	I-NP	accord	NN	t36:NMOD	O
was	t38	3	be	O	O	O	O	O	O	O	O	VBD	B-VP	be	VBD	t37:SBJ||t40:VC	O
unanimously	t39	3	unanimously	O	O	O	O	O	O	O	O	AV0	I-VP	unanimously	RB	O	O
approved	t40	3	approve	e6	I_ACTION	PAST+NONE+POS	O	O	O	O	O	VVN	I-VP	approve	VBN	t39:MNR||t41:LGS	O
by	t41	3	by	O	O	O	O	O	O	O	O	PRP	B-PP	by	IN	t44:PMOD	O
a	t42	3	a	O	O	O	O	O	O	O	O	AT0	B-NP	a	DT	O	O
special	t43	3	special	O	O	O	O	O	O	O	O	AJ0	I-NP	special	JJ	O	O
committee	t44	3	committee	O	O	O	O	O	O	O	O	NN1	I-NP	committee	NN	t42:NMOD||t43:NMOD||t45:NMOD	O
of	t45	3	of	O	O	O	O	O	O	O	O	PRF	B-PP	of	IN	t47:PMOD	O
Erbamont	t46	3	Erbamont	O	O	O	O	O	O	O	O	NP0	B-NP	erbamont	NNP	O	O
directors	t47	3	director	O	O	O	O	O	O	O	O	NN2	I-NP	director	NNS	t46:NAME||t48:APPO	O
unaffiliated	t48	3	unaffiliated	O	O	O	O	O	O	O	O	AJ0	B-ADJP	unaffiliated	JJ	t49:AMOD	O
with	t49	3	with	O	O	O	O	O	O	O	O	PRP	B-PP	with	IN	t50:PMOD	O
Montedison	t50	3	Montedison	O	O	O	O	O	O	O	O	NP0	B-NP	montedison	NNP	O	O
.	t51	3	.	O	O	O	O	O	O	O	O	PUN	O	.	.	O	O

Under	t52	4	under	O	O	O	O	O	O	O	O	PRP	B-PP	under	IN	t54:PMOD	O
the	t53	4	the	O	O	O	O	O	O	O	O	AT0	B-NP	the	DT	O	O
pact	t54	4	pact	O	O	O	O	O	O	O	O	NN1	I-NP	pact	NN	t53:NMOD	O
,	t55	4	,	O	O	O	O	O	O	O	O	PUN	O	,	,	O	O
Montedision	t56	4	montedision	O	O	O	O	O	O	O	O	NP0	B-NP	montedision	NNP	O	O
will	t57	4	will	O	O	O	O	O	O	O	O	VM0	B-VP	will	MD	t52:LOC||t55:P||t56:SBJ||t58:VC||t68:P	mainVb
make	t58	4	make	e7	OCCURRENCE	FUTURE+NONE+POS	O	O	O	O	O	VVI	I-VP	make	VB	t63:OBJ	mainVb
a	t59	4	a	O	O	O	O	O	O	O	O	AT0	B-NP	a	DT	O	O
$	t60	4	$	O	O	O	O	O	O	O	O	CRD	I-NP	$	$	t61:NMOD	O
37-a-share	t61	4	37-a-share	O	O	O	O	O	O	O	O	NN1	I-NP	37-a-share	CD	O	O
tender	t62	4	tender	O	O	O	O	O	O	O	O	AJ0	I-NP	tender	NN	O	O
offer	t63	4	offer	e8	OCCURRENCE	NONE+NONE+POS	O	O	O	O	O	NN1	I-NP	offer	NN	t59:NMOD||t60:NMOD||t62:NMOD||t64:NMOD	O
for	t64	4	for	O	O	O	O	O	O	O	O	PRP	B-PP	for	IN	t66:PMOD	O
Erbamont	t65	4	Erbamont	O	O	O	O	O	O	O	O	NP0	B-NP	erbamont	NNP	O	O
stock	t66	4	stock	O	O	O	O	O	O	O	O	NN1	I-NP	stock	NN	t65:NMOD||t67:APPO	O
outstanding	t67	4	outstanding	O	O	O	O	O	O	O	O	NN1	B-ADJP	outstanding	JJ	O	O
.	t68	4	.	O	O	O	O	O	O	O	O	PUN	O	.	.	O	O

The	t69	5	the	O	O	O	O	O	O	O	O	AT0	B-NP	the	DT	O	O
tender	t70	5	tender	O	O	O	O	O	O	O	O	AJ0	I-NP	tender	NN	O	O
offer	t71	5	offer	e9	OCCURRENCE	NONE+NONE+POS	O	O	O	O	O	NN1	I-NP	offer	NN	t69:NMOD||t70:NMOD	O
will	t72	5	will	O	O	O	O	O	O	O	O	VM0	B-VP	will	MD	t71:SBJ||t73:VC||t94:P	mainVb
be	t73	5	be	O	O	O	O	O	O	O	O	VBI	I-VP	be	VB	t74:VC	mainVb
followed	t74	5	follow	O	O	O	O	O	O	O	O	VVN	I-VP	follow	VBN	t75:LGS	mainVb
by	t75	5	by	O	O	O	O	O	O	O	O	PRP	B-PP	by	IN	t77:PMOD	O
the	t76	5	the	O	O	O	O	O	O	O	O	AT0	B-NP	the	DT	O	O
sale	t77	5	sale	e10	OCCURRENCE	NONE+NONE+POS	O	O	O	O	O	NN1	I-NP	sale	NN	t76:NMOD||t78:NMOD||t91:P||t92:NMOD	O
of	t78	5	of	O	O	O	O	O	O	O	O	PRF	B-PP	of	IN	t79:PMOD	O
all	t79	5	all	O	O	O	O	O	O	O	O	DT0	B-NP	all	DT	t80:NMOD||t84:P||t85:APPO	O
of	t80	5	of	O	O	O	O	O	O	O	O	PRF	B-PP	of	IN	t83:PMOD	O
Erbamont	t81	5	Erbamont	O	O	O	O	O	O	O	O	NP0	B-NP	erbamont	NNP	t82:SUFFIX	O
's	t82	5	's	O	O	O	O	O	O	O	O	POS	B-NP	's	POS	O	O
assets	t83	5	asset	O	O	O	O	O	O	O	O	NN2	I-NP	assets	NNS	t81:NMOD	O
,	t84	5	,	O	O	O	O	O	O	O	O	PUN	O	,	,	O	O
subject	t85	5	subject	O	O	O	O	O	O	O	O	PRP	B-PP	subject	JJ	t86:AMOD	O
to	t86	5	to	O	O	O	O	O	O	O	O	PRP	B-PP	to	TO	t87:PMOD	O
all	t87	5	all	O	O	O	O	O	O	O	O	DT0	B-NP	all	DT	t88:NMOD	O
of	t88	5	of	O	O	O	O	O	O	O	O	PRF	B-PP	of	IN	t90:PMOD	O
its	t89	5	its	O	O	O	O	O	O	O	O	DPS	B-NP	its	PRP$	O	O
liabilities	t90	5	liability	O	O	O	O	O	O	O	O	NN2	I-NP	liabilities	NNS	t89:NMOD	O
,	t91	5	,	O	O	O	O	O	O	O	O	PUN	O	,	,	O	O
to	t92	5	to	O	O	O	O	O	O	O	O	PRP	B-PP	to	TO	t93:PMOD	O
Montedison	t93	5	Montedison	O	O	O	O	O	O	O	O	NP0	B-NP	montedison	NNP	O	O
.	t94	5	.	O	O	O	O	O	O	O	O	PUN	O	.	.	O	O

Erbamont	t95	6	Erbamont	O	O	O	O	O	O	O	O	NP0	B-NP	erbamont	NNP	O	O
will	t96	6	will	O	O	O	O	O	O	O	O	VM0	B-VP	will	MD	t95:SBJ||t97:TMP||t98:VC||t114:P	mainVb
then	t97	6	then	O	O	O	O	O	O	O	O	AV0	I-VP	then	RB	O	mainVb
be	t98	6	be	O	O	O	O	O	O	O	O	VBI	I-VP	be	VB	t99:VC	mainVb
liquidated	t99	6	liquidate	e11	OCCURRENCE	FUTURE+NONE+POS	O	O	O	O	O	VVN	I-VP	liquidate	VBN	t100:P||t101:ADV	mainVb
,	t100	6	,	O	O	O	O	O	O	O	O	PUN	O	,	,	O	O
with	t101	6	with	O	O	O	O	O	O	O	O	PRP	B-PP	with	IN	t106:PMOD	O
any	t102	6	any	O	O	O	O	O	O	O	O	DT0	B-NP	any	DT	O	O
remaining	t103	6	remain	O	O	O	O	O	O	O	O	AJ0	I-NP	remain	VBG	O	O
Erbamont	t104	6	Erbamont	O	O	O	O	O	O	O	O	NP0	I-NP	erbamont	NNP	O	O
holders	t105	6	holder	O	O	O	O	O	O	O	O	NN2	I-NP	holder	NNS	t102:NMOD||t103:NMOD||t104:NMOD	O
receiving	t106	6	receive	e12	OCCURRENCE	PRESPART+NONE+POS	O	O	O	O	O	VVG	B-VP	receive	VBG	t105:SBJ||t108:OBJ	O
a	t107	6	a	O	O	O	O	O	O	O	O	AT0	B-NP	a	DT	O	O
distribution	t108	6	distribution	O	O	O	O	O	O	O	O	NN1	I-NP	distribution	NN	t107:NMOD||t109:NMOD	O
of	t109	6	of	O	O	O	O	O	O	O	O	PRF	B-PP	of	IN	t110:PMOD	O
$	t110	6	$	O	O	O	O	O	O	O	O	NN0	B-NP	$	$	t111:NMOD||t113:ADV	O
37	t111	6	37	O	O	O	O	O	O	O	O	CRD	I-NP	37	CD	O	O
a	t112	6	a	O	O	O	O	O	O	O	O	AT0	B-NP	a	DT	O	O
share	t113	6	share	O	O	O	O	O	O	O	O	NN1	I-NP	share	NN	t112:NMOD	O
.	t114	6	.	O	O	O	O	O	O	O	O	PUN	O	.	.	O	O

The	t115	7	the	O	O	O	O	O	O	O	O	AT0	B-NP	the	DT	O	O
companies	t116	7	company	O	O	O	O	O	O	O	O	NN2	I-NP	company	NNS	t115:NMOD	O
said	t117	7	say	e13	REPORTING	PAST+NONE+POS	O	O	O	O	O	VVD	B-VP	say	VBD	t116:SBJ||t120:OBJ||t145:P	mainVb
the	t118	7	the	O	O	O	O	O	O	O	O	AT0	B-NP	the	DT	O	O
transaction	t119	7	transaction	O	O	O	O	O	O	O	O	NN1	I-NP	transaction	NN	t118:NMOD	O
is	t120	7	be	O	O	O	O	O	O	O	O	VBZ	B-VP	be	VBZ	t119:SBJ||t121:VC	O
being	t121	7	be	O	O	O	O	O	O	O	O	VBG	I-VP	be	VBG	t122:VC	O
structured	t122	7	structure	e14	OCCURRENCE	PRESENT+PROGRESSIVE+POS	O	O	O	O	O	VVN	I-VP	structure	VBN	t124:MNR||t125:PRP	O
this	t123	7	this	O	O	O	O	O	O	O	O	DT0	B-NP	this	DT	O	O
way	t124	7	way	O	O	O	O	O	O	O	O	NN1	I-NP	way	NN	t123:NMOD	O
because	t125	7	because	O	O	O	O	O	O	cs15	O	CJS	B-SBAR	because	IN	t139:SUB	O
the	t126	7	the	O	O	O	O	O	O	cs15	O	AT0	B-NP	the	DT	O	O
laws	t127	7	law	O	O	O	O	O	O	cs15	O	NN2	I-NP	laws	NNS	t126:NMOD||t128:NMOD||t132:P||t136:NMOD||t138:P	O
of	t128	7	of	O	O	O	O	O	O	cs15	O	PRF	B-PP	of	IN	t131:PMOD	O
the	t129	7	the	O	O	O	O	O	O	cs15	O	AT0	B-NP	the	DT	O	O
Netherlands	t130	7	Netherlands	O	O	O	O	O	O	cs15	O	NP0	I-NP	netherlands	NNPS	O	O
Antilles	t131	7	Antilles	O	O	O	O	O	O	cs15	O	NP0	I-NP	antilles	NNPS	t129:NMOD||t130:NAME	O
,	t132	7	,	O	O	O	O	O	O	cs15	O	PUN	O	,	,	O	O
under	t133	7	under	O	O	O	O	O	O	cs15	O	PRP	B-PP	under	IN	t134:PMOD	O
which	t134	7	which	O	O	O	O	O	O	cs15	O	DTQ	B-NP	which	WDT	O	O
Erbamont	t135	7	Erbamont	O	O	O	O	O	O	cs15	O	NP0	I-NP	erbamont	NNP	O	O
is	t136	7	be	O	O	O	O	O	O	cs15	O	VBZ	B-VP	be	VBZ	t135:SBJ||t137:VC	O
organized	t137	7	organize	O	O	O	O	O	O	cs15	O	VVN	I-VP	organize	VBN	t133:LOC	O
,	t138	7	,	O	O	O	O	O	O	cs15	O	PUN	O	,	,	O	O
do	t139	7	do	O	O	O	O	O	O	cs15	O	VDB	B-VP	do	VBP	t127:SBJ||t140:ADV||t141:VC	O
n't	t140	7	not	O	O	O	O	O	O	cs15	O	XX0	I-VP	not	RB	O	O
provide	t141	7	provide	e16	I_STATE	PRESENT+NONE+NEG	O	O	O	cs15	O	VVI	I-VP	provide	VB	t142:ADV	O
for	t142	7	for	O	O	O	O	O	O	cs15	O	PRP	B-PP	for	IN	t144:PMOD	O
merger	t143	7	merger	O	O	O	O	O	O	cs15	O	AJC	B-NP	merger	NN	O	O
transactions	t144	7	transaction	O	O	O	O	O	O	cs15	O	NN2	I-NP	transactions	NNS	t143:NMOD	O
.	t145	7	.	O	O	O	O	O	O	cs15	O	PUN	O	.	.	O	O
