DCT_1989-10-27	O	O	O	O	O	O	tmx0	DATE	1989-10-27	O	O	NP0	B-NP	dct_1989-10-27	LS	O	O

Some	t1	1	some	O	O	O+O+O	O	O	O	O	O	DT0	B-NP	some	DT	O	O
lousy	t2	1	lousy	O	O	O+O+O	O	O	O	O	O	AJ0	I-NP	lousy	JJ	O	O
earnings	t3	1	earnings	O	O	O+O+O	O	O	O	O	O	NN2	I-NP	earnings	NNS	t2:NMOD	O
reports	t4	1	report	O	O	O+O+O	O	O	O	O	O	NN2	B-VP	report	NNS	t1:NMOD||t3:NMOD	O
whacked	t5	1	whack	e1	OCCURRENCE	PAST+NONE+POS	O	O	O	O	O	VVD	I-VP	whack	VBD	t4:SBJ||t8:OBJ||t9:P||t10:COORD||t26:P	mainVb
the	t6	1	the	O	O	O	O	O	O	O	O	AT0	B-NP	the	DT	O	O
stock	t7	1	stock	O	O	O	O	O	O	O	O	NN1	I-NP	stock	NN	O	O
market	t8	1	market	O	O	O	O	O	O	O	O	NN1	I-NP	market	NN	t6:NMOD||t7:NMOD	O
,	t9	1	,	O	O	O	O	O	O	O	O	PUN	O	,	,	O	O
but	t10	1	but	O	O	O	O	O	O	O	O	CJC	O	but	CC	t13:CONJ	O
bond	t11	1	bond	O	O	O	O	O	O	O	O	NN1	B-NP	bond	NN	O	O
prices	t12	1	price	O	O	O	O	O	O	O	O	NN2	I-NP	price	NNS	t11:NMOD	O
fell	t13	1	fall	e2	OCCURRENCE	PAST+NONE+POS	O	O	O	O	O	VVD	B-VP	fell	VBD	t12:SBJ||t14:EXT||t16:COORD	O
only	t14	1	only	O	O	O	O	O	O	O	O	AV0	B-ADVP	only	RB	t15:AMOD	O
slightly	t15	1	slightly	O	O	O	O	O	O	O	O	AV0	I-ADVP	slightly	RB	O	O
and	t16	1	and	O	O	O	O	O	O	O	O	CJC	O	and	CC	t19:CONJ	O
the	t17	1	the	O	O	O	O	O	O	O	O	AT0	B-NP	the	DT	O	O
dollar	t18	1	dollar	O	O	O	O	O	O	O	O	NN1	I-NP	dollar	NN	t17:NMOD	O
rose	t19	1	rise	e3	OCCURRENCE	PAST+NONE+POS	O	O	O	O	O	VVD	B-VP	rise	VBD	t18:SBJ||t21:EXT||t22:ADV	O
a	t20	1	a	O	O	O	O	O	O	O	O	AV0	B-NP	a	DT	O	O
little	t21	1	little	O	O	O	O	O	O	O	O	AV0	I-NP	little	JJ	t20:NMOD	O
against	t22	1	against	O	O	O	O	O	O	O	O	PRP	B-PP	against	IN	t25:PMOD	O
most	t23	1	most	O	O	O	O	O	O	O	O	DT0	B-NP	most	DT	O	O
major	t24	1	major	O	O	O	O	O	O	O	O	AJ0	I-NP	major	JJ	O	O
currencies	t25	1	currency	O	O	O	O	O	O	O	O	NN2	I-NP	currency	NNS	t23:NMOD||t24:NMOD	O
.	t26	1	.	O	O	O	O	O	O	O	O	PUN	O	.	.	O	O

The	t27	2	the	O	O	O	O	O	O	O	O	AT0	B-NP	the	DT	O	O
Dow	t28	2	Dow	O	O	O	O	O	O	O	O	NP0	I-NP	dow	NNP	O	O
Jones	t29	2	Jones	O	O	O	O	O	O	O	O	NP0	I-NP	jones	NNP	t28:NAME	O
Industrial	t30	2	Industrial	O	O	O	O	O	O	O	O	AJ0	I-NP	industrial	NNP	O	O
Average	t31	2	Average	O	O	O	O	O	O	O	O	AJ0	I-NP	average	NNP	t27:NMOD||t29:NAME||t30:NAME	O
tumbled	t32	2	tumble	e4	OCCURRENCE	PAST+NONE+POS	O	O	O	O	O	VVD	B-VP	tumble	VBD	t31:SBJ||t34:EXT||t35:P||t36:DIR||t38:P||t39:LOC||t42:P	mainVb
39.55	t33	2	39.55	O	O	O	O	O	O	O	O	CRD	B-NP	39.55	CD	O	O
points	t34	2	point	O	O	O	O	O	O	O	O	NN2	I-NP	point	NNS	t33:NMOD	O
,	t35	2	,	O	O	O	O	O	O	O	O	PUN	O	,	,	O	O
to	t36	2	to	O	O	O	O	O	O	O	O	PRP	B-PP	to	TO	t37:PMOD	O
2613.73	t37	2	2613.73	O	O	O	O	O	O	O	O	CRD	B-NP	2613.73	CD	O	O
,	t38	2	,	O	O	O	O	O	O	O	O	PUN	O	,	,	O	O
in	t39	2	in	O	O	O	O	O	O	O	O	PRP	B-PP	in	IN	t41:PMOD	O
active	t40	2	active	O	O	O	O	O	O	O	O	AJ0	B-NP	active	JJ	O	O
trading	t41	2	trading	O	O	O	O	O	O	O	O	NN1	I-NP	trading	NN	t40:NMOD	O
.	t42	2	.	O	O	O	O	O	O	O	O	PUN	O	.	.	O	O

Long-term	t43	3	long-term	O	O	O	O	O	O	O	O	NP0	B-NP	long-term	NNP	O	O
Treasury	t44	3	Treasury	O	O	O	O	O	O	O	O	NP0	I-NP	treasury	NNP	t43:NAME	O
bonds	t45	3	bond	O	O	O	O	O	O	O	O	NN2	I-NP	bond	NNS	t44:NMOD	O
ended	t46	3	end	e5	ASPECTUAL	PAST+NONE+POS	O	O	O	O	O	VVD	B-VP	end	VBD	t45:SBJ||t47:ADV||t49:P	mainVb
slightly	t47	3	slightly	O	O	O	O	O	O	O	O	AV0	B-ADJP	slightly	RB	t48:AMOD	O
higher	t48	3	higher	O	O	O	O	O	O	O	O	AJC	I-ADJP	higher	JJR	O	O
.	t49	3	.	O	O	O	O	O	O	O	O	PUN	O	.	.	O	O

The	t50	4	the	O	O	O	O	O	O	O	O	AT0	B-NP	the	DT	O	O
dollar	t51	4	dollar	O	O	O	O	O	O	O	O	NN1	I-NP	dollar	NN	t50:NMOD	O
rose	t52	4	rise	e6	OCCURRENCE	PAST+NONE+POS	O	O	O	O	O	VVD	B-VP	rise	VBD	t51:SBJ||t53:EXT||t54:ADV||t60:P||t61:COORD||t79:P	mainVb
modestly	t53	4	modestly	O	O	O	O	O	O	O	O	AV0	B-ADVP	modestly	RB	O	O
against	t54	4	against	O	O	O	O	O	O	O	O	PRP	B-PP	against	IN	t56:PMOD	O
the	t55	4	the	O	O	O	O	O	O	O	O	AT0	B-NP	the	DT	O	O
mark	t56	4	mark	O	O	O	O	O	O	O	O	NN1	I-NP	mark	NN	t55:NMOD||t57:COORD	O
and	t57	4	and	O	O	O	O	O	O	O	O	CJC	O	and	CC	t59:CONJ	O
the	t58	4	the	O	O	O	O	O	O	O	O	AT0	B-NP	the	DT	O	O
yen	t59	4	yen	O	O	O	O	O	O	O	O	NN1	I-NP	yen	NN	t58:NMOD	O
,	t60	4	,	O	O	O	O	O	O	O	O	PUN	O	,	,	O	O
but	t61	4	but	O	O	O	O	O	O	O	O	CJC	O	but	CC	t62:CONJ	O
soared	t62	4	soar	e7	OCCURRENCE	PAST+NONE+POS	O	O	O	O	O	VVD	B-VP	soar	VBD	t63:ADV||t66:TMP	O
against	t63	4	against	O	O	O	O	O	O	O	O	PRP	B-PP	against	IN	t65:PMOD	O
the	t64	4	the	O	O	O	O	O	O	O	O	AT0	B-NP	the	DT	O	O
pound	t65	4	pound	O	O	O	O	O	O	O	O	NN1	I-NP	pound	NN	t64:NMOD	O
following	t66	4	follow	O	O	O	O	O	O	O	O	VVG	B-PP	follow	VBG	t68:PMOD	O
the	t67	4	the	O	O	O	O	O	O	O	O	AT0	B-NP	the	DT	O	O
resignation	t68	4	resignation	e8	OCCURRENCE	NONE+NONE+POS	O	O	O	O	O	NN1	I-NP	resignation	NN	t67:NMOD||t69:NMOD	O
of	t69	4	of	O	O	O	O	O	O	O	O	PRF	B-PP	of	IN	t72:PMOD	O
Britain	t70	4	Britain	O	O	O	O	O	O	O	O	NP0	B-NP	britain	NNP	t71:SUFFIX	O
's	t71	4	's	O	O	O	O	O	O	O	O	POS	B-NP	's	POS	O	O
chancellor	t72	4	chancellor	O	O	O	O	O	O	O	O	NN1	I-NP	chancellor	NN	t70:NMOD||t73:NMOD||t76:P||t78:APPO	O
of	t73	4	of	O	O	O	O	O	O	O	O	PRF	B-PP	of	IN	t75:PMOD	O
the	t74	4	the	O	O	O	O	O	O	O	O	AT0	B-NP	the	DT	O	O
Exchequer	t75	4	Exchequer	O	O	O	O	O	O	O	O	NN1	I-NP	exchequer	NNP	t74:NMOD	O
,	t76	4	,	O	O	O	O	O	O	O	O	PUN	O	,	,	O	O
Nigel	t77	4	Nigel	O	O	O	O	O	O	O	O	NP0	B-NP	nigel	NNP	O	O
Lawson	t78	4	Lawson	O	O	O	O	O	O	O	O	NP0	I-NP	lawson	NNP	t77:NAME	O
.	t79	4	.	O	O	O	O	O	O	O	O	PUN	O	.	.	O	O

Analysts	t80	5	analyst	O	O	O	O	O	O	O	O	NN2	B-NP	analyst	NNS	O	O
have	t81	5	have	O	O	O	O	O	O	O	O	VHB	B-VP	have	VBP	t80:SBJ||t82:VC||t92:P||t93:COORD||t101:P	mainVb
complained	t82	5	complain	e9	I_ACTION	PRESENT+PERFECTIVE+POS	O	O	O	O	O	VVN	I-VP	complain	VBN	t83:OBJ	mainVb
that	t83	5	that	O	O	O	O	O	O	O	O	CJT	B-SBAR	that	IN	t87:SUB	O
third-quarter	t84	5	third-quarter	O	O	O	tmx10	DATE	1989-Q3	O	O	NN1	B-NP	third-quarter	JJ	O	O
corporate	t85	5	corporate	O	O	O	O	O	O	O	O	AJ0	I-NP	corporate	JJ	O	O
earnings	t86	5	earnings	O	O	O	O	O	O	O	O	NN2	I-NP	earnings	NNS	t84:NMOD||t85:NMOD	O
have	t87	5	have	O	O	O	O	O	O	O	O	VHB	B-VP	have	VBP	t86:SBJ||t88:ADV||t89:VC	O
n't	t88	5	not	O	O	O	O	O	O	O	O	XX0	I-VP	not	RB	O	O
been	t89	5	be	O	O	O	O	O	O	O	O	VBN	I-VP	be	VBN	t91:PRD	O
very	t90	5	very	O	O	O	O	O	O	O	O	AV0	B-ADJP	very	RB	O	O
good	t91	5	good	e11	STATE	PRESENT+PERFECTIVE+NEG	O	O	O	O	O	AJ0	I-ADJP	good	JJ	t90:AMOD	O
,	t92	5	,	O	O	O	O	O	O	O	O	PUN	O	,	,	O	O
but	t93	5	but	O	O	O	O	O	O	O	O	CJC	O	but	CC	t96:CONJ	O
the	t94	5	the	O	O	O	O	O	O	O	O	AT0	B-NP	the	DT	O	O
effect	t95	5	effect	O	O	O	O	O	O	O	O	NN1	I-NP	effect	NN	t94:NMOD	O
hit	t96	5	hit	e12	OCCURRENCE	PAST+NONE+POS	O	O	O	O	O	VVD	B-VP	hit	VBD	t95:SBJ||t97:ADV||t98:MNR||t100:TMP	O
home	t97	5	home	O	O	O	O	O	O	O	O	AV0	B-ADVP	home	RB	O	O
particularly	t98	5	particularly	O	O	O	O	O	O	O	O	AV0	I-ADVP	particularly	RB	t99:AMOD	O
hard	t99	5	hard	O	O	O	O	O	O	O	O	AJ0	I-ADVP	hard	RB	O	O
yesterday	t100	5	yesterday	O	O	O	tmx13	DATE	1989-10-26	O	O	AV0	B-NP	yesterday	NN	O	O
.	t101	5	.	O	O	O	O	O	O	O	O	PUN	O	.	.	O	O

Compaq	t102	6	Compaq	O	O	O	O	O	O	O	O	NP0	B-NP	compaq	NNP	O	O
Computer	t103	6	Computer	O	O	O	O	O	O	O	O	NP0	I-NP	computer	NNP	t102:NAME	O
nose-dived	t104	6	nose-dive	e14	OCCURRENCE	PAST+NONE+POS	O	O	O	O	O	VVD	B-VP	nose-dive	VBD	t103:SBJ||t105:OBJ||t109:P||t110:DIR||t113:P||t114:COORD||t120:TMP||t130:P	mainVb
$	t105	6	$	O	O	O	O	O	O	O	O	CRD	B-NP	$	$	t106:NMOD||t108:ADV	O
8.625	t106	6	8.625	O	O	O	O	O	O	O	O	CRD	I-NP	8.625	CD	O	O
a	t107	6	a	O	O	O	O	O	O	O	O	AT0	B-NP	a	DT	O	O
share	t108	6	share	O	O	O	O	O	O	O	O	NN1	I-NP	share	NN	t107:NMOD	O
,	t109	6	,	O	O	O	O	O	O	O	O	PUN	O	,	,	O	O
to	t110	6	to	O	O	O	O	O	O	O	O	PRP	B-PP	to	TO	t111:PMOD	O
$	t111	6	$	O	O	O	O	O	O	O	O	CRD	B-NP	$	$	t112:NMOD	O
100	t112	6	100	O	O	O	O	O	O	O	O	CRD	I-NP	100	CD	O	O
,	t113	6	,	O	O	O	O	O	O	O	O	PUN	O	,	,	O	O
and	t114	6	and	O	O	O	O	O	O	O	O	CJC	O	and	CC	t115:CONJ	O
pulled	t115	6	pull	e15	OCCURRENCE	PAST+NONE+POS	O	O	O	O	O	VVD	B-VP	pull	VBD	t118:OBJ||t119:DIR	O
other	t116	6	other	O	O	O	O	O	O	O	O	AJ0	B-NP	other	JJ	O	O
technology	t117	6	technology	O	O	O	O	O	O	O	O	NN1	I-NP	technology	NN	O	O
issues	t118	6	issue	O	O	O	O	O	O	O	O	NN2	I-NP	issue	NNS	t116:NMOD||t117:NMOD	O
lower	t119	6	lower	O	O	O	O	O	O	O	O	AJC	B-ADVP	lower	RBR	O	O
after	t120	6	after	O	O	O	O	O	O	O	O	PRP	B-PP	after	IN	t121:PMOD	O
reporting	t121	6	report	e16	REPORTING	NONE+NONE+POS	O	O	O	O	O	VVG	B-VP	report	VBG	t123:OBJ||t124:TMP	O
lower-than-expected	t122	6	lower-than-expected	O	O	O	O	O	O	O	O	AJ0	B-NP	lower-than-expect	VBN	O	O
earnings	t123	6	earnings	O	O	O	O	O	O	O	O	NN2	I-NP	earnings	NNS	t122:NMOD	O
after	t124	6	after	O	O	O	O	O	O	O	O	PRP	B-PP	after	IN	t128:SUB	O
the	t125	6	the	O	O	O	O	O	O	O	O	AT0	B-NP	the	DT	O	O
stock	t126	6	stock	O	O	O	O	O	O	O	O	NN1	I-NP	stock	NN	O	O
market	t127	6	market	O	O	O	O	O	O	O	O	NN1	I-NP	market	NN	t125:NMOD||t126:NMOD	O
closed	t128	6	close	e17	OCCURRENCE	PAST+NONE+POS	O	O	O	O	O	VVD	B-VP	close	VBD	t127:SBJ||t129:TMP	O
Wednesday	t129	6	Wednesday	O	O	O	tmx18	DATE	1989-10-25	O	O	NP0	B-NP	wednesday	NNP	O	O
.	t130	6	.	O	O	O	O	O	O	O	O	PUN	O	.	.	O	O

Later	t131	7	later	O	O	O	tmx19	DATE	1989-10-26	O	O	AV0	B-ADVP	later	RB	O	O
yesterday	t132	7	yesterday	O	O	O	tmx19	DATE	1989-10-26	O	O	AV0	B-NP	yesterday	NN	t131:NMOD	O
the	t133	7	the	O	O	O	O	O	O	O	O	AT0	I-NP	the	DT	O	O
nation	t134	7	nation	O	O	O	O	O	O	O	O	NN1	I-NP	nation	NN	t133:NMOD||t135:SUFFIX	O
's	t135	7	's	O	O	O	O	O	O	O	O	POS	B-NP	's	POS	O	O
major	t136	7	major	O	O	O	O	O	O	O	O	AJ0	I-NP	major	JJ	O	O
auto	t137	7	auto	O	O	O	O	O	O	O	O	NN1	I-NP	auto	NN	O	O
makers	t138	7	maker	O	O	O	O	O	O	O	O	NN2	I-NP	maker	NNS	t134:NMOD||t136:NMOD||t137:NMOD	O
added	t139	7	add	e20	OCCURRENCE	PAST+NONE+POS	O	O	O	O	O	VVN	B-VP	add	VBD	t132:TMP||t138:SBJ||t140:ADV||t146:TMP||t158:P	mainVb
to	t140	7	to	O	O	O	O	O	O	O	O	PRP	B-PP	to	TO	t142:PMOD	O
the	t141	7	the	O	O	O	O	O	O	O	O	AT0	B-NP	the	DT	O	O
gloom	t142	7	gloom	O	O	O	O	O	O	O	O	NN1	I-NP	gloom	NN	t141:NMOD	O
when	t143	7	when	O	O	O	O	O	O	O	O	CJS	B-ADVP	when	WRB	O	O
they	t144	7	they	O	O	O	O	O	O	O	O	PNP	B-NP	they	PRP	t145:APPO	O
each	t145	7	each	O	O	O	O	O	O	O	O	DT0	B-NP	each	DT	O	O
reported	t146	7	report	e21	REPORTING	PAST+NONE+POS	O	O	O	O	O	VVD	B-VP	report	VBD	t143:DEP||t144:SBJ||t151:OBJ	O
ther	t147	7	they	O	O	O	O	O	O	O	O	DPS	B-NP	ther	PRP$	O	O
core	t148	7	core	O	O	O	O	O	O	O	O	NN1	I-NP	core	NN	O	O
auto	t149	7	auto	O	O	O	O	O	O	O	O	NN1	I-NP	auto	NN	O	O
operations	t150	7	operation	O	O	O	O	O	O	O	O	NN2	I-NP	operations	NNS	t147:NMOD||t148:NMOD||t149:NMOD	O
were	t151	7	be	O	O	O	O	O	O	O	O	VBD	B-VP	be	VBD	t150:SBJ||t153:PRD||t154:TMP	O
net	t152	7	net	O	O	O	O	O	O	O	O	AJ0	B-NP	net	JJ	O	O
losers	t153	7	loser	e22	STATE	PAST+NONE+POS	O	O	O	O	O	NN2	I-NP	loser	NNS	t152:NMOD	O
in	t154	7	in	O	O	O	O	O	O	O	O	PRP	B-PP	in	IN	t157:PMOD	O
the	t155	7	the	O	O	O	tmx23	DATE	1989-Q3	O	O	AT0	B-NP	the	DT	O	O
third	t156	7	third	O	O	O	tmx23	DATE	1989-Q3	O	O	ORD	I-NP	third	JJ	O	O
quarter	t157	7	quarter	O	O	O	tmx23	DATE	1989-Q3	O	O	NN1	I-NP	quarter	NN	t155:NMOD||t156:NMOD	O
.	t158	7	.	O	O	O	O	O	O	O	O	PUN	O	.	.	O	O

The	t159	8	the	O	O	O	O	O	O	O	O	AT0	B-NP	the	DT	O	O
less-than-robust	t160	8	less-than-robust	O	O	O	O	O	O	O	O	AJ0	I-NP	less-than-robust	JJ	O	O
third-quarter	t161	8	third-quarter	O	O	O	tmx24	DATE	1989-Q3	O	O	NN1	I-NP	third-quarter	NN	O	O
results	t162	8	result	e25	STATE	NONE+NONE+POS	O	O	O	O	O	NN2	I-NP	result	NNS	t159:NMOD||t160:NMOD||t161:NMOD	O
came	t163	8	come	O	O	O	O	O	O	O	O	VVD	B-VP	come	VBD	t162:SBJ||t164:LOC||t180:P	mainVb
amid	t164	8	amid	O	O	O	O	O	O	O	O	PRP	B-PP	amid	IN	t166:PMOD	O
renewed	t165	8	renewed	O	O	O	O	O	O	O	O	AJ0	B-NP	renew	VBN	O	O
concern	t166	8	concern	O	O	O	O	O	O	O	O	NN1	I-NP	concern	NN	t165:NMOD||t167:NMOD	O
about	t167	8	about	O	O	O	O	O	O	O	O	PRP	B-PP	about	IN	t169:PMOD	O
the	t168	8	the	O	O	O	O	O	O	O	O	AT0	B-NP	the	DT	O	O
volatility	t169	8	volatility	O	O	O	O	O	O	O	O	NN1	I-NP	volatility	NN	t168:NMOD||t170:NMOD||t173:COORD	O
of	t170	8	of	O	O	O	O	O	O	O	O	PRF	B-PP	of	IN	t172:PMOD	O
stock	t171	8	stock	O	O	O	O	O	O	O	O	NN1	B-NP	stock	NN	O	O
prices	t172	8	price	O	O	O	O	O	O	O	O	NN2	I-NP	price	NNS	t171:NMOD	O
and	t173	8	and	O	O	O	O	O	O	O	O	CJC	O	and	CC	t175:CONJ	O
the	t174	8	the	O	O	O	O	O	O	O	O	AT0	B-NP	the	DT	O	O
role	t175	8	role	O	O	O	O	O	O	O	O	NN1	I-NP	role	NN	t174:NMOD||t176:NMOD	O
of	t176	8	of	O	O	O	O	O	O	O	O	PRF	B-PP	of	IN	t179:PMOD	O
computer-aided	t177	8	computer-aided	O	O	O	O	O	O	O	O	AJ0	B-NP	computer-aided	VBN	O	O
program	t178	8	program	O	O	O	O	O	O	O	O	NN1	I-NP	program	NN	O	O
trading	t179	8	trading	O	O	O	O	O	O	O	O	NN1	I-NP	trading	NN	t177:NMOD||t178:NMOD	O
.	t180	8	.	O	O	O	O	O	O	O	O	PUN	O	.	.	O	O

Taken	t181	9	take	O	O	O	O	O	O	O	O	VVN	B-VP	take	VBN	t182:MNR	O
together	t182	9	together	O	O	O	O	O	O	O	O	AV0	B-ADVP	together	RB	O	O
,	t183	9	,	O	O	O	O	O	O	O	O	PUN	O	,	,	O	O
the	t184	9	the	O	O	O	O	O	O	O	O	AT0	B-NP	the	DT	O	O
worries	t185	9	worry	O	O	O	O	O	O	O	O	NN2	I-NP	worry	NNS	t184:NMOD	O
prompted	t186	9	prompt	e26	OCCURRENCE	PAST+NONE+POS	O	O	O	O	O	VVD	B-VP	prompt	VBD	t181:ADV||t183:P||t185:SBJ||t189:OBJ||t192:P	mainVb
a	t187	9	a	O	O	O	O	O	O	O	O	AT0	B-NP	a	DT	O	O
broad	t188	9	broad	O	O	O	O	O	O	O	O	AJ0	I-NP	broad	JJ	O	O
sell-off	t189	9	sell-off	e27	OCCURRENCE	NONE+NONE+POS	O	O	O	O	O	NN1	I-NP	sell-off	NN	t187:NMOD||t188:NMOD||t190:NMOD	O
of	t190	9	of	O	O	O	O	O	O	O	O	PRF	B-PP	of	IN	t191:PMOD	O
stocks	t191	9	stock	O	O	O	O	O	O	O	O	NN2	B-NP	stocks	NNS	O	O
.	t192	9	.	O	O	O	O	O	O	O	O	PUN	O	.	.	O	O

The	t193	10	the	O	O	O	O	O	O	O	O	AT0	B-NP	the	DT	O	O
number	t194	10	number	O	O	O	O	O	O	O	O	NN1	I-NP	number	NN	t193:NMOD||t195:NMOD	O
of	t195	10	of	O	O	O	O	O	O	O	O	PRF	B-PP	of	IN	t196:PMOD	O
stocks	t196	10	stock	O	O	O	O	O	O	O	O	NN2	B-NP	stocks	NNS	t197:LOC||t204:NMOD	O
on	t197	10	on	O	O	O	O	O	O	O	O	PRP	B-PP	on	IN	t202:PMOD	O
the	t198	10	the	O	O	O	O	O	O	O	O	AT0	B-NP	the	DT	O	O
New	t199	10	New	O	O	O	O	O	O	O	O	NP0	I-NP	new	NNP	O	O
York	t200	10	York	O	O	O	O	O	O	O	O	NP0	I-NP	york	NNP	t199:NAME	O
Stock	t201	10	Stock	O	O	O	O	O	O	O	O	NP0	I-NP	stock	NNP	O	O
Exchange	t202	10	Exchange	O	O	O	O	O	O	O	O	NN1	I-NP	exchange	NNP	t198:NMOD||t200:NAME||t201:NAME	O
that	t203	10	that	O	O	O	O	O	O	O	O	CJT	B-NP	that	WDT	O	O
fell	t204	10	fall	e28	OCCURRENCE	PAST+NONE+POS	O	O	O	O	O	VVD	B-VP	fell	VBD	t203:SBJ||t205:ADV||t207:TMP	O
in	t205	10	in	O	O	O	O	O	O	O	O	PRP	B-PP	in	IN	t206:PMOD	O
price	t206	10	price	O	O	O	O	O	O	O	O	NN1	B-NP	price	NN	O	O
yesterday	t207	10	yesterday	O	O	O	tmx29	DATE	1989-10-26	O	O	AV0	B-NP	yesterday	NN	O	O
exceeded	t208	10	exceed	O	O	O	O	O	O	O	O	VVD	I-NP	exceed	VBD	t194:SBJ||t209:OBJ||t210:P||t213:OBJ||t220:P	mainVb
1,000	t209	10	1,000	O	O	O	O	O	O	O	O	CRD	I-NP	1,000	NN	O	O
,	t210	10	,	O	O	O	O	O	O	O	O	PUN	O	,	,	O	O
a	t211	10	a	O	O	O	O	O	O	O	O	AT0	B-NP	a	DT	O	O
key	t212	10	key	O	O	O	O	O	O	O	O	AJ0	I-NP	key	NN	O	O
measure	t213	10	measure	O	O	O	O	O	O	O	O	NN1	I-NP	measure	NN	t211:NMOD||t212:NMOD||t214:NMOD||t217:LOC	O
of	t214	10	of	O	O	O	O	O	O	O	O	PRF	B-PP	of	IN	t216:PMOD	O
underlying	t215	10	underlie	O	O	O	O	O	O	O	O	AJ0	B-NP	underlie	VBG	O	O
sentiment	t216	10	sentiment	O	O	O	O	O	O	O	O	NN1	I-NP	sentiment	NN	t215:NMOD	O
among	t217	10	among	O	O	O	O	O	O	O	O	PRP	B-PP	among	IN	t219:PMOD	O
technical	t218	10	technical	O	O	O	O	O	O	O	O	AJ0	B-NP	technical	JJ	O	O
analysts	t219	10	analyst	O	O	O	O	O	O	O	O	NN2	I-NP	analyst	NNS	t218:NMOD	O
.	t220	10	.	O	O	O	O	O	O	O	O	PUN	O	.	.	O	O

Although	t221	11	although	O	O	O	O	O	O	O	O	CJS	B-SBAR	although	IN	t224:SUB	O
the	t222	11	the	O	O	O	O	O	O	O	O	AT0	B-NP	the	DT	O	O
government	t223	11	government	O	O	O	O	O	O	O	O	NN1	I-NP	government	NN	t222:NMOD	O
said	t224	11	say	e30	REPORTING	PAST+NONE+POS	O	O	O	O	O	VVD	B-VP	say	VBD	t223:SBJ||t227:OBJ	O
the	t225	11	the	O	O	O	O	O	O	O	O	AT0	B-NP	the	DT	O	O
economy	t226	11	economy	O	O	O	O	O	O	O	O	NN1	I-NP	economy	NN	t225:NMOD	O
grew	t227	11	grow	e31	OCCURRENCE	PAST+NONE+POS	O	O	O	O	O	VVD	B-VP	grow	VBD	t226:SBJ||t231:EXT||t232:TMP	O
an	t228	11	a	O	O	O	O	O	O	O	O	AT0	B-NP	an	DT	O	O
estimated	t229	11	estimate	O	O	O	O	O	O	O	O	AJ0	I-NP	estimate	VBN	O	O
2.5	t230	11	2.5	O	O	O	O	O	O	O	O	CRD	I-NP	2.5	CD	O	O
%	t231	11	%	O	O	O	O	O	O	O	O	UNC	I-NP	%	NN	t228:NMOD||t229:NMOD||t230:NMOD	O
in	t232	11	in	O	O	O	O	O	O	O	O	PRP	B-PP	in	IN	t235:PMOD	O
the	t233	11	the	O	O	O	tmx32	DATE	1989-Q3	O	O	AT0	B-NP	the	DT	O	O
third	t234	11	third	O	O	O	tmx32	DATE	1989-Q3	O	O	ORD	I-NP	third	JJ	O	O
quarter	t235	11	quarter	O	O	O	tmx32	DATE	1989-Q3	O	O	NN1	I-NP	quarter	NN	t233:NMOD||t234:NMOD	O
,	t236	11	,	O	O	O	O	O	O	O	O	PUN	O	,	,	O	O
in	t237	11	in	O	O	O	O	O	O	O	O	PRP	B-PP	in	IN	t238:PMOD	O
line	t238	11	line	O	O	O	O	O	O	O	O	PRP	B-NP	line	NN	t239:NMOD	O
with	t239	11	with	O	O	O	O	O	O	O	O	PRP	B-PP	with	IN	t240:PMOD	O
expectations	t240	11	expectation	O	O	O	O	O	O	O	O	NN2	B-NP	expectation	NNS	O	O
,	t241	11	,	O	O	O	O	O	O	O	O	PUN	O	,	,	O	O
analysts	t242	11	analyst	O	O	O	O	O	O	O	O	NN2	B-NP	analyst	NNS	O	O
are	t243	11	be	O	O	O	O	O	O	O	O	VBB	B-VP	be	VBP	t221:ADV||t236:P||t237:ADV||t241:P||t242:SBJ||t244:ADV||t245:VC||t262:P	mainVb
increasingly	t244	11	increasingly	O	O	O	O	O	O	O	O	AV0	I-VP	increasingly	RB	O	mainVb
predicting	t245	11	predict	e33	I_ACTION	PRESENT+PROGRESSIVE+POS	O	O	O	O	O	VVG	I-VP	predict	VBG	t249:OBJ||t258:ADV	mainVb
much	t246	11	much	O	O	O	O	O	O	O	O	AV0	B-ADVP	much	RB	t247:AMOD||t248:AMOD	O
more	t247	11	more	O	O	O	O	O	O	O	O	AV0	I-ADVP	more	RBR	O	O
sluggish	t248	11	sluggish	O	O	O	O	O	O	O	O	AJ0	B-NP	sluggish	JJ	O	O
growth	t249	11	growth	e34	OCCURRENCE	NONE+NONE+POS	O	O	O	O	O	NN1	I-NP	growth	NN	t246:NMOD||t256:PRN	O
--	t250	11	--	O	O	O	O	O	O	O	O	UNC	O	--	:	O	O
and	t251	11	and	O	O	O	O	O	O	O	O	CJC	O	and	CC	t263:CONJ	O
therefore	t252	11	therefore	O	O	O	O	O	O	cs35	O	AV0	B-ADVP	therefore	RB	O	O
more	t253	11	more	O	O	O	O	O	O	cs35	O	AV0	I-ADVP	more	DT	O	O
corporate	t254	11	corporate	O	O	O	O	O	O	cs35	O	AJ0	B-NP	corporate	JJ	t253:AMOD	O
earnings	t255	11	earnings	O	O	O	O	O	O	cs35	O	NN2	I-NP	earnings	NNS	t254:NMOD	O
disappointments	t256	11	disappointment	e36	OCCURRENCE	NONE+NONE+POS	O	O	O	cs35	O	NN2	I-NP	disappointment	NNS	t250:P||t251:DEP||t252:DEP||t255:NMOD||t257:P	O
--	t257	11	--	O	O	O	O	O	O	cs35	O	UNC	O	--	:	O	O
for	t258	11	for	O	O	O	O	O	O	cs35	O	PRP	B-PP	for	IN	t261:PMOD	O
the	t259	11	the	O	O	O	tmx37	DATE	1989-Q4	cs35	O	AT0	B-NP	the	DT	O	O
fourth	t260	11	fourth	O	O	O	tmx37	DATE	1989-Q4	cs35	O	ORD	I-NP	fourth	JJ	O	O
quarter	t261	11	quarter	O	O	O	tmx37	DATE	1989-Q4	cs35	O	NN1	I-NP	quarter	NN	t259:NMOD||t260:NMOD	O
.	t262	11	.	O	O	O	O	O	O	cs35	O	PUN	O	.	.	O	O
"	t263	11	"	O	O	O	O	O	O	cs35	O	PUQ	O	"	NN	O	O

There	t264	12	there	O	O	O	O	O	O	cs35	O	EX0	B-NP	there	EX	O	O
are	t265	12	be	O	O	O	O	O	O	cs35	O	VBB	B-VP	be	VBP	t264:SBJ||t270:PRD	O
a	t266	12	a	O	O	O	O	O	O	cs35	O	AT0	B-NP	a	DT	O	O
lot	t267	12	lot	O	O	O	O	O	O	cs35	O	NN1	I-NP	lot	NN	t266:NMOD||t268:NMOD	O
more	t268	12	more	O	O	O	O	O	O	cs35	O	AV0	B-ADJP	more	RBR	O	O
downward	t269	12	downward	O	O	O	O	O	O	cs35	O	AJ0	I-ADJP	downward	JJ	O	O
revisions	t270	12	revision	e38	OCCURRENCE	PRESENT+NONE+POS	O	O	O	cs35	O	NN2	B-NP	revision	NNS	t267:NMOD||t269:NMOD||t271:NMOD||t274:NMOD	O
of	t271	12	of	O	O	O	O	O	O	cs35	O	PRF	B-PP	of	IN	t273:PMOD	O
earnings	t272	12	earnings	O	O	O	O	O	O	cs35	O	NN2	B-NP	earnings	NNS	O	O
forecasts	t273	12	forecast	O	O	O	O	O	O	cs35	O	NN2	I-NP	forecast	NNS	t272:NMOD	O
than	t274	12	than	O	O	O	O	O	O	cs35	O	CJS	B-PP	than	IN	t276:PMOD	O
upward	t275	12	upward	O	O	O	O	O	O	cs35	O	AJ0	B-NP	upward	JJ	O	O
revisions	t276	12	revision	e39	OCCURRENCE	NONE+NONE+POS	O	O	O	cs35	O	NN2	I-NP	revision	NNS	t275:NMOD	O
,	t277	12	,	O	O	O	O	O	O	cs35	O	PUN	O	,	,	O	O
"	t278	12	"	O	O	O	O	O	O	cs35	O	PUQ	O	"	NNP	O	O
said	t279	12	say	e40	REPORTING	PAST+NONE+POS	O	O	O	cs35	O	VVD	B-VP	say	VBD	t265:OBJ||t277:P||t278:SBJ||t282:SBJ||t291:P||t292:P	mainVb
Abby	t280	12	Abby	O	O	O	O	O	O	cs35	O	NP0	B-NP	abby	NNP	O	O
Joseph	t281	12	Joseph	O	O	O	O	O	O	cs35	O	NP0	I-NP	joseph	NNP	O	O
Cohen	t282	12	Cohen	O	O	O	O	O	O	cs35	O	NP0	I-NP	cohen	NNP	t280:NAME||t281:NAME||t283:P||t286:APPO	O
,	t283	12	,	O	O	O	O	O	O	cs35	O	PUN	O	,	,	O	O
a	t284	12	a	O	O	O	O	O	O	cs35	O	AT0	B-NP	a	DT	O	O
market	t285	12	market	O	O	O	O	O	O	cs35	O	NN1	I-NP	market	NN	O	O
strategist	t286	12	strategist	O	O	O	O	O	O	cs35	O	NN1	I-NP	strategist	NN	t284:NMOD||t285:NMOD||t287:LOC	O
at	t287	12	at	O	O	O	O	O	O	cs35	O	PRP	B-PP	at	IN	t290:PMOD	O
Drexel	t288	12	Drexel	O	O	O	O	O	O	cs35	O	NP0	B-NP	drexel	NNP	O	O
Burnham	t289	12	Burnham	O	O	O	O	O	O	cs35	O	NP0	I-NP	burnham	NNP	O	O
Lambert	t290	12	Lambert	O	O	O	O	O	O	cs35	O	NP0	I-NP	lambert	NNP	t288:NAME||t289:NAME	O
.	t291	12	.	O	O	O	O	O	O	cs35	O	PUN	O	.	.	O	O
"	t292	12	"	O	O	O	O	O	O	cs35	O	PUQ	O	"	.	O	O

People	t293	13	people	O	O	O	O	O	O	cs35	O	NN0	B-NP	people	NN	O	O
are	t294	13	be	O	O	O	O	O	O	cs35	O	VBB	B-VP	be	VBP	t293:SBJ||t295:VC||t307:P||t308:P	mainVb
questioning	t295	13	question	e41	OCCURRENCE	PRESENT+PROGRESSIVE+POS	O	O	O	cs35	O	VVG	I-VP	question	VBG	t297:OBJ||t298:ADV	mainVb
corporate	t296	13	corporate	O	O	O	O	O	O	cs35	O	AJ0	B-NP	corporate	JJ	O	O
profits	t297	13	profit	O	O	O	O	O	O	cs35	O	NN2	I-NP	profits	NNS	t296:NMOD	O
as	t298	13	as	O	O	O	O	O	O	cs35	O	PRP	B-PP	as	IN	t300:PMOD	O
a	t299	13	a	O	O	O	O	O	O	cs35	O	AT0	B-NP	a	DT	O	O
pillar	t300	13	pillar	O	O	O	O	O	O	cs35	O	NN1	I-NP	pillar	NN	t299:NMOD||t301:NMOD||t303:NMOD	O
of	t301	13	of	O	O	O	O	O	O	cs35	O	PRF	B-PP	of	IN	t302:PMOD	O
support	t302	13	support	O	O	O	O	O	O	cs35	O	NN1	B-NP	support	NN	O	O
for	t303	13	for	O	O	O	O	O	O	cs35	O	PRP	B-PP	for	IN	t306:PMOD	O
the	t304	13	the	O	O	O	O	O	O	cs35	O	AT0	B-NP	the	DT	O	O
equity	t305	13	equity	O	O	O	O	O	O	cs35	O	NN1	I-NP	equity	NN	O	O
market	t306	13	market	O	O	O	O	O	O	cs35	O	NN1	I-NP	market	NN	t304:NMOD||t305:NMOD	O
.	t307	13	.	O	O	O	O	O	O	cs35	O	PUN	O	.	.	O	O
"	t308	13	"	O	O	O	O	O	O	cs35	O	PUQ	O	"	''	O	O

The	t309	14	the	O	O	O	O	O	O	cs35	O	AT0	B-NP	the	DT	O	O
bond	t310	14	bond	O	O	O	O	O	O	cs35	O	NN1	I-NP	bond	NN	O	O
market	t311	14	market	O	O	O	O	O	O	cs35	O	NN1	I-NP	market	NN	t309:NMOD||t310:NMOD	O
was	t312	14	be	O	O	O	O	O	O	cs35	O	VBD	B-VP	be	VBD	t311:SBJ||t313:PRD||t318:P	mainVb
unmoved	t313	14	unmoved	e42	OCCURRENCE	PAST+NONE+POS	O	O	O	cs35	O	AJ0	B-ADJP	unmoved	JJ	t314:AMOD	O
by	t314	14	by	O	O	O	O	O	O	cs35	O	PRP	B-PP	by	IN	t317:PMOD	O
the	t315	14	the	O	O	O	O	O	O	cs35	O	AT0	B-NP	the	DT	O	O
economic	t316	14	economic	O	O	O	O	O	O	cs35	O	AJ0	I-NP	economic	JJ	O	O
statistics	t317	14	statistics	O	O	O	O	O	O	cs35	O	NN0	I-NP	statistics	NNS	t315:NMOD||t316:NMOD	O
.	t318	14	.	O	O	O	O	O	O	cs35	O	PUN	O	.	.	O	O

While	t319	15	while	O	O	O	O	O	O	cs35	O	CJS	B-SBAR	while	IN	t322:SUB	O
bond	t320	15	bond	O	O	O	O	O	O	cs35	O	NN1	B-NP	bond	NN	O	O
investors	t321	15	investor	O	O	O	O	O	O	cs35	O	NN2	I-NP	investor	NNS	t320:NMOD	O
would	t322	15	would	O	O	O	O	O	O	cs35	O	VM0	B-VP	would	MD	t321:SBJ||t323:VC	O
have	t323	15	have	O	O	O	O	O	O	cs35	O	VHI	I-VP	have	VB	t324:VC	O
preferred	t324	15	prefer	e43	I_STATE	NONE+PERFECTIVE+POS	O	O	O	cs35	O	VVN	I-VP	prefer	VBN	t325:OBJ||t326:OPRD	O
growth	t325	15	growth	e44	OCCURRENCE	NONE+NONE+POS	O	O	O	cs35	O	NN1	B-NP	growth	NN	O	O
to	t326	15	to	O	O	O	O	O	O	cs35	O	TO0	B-VP	to	TO	t327:IM	O
be	t327	15	be	e45	STATE	INFINITIVE+NONE+POS	O	O	O	cs35	O	VBI	I-VP	be	VB	t330:PRD	O
a	t328	15	a	O	O	O	O	O	O	cs35	O	AT0	B-NP	a	DT	O	O
little	t329	15	little	O	O	O	O	O	O	cs35	O	AJ0	I-NP	little	JJ	t328:NMOD	O
slower	t330	15	slower	O	O	O	O	O	O	cs35	O	NN1	I-NP	slow	JJR	t329:AMOD	O
,	t331	15	,	O	O	O	O	O	O	cs35	O	PUN	O	,	,	O	O
they	t332	15	they	O	O	O	O	O	O	cs35	O	PNP	B-NP	they	PRP	O	O
were	t333	15	be	O	O	O	O	O	O	cs35	O	VBD	B-VP	be	VBD	t319:ADV||t331:P||t332:SBJ||t334:VC||t353:P	mainVb
cheered	t334	15	cheer	e46	OCCURRENCE	PAST+NONE+POS	O	O	O	cs35	O	VVN	I-VP	cheer	VBN	t335:LGS	mainVb
by	t335	15	by	O	O	O	O	O	O	cs35	O	PRP	B-PP	by	IN	t337:PMOD	O
inflation	t336	15	inflation	O	O	O	O	O	O	cs35	O	NN1	B-NP	inflation	NN	O	O
measures	t337	15	measure	O	O	O	O	O	O	cs35	O	NN2	I-NP	measure	NNS	t336:NMOD||t338:LOC||t342:NMOD	O
in	t338	15	in	O	O	O	O	O	O	cs35	O	PRP	B-PP	in	IN	t340:PMOD	O
the	t339	15	the	O	O	O	O	O	O	cs35	O	AT0	B-NP	the	DT	O	O
data	t340	15	datum	O	O	O	O	O	O	cs35	O	NN0	I-NP	data	NNS	t339:NMOD	O
that	t341	15	that	O	O	O	O	O	O	cs35	O	CJT	B-NP	that	WDT	O	O
showed	t342	15	show	O	O	O	O	O	O	cs35	O	VVD	B-VP	show	VBD	t341:SBJ||t343:OBJ||t344:OPRD	O
prices	t343	15	price	O	O	O	O	O	O	cs35	O	NN2	B-NP	price	NNS	O	O
rising	t344	15	rise	e47	OCCURRENCE	PRESPART+NONE+POS	O	O	O	cs35	O	VVG	B-VP	rise	VBG	t345:MNR	O
at	t345	15	at	O	O	O	O	O	O	cs35	O	PRP	B-PP	at	IN	t349:PMOD	O
a	t346	15	a	O	O	O	O	O	O	cs35	O	AT0	B-NP	a	DT	O	O
modest	t347	15	modest	O	O	O	O	O	O	cs35	O	AJ0	I-NP	modest	JJ	O	O
annual	t348	15	annual	O	O	O	O	O	O	cs35	O	AJ0	I-NP	annual	JJ	O	O
rate	t349	15	rate	O	O	O	O	O	O	cs35	O	NN1	I-NP	rate	NN	t346:NMOD||t347:NMOD||t348:NMOD||t350:NMOD	O
of	t350	15	of	O	O	O	O	O	O	cs35	O	PRF	B-PP	of	IN	t352:PMOD	O
2.9	t351	15	2.9	O	O	O	O	O	O	cs35	O	CRD	B-NP	2.9	CD	O	O
%	t352	15	%	O	O	O	O	O	O	cs35	O	UNC	I-NP	%	NN	t351:NMOD	O
.	t353	15	.	O	O	O	O	O	O	cs35	O	PUN	O	.	.	O	O

That	t354	16	that	O	O	O	O	O	O	cs35	O	DT0	B-NP	that	DT	O	O
is	t355	16	be	O	O	O	O	O	O	cs35	O	VBZ	B-VP	be	VBZ	t354:SBJ||t358:PRD	O
another	t356	16	another	O	O	O	O	O	O	cs35	O	DT0	B-NP	another	DT	O	O
small	t357	16	small	O	O	O	O	O	O	cs35	O	AJ0	I-NP	small	JJ	O	O
encouragement	t358	16	encouragement	e48	I_ACTION	NONE+NONE+POS	O	O	O	cs35	O	NN1	I-NP	encouragement	NN	t356:NMOD||t357:NMOD||t359:NMOD	O
for	t359	16	for	O	O	O	O	O	O	cs35	O	PRP	B-PP	for	IN	t363:SUB	O
the	t360	16	the	O	O	O	O	O	O	cs35	O	AT0	B-NP	the	DT	O	O
Federal	t361	16	Federal	O	O	O	O	O	O	cs35	O	AJ0	I-NP	federal	NNP	O	O
Reserve	t362	16	Reserve	O	O	O	O	O	O	cs35	O	NN1	I-NP	reserve	NNP	t360:NMOD||t361:NAME	O
to	t363	16	to	O	O	O	O	O	O	cs35	O	TO0	B-VP	to	TO	t362:SBJ||t364:IM	O
lower	t364	16	lower	e49	OCCURRENCE	INFINITIVE+NONE+POS	O	O	O	cs35	O	VVI	I-VP	lower	VB	t366:OBJ||t367:TMP	O
interest	t365	16	interest	O	O	O	O	O	O	cs35	O	NN1	B-NP	interest	NN	O	O
rates	t366	16	rate	O	O	O	O	O	O	cs35	O	NN2	I-NP	rates	NNS	t365:NMOD	O
in	t367	16	in	O	O	O	O	O	O	cs35	O	PRP	B-PP	in	IN	t369:PMOD	O
coming	t368	16	come	O	O	O	tmx50	DURATION	PXW	cs35	O	VVG	B-NP	coming	JJ	O	O
weeks	t369	16	week	O	O	O	tmx50	DURATION	PXW	cs35	O	NN2	I-NP	week	NNS	t368:NMOD	O
,	t370	16	,	O	O	O	O	O	O	cs35	O	PUN	O	,	,	O	O
they	t371	16	they	O	O	O	O	O	O	cs35	O	PNP	B-NP	they	PRP	O	O
reasoned	t372	16	reason	e51	I_ACTION	PAST+NONE+POS	O	O	O	cs35	O	VVD	B-VP	reason	VBD	t355:OBJ||t370:P||t371:SBJ||t373:P	mainVb
.	t373	16	.	O	O	O	O	O	O	cs35	O	PUN	O	.	.	O	O

In	t374	17	in	O	O	O	O	O	O	cs35	O	PRP	B-PP	in	IN	t377:PMOD	O
major	t375	17	major	O	O	O	O	O	O	cs35	O	AJ0	B-NP	major	JJ	O	O
market	t376	17	market	O	O	O	O	O	O	cs35	O	NN1	I-NP	market	NN	t375:NMOD	O
activity	t377	17	activity	e52	OCCURRENCE	NONE+NONE+POS	O	O	O	cs35	O	NN1	I-NP	activity	NN	t376:NMOD	O
:	t378	17	:	O	O	O	O	O	O	cs35	O	PUN	O	:	:	O	O
Stock	t379	17	stock	O	O	O	O	O	O	cs35	O	NP0	B-NP	stock	NNP	O	O
prices	t380	17	price	O	O	O	O	O	O	cs35	O	NN2	I-NP	price	NNS	t379:NMOD	O
fell	t381	17	fall	e53	OCCURRENCE	PAST+NONE+POS	O	O	O	cs35	O	VVD	B-VP	fell	VBD	t374:LOC||t378:P||t380:SBJ||t382:MNR||t383:LOC||t386:P	mainVb
sharply	t382	17	sharply	O	O	O	O	O	O	cs35	O	AV0	B-ADVP	sharply	RB	O	O
in	t383	17	in	O	O	O	O	O	O	cs35	O	PRP	B-PP	in	IN	t385:PMOD	O
active	t384	17	active	O	O	O	O	O	O	cs35	O	AJ0	B-NP	active	JJ	O	O
trading	t385	17	trading	O	O	O	O	O	O	cs35	O	NN1	I-NP	trading	NN	t384:NMOD	O
.	t386	17	.	O	O	O	O	O	O	cs35	O	PUN	O	.	.	O	O

Volume	t387	18	volume	O	O	O	O	O	O	cs35	O	NP0	B-NP	volume	NN	t388:LOC	O
on	t388	18	on	O	O	O	O	O	O	cs35	O	PRP	B-PP	on	IN	t393:PMOD	O
the	t389	18	the	O	O	O	O	O	O	cs35	O	AT0	B-NP	the	DT	O	O
New	t390	18	New	O	O	O	O	O	O	cs35	O	NP0	I-NP	new	NNP	O	O
York	t391	18	York	O	O	O	O	O	O	cs35	O	NP0	I-NP	york	NNP	t390:NAME	O
Stock	t392	18	Stock	O	O	O	O	O	O	cs35	O	NP0	I-NP	stock	NNP	O	O
Exchange	t393	18	Exchange	O	O	O	O	O	O	cs35	O	NP0	I-NP	exchange	NNP	t389:NMOD||t391:NAME||t392:NAME	O
totaled	t394	18	total	e54	OCCURRENCE	PAST+NONE+POS	O	O	O	cs35	O	VVD	B-VP	total	VBD	t387:SBJ||t397:OBJ||t398:P	mainVb
175.2	t395	18	175.2	O	O	O	O	O	O	cs35	O	CRD	B-NP	175.2	CD	O	O
million	t396	18	million	O	O	O	O	O	O	cs35	O	CRD	I-NP	million	CD	t395:DEP	O
shares	t397	18	share	O	O	O	O	O	O	cs35	O	NN2	I-NP	share	NNS	t396:NMOD	O
.	t398	18	.	O	O	O	O	O	O	cs35	O	PUN	O	.	.	O	O

Declining	t399	19	decline	O	O	O	O	O	O	cs35	O	VVG	B-VP	decline	VBG	O	O
issues	t400	19	issue	O	O	O	O	O	O	cs35	O	NN2	B-NP	issue	NNS	t399:NMOD||t401:LOC	O
on	t401	19	on	O	O	O	O	O	O	cs35	O	PRP	B-PP	on	IN	t404:PMOD	O
the	t402	19	the	O	O	O	O	O	O	cs35	O	AT0	B-NP	the	DT	O	O
Big	t403	19	Big	O	O	O	O	O	O	cs35	O	AJ0	I-NP	big	NNP	O	O
Board	t404	19	Board	O	O	O	O	O	O	cs35	O	NN1	I-NP	board	NNP	t402:NMOD||t403:NAME	O
outstripped	t405	19	outstrip	e55	OCCURRENCE	PAST+NONE+POS	O	O	O	cs35	O	VVD	B-VP	outstrip	VBD	t400:SBJ||t406:OBJ||t407:HMOD||t408:ADV||t410:P	mainVb
gainers	t406	19	gainer	O	O	O	O	O	O	cs35	O	NN2	B-NP	gainer	NNS	O	O
1,141	t407	19	1,141	O	O	O	O	O	O	cs35	O	CRD	I-NP	1,141	NN	O	O
to	t408	19	to	O	O	O	O	O	O	cs35	O	PRP	B-PP	to	TO	t409:PMOD	O
406	t409	19	406	O	O	O	O	O	O	cs35	O	CRD	B-NP	406	CD	O	O
.	t410	19	.	O	O	O	O	O	O	cs35	O	PUN	O	.	.	O	O

Bond	t411	20	bond	O	O	O	O	O	O	cs35	O	NP0	B-NP	bond	NN	O	O
prices	t412	20	price	O	O	O	O	O	O	cs35	O	NN2	I-NP	price	NNS	t411:NMOD	O
were	t413	20	be	O	O	O	O	O	O	cs35	O	VBD	B-VP	be	VBD	t412:SBJ||t415:PRD||t416:P	mainVb
barely	t414	20	barely	O	O	O	O	O	O	cs35	O	AV0	B-ADJP	barely	RB	O	O
higher	t415	20	higher	e56	STATE	PAST+NONE+POS	O	O	O	cs35	O	AJC	I-ADJP	higher	JJR	t414:AMOD	O
.	t416	20	.	O	O	O	O	O	O	cs35	O	PUN	O	.	.	O	O

The	t417	21	the	O	O	O	O	O	O	cs35	O	AT0	B-NP	the	DT	O	O
Treasury	t418	21	Treasury	O	O	O	O	O	O	cs35	O	NN1	I-NP	treasury	NNP	t417:NMOD||t419:SUFFIX	O
's	t419	21	's	O	O	O	O	O	O	cs35	O	POS	B-NP	's	POS	O	O
benchmark	t420	21	benchmark	O	O	O	O	O	O	cs35	O	NN1	I-NP	benchmark	NN	O	O
30-year	t421	21	30-year	O	O	O	tmx57	DURATION	P30Y	cs35	O	AJ0	I-NP	30-year	NN	t418:NMOD||t420:NMOD	O
rose	t422	21	rise	e58	OCCURRENCE	PAST+NONE+POS	O	O	O	cs35	O	NN1	B-VP	rise	VBD	t421:SBJ||t423:ADV||t424:P	mainVb
fractionally	t423	21	fractionally	O	O	O	O	O	O	cs35	O	AV0	B-ADVP	fractionally	RB	O	O
.	t424	21	.	O	O	O	O	O	O	cs35	O	PUN	O	.	.	O	O

Yield	t425	22	yield	O	O	O	O	O	O	cs35	O	NP0	B-NP	yield	NN	t426:NMOD	O
on	t426	22	on	O	O	O	O	O	O	cs35	O	PRP	B-PP	on	IN	t428:PMOD	O
the	t427	22	the	O	O	O	O	O	O	cs35	O	AT0	B-NP	the	DT	O	O
issue	t428	22	issue	O	O	O	O	O	O	cs35	O	NN1	I-NP	issue	NN	t427:NMOD	O
was	t429	22	be	O	O	O	O	O	O	cs35	O	VBD	B-VP	be	VBD	t425:SBJ||t431:PRD||t432:P	mainVb
7.88	t430	22	7.88	O	O	O	O	O	O	cs35	O	CRD	B-NP	7.88	CD	O	O
%	t431	22	%	O	O	O	O	O	O	cs35	O	UNC	I-NP	%	NN	t430:NMOD	O
.	t432	22	.	O	O	O	O	O	O	cs35	O	PUN	O	.	.	O	O

The	t433	23	the	O	O	O	O	O	O	cs35	O	AT0	B-NP	the	DT	O	O
dollar	t434	23	dollar	O	O	O	O	O	O	cs35	O	NN1	I-NP	dollar	NN	t433:NMOD	O
rose	t435	23	rise	e59	OCCURRENCE	PAST+NONE+POS	O	O	O	cs35	O	VVD	B-VP	rise	VBD	t434:SBJ||t436:EXT||t437:ADV||t441:P	mainVb
modestly	t436	23	modestly	O	O	O	O	O	O	cs35	O	AV0	B-ADVP	modestly	RB	O	O
against	t437	23	against	O	O	O	O	O	O	cs35	O	PRP	B-PP	against	IN	t440:PMOD	O
most	t438	23	most	O	O	O	O	O	O	cs35	O	DT0	B-NP	most	DT	O	O
major	t439	23	major	O	O	O	O	O	O	cs35	O	AJ0	I-NP	major	JJ	O	O
currencies	t440	23	currency	O	O	O	O	O	O	cs35	O	NN2	I-NP	currency	NNS	t438:NMOD||t439:NMOD	O
.	t441	23	.	O	O	O	O	O	O	cs35	O	PUN	O	.	.	O	O

In	t442	24	in	O	O	O	O	O	O	cs35	O	AV0	B-ADVP	in	IN	t446:PMOD	O
late	t443	24	late	O	O	O	O	O	O	cs35	O	AV0	I-ADVP	late	JJ	O	O
New	t444	24	New	O	O	O	O	O	O	cs35	O	NP0	B-NP	new	NNP	O	O
York	t445	24	York	O	O	O	O	O	O	cs35	O	NP0	I-NP	york	NNP	t444:NAME	O
trading	t446	24	trade	O	O	O	O	O	O	cs35	O	VVG	B-VP	trading	NN	t443:NMOD||t445:NMOD	O
the	t447	24	the	O	O	O	O	O	O	cs35	O	AT0	B-NP	the	DT	O	O
dollar	t448	24	dollar	O	O	O	O	O	O	cs35	O	NN1	I-NP	dollar	NN	t447:NMOD	O
was	t449	24	be	O	O	O	O	O	O	cs35	O	VBD	B-VP	be	VBD	t442:LOC||t448:SBJ||t450:PRD||t456:ADV||t464:P	mainVb
at	t450	24	at	O	O	O	O	O	O	cs35	O	PRP	B-PP	at	IN	t452:PMOD	O
1.8400	t451	24	1.8400	O	O	O	O	O	O	cs35	O	CRD	B-NP	1.8400	CD	O	O
marks	t452	24	mark	O	O	O	O	O	O	cs35	O	NN2	I-NP	marks	NNS	t451:NMOD||t453:COORD	O
and	t453	24	and	O	O	O	O	O	O	cs35	O	CJC	O	and	CC	t455:CONJ	O
142.10	t454	24	142.10	O	O	O	O	O	O	cs35	O	CRD	B-NP	142.10	CD	O	O
yen	t455	24	yen	O	O	O	O	O	O	cs35	O	NN1	I-NP	yen	NN	t454:NMOD	O
compared	t456	24	compare	O	O	O	O	O	O	cs35	O	VVN	B-PP	compare	VBN	t457:PMOD	O
with	t457	24	with	O	O	O	O	O	O	cs35	O	PRP	B-PP	with	IN	t459:PMOD	O
1.8353	t458	24	1.8353	O	O	O	O	O	O	cs35	O	CRD	B-NP	1.8353	CD	O	O
marks	t459	24	mark	O	O	O	O	O	O	cs35	O	NN2	I-NP	marks	NNS	t458:NMOD||t460:COORD||t463:TMP	O
and	t460	24	and	O	O	O	O	O	O	cs35	O	CJC	O	and	CC	t462:CONJ	O
141.52	t461	24	141.52	O	O	O	O	O	O	cs35	O	CRD	B-NP	141.52	CD	O	O
yen	t462	24	yen	O	O	O	O	O	O	cs35	O	NN1	I-NP	yen	NN	t461:NMOD	O
Wednesday	t463	24	Wednesday	O	O	O	tmx60	DATE	1989-10-25	cs35	O	NP0	B-NP	wednesday	NNP	O	O
.	t464	24	.	O	O	O	O	O	O	cs35	O	PUN	O	.	.	O	O

The	t465	25	the	O	O	O	O	O	O	cs35	O	AT0	B-NP	the	DT	O	O
dollar	t466	25	dollar	O	O	O	O	O	O	cs35	O	NN1	I-NP	dollar	NN	t465:NMOD	O
soared	t467	25	soar	e61	OCCURRENCE	PAST+NONE+POS	O	O	O	cs35	O	VVD	B-VP	soar	VBD	t466:SBJ||t468:ADV||t482:P	mainVb
against	t468	25	against	O	O	O	O	O	O	cs35	O	PRP	B-PP	against	IN	t470:PMOD	O
the	t469	25	the	O	O	O	O	O	O	cs35	O	AT0	B-NP	the	DT	O	O
pound	t470	25	pound	O	O	O	O	O	O	cs35	O	NN1	I-NP	pound	NN	t469:NMOD||t471:P||t473:NMOD	O
,	t471	25	,	O	O	O	O	O	O	cs35	O	PUN	O	,	,	O	O
which	t472	25	which	O	O	O	O	O	O	cs35	O	DTQ	B-NP	which	WDT	O	O
was	t473	25	be	O	O	O	O	O	O	cs35	O	VBD	B-VP	be	VBD	t472:SBJ||t474:PRD||t477:ADV	O
at	t474	25	at	O	O	O	O	O	O	cs35	O	PRP	B-PP	at	IN	t475:PMOD	O
$	t475	25	$	O	O	O	O	O	O	cs35	O	NN0	B-NP	$	$	t476:NMOD	O
1.5765	t476	25	1.5765	O	O	O	O	O	O	cs35	O	CRD	I-NP	1.5765	CD	O	O
compared	t477	25	compare	O	O	O	O	O	O	cs35	O	VVN	B-PP	compare	VBN	t478:PMOD	O
with	t478	25	with	O	O	O	O	O	O	cs35	O	PRP	B-PP	with	IN	t479:PMOD	O
$	t479	25	$	O	O	O	O	O	O	cs35	O	CRD	B-NP	$	$	t480:NMOD||t481:TMP	O
1.6145	t480	25	1.6145	O	O	O	O	O	O	cs35	O	CRD	I-NP	1.6145	CD	O	O
Wednesday	t481	25	Wednesday	O	O	O	tmx62	DATE	1989-10-25	cs35	O	NP0	B-NP	wednesday	NNP	O	O
.	t482	25	.	O	O	O	O	O	O	cs35	O	PUN	O	.	.	O	O
