DCT_1989-10-26	O	O	O	O	O	O	tmx0	DATE	1989-10-26	O	O	NP0	B-NP	dct_1989-10-26	LS	O	O

Cineplex	t1	1	Cineplex	O	O	O+O+O	O	O	O	O	O	NP0	B-NP	cineplex	NNP	O	O
Odeon	t2	1	Odeon	O	O	O+O+O	O	O	O	O	O	NP0	I-NP	odeon	NNP	t1:NAME	O
Corp.	t3	1	Corp.	O	O	O+O+O	O	O	O	O	O	NP0	B-NP	corp.	NNP	O	O
directors	t4	1	director	O	O	O+O+O	O	O	O	O	O	NN2	I-NP	director	NNS	t2:NAME||t3:NAME	O
said	t5	1	say	e1	REPORTING	PAST+NONE+POS	O	O	O	O	O	VVD	B-VP	say	VBD	t4:SBJ||t17:OBJ||t34:P	mainVb
the	t6	1	the	O	O	O	O	O	O	O	O	AT0	B-NP	the	DT	O	O
company	t7	1	company	O	O	O	O	O	O	O	O	NN1	I-NP	company	NN	t6:NMOD||t8:SUFFIX	O
's	t8	1	's	O	O	O	O	O	O	O	O	POS	B-NP	's	POS	O	O
chairman	t9	1	chairman	O	O	O	O	O	O	O	O	NN1	I-NP	chairman	NN	t7:NMOD||t10:COORD||t13:P||t15:APPO||t16:P	O
and	t10	1	and	O	O	O	O	O	O	O	O	CJC	O	and	CC	t12:CONJ	O
chief	t11	1	chief	O	O	O	O	O	O	O	O	AJ0	B-NP	chief	JJ	O	O
executive	t12	1	executive	O	O	O	O	O	O	O	O	NN1	I-NP	executive	NN	t11:NMOD	O
,	t13	1	,	O	O	O	O	O	O	O	O	PUN	O	,	,	O	O
Garth	t14	1	Garth	O	O	O	O	O	O	O	O	NP0	B-NP	garth	NNP	O	O
Drabinsky	t15	1	Drabinsky	O	O	O	O	O	O	O	O	NP0	I-NP	drabinsky	NNP	t14:NAME	O
,	t16	1	,	O	O	O	O	O	O	O	O	PUN	O	,	,	O	O
is	t17	1	be	O	O	O	O	O	O	O	O	VBZ	B-VP	be	VBZ	t9:SBJ||t18:VC	O
considering	t18	1	consider	e2	I_STATE	PRESENT+PROGRESSIVE+POS	O	O	O	O	O	VVG	I-VP	consider	VBG	t19:OPRD	O
bidding	t19	1	bid	e3	OCCURRENCE	NONE+NONE+POS	O	O	O	O	O	VVG	I-VP	bid	VBG	t23:OBJ||t30:PRP	O
780.6	t20	1	780.6	O	O	O	O	O	O	O	O	CRD	B-NP	780.6	CD	O	O
million	t21	1	million	O	O	O	O	O	O	O	O	CRD	I-NP	million	CD	t20:DEP	O
Canadian	t22	1	canadian	O	O	O	O	O	O	O	O	AJ0	I-NP	canadian	JJ	O	O
dollars	t23	1	dollar	O	O	O	O	O	O	O	O	NN2	I-NP	dollar	NNS	t21:NMOD||t22:NMOD||t24:APPO	O
-LRB-	t24	1	-lrb-	O	O	O	O	O	O	O	O	AJ0	I-NP	-lrb-	VBD	t29:OBJ	O
US	t25	1	US	O	O	O	O	O	O	O	O	NP0	I-NP	us	NNP	O	O
$	t26	1	$	O	O	O	O	O	O	O	O	CRD	B-NP	$	$	t27:DEP||t28:DEP	O
666	t27	1	666	O	O	O	O	O	O	O	O	CRD	I-NP	666	CD	O	O
million	t28	1	million	O	O	O	O	O	O	O	O	CRD	I-NP	million	CD	O	O
-RRB-	t29	1	-rrb-	O	O	O	O	O	O	O	O	UNC	I-NP	-rrb-	NNP	t25:NAME||t26:NMOD	O
to	t30	1	to	O	O	O	O	O	O	O	O	TO0	B-VP	to	TO	t31:IM	O
acquire	t31	1	acquire	e4	OCCURRENCE	INFINITIVE+NONE+POS	O	O	O	O	O	VVI	I-VP	acquire	VB	t33:OBJ	O
the	t32	1	the	O	O	O	O	O	O	O	O	AT0	B-NP	the	DT	O	O
company	t33	1	company	O	O	O	O	O	O	O	O	NN1	I-NP	company	NN	t32:NMOD	O
.	t34	1	.	O	O	O	O	O	O	O	O	PUN	O	.	.	O	O

The	t35	2	the	O	O	O	O	O	O	O	O	AT0	B-NP	the	DT	O	O
board	t36	2	board	O	O	O	O	O	O	O	O	NN1	I-NP	board	NN	t35:NMOD	O
said	t37	2	say	e5	REPORTING	PAST+NONE+POS	O	O	O	O	O	VVD	B-VP	say	VBD	t36:SBJ||t45:OBJ||t63:P	mainVb
Mr.	t38	2	Mr.	O	O	O	O	O	O	O	O	NP0	B-NP	mr.	NNP	O	O
Drabinsky	t39	2	Drabinsky	O	O	O	O	O	O	O	O	NP0	I-NP	drabinsky	NNP	t38:TITLE||t40:COORD	O
and	t40	2	and	O	O	O	O	O	O	O	O	CJC	O	and	CC	t44:CONJ	O
Vice	t41	2	Vice	O	O	O	O	O	O	O	O	AJ0	B-NP	vice	NN	O	O
Chairman	t42	2	Chairman	O	O	O	O	O	O	O	O	NN1	I-NP	chairman	NN	t41:NMOD	O
Myron	t43	2	Myron	O	O	O	O	O	O	O	O	NP0	I-NP	myron	NNP	O	O
Gottlieb	t44	2	Gottlieb	O	O	O	O	O	O	O	O	NP0	I-NP	gottlieb	NNP	t42:TITLE||t43:NAME	O
are	t45	2	be	O	O	O	O	O	O	O	O	VBB	B-VP	be	VBP	t39:SBJ||t46:VC	O
negotiating	t46	2	negotiate	e6	I_ACTION	PRESENT+PROGRESSIVE+POS	O	O	O	O	O	VVG	I-VP	negotiate	VBG	t47:OBJ||t48:TMP	O
financing	t47	2	financing	e7	OCCURRENCE	NONE+NONE+POS	O	O	O	O	O	VVG	I-VP	financing	NN	O	O
before	t48	2	before	O	O	O	O	O	O	O	O	PRP	B-PP	before	IN	t49:PMOD	O
offering	t49	2	offer	e8	I_ACTION	PRESPART+NONE+POS	O	O	O	O	O	VVG	B-VP	offer	VBG	t50:OBJ||t51:OBJ||t55:PRP	O
C	t50	2	c	O	O	O	O	O	O	O	O	ZZ0	B-NP	c	NNP	O	O
$	t51	2	$	O	O	O	O	O	O	O	O	NN0	I-NP	$	$	t52:NMOD||t54:ADV	O
16.40	t52	2	16.40	O	O	O	O	O	O	O	O	CRD	I-NP	16.40	CD	O	O
a	t53	2	a	O	O	O	O	O	O	O	O	AT0	B-NP	a	DT	O	O
share	t54	2	share	O	O	O	O	O	O	O	O	NN1	I-NP	share	NN	t53:NMOD	O
to	t55	2	to	O	O	O	O	O	O	O	O	TO0	B-VP	to	TO	t56:IM	O
acquire	t56	2	acquire	e9	OCCURRENCE	INFINITIVE+NONE+POS	O	O	O	O	O	VVI	I-VP	acquire	VB	t57:OBJ	O
all	t57	2	all	O	O	O	O	O	O	O	O	DT0	B-NP	all	DT	t58:NMOD	O
of	t58	2	of	O	O	O	O	O	O	O	O	PRF	B-PP	of	IN	t61:PMOD	O
Cineplex	t59	2	Cineplex	O	O	O	O	O	O	O	O	NP0	B-NP	cineplex	NNP	t60:SUFFIX	O
's	t60	2	's	O	O	O	O	O	O	O	O	POS	B-NP	's	POS	O	O
shares	t61	2	share	O	O	O	O	O	O	O	O	NN2	I-NP	share	NNS	t59:NMOD||t62:APPO	O
outstanding	t62	2	outstanding	O	O	O	O	O	O	O	O	VVG	B-VP	outstanding	JJ	O	O
.	t63	2	.	O	O	O	O	O	O	O	O	PUN	O	.	.	O	O

The	t64	3	the	O	O	O	O	O	O	O	O	AT0	B-NP	the	DT	O	O
directors	t65	3	director	O	O	O	O	O	O	O	O	NN2	I-NP	director	NNS	t64:NMOD	O
added	t66	3	add	e10	REPORTING	PAST+NONE+POS	O	O	O	O	O	VVD	B-VP	add	VBD	t65:SBJ||t67:OBJ||t99:P	mainVb
that	t67	3	that	O	O	O	O	O	O	O	O	CJT	B-SBAR	that	IN	t71:SUB||t82:COORD	O
the	t68	3	the	O	O	O	O	O	O	O	O	AT0	B-NP	the	DT	O	O
two	t69	3	two	O	O	O	O	O	O	O	O	CRD	I-NP	two	CD	O	O
executives	t70	3	executive	O	O	O	O	O	O	O	O	NN2	I-NP	executive	NNS	t68:NMOD||t69:NMOD	O
have	t71	3	have	O	O	O	O	O	O	O	O	VHB	B-VP	have	VBP	t70:SBJ||t72:ADV||t73:VC	O
n't	t72	3	not	O	O	O	O	O	O	O	O	XX0	I-VP	not	RB	O	O
reached	t73	3	reach	e11	OCCURRENCE	PRESENT+PERFECTIVE+NEG	O	O	O	O	O	VVN	I-VP	reach	VBN	t76:OBJ	O
a	t74	3	a	O	O	O	O	O	O	O	O	AT0	B-NP	a	DT	O	O
final	t75	3	final	O	O	O	O	O	O	O	O	AJ0	I-NP	final	JJ	O	O
decision	t76	3	decision	e12	OCCURRENCE	NONE+NONE+POS	O	O	O	O	O	NN1	I-NP	decision	NN	t74:NMOD||t75:NMOD||t77:NMOD	O
to	t77	3	to	O	O	O	O	O	O	O	O	TO0	B-VP	to	TO	t78:IM	O
proceed	t78	3	proceed	e13	OCCURRENCE	INFINITIVE+NONE+POS	O	O	O	O	O	VVI	I-VP	proceed	VB	t79:ADV	O
with	t79	3	with	O	O	O	O	O	O	O	O	PRP	B-PP	with	IN	t81:PMOD	O
a	t80	3	a	O	O	O	O	O	O	O	O	AT0	B-NP	a	DT	O	O
bid	t81	3	bid	e14	OCCURRENCE	NONE+NONE+POS	O	O	O	O	O	NN1	I-NP	bid	NN	t80:NMOD	O
and	t82	3	and	O	O	O	O	O	O	O	O	CJC	O	and	CC	t83:CONJ	O
that	t83	3	that	O	O	O	O	O	O	O	O	DT0	B-SBAR	that	IN	t91:SUB	O
until	t84	3	until	O	O	O	O	O	O	O	O	PRP	B-PP	until	IN	t87:SUB	O
an	t85	3	a	O	O	O	O	O	O	O	O	AT0	B-NP	an	DT	O	O
offer	t86	3	offer	e15	OCCURRENCE	NONE+NONE+POS	O	O	O	O	O	NN1	I-NP	offer	NN	t85:NMOD	O
is	t87	3	be	O	O	O	O	O	O	O	O	VBZ	B-VP	be	VBZ	t86:SBJ||t88:VC	O
made	t88	3	make	e16	OCCURRENCE	PRESENT+PERFECTIVE+POS	O	O	O	O	O	VVN	I-VP	make	VBN	O	O
the	t89	3	the	O	O	O	O	O	O	O	O	AT0	B-NP	the	DT	O	O
board	t90	3	board	O	O	O	O	O	O	O	O	NN1	I-NP	board	NN	t89:NMOD	O
will	t91	3	will	O	O	O	O	O	O	O	O	VM0	B-VP	will	MD	t84:TMP||t90:SBJ||t92:VC	O
continue	t92	3	continue	e17	ASPECTUAL	FUTURE+NONE+POS	O	O	O	O	O	VVI	I-VP	continue	VB	t93:OPRD	O
seeking	t93	3	seek	e18	I_ACTION	PRESPART+NONE+POS	O	O	O	O	O	VVG	I-VP	seek	VBG	t95:OBJ||t96:ADV	O
higher	t94	3	higher	O	O	O	O	O	O	O	O	AJC	B-NP	higher	JJR	O	O
offers	t95	3	offer	O	O	O	O	O	O	O	O	NN2	I-NP	offer	NNS	t94:NMOD	O
from	t96	3	from	O	O	O	O	O	O	O	O	PRP	B-PP	from	IN	t98:PMOD	O
other	t97	3	other	O	O	O	O	O	O	O	O	AJ0	B-NP	other	JJ	O	O
bidders	t98	3	bidder	O	O	O	O	O	O	O	O	NN2	I-NP	bidder	NNS	t97:NMOD	O
.	t99	3	.	O	O	O	O	O	O	O	O	PUN	O	.	.	O	O

The	t100	4	the	O	O	O	O	O	O	O	O	AT0	B-NP	the	DT	O	O
directors	t101	4	director	O	O	O	O	O	O	O	O	NN2	I-NP	director	NNS	t100:NMOD	O
said	t102	4	say	e19	REPORTING	PAST+NONE+POS	O	O	O	O	O	VVD	B-VP	say	VBD	t101:SBJ||t118:OBJ||t134:P||t135:P	mainVb
if	t103	4	if	O	O	O	O	O	O	O	O	CJS	B-SBAR	if	IN	t108:SUB	O
Messrs.	t104	4	Messrs.	O	O	O	O	O	O	O	O	NP0	B-NP	messrs.	NNP	O	O
Drabinsky	t105	4	Drabinsky	O	O	O	O	O	O	O	O	NP0	I-NP	drabinsky	NNP	t104:TITLE||t106:COORD	O
and	t106	4	and	O	O	O	O	O	O	O	O	CJC	O	and	CC	t107:CONJ	O
Gottlieb	t107	4	Gottlieb	O	O	O	O	O	O	O	O	NP0	B-NP	gottlieb	NNP	O	O
mail	t108	4	mail	e20	OCCURRENCE	NONE+NONE+POS	O	O	O	O	O	NN1	I-NP	mail	VBP	t105:SBJ||t110:OBJ||t111:DTV||t113:TMP	O
an	t109	4	a	O	O	O	O	O	O	O	O	AT0	B-NP	an	DT	O	O
offer	t110	4	offer	e21	OCCURRENCE	NONE+NONE+POS	O	O	O	O	O	NN1	I-NP	offer	NN	t109:NMOD	O
to	t111	4	to	O	O	O	O	O	O	O	O	PRP	B-PP	to	TO	t112:PMOD	O
shareholders	t112	4	shareholder	O	O	O	O	O	O	O	O	NN2	B-NP	shareholder	NNS	O	O
by	t113	4	by	O	O	O	O	O	O	O	O	PRP	B-PP	by	IN	t115:PMOD	O
Nov.	t114	4	Nov.	O	O	O	tmx22	DATE	1989-11-22	O	O	NP0	B-NP	nov.	NNP	O	O
22	t115	4	22	O	O	O	tmx22	DATE	1989-11-22	O	O	CRD	I-NP	22	CD	t114:NMOD	O
,	t116	4	,	O	O	O	O	O	O	O	O	PUN	O	,	,	O	O
it	t117	4	it	O	O	O	O	O	O	O	O	PNP	B-NP	it	PRP	O	O
will	t118	4	will	O	O	O	O	O	O	O	O	VM0	B-VP	will	MD	t103:ADV||t116:P||t117:SBJ||t119:VC	O
reimburse	t119	4	reimburse	e23	OCCURRENCE	FUTURE+NONE+POS	O	O	O	O	O	VVI	I-VP	reimburse	VB	t120:OBJ||t122:OBJ||t125:OBJ||t128:ADV	O
them	t120	4	they	O	O	O	O	O	O	O	O	PNP	B-NP	them	PRP	O	O
a	t121	4	a	O	O	O	O	O	O	O	O	AT0	B-NP	a	DT	O	O
maximum	t122	4	maximum	O	O	O	O	O	O	O	O	NN1	I-NP	maximum	NN	t121:NMOD||t123:NMOD	O
of	t123	4	of	O	O	O	O	O	O	O	O	PRF	B-PP	of	IN	t124:PMOD	O
C	t124	4	c	O	O	O	O	O	O	O	O	ZZ0	B-NP	c	NNP	O	O
$	t125	4	$	O	O	O	O	O	O	O	O	NN0	I-NP	$	$	t126:DEP||t127:DEP	O
8.5	t126	4	8.5	O	O	O	O	O	O	O	O	CRD	I-NP	8.5	CD	O	O
million	t127	4	million	O	O	O	O	O	O	O	O	CRD	I-NP	million	CD	O	O
for	t128	4	for	O	O	O	O	O	O	O	O	PRP	B-PP	for	IN	t129:PMOD	O
expenses	t129	4	expense	O	O	O	O	O	O	O	O	NN2	B-NP	expense	NNS	t130:APPO	O
related	t130	4	relate	O	O	O	O	O	O	O	O	VVN	B-VP	relate	VBN	t131:ADV	O
to	t131	4	to	O	O	O	O	O	O	O	O	PRP	B-PP	to	TO	t133:PMOD	O
a	t132	4	a	O	O	O	O	O	O	O	O	AT0	B-NP	a	DT	O	O
bid	t133	4	bid	O	O	O	O	O	O	O	O	NN1	I-NP	bid	NN	t132:NMOD	O
.	t134	4	.	O	O	O	O	O	O	O	O	PUN	O	.	.	O	O
"	t135	4	"	O	O	O	O	O	O	O	O	PUQ	O	"	''	O	O

We	t136	5	we	O	O	O	O	O	O	O	O	PNP	B-NP	we	PRP	O	O
consider	t137	5	consider	e24	I_STATE	PRESENT+NONE+POS	O	O	O	O	O	VVB	B-VP	consider	VBP	t136:SBJ||t138:OBJ	O
that	t138	5	that	O	O	O	O	O	O	O	O	CJT	B-SBAR	that	IN	t141:SUB	O
his	t139	5	he	O	O	O	O	O	O	O	O	DPS	B-NP	his	PRP$	O	O
bid	t140	5	bid	O	O	O	O	O	O	O	O	NN1	I-NP	bid	NN	t139:NMOD	O
is	t141	5	be	O	O	O	O	O	O	O	O	VBZ	B-VP	be	VBZ	t140:SBJ||t144:PRD	O
an	t142	5	a	O	O	O	O	O	O	O	O	AT0	B-NP	an	DT	O	O
acceptable	t143	5	acceptable	O	O	O	O	O	O	O	O	AJ0	I-NP	acceptable	JJ	O	O
bid	t144	5	bid	O	O	O	O	O	O	O	O	NN1	I-NP	bid	NN	t142:NMOD||t143:NMOD	O
,	t145	5	,	O	O	O	O	O	O	O	O	PUN	O	,	,	O	O
"	t146	5	"	O	O	O	O	O	O	O	O	PUQ	O	"	NNP	O	O
said	t147	5	say	e25	REPORTING	PAST+NONE+POS	O	O	O	O	O	VVD	B-VP	say	VBD	t137:OBJ||t145:P||t146:SBJ||t149:SBJ||t186:P	mainVb
Sandra	t148	5	Sandra	O	O	O	O	O	O	O	O	NP0	B-NP	sandra	NNP	O	O
Kolber	t149	5	Kolber	O	O	O	O	O	O	O	O	NP0	I-NP	kolber	NNP	t148:NAME||t150:P||t151:APPO	O
,	t150	5	,	O	O	O	O	O	O	O	O	PUN	O	,	,	O	O
spokeswoman	t151	5	spokeswoman	O	O	O	O	O	O	O	O	NN1	B-NP	spokeswoman	NN	t152:NMOD||t158:APPO	O
for	t152	5	for	O	O	O	O	O	O	O	O	PRP	B-PP	for	IN	t157:PMOD	O
the	t153	5	the	O	O	O	O	O	O	O	O	AT0	B-NP	the	DT	O	O
independent	t154	5	independent	O	O	O	O	O	O	O	O	AJ0	I-NP	independent	JJ	O	O
directors	t155	5	director	O	O	O	O	O	O	O	O	NN2	I-NP	director	NNS	t153:NMOD||t154:NMOD||t156:SUFFIX	O
'	t156	5	'	O	O	O	O	O	O	O	O	POS	B-NP	'	POS	O	O
committee	t157	5	committee	O	O	O	O	O	O	O	O	NN1	I-NP	committee	NN	t155:NMOD	O
appointed	t158	5	appoint	e26	OCCURRENCE	PASTPART+NONE+POS	O	O	O	O	O	VVD	B-VP	appoint	VBN	t160:TMP||t161:PRP	O
last	t159	5	last	O	O	O	tmx27	DATE	1989-05	O	O	ORD	B-NP	last	JJ	O	O
May	t160	5	May	O	O	O	tmx27	DATE	1989-05	O	O	NP0	I-NP	may	NNP	t159:NMOD	O
to	t161	5	to	O	O	O	O	O	O	O	O	TO0	B-VP	to	TO	t162:IM	O
solicit	t162	5	solicit	e28	OCCURRENCE	INFINITIVE+NONE+POS	O	O	O	O	O	VVI	I-VP	solicit	VB	t163:COORD||t165:OBJ||t166:ADV||t169:LOC	O
and	t163	5	and	O	O	O	O	O	O	O	O	CJC	I-VP	and	CC	t164:CONJ	O
review	t164	5	review	e29	OCCURRENCE	NONE+NONE+POS	O	O	O	O	O	VVI	I-VP	review	VB	O	O
bids	t165	5	bid	O	O	O	O	O	O	O	O	NN2	B-NP	bid	NNS	O	O
for	t166	5	for	O	O	O	O	O	O	O	O	PRP	B-PP	for	IN	t168:PMOD	O
the	t167	5	the	O	O	O	O	O	O	O	O	AT0	B-NP	the	DT	O	O
company	t168	5	company	O	O	O	O	O	O	O	O	NN1	I-NP	company	NN	t167:NMOD	O
in	t169	5	in	O	O	O	O	O	O	cs30	O	PRP	B-PP	in	IN	t171:PMOD	O
the	t170	5	the	O	O	O	O	O	O	cs30	O	AT0	B-NP	the	DT	O	O
wake	t171	5	wake	O	O	O	O	O	O	cs30	O	NN1	I-NP	wake	NN	t170:NMOD||t172:NMOD	O
of	t172	5	of	O	O	O	O	O	O	cs30	O	PRF	B-PP	of	IN	t174:PMOD	O
a	t173	5	a	O	O	O	O	O	O	cs30	O	AT0	B-NP	a	DT	O	O
dispute	t174	5	dispute	e31	OCCURRENCE	NONE+NONE+POS	O	O	O	cs30	O	NN1	I-NP	dispute	NN	t173:NMOD||t175:NMOD	O
between	t175	5	between	O	O	O	O	O	O	cs30	O	PRP	B-PP	between	IN	t177:PMOD	O
Mr.	t176	5	Mr.	O	O	O	O	O	O	cs30	O	NP0	B-NP	mr.	NNP	O	O
Drabinsky	t177	5	Drabinsky	O	O	O	O	O	O	cs30	O	NP0	I-NP	drabinsky	NNP	t176:TITLE||t178:COORD	O
and	t178	5	and	O	O	O	O	O	O	cs30	O	CJC	O	and	CC	t182:CONJ	O
Cineplex	t179	5	Cineplex	O	O	O	O	O	O	cs30	O	NP0	B-NP	cineplex	NNP	t180:SUFFIX	O
's	t180	5	's	O	O	O	O	O	O	cs30	O	POS	B-NP	's	POS	O	O
major	t181	5	major	O	O	O	O	O	O	cs30	O	AJ0	I-NP	major	JJ	O	O
shareholder	t182	5	shareholder	O	O	O	O	O	O	cs30	O	NN1	I-NP	shareholder	NN	t179:NMOD||t181:NMOD||t183:P||t184:APPO	O
,	t183	5	,	O	O	O	O	O	O	cs30	O	PUN	O	,	,	O	O
MCA	t184	5	MCA	O	O	O	O	O	O	cs30	O	NP0	B-NP	mca	NNP	t185:POSTHON	O
Inc.	t185	5	Inc.	O	O	O	O	O	O	cs30	O	NP0	I-NP	inc.	NNP	O	O
.	t186	5	.	O	O	O	O	O	O	cs30	O	PUN	O	.	.	O	O

MCA	t187	6	MCA	O	O	O	O	O	O	cs30	O	NP0	B-NP	mca	NNP	t188:COORD	O
and	t188	6	and	O	O	O	O	O	O	cs30	O	CJC	O	and	CC	t193:CONJ	O
Cineplex	t189	6	Cineplex	O	O	O	O	O	O	cs30	O	NP0	B-NP	cineplex	NNP	t190:SUFFIX	O
's	t190	6	's	O	O	O	O	O	O	cs30	O	POS	B-NP	's	POS	O	O
other	t191	6	other	O	O	O	O	O	O	cs30	O	AJ0	I-NP	other	JJ	O	O
major	t192	6	major	O	O	O	O	O	O	cs30	O	AJ0	I-NP	major	JJ	O	O
shareholder	t193	6	shareholder	O	O	O	O	O	O	cs30	O	NN1	I-NP	shareholder	NN	t189:NMOD||t191:NMOD||t192:NMOD||t194:P||t196:NMOD||t202:P	O
,	t194	6	,	O	O	O	O	O	O	cs30	O	PUN	O	,	,	O	O
Montreal-based	t195	6	montreal-based	O	O	O	O	O	O	cs30	O	AJ0	B-NP	montreal-base	NNP	O	O
financier	t196	6	financier	O	O	O	O	O	O	cs30	O	NN1	I-NP	financier	NN	t195:NMOD||t198:APPO||t199:COORD	O
Charles	t197	6	Charles	O	O	O	O	O	O	cs30	O	NP0	I-NP	charles	NNP	O	O
Bronfman	t198	6	Bronfman	O	O	O	O	O	O	cs30	O	NP0	I-NP	bronfman	NNP	t197:NAME	O
and	t199	6	and	O	O	O	O	O	O	cs30	O	CJC	O	and	CC	t201:CONJ	O
his	t200	6	he	O	O	O	O	O	O	cs30	O	DPS	B-NP	his	PRP$	O	O
associates	t201	6	associate	O	O	O	O	O	O	cs30	O	NN2	I-NP	associate	NNS	t200:NMOD	O
,	t202	6	,	O	O	O	O	O	O	cs30	O	PUN	O	,	,	O	O
have	t203	6	have	O	O	O	O	O	O	cs30	O	VHB	B-VP	have	VBP	t187:SBJ||t204:VC||t224:P	mainVb
agreed	t204	6	agree	e32	I_STATE	PRESENT+PERFECTIVE+POS	O	O	O	cs30	O	VVN	I-VP	agree	VBN	t205:OPRD	mainVb
to	t205	6	to	O	O	O	O	O	O	cs30	O	TO0	I-VP	to	TO	t206:IM	mainVb
tender	t206	6	tender	e33	OCCURRENCE	INFINITIVE+NONE+POS	O	O	O	cs30	O	VVI	I-VP	tender	VB	t208:OBJ||t209:ADV||t215:ADV	mainVb
their	t207	6	they	O	O	O	O	O	O	cs30	O	DPS	B-NP	their	PRP$	O	O
holdings	t208	6	holding	O	O	O	O	O	O	cs30	O	NN2	I-NP	holding	NNS	t207:NMOD	O
to	t209	6	to	O	O	O	O	O	O	cs30	O	PRP	B-PP	to	TO	t211:PMOD	O
an	t210	6	a	O	O	O	O	O	O	cs30	O	AT0	B-NP	an	DT	O	O
offer	t211	6	offer	O	O	O	O	O	O	cs30	O	NN1	I-NP	offer	NN	t210:NMOD||t212:NMOD	O
by	t212	6	by	O	O	O	O	O	O	cs30	O	PRP	B-PP	by	IN	t214:PMOD	O
Mr.	t213	6	Mr.	O	O	O	O	O	O	cs30	O	NP0	B-NP	mr.	NNP	O	O
Drabinsky	t214	6	Drabinsky	O	O	O	O	O	O	cs30	O	NP0	I-NP	drabinsky	NNP	t213:TITLE	O
unless	t215	6	unless	O	O	O	O	O	O	cs30	O	CJS	B-SBAR	unless	IN	t219:SUB	O
a	t216	6	a	O	O	O	O	O	O	cs30	O	AT0	B-NP	a	DT	O	O
higher	t217	6	higher	O	O	O	O	O	O	cs30	O	AJC	I-NP	higher	JJR	O	O
offer	t218	6	offer	O	O	O	O	O	O	cs30	O	NN1	I-NP	offer	NN	t216:NMOD||t217:NMOD	O
is	t219	6	be	O	O	O	O	O	O	cs30	O	VBZ	B-VP	be	VBZ	t218:SBJ||t220:VC	O
made	t220	6	make	e34	OCCURRENCE	PRESENT+PERFECTIVE+POS	O	O	O	cs30	O	VVN	I-VP	make	VBN	t221:LGS	O
by	t221	6	by	O	O	O	O	O	O	cs30	O	PRP	B-PP	by	IN	t223:PMOD	O
another	t222	6	another	O	O	O	O	O	O	cs30	O	DT0	B-NP	another	DT	O	O
bidder	t223	6	bidder	O	O	O	O	O	O	cs30	O	NN1	I-NP	bidder	NN	t222:NMOD	O
.	t224	6	.	O	O	O	O	O	O	cs30	O	PUN	O	.	.	O	O

MCA	t225	7	MCA	O	O	O	O	O	O	cs30	O	NP0	B-NP	mca	NNP	O	O
holds	t226	7	hold	O	O	O	O	O	O	cs30	O	VVZ	B-VP	hold	VBZ	t225:SBJ||t227:OBJ||t239:MNR||t243:P||t244:ADV||t256:P	mainVb
half	t227	7	half	O	O	O	O	O	O	cs30	O	DT0	B-NP	half	CD	t228:NMOD||t232:COORD	O
of	t228	7	of	O	O	O	O	O	O	cs30	O	PRF	B-PP	of	IN	t231:PMOD	O
Cineplex	t229	7	Cineplex	O	O	O	O	O	O	cs30	O	NP0	B-NP	cineplex	NNP	t230:SUFFIX	O
's	t230	7	's	O	O	O	O	O	O	cs30	O	POS	B-NP	's	POS	O	O
equity	t231	7	equity	O	O	O	O	O	O	cs30	O	NN1	I-NP	equity	NN	t229:NMOD	O
and	t232	7	and	O	O	O	O	O	O	cs30	O	CJC	I-NP	and	CC	t234:CONJ	O
33	t233	7	33	O	O	O	O	O	O	cs30	O	CRD	I-NP	33	CD	O	O
%	t234	7	%	O	O	O	O	O	O	cs30	O	UNC	I-NP	%	NN	t233:NMOD||t235:NMOD	O
of	t235	7	of	O	O	O	O	O	O	cs30	O	PRF	B-PP	of	IN	t238:PMOD	O
its	t236	7	its	O	O	O	O	O	O	cs30	O	DPS	B-NP	its	PRP$	O	O
voting	t237	7	voting	O	O	O	O	O	O	cs30	O	NN1	I-NP	voting	NN	O	O
rights	t238	7	rights	O	O	O	O	O	O	cs30	O	NN2	I-NP	right	NNS	t236:NMOD||t237:NMOD	O
through	t239	7	through	O	O	O	O	O	O	cs30	O	PRP	B-PP	through	IN	t242:PMOD	O
restricted	t240	7	restricted	O	O	O	O	O	O	cs30	O	AJ0	B-NP	restrict	VBN	O	O
voting	t241	7	voting	O	O	O	O	O	O	cs30	O	NN1	I-NP	voting	NN	O	O
shares	t242	7	share	O	O	O	O	O	O	cs30	O	NN2	I-NP	share	NNS	t240:NMOD||t241:NMOD	O
,	t243	7	,	O	O	O	O	O	O	cs30	O	PUN	O	,	,	O	O
while	t244	7	while	O	O	O	O	O	O	cs30	O	CJS	B-SBAR	while	IN	t247:SUB	O
Bronfman	t245	7	Bronfman	O	O	O	O	O	O	cs30	O	NP0	B-NP	bronfman	NNP	O	O
interests	t246	7	interest	O	O	O	O	O	O	cs30	O	VVZ	B-VP	interest	NNS	t245:NMOD	O
hold	t247	7	hold	O	O	O	O	O	O	cs30	O	NN1	B-NP	hold	VBP	t246:SBJ||t250:OBJ	O
about	t248	7	about	O	O	O	O	O	O	cs30	O	AV0	B-NP	about	IN	t249:DEP	O
24	t249	7	24	O	O	O	O	O	O	cs30	O	CRD	I-NP	24	CD	O	O
%	t250	7	%	O	O	O	O	O	O	cs30	O	NN0	I-NP	%	NN	t248:NMOD||t251:NMOD	O
of	t251	7	of	O	O	O	O	O	O	cs30	O	PRF	B-PP	of	IN	t255:PMOD	O
the	t252	7	the	O	O	O	O	O	O	cs30	O	AT0	B-NP	the	DT	O	O
company	t253	7	company	O	O	O	O	O	O	cs30	O	NN1	I-NP	company	NN	t252:NMOD||t254:SUFFIX	O
's	t254	7	's	O	O	O	O	O	O	cs30	O	POS	B-NP	's	POS	O	O
equity	t255	7	equity	O	O	O	O	O	O	cs30	O	NN1	I-NP	equity	NN	t253:NMOD	O
.	t256	7	.	O	O	O	O	O	O	cs30	O	PUN	O	.	.	O	O

Ms.	t257	8	Ms.	O	O	O	O	O	O	cs30	O	NP0	B-NP	ms.	NNP	O	O
Kolber	t258	8	Kolber	O	O	O	O	O	O	cs30	O	NP0	I-NP	kolber	NNP	t257:TITLE	O
said	t259	8	say	e35	REPORTING	PAST+NONE+POS	O	O	O	cs30	O	VVD	B-VP	say	VBD	t258:SBJ||t262:OBJ||t266:P	mainVb
the	t260	8	the	O	O	O	O	O	O	cs30	O	AT0	B-NP	the	DT	O	O
committee	t261	8	committee	O	O	O	O	O	O	cs30	O	NN1	I-NP	committee	NN	t260:NMOD	O
had	t262	8	have	O	O	O	O	O	O	cs30	O	VHD	B-VP	have	VBD	t261:SBJ||t263:VC	O
received	t263	8	receive	e36	OCCURRENCE	PAST+PERFECTIVE+POS	O	O	O	cs30	O	VVN	I-VP	receive	VBN	t265:OBJ	O
other	t264	8	other	O	O	O	O	O	O	cs30	O	AJ0	B-NP	other	JJ	O	O
bids	t265	8	bid	O	O	O	O	O	O	cs30	O	NN2	I-NP	bid	NNS	t264:NMOD	O
.	t266	8	.	O	O	O	O	O	O	cs30	O	PUN	O	.	.	O	O

She	t267	9	she	O	O	O	O	O	O	cs30	O	PNP	B-NP	she	PRP	O	O
declined	t268	9	decline	e37	I_ACTION	PAST+NONE+POS	O	O	O	cs30	O	VVD	B-VP	decline	VBD	t267:SBJ||t269:OPRD||t273:COORD||t292:P	mainVb
to	t269	9	to	O	O	O	O	O	O	cs30	O	TO0	I-VP	to	TO	t270:IM	mainVb
identify	t270	9	identify	e38	OCCURRENCE	INFINITIVE+NONE+POS	O	O	O	cs30	O	VVI	I-VP	identify	VB	t272:OBJ	mainVb
other	t271	9	other	O	O	O	O	O	O	cs30	O	AJ0	B-NP	other	JJ	O	O
bidders	t272	9	bidder	O	O	O	O	O	O	cs30	O	NN2	I-NP	bidder	NNS	t271:NMOD	O
but	t273	9	but	O	O	O	O	O	O	cs30	O	CJC	O	but	CC	t274:CONJ	O
said	t274	9	say	e39	REPORTING	PAST+NONE+POS	O	O	O	cs30	O	VVD	B-VP	say	VBD	t280:OBJ	O
Mr.	t275	9	Mr.	O	O	O	O	O	O	cs30	O	NP0	B-NP	mr.	NNP	O	O
Drabinsky	t276	9	Drabinsky	O	O	O	O	O	O	cs30	O	NP0	I-NP	drabinsky	NNP	t275:TITLE||t277:SUFFIX	O
's	t277	9	's	O	O	O	O	O	O	cs30	O	POS	B-NP	's	POS	O	O
offer	t278	9	offer	O	O	O	O	O	O	cs30	O	NN1	I-NP	offer	NN	O	O
"	t279	9	"	O	O	O	O	O	O	cs30	O	PUQ	O	"	NN	t276:NMOD||t278:NMOD	O
is	t280	9	be	O	O	O	O	O	O	cs30	O	VBZ	B-VP	be	VBZ	t279:SBJ||t282:PRD||t283:P||t284:COORD	O
all	t281	9	all	O	O	O	O	O	O	cs30	O	DT0	B-NP	all	DT	O	O
cash	t282	9	cash	O	O	O	O	O	O	cs30	O	NN1	I-NP	cash	NN	t281:NMOD	O
,	t283	9	,	O	O	O	O	O	O	cs30	O	PUN	O	,	,	O	O
and	t284	9	and	O	O	O	O	O	O	cs30	O	CJC	O	and	CC	t286:CONJ	O
it	t285	9	it	O	O	O	O	O	O	cs30	O	PNP	B-NP	it	PRP	O	O
's	t286	9	be	O	O	O	O	O	O	cs30	O	VBZ	B-VP	's	VBZ	t285:SBJ||t287:PRD	O
for	t287	9	for	O	O	O	O	O	O	cs30	O	PRP	B-PP	for	IN	t288:PMOD	O
all	t288	9	all	O	O	O	O	O	O	cs30	O	DT0	B-NP	all	DT	t289:NMOD	O
of	t289	9	of	O	O	O	O	O	O	cs30	O	PRF	B-PP	of	IN	t291:PMOD	O
the	t290	9	the	O	O	O	O	O	O	cs30	O	AT0	B-NP	the	DT	O	O
company	t291	9	company	O	O	O	O	O	O	cs30	O	NN1	I-NP	company	NN	t290:NMOD	O
.	t292	9	.	O	O	O	O	O	O	cs30	O	PUN	O	.	.	t293:NMOD	O
"	t293	9	"	O	O	O	O	O	O	cs30	O	PUQ	O	"	NN	O	O

Several	t294	10	several	O	O	O	O	O	O	cs30	O	DT0	B-NP	several	DT	O	O
Cineplex	t295	10	Cineplex	O	O	O	O	O	O	cs30	O	NP0	I-NP	cineplex	NNP	O	O
analysts	t296	10	analyst	O	O	O	O	O	O	cs30	O	NN2	I-NP	analyst	NNS	t294:NMOD||t295:NMOD	O
have	t297	10	have	O	O	O	O	O	O	cs30	O	VHB	B-VP	have	VBP	t296:SBJ||t298:VC||t317:P	mainVb
speculated	t298	10	speculate	e40	I_ACTION	PRESENT+PERFECTIVE+POS	O	O	O	cs30	O	VVN	I-VP	speculate	VBN	t299:OBJ	mainVb
that	t299	10	that	O	O	O	O	O	O	cs30	O	CJT	B-SBAR	that	IN	t306:SUB	O
outside	t300	10	outside	O	O	O	O	O	O	cs30	O	AJ0	B-NP	outside	JJ	O	O
bids	t301	10	bid	O	O	O	O	O	O	cs30	O	NN2	I-NP	bid	NNS	t300:NMOD||t302:APPO	O
received	t302	10	receive	O	O	O	O	O	O	cs30	O	VVN	B-VP	receive	VBN	t303:LGS	O
by	t303	10	by	O	O	O	O	O	O	cs30	O	PRP	B-PP	by	IN	t305:PMOD	O
the	t304	10	the	O	O	O	O	O	O	cs30	O	AT0	B-NP	the	DT	O	O
committee	t305	10	committee	O	O	O	O	O	O	cs30	O	NN1	I-NP	committee	NN	t304:NMOD	O
were	t306	10	be	O	O	O	O	O	O	cs30	O	VBD	B-VP	be	VBD	t301:SBJ||t307:PRD	O
either	t307	10	either	O	O	O	O	O	O	cs30	O	AV0	B-ADVP	either	RB	t309:COORD	O
disappointingly	t308	10	disappointingly	O	O	O	O	O	O	cs30	O	AV0	B-ADJP	disappointingly	RB	O	O
low	t309	10	low	e41	STATE	NONE+NONE+POS	O	O	O	cs30	O	AJ0	I-ADJP	low	JJ	t308:AMOD||t310:COORD	O
or	t310	10	or	O	O	O	O	O	O	cs30	O	CJC	O	or	CC	t311:CONJ	O
for	t311	10	for	O	O	O	O	O	O	cs30	O	PRP	B-PP	for	IN	t313:PMOD	O
only	t312	10	only	O	O	O	O	O	O	cs30	O	AV0	B-NP	only	JJ	t318:DEP	O
part	t313	10	part	O	O	O	O	O	O	cs30	O	NN1	I-NP	part	NN	t312:NMOD||t314:NMOD	O
of	t314	10	of	O	O	O	O	O	O	cs30	O	PRF	B-PP	of	IN	t316:PMOD	O
the	t315	10	the	O	O	O	O	O	O	cs30	O	AT0	B-NP	the	DT	O	O
company	t316	10	company	O	O	O	O	O	O	cs30	O	NN1	I-NP	company	NN	t315:NMOD	O
.	t317	10	.	O	O	O	O	O	O	cs30	O	PUN	O	.	.	O	O
"	t318	10	"	O	O	O	O	O	O	cs30	O	PUQ	O	"	NN	O	O

All	t319	11	all	O	O	O	O	O	O	cs30	O	DT0	B-NP	all	PDT	t321:NMOD	O
this	t320	11	this	O	O	O	O	O	O	cs30	O	DT0	I-NP	this	DT	O	O
has	t321	11	have	O	O	O	O	O	O	cs30	O	VHZ	I-NP	have	VBZ	t320:SBJ||t322:ADV||t323:VC	O
really	t322	11	really	O	O	O	O	O	O	cs30	O	AV0	B-ADVP	really	RB	O	O
established	t323	11	establish	O	O	O	O	O	O	cs30	O	VVN	B-VP	establish	VBN	O	O
is	t324	11	be	O	O	O	O	O	O	cs30	O	VBZ	B-VP	be	VBZ	t319:SBJ||t325:PRD||t357:P||t358:P	mainVb
that	t325	11	that	O	O	O	O	O	O	cs30	O	DT0	B-SBAR	that	IN	t330:SUB	O
MCA	t326	11	MCA	O	O	O	O	O	O	cs30	O	NP0	B-NP	mca	NNP	t327:COORD	O
and	t327	11	and	O	O	O	O	O	O	cs30	O	CJC	O	and	CC	t329:CONJ	O
the	t328	11	the	O	O	O	O	O	O	cs30	O	AT0	B-NP	the	DT	O	O
Bronfmans	t329	11	Bronfmans	O	O	O	O	O	O	cs30	O	NP0	I-NP	bronfmans	NNP	t328:NMOD	O
have	t330	11	have	O	O	O	O	O	O	cs30	O	VHB	B-VP	have	VBP	t326:SBJ||t331:VC	O
agreed	t331	11	agree	e42	I_STATE	PRESENT+PERFECTIVE+POS	O	O	O	cs30	O	VVN	I-VP	agree	VBN	t332:ADV	O
on	t332	11	on	O	O	O	O	O	O	cs30	O	PRP	B-PP	on	IN	t334:PMOD	O
a	t333	11	a	O	O	O	O	O	O	cs30	O	AT0	B-NP	a	DT	O	O
price	t334	11	price	O	O	O	O	O	O	cs30	O	NN1	I-NP	price	NN	t333:NMOD||t344:NMOD	O
at	t335	11	at	O	O	O	O	O	O	cs30	O	PRP	B-PP	at	IN	t336:PMOD	O
which	t336	11	which	O	O	O	O	O	O	cs30	O	DTQ	B-NP	which	WDT	O	O
they	t337	11	they	O	O	O	O	O	O	cs30	O	PNP	B-NP	they	PRP	O	O
can	t338	11	can	O	O	O	O	O	O	cs30	O	VM0	B-VP	can	MD	t337:SBJ||t339:VC	O
be	t339	11	be	O	O	O	O	O	O	cs30	O	VBI	I-VP	be	VB	t340:VC	O
bought	t340	11	buy	e43	OCCURRENCE	NONE+NONE+POS	O	O	O	cs30	O	VVN	I-VP	buy	VBN	t335:ADV||t341:PRT	O
out	t341	11	out	O	O	O	O	O	O	cs30	O	AVP	B-PRT	out	RP	O	O
,	t342	11	,	O	O	O	O	O	O	cs30	O	PUN	O	,	,	O	O
"	t343	11	"	O	O	O	O	O	O	cs30	O	PUQ	O	"	PRP	O	O
said	t344	11	say	e44	REPORTING	PAST+NONE+POS	O	O	O	cs30	O	VVD	B-VP	say	VBD	t338:OBJ||t342:P||t343:SBJ||t346:SBJ	O
Jeffery	t345	11	Jeffery	O	O	O	O	O	O	cs30	O	NP0	B-NP	jeffery	NNP	O	O
Logsdon	t346	11	Logsdon	O	O	O	O	O	O	cs30	O	NP0	I-NP	logsdon	NNP	t345:NAME||t347:P||t349:APPO	O
,	t347	11	,	O	O	O	O	O	O	cs30	O	PUN	O	,	,	O	O
an	t348	11	a	O	O	O	O	O	O	cs30	O	AT0	B-NP	an	DT	O	O
analyst	t349	11	analyst	O	O	O	O	O	O	cs30	O	NN1	I-NP	analyst	NN	t348:NMOD||t350:NMOD	O
with	t350	11	with	O	O	O	O	O	O	cs30	O	PRP	B-PP	with	IN	t353:PMOD	O
Crowell	t351	11	Crowell	O	O	O	O	O	O	cs30	O	NP0	B-NP	crowell	NNP	O	O
,	t352	11	,	O	O	O	O	O	O	cs30	O	PUN	O	,	NNP	O	O
Weedon	t353	11	Weedon	O	O	O	O	O	O	cs30	O	NP0	B-NP	weedon	NNP	t351:NAME||t352:NAME||t354:LOC	O
in	t354	11	in	O	O	O	O	O	O	cs30	O	PRP	B-PP	in	IN	t356:PMOD	O
Los	t355	11	Los	O	O	O	O	O	O	cs30	O	NP0	B-NP	los	NNP	O	O
Angeles	t356	11	Angeles	O	O	O	O	O	O	cs30	O	NP0	I-NP	angeles	NNP	t355:NAME	O
.	t357	11	.	O	O	O	O	O	O	cs30	O	PUN	O	.	.	O	O
"	t358	11	"	O	O	O	O	O	O	cs30	O	PUQ	O	"	.	O	O

If	t359	12	if	O	O	O	O	O	O	cs30	O	CJS	B-SBAR	if	IN	t362:SUB	O
a	t360	12	a	O	O	O	O	O	O	cs30	O	AT0	B-NP	a	DT	O	O
bid	t361	12	bid	O	O	O	O	O	O	cs30	O	NN1	I-NP	bid	NN	t360:NMOD	O
materializes	t362	12	materialize	e45	OCCURRENCE	PRESENT+NONE+POS	O	O	O	cs30	O	NN2	I-NP	materialize	VBZ	t361:SBJ||t363:ADV	O
at	t363	12	at	O	O	O	O	O	O	cs30	O	PRP	B-PP	at	IN	t365:PMOD	O
that	t364	12	that	O	O	O	O	O	O	cs30	O	DT0	B-NP	that	DT	O	O
price	t365	12	price	O	O	O	O	O	O	cs30	O	NN1	I-NP	price	NN	t364:NMOD	O
,	t366	12	,	O	O	O	O	O	O	cs30	O	PUN	O	,	,	O	O
shareholders	t367	12	shareholder	O	O	O	O	O	O	cs30	O	NN2	B-NP	shareholder	NNS	O	O
will	t368	12	will	O	O	O	O	O	O	cs30	O	VM0	B-VP	will	MD	t359:ADV||t366:P||t367:SBJ||t369:VC||t375:P||t376:COORD||t383:P||t384:P	mainVb
have	t369	12	have	O	O	O	O	O	O	cs30	O	VHI	I-VP	have	VB	t371:OBJ	mainVb
every	t370	12	every	O	O	O	O	O	O	cs30	O	AT0	B-NP	every	DT	O	O
reason	t371	12	reason	O	O	O	O	O	O	cs30	O	NN1	I-NP	reason	NN	t370:NMOD||t372:NMOD	O
to	t372	12	to	O	O	O	O	O	O	cs30	O	TO0	B-VP	to	TO	t373:IM	O
be	t373	12	be	O	O	O	O	O	O	cs30	O	VBI	I-VP	be	VB	t374:PRD	O
glad	t374	12	glad	e46	STATE	PRESENT+NONE+POS	O	O	O	cs30	O	AJ0	B-ADJP	glad	JJ	O	O
,	t375	12	,	O	O	O	O	O	O	cs30	O	PUN	O	,	,	O	O
but	t376	12	but	O	O	O	O	O	O	cs30	O	CJC	O	but	CC	t382:CONJ	O
the	t377	12	the	O	O	O	O	O	O	cs30	O	AT0	B-NP	the	DT	O	O
question	t378	12	question	O	O	O	O	O	O	cs30	O	NN1	I-NP	question	NN	t377:NMOD||t379:NMOD	O
of	t379	12	of	O	O	O	O	O	O	cs30	O	PRF	B-PP	of	IN	t380:PMOD	O
financing	t380	12	financing	O	O	O	O	O	O	cs30	O	VVG	B-VP	financing	NN	O	O
still	t381	12	still	O	O	O	O	O	O	cs30	O	AV0	B-ADVP	still	RB	O	O
remains	t382	12	remain	e47	STATE	PRESENT+NONE+POS	O	O	O	cs30	O	VVZ	B-VP	remain	VBZ	t378:SBJ||t381:ADV	O
.	t383	12	.	O	O	O	O	O	O	cs30	O	PUN	O	.	.	O	O
"	t384	12	"	O	O	O	O	O	O	cs30	O	PUQ	O	"	''	O	O

Last	t385	13	last	O	O	O	tmx48	DATE	1989-04	cs30	O	ORD	B-NP	last	JJ	O	O
April	t386	13	April	O	O	O	tmx48	DATE	1989-04	cs30	O	NP0	I-NP	april	NNP	t385:NMOD	O
,	t387	13	,	O	O	O	O	O	O	cs30	O	PUN	O	,	,	O	O
Mr.	t388	13	Mr.	O	O	O	O	O	O	cs30	O	NP0	B-NP	mr.	NNP	O	O
Drabinsky	t389	13	Drabinsky	O	O	O	O	O	O	cs30	O	NP0	I-NP	drabinsky	NNP	t388:TITLE||t390:COORD	O
and	t390	13	and	O	O	O	O	O	O	cs30	O	CJC	O	and	CC	t392:CONJ	O
a	t391	13	a	O	O	O	O	O	O	cs30	O	AT0	B-NP	a	DT	O	O
group	t392	13	group	O	O	O	O	O	O	cs30	O	NN1	I-NP	group	NN	t391:NMOD||t393:NMOD	O
of	t393	13	of	O	O	O	O	O	O	cs30	O	PRF	B-PP	of	IN	t395:PMOD	O
financial	t394	13	financial	O	O	O	O	O	O	cs30	O	AJ0	B-NP	financial	JJ	O	O
backers	t395	13	backer	O	O	O	O	O	O	cs30	O	NN2	I-NP	backer	NNS	t394:NMOD	O
planned	t396	13	plan	e49	I_STATE	PAST+NONE+POS	O	O	O	cs30	O	VVN	B-VP	plan	VBD	t386:TMP||t387:P||t389:SBJ||t397:OPRD||t414:P	mainVb
to	t397	13	to	O	O	O	O	O	O	cs30	O	TO0	I-VP	to	TO	t398:IM	mainVb
acquire	t398	13	acquire	e50	OCCURRENCE	INFINITIVE+NONE+POS	O	O	O	cs30	O	VVI	I-VP	acquire	VB	t402:OBJ||t405:ADV||t411:ADV	mainVb
up	t399	13	up	O	O	O	O	O	O	cs30	O	PRP	B-PRT	up	IN	O	O
to	t400	13	to	O	O	O	O	O	O	cs30	O	PRP	B-PP	to	TO	O	O
30.2	t401	13	30.2	O	O	O	O	O	O	cs30	O	CRD	B-NP	30.2	CD	t399:DEP||t400:DEP	O
%	t402	13	%	O	O	O	O	O	O	cs30	O	NN0	I-NP	%	NN	t401:NMOD||t403:NMOD	O
of	t403	13	of	O	O	O	O	O	O	cs30	O	PRF	B-PP	of	IN	t404:PMOD	O
Cineplex	t404	13	Cineplex	O	O	O	O	O	O	cs30	O	NP0	B-NP	cineplex	NNP	O	O
for	t405	13	for	O	O	O	O	O	O	cs30	O	CJS	B-PP	for	IN	t407:PMOD	O
C	t406	13	C	O	O	O	O	O	O	cs30	O	ZZ0	B-NP	c	NNP	O	O
$	t407	13	$	O	O	O	O	O	O	cs30	O	NN0	I-NP	$	$	t406:NMOD||t408:NMOD||t410:ADV	O
17.50	t408	13	17.50	O	O	O	O	O	O	cs30	O	CRD	I-NP	17.50	CD	O	O
a	t409	13	a	O	O	O	O	O	O	cs30	O	AT0	B-NP	a	DT	O	O
share	t410	13	share	O	O	O	O	O	O	cs30	O	NN1	I-NP	share	NN	t409:NMOD	O
from	t411	13	from	O	O	O	O	O	O	cs30	O	PRP	B-PP	from	IN	t413:PMOD	O
Bronfman	t412	13	Bronfman	O	O	O	O	O	O	cs30	O	NP0	B-NP	bronfman	NNP	O	O
associates	t413	13	associate	O	O	O	O	O	O	cs30	O	VVZ	B-VP	associate	NNS	t412:NMOD	O
.	t414	13	.	O	O	O	O	O	O	cs30	O	PUN	O	.	.	O	O

Mr.	t415	14	Mr.	O	O	O	O	O	O	cs30	O	NP0	B-NP	mr.	NNP	O	O
Drabinsky	t416	14	Drabinsky	O	O	O	O	O	O	cs30	O	NP0	I-NP	drabinsky	NNP	t415:TITLE||t417:P||t419:NMOD||t431:P	O
,	t417	14	,	O	O	O	O	O	O	cs30	O	PUN	O	,	,	O	O
who	t418	14	who	O	O	O	O	O	O	cs30	O	PNQ	B-NP	who	WP	O	O
would	t419	14	would	O	O	O	O	O	O	cs30	O	VM0	B-VP	would	MD	t418:SBJ||t420:VC	O
have	t420	14	have	O	O	O	O	O	O	cs30	O	VHI	I-VP	have	VB	t421:VC	O
had	t421	14	have	e51	STATE	NONE+PERFECTIVE+POS	O	O	O	cs30	O	VHN	B-NP	have	VBN	t423:OBJ	O
the	t422	14	the	O	O	O	O	O	O	cs30	O	AT0	I-NP	the	DT	O	O
right	t423	14	right	O	O	O	O	O	O	cs30	O	NN1	I-NP	right	NN	t422:NMOD||t424:NMOD	O
to	t424	14	to	O	O	O	O	O	O	cs30	O	TO0	B-VP	to	TO	t425:IM	O
vote	t425	14	vote	e52	OCCURRENCE	INFINITIVE+NONE+POS	O	O	O	cs30	O	VVI	I-VP	vote	VB	t427:OBJ||t428:TMP	O
those	t426	14	those	O	O	O	O	O	O	cs30	O	DT0	B-NP	those	DT	O	O
shares	t427	14	share	O	O	O	O	O	O	cs30	O	NN2	I-NP	share	NNS	t426:NMOD	O
for	t428	14	for	O	O	O	O	O	O	cs30	O	PRP	B-PP	for	IN	t430:PMOD	O
two	t429	14	two	O	O	O	tmx53	DURATION	P2Y	cs30	O	CRD	B-NP	two	CD	O	O
years	t430	14	year	O	O	O	tmx53	DURATION	P2Y	cs30	O	NN2	I-NP	years	NNS	t429:NMOD	O
,	t431	14	,	O	O	O	O	O	O	cs30	O	PUN	O	,	,	O	O
said	t432	14	say	e54	REPORTING	PAST+NONE+POS	O	O	O	cs30	O	VVD	B-VP	say	VBD	t416:SBJ||t441:OBJ||t450:P	mainVb
the	t433	14	the	O	O	O	O	O	O	cs30	O	AT0	B-NP	the	DT	O	O
purchase	t434	14	purchase	e55	OCCURRENCE	NONE+NONE+POS	O	O	O	cs30	O	NN1	I-NP	purchase	NN	t433:NMOD||t435:P||t437:APPO||t440:P	O
,	t435	14	,	O	O	O	O	O	O	cs30	O	PUN	O	,	,	O	O
subsequently	t436	14	subsequently	O	O	O	O	O	O	cs30	O	AV0	B-VP	subsequently	RB	O	O
rejected	t437	14	reject	e56	OCCURRENCE	PASTPART+NONE+POS	O	O	O	cs30	O	VVN	I-VP	reject	VBN	t436:TMP||t438:LGS	O
by	t438	14	by	O	O	O	O	O	O	cs30	O	PRP	B-PP	by	IN	t439:PMOD	O
regulators	t439	14	regulator	O	O	O	O	O	O	cs30	O	NN2	B-NP	regulator	NNS	O	O
,	t440	14	,	O	O	O	O	O	O	cs30	O	PUN	O	,	,	O	O
was	t441	14	be	O	O	O	O	O	O	cs30	O	VBD	B-VP	be	VBD	t434:SBJ||t442:VC	O
aimed	t442	14	aim	e57	I_STATE	PAST+NONE+POS	O	O	O	cs30	O	VVN	I-VP	aim	VBN	t443:ADV	O
at	t443	14	at	O	O	O	O	O	O	cs30	O	PRP	B-PP	at	IN	t444:PMOD	O
consolidating	t444	14	consolidate	e58	I_ACTION	NONE+NONE+POS	O	O	O	cs30	O	VVG	B-VP	consolidate	VBG	t446:OBJ	O
his	t445	14	he	O	O	O	O	O	O	cs30	O	DPS	B-NP	his	PRP$	O	O
control	t446	14	control	O	O	O	O	O	O	cs30	O	NN1	I-NP	control	NN	t445:NMOD||t447:NMOD	O
of	t447	14	of	O	O	O	O	O	O	cs30	O	PRF	B-PP	of	IN	t449:PMOD	O
the	t448	14	the	O	O	O	O	O	O	cs30	O	AT0	B-NP	the	DT	O	O
company	t449	14	company	O	O	O	O	O	O	cs30	O	NN1	I-NP	company	NN	t448:NMOD	O
.	t450	14	.	O	O	O	O	O	O	cs30	O	PUN	O	.	.	O	O

MCA	t451	15	MCA	O	O	O	O	O	O	cs30	O	NP0	B-NP	mca	NNP	O	O
strongly	t452	15	strongly	O	O	O	O	O	O	cs30	O	AV0	B-ADVP	strongly	RB	O	O
opposed	t453	15	oppose	e59	I_ACTION	PAST+NONE+POS	O	O	O	cs30	O	VVD	B-VP	oppose	VBD	t451:SBJ||t452:MNR||t458:OBJ||t459:P	mainVb
the	t454	15	the	O	O	O	O	O	O	cs30	O	AT0	B-NP	the	DT	O	O
Drabinsky	t455	15	Drabinsky	O	O	O	O	O	O	cs30	O	AJ0	I-NP	drabinsky	NNP	O	O
group	t456	15	group	O	O	O	O	O	O	cs30	O	NN1	I-NP	group	NN	t454:NMOD||t455:NMOD||t457:SUFFIX	O
's	t457	15	's	O	O	O	O	O	O	cs30	O	POS	B-NP	's	POS	O	O
move	t458	15	move	O	O	O	O	O	O	cs30	O	NN1	I-NP	move	NN	t456:NMOD	O
.	t459	15	.	O	O	O	O	O	O	cs30	O	PUN	O	.	.	O	O

The	t460	16	the	O	O	O	O	O	O	cs30	O	AT0	B-NP	the	DT	O	O
directors	t461	16	director	O	O	O	O	O	O	cs30	O	NN2	I-NP	director	NNS	t460:NMOD	O
did	t462	16	do	O	O	O	O	O	O	cs30	O	VDD	B-VP	do	VBD	t461:SBJ||t463:ADV||t464:VC||t475:P||t476:COORD||t515:P||t516:P	mainVb
n't	t463	16	not	O	O	O	O	O	O	cs30	O	XX0	I-VP	not	RB	O	mainVb
indicate	t464	16	indicate	e60	I_ACTION	PAST+NONE+NEG	O	O	O	cs30	O	VVI	I-VP	indicate	VB	t466:OBJ	mainVb
the	t465	16	the	O	O	O	O	O	O	cs30	O	AT0	B-NP	the	DT	O	O
source	t466	16	source	O	O	O	O	O	O	cs30	O	NN1	I-NP	source	NN	t465:NMOD||t467:NMOD	O
of	t467	16	of	O	O	O	O	O	O	cs30	O	PRF	B-PP	of	IN	t468:PMOD	O
financing	t468	16	financing	O	O	O	O	O	O	cs30	O	VVG	B-VP	financing	NN	t469:NMOD	O
for	t469	16	for	O	O	O	O	O	O	cs30	O	PRP	B-PP	for	IN	t474:PMOD	O
Mr.	t470	16	Mr.	O	O	O	O	O	O	cs30	O	NP0	B-NP	mr.	NNP	O	O
Drabinsky	t471	16	Drabinsky	O	O	O	O	O	O	cs30	O	NP0	I-NP	drabinsky	NNP	t470:TITLE||t472:SUFFIX	O
's	t472	16	's	O	O	O	O	O	O	cs30	O	POS	B-NP	's	POS	O	O
new	t473	16	new	O	O	O	O	O	O	cs30	O	AJ0	I-NP	new	JJ	O	O
proposal	t474	16	proposal	O	O	O	O	O	O	cs30	O	NN1	I-NP	proposal	NN	t471:NMOD||t473:NMOD	O
,	t475	16	,	O	O	O	O	O	O	cs30	O	PUN	O	,	,	O	O
but	t476	16	but	O	O	O	O	O	O	cs30	O	CJC	O	but	CC	t477:CONJ	O
said	t477	16	say	e61	REPORTING	PAST+NONE+POS	O	O	O	cs30	O	VVD	B-VP	say	VBD	t483:OBJ	O
MCA	t478	16	MCA	O	O	O	O	O	O	cs30	O	NP0	B-NP	mca	NNP	t479:COORD	O
and	t479	16	and	O	O	O	O	O	O	cs30	O	CJC	O	and	CC	t482:CONJ	O
the	t480	16	the	O	O	O	O	O	O	cs30	O	AT0	B-NP	the	DT	O	O
Bronfman	t481	16	Bronfman	O	O	O	O	O	O	cs30	O	AJ0	I-NP	bronfman	NNP	O	O
associates	t482	16	associate	O	O	O	O	O	O	cs30	O	NN2	I-NP	associate	NNS	t480:NMOD||t481:NMOD	O
agreed	t483	16	agree	e62	I_STATE	PAST+NONE+POS	O	O	O	cs30	O	VVN	B-VP	agree	VBD	t478:SBJ||t484:MNR||t486:OPRD	O
in	t484	16	in	O	O	O	O	O	O	cs30	O	PRP	B-PP	in	IN	t485:PMOD	O
principle	t485	16	principle	O	O	O	O	O	O	cs30	O	NN1	B-NP	principle	NN	O	O
to	t486	16	to	O	O	O	O	O	O	cs30	O	TO0	B-VP	to	TO	t487:IM	O
buy	t487	16	buy	e63	OCCURRENCE	INFINITIVE+NONE+POS	O	O	O	cs30	O	VVI	I-VP	buy	VB	t488:ADV||t492:COORD||t501:OBJ||t508:ADV	O
for	t488	16	for	O	O	O	O	O	O	cs30	O	PRP	B-PP	for	IN	t489:PMOD	O
$	t489	16	$	O	O	O	O	O	O	cs30	O	ZZ0	B-NP	$	$	t490:DEP||t491:DEP	O
57	t490	16	57	O	O	O	O	O	O	cs30	O	CRD	I-NP	57	CD	O	O
million	t491	16	million	O	O	O	O	O	O	cs30	O	CRD	I-NP	million	CD	O	O
and	t492	16	and	O	O	O	O	O	O	cs30	O	CJC	O	and	CC	t494:CONJ	O
then	t493	16	then	O	O	O	O	O	O	cs30	O	AV0	B-ADVP	then	RB	O	O
lease	t494	16	lease	e64	OCCURRENCE	NONE+NONE+POS	O	O	O	cs30	O	VVB	B-VP	lease	VB	t493:TMP||t495:ADV||t496:DTV	O
back	t495	16	back	O	O	O	O	O	O	cs30	O	AVP	B-ADVP	back	RB	O	O
to	t496	16	to	O	O	O	O	O	O	cs30	O	PRP	B-PP	to	TO	t497:PMOD	O
Cineplex	t497	16	Cineplex	O	O	O	O	O	O	cs30	O	NP0	B-NP	cineplex	NNP	O	O
its	t498	16	its	O	O	O	O	O	O	cs30	O	DPS	B-NP	its	PRP$	O	O
18-screen	t499	16	18-screen	O	O	O	O	O	O	cs30	O	AJ0	I-NP	18-screen	CD	O	O
theater	t500	16	theater	O	O	O	O	O	O	cs30	O	NN1	I-NP	theater	NN	O	O
complex	t501	16	complex	O	O	O	O	O	O	cs30	O	NN1	I-NP	complex	NN	t498:NMOD||t499:NMOD||t500:NMOD||t502:LOC	O
in	t502	16	in	O	O	O	O	O	O	cs30	O	PRP	B-PP	in	IN	t506:PMOD	O
Universal	t503	16	Universal	O	O	O	O	O	O	cs30	O	AJ0	B-NP	universal	NNP	O	O
City	t504	16	City	O	O	O	O	O	O	cs30	O	NN1	I-NP	city	NNP	t503:NAME	O
,	t505	16	,	O	O	O	O	O	O	cs30	O	PUN	O	,	,	O	O
Calif.	t506	16	Calif.	O	O	O	O	O	O	cs30	O	NP0	B-NP	calif.	NNP	t504:NMOD||t505:P||t507:P	O
,	t507	16	,	O	O	O	O	O	O	cs30	O	PUN	O	,	,	O	O
if	t508	16	if	O	O	O	O	O	O	cs30	O	CJS	B-SBAR	if	IN	t511:SUB	O
Mr.	t509	16	Mr.	O	O	O	O	O	O	cs30	O	NP0	B-NP	mr.	NNP	O	O
Drabinsky	t510	16	Drabinsky	O	O	O	O	O	O	cs30	O	NP0	I-NP	drabinsky	NNP	t509:TITLE	O
succeeds	t511	16	succeed	e65	OCCURRENCE	PRESENT+NONE+POS	O	O	O	cs30	O	VVZ	B-VP	succeed	VBZ	t510:SBJ||t512:LOC	O
in	t512	16	in	O	O	O	O	O	O	cs30	O	PRP	B-PP	in	IN	t514:PMOD	O
an	t513	16	a	O	O	O	O	O	O	cs30	O	AT0	B-NP	an	DT	O	O
offer	t514	16	offer	O	O	O	O	O	O	cs30	O	NN1	I-NP	offer	NN	t513:NMOD	O
.	t515	16	.	O	O	O	O	O	O	cs30	O	PUN	O	.	.	O	O
"	t516	16	"	O	O	O	O	O	O	cs30	O	PUQ	O	"	''	O	O

This	t517	17	this	O	O	O	O	O	O	cs30	O	DT0	B-NP	this	DT	O	O
is	t518	17	be	O	O	O	O	O	O	cs30	O	VBZ	B-VP	be	VBZ	t517:SBJ||t519:VC	O
being	t519	17	be	O	O	O	O	O	O	cs30	O	VBG	I-VP	be	VBG	t520:VC	O
done	t520	17	do	e66	OCCURRENCE	PRESENT+PROGRESSIVE+POS	O	O	O	cs30	O	VDN	I-VP	do	VBN	t521:PRP||t533:P||t534:PRP	O
at	t521	17	at	O	O	O	O	O	O	cs30	O	PRP	B-PP	at	IN	t523:PMOD||t529:COORD	O
the	t522	17	the	O	O	O	O	O	O	cs30	O	AT0	B-NP	the	DT	O	O
suggestion	t523	17	suggestion	e67	OCCURRENCE	NONE+NONE+POS	O	O	O	cs30	O	NN1	I-NP	suggestion	NN	t522:NMOD||t524:NMOD	O
of	t524	17	of	O	O	O	O	O	O	cs30	O	PRF	B-PP	of	IN	t528:PMOD	O
-LCB-	t525	17	-lcb-	O	O	O	O	O	O	cs30	O	AJ0	B-NP	-lcb-	NNP	O	O
Mr.	t526	17	Mr.	O	O	O	O	O	O	cs30	O	NP0	I-NP	mr.	NNP	O	O
Drabinsky	t527	17	Drabinsky	O	O	O	O	O	O	cs30	O	NP0	I-NP	drabinsky	NNP	O	O
-RCB-	t528	17	-rcb-	O	O	O	O	O	O	cs30	O	NP0	I-NP	-rcb-	NNP	t525:NAME||t526:TITLE||t527:NAME	O
and	t529	17	and	O	O	O	O	O	O	cs30	O	CJC	O	and	CC	t530:CONJ	O
to	t530	17	to	O	O	O	O	O	O	cs30	O	TO0	B-VP	to	TO	t531:IM	O
accommodate	t531	17	accommodate	e68	OCCURRENCE	INFINITIVE+NONE+POS	O	O	O	cs30	O	VVI	I-VP	accommodate	VB	t532:OBJ	O
him	t532	17	he	O	O	O	O	O	O	cs30	O	PNP	B-NP	him	PRP	O	O
,	t533	17	,	O	O	O	O	O	O	cs30	O	PUN	O	,	,	O	O
to	t534	17	to	O	O	O	O	O	O	cs30	O	TO0	B-VP	to	TO	t535:IM	O
facilitate	t535	17	facilitate	e69	I_STATE	INFINITIVE+NONE+POS	O	O	O	cs30	O	VVI	I-VP	facilitate	VB	t538:OBJ	O
his	t536	17	he	O	O	O	O	O	O	cs30	O	DPS	B-NP	his	PRP$	O	O
financing	t537	17	financing	O	O	O	O	O	O	cs30	O	NN1	I-NP	finance	VBG	O	O
arrangements	t538	17	arrangement	e70	OCCURRENCE	NONE+NONE+POS	O	O	O	cs30	O	NN2	I-NP	arrangement	NNS	t536:NMOD||t537:NMOD	O
,	t539	17	,	O	O	O	O	O	O	cs30	O	PUN	O	,	,	O	O
"	t540	17	"	O	O	O	O	O	O	cs30	O	PUQ	O	"	NNP	O	O
Ms.	t541	17	Ms.	O	O	O	O	O	O	cs30	O	NP0	B-NP	ms.	NNP	O	O
Kolber	t542	17	Kolber	O	O	O	O	O	O	cs30	O	NP0	I-NP	kolber	NNP	t540:NAME||t541:TITLE	O
said	t543	17	say	e71	REPORTING	PAST+NONE+POS	O	O	O	cs30	O	VVD	B-VP	say	VBD	t518:OBJ||t539:P||t542:SBJ||t544:P	mainVb
.	t544	17	.	O	O	O	O	O	O	cs30	O	PUN	O	.	.	O	O

In	t545	18	in	O	O	O	O	O	O	cs30	O	PRP	B-PP	in	IN	t546:PMOD	O
addition	t546	18	addition	O	O	O	O	O	O	cs30	O	NN1	B-NP	addition	NN	O	O
,	t547	18	,	O	O	O	O	O	O	cs30	O	PUN	O	,	,	O	O
the	t548	18	the	O	O	O	O	O	O	cs30	O	AT0	B-NP	the	DT	O	O
directors	t549	18	director	O	O	O	O	O	O	cs30	O	NN2	I-NP	director	NNS	t548:NMOD	O
said	t550	18	say	e72	REPORTING	PAST+NONE+POS	O	O	O	cs30	O	VVD	B-VP	say	VBD	t545:ADV||t547:P||t549:SBJ||t561:OBJ||t589:P	mainVb
if	t551	18	if	O	O	O	O	O	O	cs30	O	CJS	B-SBAR	if	IN	t557:SUB	O
a	t552	18	a	O	O	O	O	O	O	cs30	O	AT0	B-NP	a	DT	O	O
bid	t553	18	bid	O	O	O	O	O	O	cs30	O	NN1	I-NP	bid	NN	t552:NMOD||t554:LGS	O
by	t554	18	by	O	O	O	O	O	O	cs30	O	PRP	B-PP	by	IN	t556:PMOD	O
Mr.	t555	18	Mr.	O	O	O	O	O	O	cs30	O	NP0	B-NP	mr.	NNP	O	O
Drabinsky	t556	18	Drabinsky	O	O	O	O	O	O	cs30	O	NP0	I-NP	drabinsky	NNP	t555:TITLE	O
is	t557	18	be	O	O	O	O	O	O	cs30	O	VBZ	B-VP	be	VBZ	t553:SBJ||t558:PRD	O
successful	t558	18	successful	e73	STATE	PRESENT+NONE+POS	O	O	O	cs30	O	AJ0	B-ADJP	successful	JJ	O	O
,	t559	18	,	O	O	O	O	O	O	cs30	O	PUN	O	,	,	O	O
Cineplex	t560	18	Cineplex	O	O	O	O	O	O	cs30	O	NP0	B-NP	cineplex	NNP	O	O
expects	t561	18	expect	e74	I_STATE	PRESENT+NONE+POS	O	O	O	cs30	O	VVZ	B-VP	expect	VBZ	t551:ADV||t559:P||t560:SBJ||t564:OBJ||t565:OPRD	O
Rank	t562	18	Rank	O	O	O	O	O	O	cs30	O	NP0	B-NP	rank	NNP	O	O
Organisation	t563	18	Organisation	O	O	O	O	O	O	cs30	O	NN1	I-NP	organisation	NNP	O	O
PLC	t564	18	PLC	O	O	O	O	O	O	cs30	O	NN1	I-NP	plc	NNP	t562:NAME||t563:NAME	O
to	t565	18	to	O	O	O	O	O	O	cs30	O	TO0	B-VP	to	TO	t566:IM	O
acquire	t566	18	acquire	e75	OCCURRENCE	INFINITIVE+NONE+POS	O	O	O	cs30	O	VVI	I-VP	acquire	VB	t569:OBJ||t580:P||t581:COORD	O
the	t567	18	the	O	O	O	O	O	O	cs30	O	AT0	B-NP	the	DT	O	O
51	t568	18	51	O	O	O	O	O	O	cs30	O	CRD	I-NP	51	CD	O	O
%	t569	18	%	O	O	O	O	O	O	cs30	O	UNC	I-NP	%	NN	t567:NMOD||t568:NMOD||t570:NMOD||t577:NMOD	O
of	t570	18	of	O	O	O	O	O	O	cs30	O	PRF	B-PP	of	IN	t575:PMOD	O
Cineplex	t571	18	Cineplex	O	O	O	O	O	O	cs30	O	NP0	B-NP	cineplex	NNP	t572:SUFFIX	O
's	t572	18	's	O	O	O	O	O	O	cs30	O	POS	B-NP	's	POS	O	O
Film	t573	18	Film	O	O	O	O	O	O	cs30	O	NN1	I-NP	film	NNP	O	O
House	t574	18	House	O	O	O	O	O	O	cs30	O	NN1	I-NP	house	NNP	t573:NAME	O
unit	t575	18	unit	O	O	O	O	O	O	cs30	O	NN1	I-NP	unit	NN	t571:NMOD||t574:NMOD	O
it	t576	18	it	O	O	O	O	O	O	cs30	O	PNP	B-NP	it	PRP	O	O
does	t577	18	do	O	O	O	O	O	O	cs30	O	VDZ	B-VP	do	VBZ	t576:SBJ||t578:ADV||t579:VC	O
n't	t578	18	not	O	O	O	O	O	O	cs30	O	XX0	I-VP	not	RB	O	O
own	t579	18	own	e76	STATE	PRESENT+NONE+NEG	O	O	O	cs30	O	VVI	I-VP	own	VB	O	O
,	t580	18	,	O	O	O	O	O	O	cs30	O	PUN	O	,	,	O	O
and	t581	18	and	O	O	O	O	O	O	cs30	O	CJC	O	and	CC	t582:CONJ	O
provide	t582	18	provide	e77	OCCURRENCE	PRESENT+NONE+POS	O	O	O	cs30	O	VVB	B-VP	provide	VB	t584:OBJ||t585:ADV	O
Mr.	t583	18	Mr.	O	O	O	O	O	O	cs30	O	NP0	B-NP	mr.	NNP	O	O
Drabinsky	t584	18	Drabinsky	O	O	O	O	O	O	cs30	O	NP0	I-NP	drabinsky	NNP	t583:TITLE	O
with	t585	18	with	O	O	O	O	O	O	cs30	O	PRP	B-PP	with	IN	t588:PMOD	O
additional	t586	18	additional	O	O	O	O	O	O	cs30	O	AJ0	B-NP	additional	JJ	O	O
loan	t587	18	loan	O	O	O	O	O	O	cs30	O	NN1	I-NP	loan	NN	O	O
financing	t588	18	financing	O	O	O	O	O	O	cs30	O	VVG	I-NP	financing	NN	t586:NMOD||t587:NMOD	O
.	t589	18	.	O	O	O	O	O	O	cs30	O	PUN	O	.	.	O	O

Michael	t590	19	Michael	O	O	O	O	O	O	cs30	O	NP0	B-NP	michael	NNP	O	O
Gifford	t591	19	Gifford	O	O	O	O	O	O	cs30	O	NP0	I-NP	gifford	NNP	t590:NAME||t592:P||t596:APPO||t597:P	O
,	t592	19	,	O	O	O	O	O	O	cs30	O	PUN	O	,	,	O	O
Rank	t593	19	Rank	O	O	O	O	O	O	cs30	O	NP0	B-NP	rank	NNP	t594:SUFFIX	O
's	t594	19	's	O	O	O	O	O	O	cs30	O	POS	B-NP	's	POS	O	O
chief	t595	19	chief	O	O	O	O	O	O	cs30	O	AJ0	I-NP	chief	JJ	O	O
executive	t596	19	executive	O	O	O	O	O	O	cs30	O	NN1	I-NP	executive	NN	t593:NMOD||t595:NMOD	O
,	t597	19	,	O	O	O	O	O	O	cs30	O	PUN	O	,	,	O	O
said	t598	19	say	e78	REPORTING	PAST+NONE+POS	O	O	O	cs30	O	VVD	B-VP	say	VBD	t591:SBJ||t607:OBJ||t614:COORD||t630:P	mainVb
the	t599	19	the	O	O	O	O	O	O	cs30	O	AT0	B-NP	the	DT	O	O
British	t600	19	british	O	O	O	O	O	O	cs30	O	AJ0	I-NP	british	JJ	O	O
theater	t601	19	theater	O	O	O	O	O	O	cs30	O	NN1	I-NP	theater	NN	O	O
chain	t602	19	chain	O	O	O	O	O	O	cs30	O	NN1	I-NP	chain	NN	t599:NMOD||t600:NMOD||t601:NMOD||t603:SUFFIX	O
's	t603	19	's	O	O	O	O	O	O	cs30	O	POS	B-NP	's	POS	O	O
total	t604	19	total	O	O	O	O	O	O	cs30	O	AJ0	I-NP	total	JJ	O	O
involvement	t605	19	involvement	O	O	O	O	O	O	cs30	O	NN1	I-NP	involvement	NN	O	O
"	t606	19	"	O	O	O	O	O	O	cs30	O	PUQ	O	"	NN	t602:NMOD||t604:NMOD||t605:NMOD	O
would	t607	19	would	O	O	O	O	O	O	cs30	O	VM0	B-VP	would	MD	t606:SBJ||t608:ADV||t609:VC	O
n't	t608	19	not	O	O	O	O	O	O	cs30	O	XX0	I-VP	not	RB	O	O
exceed	t609	19	exceed	e79	OCCURRENCE	NONE+NONE+NEG	O	O	O	cs30	O	VVI	I-VP	exceed	VB	t613:OBJ	O
$	t610	19	$	O	O	O	O	O	O	cs30	O	NN0	B-NP	$	$	t611:DEP||t612:DEP	O
100	t611	19	100	O	O	O	O	O	O	cs30	O	CRD	I-NP	100	CD	O	O
million	t612	19	million	O	O	O	O	O	O	cs30	O	CRD	I-NP	million	CD	O	O
"	t613	19	"	O	O	O	O	O	O	cs30	O	PUQ	I-NP	"	NN	t610:NMOD	O
but	t614	19	but	O	O	O	O	O	O	cs30	O	CJC	O	but	CC	t615:CONJ	O
declined	t615	19	decline	e80	OCCURRENCE	PAST+NONE+POS	O	O	O	cs30	O	VVD	B-VP	decline	VBD	t616:OPRD	O
to	t616	19	to	O	O	O	O	O	O	cs30	O	TO0	I-VP	to	TO	t617:IM	O
give	t617	19	give	e81	OCCURRENCE	INFINITIVE+NONE+POS	O	O	O	cs30	O	VVI	I-VP	give	VB	t619:OBJ	O
a	t618	19	a	O	O	O	O	O	O	cs30	O	AT0	B-NP	a	DT	O	O
breakdown	t619	19	breakdown	O	O	O	O	O	O	cs30	O	NN1	I-NP	breakdown	NN	t618:NMOD||t620:NMOD	O
between	t620	19	between	O	O	O	O	O	O	cs30	O	PRP	B-PP	between	IN	t623:PMOD	O
the	t621	19	the	O	O	O	O	O	O	cs30	O	AT0	B-NP	the	DT	O	O
loan	t622	19	loan	O	O	O	O	O	O	cs30	O	NN1	I-NP	loan	NN	O	O
financing	t623	19	financing	O	O	O	O	O	O	cs30	O	VVG	I-NP	financing	NN	t621:NMOD||t622:NMOD||t624:COORD	O
and	t624	19	and	O	O	O	O	O	O	cs30	O	CJC	O	and	CC	t629:CONJ	O
the	t625	19	the	O	O	O	O	O	O	cs30	O	AT0	B-NP	the	DT	O	O
proposed	t626	19	propose	O	O	O	O	O	O	cs30	O	AJ0	I-NP	propose	VBN	O	O
Film	t627	19	Film	O	O	O	O	O	O	cs30	O	NP0	I-NP	film	NNP	O	O
House	t628	19	House	O	O	O	O	O	O	cs30	O	NN1	I-NP	house	NNP	t627:NAME	O
purchase	t629	19	purchase	O	O	O	O	O	O	cs30	O	NN1	I-NP	purchase	NN	t625:NMOD||t626:NMOD||t628:NMOD	O
.	t630	19	.	O	O	O	O	O	O	cs30	O	PUN	O	.	.	O	O

Cineplex	t631	20	Cineplex	O	O	O	O	O	O	cs30	O	NP0	B-NP	cineplex	NNP	O	O
shareholders	t632	20	shareholder	O	O	O	O	O	O	cs30	O	NN2	I-NP	shareholder	NNS	t631:NMOD	O
responded	t633	20	respond	e82	OCCURRENCE	PAST+NONE+POS	O	O	O	cs30	O	VVD	B-VP	respond	VBD	t632:SBJ||t634:MNR||t635:ADV||t639:P	mainVb
coolly	t634	20	coolly	O	O	O	O	O	O	cs30	O	AV0	B-ADVP	coolly	RB	O	O
to	t635	20	to	O	O	O	O	O	O	cs30	O	TO0	B-VP	to	TO	t638:PMOD	O
yesterday	t636	20	yesterday	O	O	O	tmx83	DATE	1989-10-25	cs30	O	AV0	I-VP	yesterday	NN	t637:SUFFIX	O
's	t637	20	's	O	O	O	O	O	O	cs30	O	POS	I-VP	's	POS	O	O
announcement	t638	20	announcement	e84	OCCURRENCE	NONE+NONE+POS	O	O	O	cs30	O	NN1	I-VP	announcement	NN	t636:NMOD	O
.	t639	20	.	O	O	O	O	O	O	cs30	O	PUN	O	.	.	O	O

In	t640	21	in	O	O	O	O	O	O	cs30	O	PRP	B-PP	in	IN	t641:PMOD	O
trading	t641	21	trading	e85	OCCURRENCE	NONE+NONE+POS	O	O	O	cs30	O	VVG	B-VP	trading	NN	t642:LOC	O
on	t642	21	on	O	O	O	O	O	O	cs30	O	PRP	B-PP	on	IN	t647:PMOD	O
the	t643	21	the	O	O	O	O	O	O	cs30	O	AT0	B-NP	the	DT	O	O
New	t644	21	New	O	O	O	O	O	O	cs30	O	NP0	I-NP	new	NNP	O	O
York	t645	21	York	O	O	O	O	O	O	cs30	O	NP0	I-NP	york	NNP	t644:NAME	O
Stock	t646	21	Stock	O	O	O	O	O	O	cs30	O	NP0	I-NP	stock	NNP	O	O
Exchange	t647	21	Exchange	O	O	O	O	O	O	cs30	O	NP0	I-NP	exchange	NNP	t643:NMOD||t645:NAME||t646:NAME	O
,	t648	21	,	O	O	O	O	O	O	cs30	O	PUN	O	,	,	O	O
Cineplex	t649	21	Cineplex	O	O	O	O	O	O	cs30	O	NP0	B-NP	cineplex	NNP	O	O
closed	t650	21	close	e86	OCCURRENCE	PAST+NONE+POS	O	O	O	cs30	O	VVD	B-VP	close	VBD	t640:LOC||t648:P||t649:SBJ||t651:ADV||t654:P||t655:ADV||t658:P||t659:ADV||t667:P	mainVb
at	t651	21	at	O	O	O	O	O	O	cs30	O	PRP	B-PP	at	IN	t652:PMOD	O
$	t652	21	$	O	O	O	O	O	O	cs30	O	NN1	B-NP	$	$	t653:NMOD	O
11	t653	21	11	O	O	O	O	O	O	cs30	O	CRD	I-NP	11	CD	O	O
,	t654	21	,	O	O	O	O	O	O	cs30	O	PUN	O	,	,	O	O
down	t655	21	down	O	O	O	O	O	O	cs30	O	AV0	B-ADVP	down	IN	t657:AMOD	O
25	t656	21	25	O	O	O	O	O	O	cs30	O	CRD	B-NP	25	CD	O	O
cents	t657	21	cent	O	O	O	O	O	O	cs30	O	NN2	I-NP	cent	NNS	t656:NMOD	O
,	t658	21	,	O	O	O	O	O	O	cs30	O	PUN	O	,	,	O	O
with	t659	21	with	O	O	O	O	O	O	cs30	O	PRP	B-PP	with	IN	t665:PMOD	O
more	t660	21	more	O	O	O	O	O	O	cs30	O	DT0	B-NP	more	RBR	O	O
than	t661	21	than	O	O	O	O	O	O	cs30	O	CJS	B-PP	than	IN	O	O
a	t662	21	a	O	O	O	O	O	O	cs30	O	AT0	B-NP	a	DT	t660:DEP||t661:DEP	O
million	t663	21	million	O	O	O	O	O	O	cs30	O	CRD	I-NP	million	CD	O	O
shares	t664	21	share	O	O	O	O	O	O	cs30	O	NN2	I-NP	share	NNS	t662:NMOD||t663:NMOD	O
changing	t665	21	change	O	O	O	O	O	O	cs30	O	VVG	B-VP	change	VBG	t664:SBJ||t666:OBJ	O
hands	t666	21	hand	O	O	O	O	O	O	cs30	O	NN2	B-NP	hands	NNS	O	O
.	t667	21	.	O	O	O	O	O	O	cs30	O	PUN	O	.	.	O	O

On	t668	22	on	O	O	O	O	O	O	cs30	O	PRP	B-PP	on	IN	t672:PMOD	O
the	t669	22	the	O	O	O	O	O	O	cs30	O	AT0	B-NP	the	DT	O	O
Toronto	t670	22	Toronto	O	O	O	O	O	O	cs30	O	NP0	I-NP	toronto	NNP	O	O
Stock	t671	22	Stock	O	O	O	O	O	O	cs30	O	NP0	I-NP	stock	NNP	O	O
Exchange	t672	22	Exchange	O	O	O	O	O	O	cs30	O	NP0	I-NP	exchange	NNP	t669:NMOD||t670:NAME||t671:NAME	O
,	t673	22	,	O	O	O	O	O	O	cs30	O	PUN	O	,	,	O	O
Cineplex	t674	22	Cineplex	O	O	O	O	O	O	cs30	O	NP0	B-NP	cineplex	NNP	O	O
closed	t675	22	close	e87	OCCURRENCE	PAST+NONE+POS	O	O	O	cs30	O	VVD	B-VP	close	VBD	t668:LOC||t673:P||t674:SBJ||t676:ADV||t680:P||t681:ADV||t685:P||t687:ADV||t693:P	mainVb
at	t676	22	at	O	O	O	O	O	O	cs30	O	PRP	B-PP	at	IN	t678:PMOD	O
C	t677	22	c	O	O	O	O	O	O	cs30	O	ZZ0	B-NP	c	NNP	O	O
$	t678	22	$	O	O	O	O	O	O	cs30	O	NN0	I-NP	$	$	t677:NMOD||t679:NMOD	O
12.875	t679	22	12.875	O	O	O	O	O	O	cs30	O	CRD	I-NP	12.875	CD	O	O
,	t680	22	,	O	O	O	O	O	O	cs30	O	PUN	O	,	,	O	O
off	t681	22	off	O	O	O	O	O	O	cs30	O	PRP	B-PP	off	IN	t684:AMOD	O
37.5	t682	22	37.5	O	O	O	O	O	O	cs30	O	CRD	B-NP	37.5	CD	O	O
Canadian	t683	22	canadian	O	O	O	O	O	O	cs30	O	AJ0	I-NP	canadian	JJ	O	O
cents	t684	22	cent	O	O	O	O	O	O	cs30	O	NN2	I-NP	cent	NNS	t682:NMOD||t683:NMOD	O
,	t685	22	,	O	O	O	O	O	O	cs30	O	PUN	O	,	,	O	O
well	t686	22	well	O	O	O	O	O	O	cs30	O	AV0	B-ADVP	well	RB	O	O
below	t687	22	below	O	O	O	O	O	O	cs30	O	PRP	B-PP	below	IN	t686:PMOD||t692:PMOD	O
the	t688	22	the	O	O	O	O	O	O	cs30	O	AT0	B-NP	the	DT	O	O
C	t689	22	c	O	O	O	O	O	O	cs30	O	ZZ0	I-NP	c	NNP	O	O
$	t690	22	$	O	O	O	O	O	O	cs30	O	CRD	I-NP	$	$	t691:NMOD||t694:ADV	O
16.40	t691	22	16.40	O	O	O	O	O	O	cs30	O	CRD	I-NP	16.40	CD	O	O
level	t692	22	level	O	O	O	O	O	O	cs30	O	NN1	I-NP	level	NN	t688:NMOD||t689:NMOD||t690:NMOD	O
.	t693	22	.	O	O	O	O	O	O	cs30	O	PUN	O	.	.	O	O
"	t694	22	"	O	O	O	O	O	O	cs30	O	PUQ	O	"	NN	O	O

Where	t695	23	where	O	O	O	O	O	O	cs30	O	AVQ	B-ADVP	where	WRB	O	O
's	t696	23	be	O	O	O	O	O	O	cs30	O	VBZ	B-NP	's	POS	t695:LOC-PRD||t698:SBJ||t699:P||t700:P	mainVb
the	t697	23	the	O	O	O	O	O	O	cs30	O	AT0	B-NP	the	DT	O	O
bid	t698	23	bid	O	O	O	O	O	O	cs30	O	NN1	I-NP	bid	NN	t697:NMOD	O
?	t699	23	?	O	O	O	O	O	O	cs30	O	PUN	O	?	.	O	O
"	t700	23	"	O	O	O	O	O	O	cs30	O	PUQ	O	"	''	O	O

asked	t701	24	ask	O	O	O	O	O	O	cs30	O	VVD	B-VP	ask	VBD	t705:SBJ||t719:P	mainVb
Pierre	t702	24	Pierre	O	O	O	O	O	O	cs30	O	NP0	B-NP	pierre	NNP	O	O
Panet	t703	24	Panet	O	O	O	O	O	O	cs30	O	NP0	I-NP	panet	NNP	O	O
-	t704	24	-	O	O	O	O	O	O	cs30	O	PUN	O	-	HYPH	O	O
Raymond	t705	24	Raymond	O	O	O	O	O	O	cs30	O	NP0	B-NP	raymond	NNP	t702:NAME||t703:NAME||t704:NAME||t706:P||t708:APPO	O
,	t706	24	,	O	O	O	O	O	O	cs30	O	PUN	O	,	,	O	O
an	t707	24	a	O	O	O	O	O	O	cs30	O	AT0	B-NP	an	DT	O	O
analyst	t708	24	analyst	O	O	O	O	O	O	cs30	O	NN1	I-NP	analyst	NN	t707:NMOD||t709:COORD||t711:NMOD	O
and	t709	24	and	O	O	O	O	O	O	cs30	O	CJC	I-NP	and	CC	t710:CONJ	O
broker	t710	24	broker	O	O	O	O	O	O	cs30	O	NN1	I-NP	broker	NN	O	O
with	t711	24	with	O	O	O	O	O	O	cs30	O	PRP	B-PP	with	IN	t714:PMOD	O
Toronto	t712	24	Toronto	O	O	O	O	O	O	cs30	O	NP0	B-NP	toronto	NNP	O	O
securities	t713	24	security	O	O	O	O	O	O	cs30	O	NN2	I-NP	security	NNS	O	O
dealer	t714	24	dealer	O	O	O	O	O	O	cs30	O	NN1	I-NP	dealer	NN	t712:NMOD||t713:NMOD||t717:APPO||t718:POSTHON	O
McDermid	t715	24	McDermid	O	O	O	O	O	O	cs30	O	NP0	I-NP	mcdermid	NNP	O	O
St.	t716	24	St.	O	O	O	O	O	O	cs30	O	NP0	I-NP	st.	NNP	O	O
Lawrence	t717	24	Lawrence	O	O	O	O	O	O	cs30	O	NP0	I-NP	lawrence	NNP	t715:NAME||t716:NAME	O
Ltd.	t718	24	Ltd.	O	O	O	O	O	O	cs30	O	AJ0	I-NP	ltd.	NNP	O	O
.	t719	24	.	O	O	O	O	O	O	cs30	O	PUN	O	.	.	O	O

Mr.	t720	25	Mr.	O	O	O	O	O	O	cs30	O	NP0	B-NP	mr.	NNP	O	O
Panet	t721	25	Panet	O	O	O	O	O	O	cs30	O	NP0	I-NP	panet	NNP	O	O
-	t722	25	-	O	O	O	O	O	O	cs30	O	PUN	O	-	HYPH	O	O
Raymond	t723	25	Raymond	O	O	O	O	O	O	cs30	O	NP0	B-NP	raymond	NNP	t720:TITLE||t721:NAME||t722:NAME	O
said	t724	25	say	e88	REPORTING	PAST+NONE+POS	O	O	O	cs30	O	VVD	B-VP	say	VBD	t723:SBJ||t726:OBJ||t734:P||t756:P	mainVb
he	t725	25	he	O	O	O	O	O	O	cs30	O	PNP	B-NP	he	PRP	O	O
does	t726	25	do	O	O	O	O	O	O	cs30	O	VDZ	B-VP	do	VBZ	t725:SBJ||t727:ADV||t728:VC||t741:COORD	O
n't	t727	25	not	O	O	O	O	O	O	cs30	O	XX0	I-VP	not	RB	O	O
think	t728	25	think	e89	I_STATE	PRESENT+NONE+NEG	O	O	O	cs30	O	VVI	I-VP	think	VB	t733:OBJ	O
Messrs.	t729	25	Messrs.	O	O	O	O	O	O	cs30	O	NP0	B-NP	messrs.	NNP	O	O
Drabinsky	t730	25	Drabinsky	O	O	O	O	O	O	cs30	O	NP0	I-NP	drabinsky	NNP	t729:TITLE||t731:COORD	O
and	t731	25	and	O	O	O	O	O	O	cs30	O	CJC	O	and	CC	t732:CONJ	O
Gottlieb	t732	25	Gottlieb	O	O	O	O	O	O	cs30	O	NP0	B-NP	gottlieb	NNP	O	O
are	t733	25	be	O	O	O	O	O	O	cs30	O	VBB	B-VP	be	VBP	t730:SBJ||t736:PRD	O
"	t734	25	"	O	O	O	O	O	O	cs30	O	PUQ	I-VP	"	:	O	O
anywhere	t735	25	anywhere	O	O	O	O	O	O	cs30	O	AV0	B-ADJP	anywhere	RB	O	O
close	t736	25	close	e90	I_STATE	PRESENT+NONE+POS	O	O	O	cs30	O	AJ0	I-ADJP	close	RB	t735:NMOD||t737:SBJ||t738:AMOD	O
"	t737	25	"	O	O	O	O	O	O	cs30	O	PUQ	O	"	PRP	O	O
to	t738	25	to	O	O	O	O	O	O	cs30	O	PRP	B-PP	to	TO	t739:PMOD	O
arranging	t739	25	arrange	e91	I_ACTION	INFINITIVE+NONE+POS	O	O	O	cs30	O	VVG	B-VP	arrange	VBG	t740:OBJ	O
financing	t740	25	financing	e92	OCCURRENCE	NONE+NONE+POS	O	O	O	cs30	O	VVG	I-VP	financing	NN	O	O
and	t741	25	and	O	O	O	O	O	O	cs30	O	CJC	O	and	CC	t742:CONJ	O
that	t742	25	that	O	O	O	O	O	O	cs30	O	CJT	B-SBAR	that	IN	t744:SUB	O
investors	t743	25	investor	O	O	O	O	O	O	cs30	O	NN2	B-NP	investor	NNS	O	O
will	t744	25	will	O	O	O	O	O	O	cs30	O	VM0	B-VP	will	MD	t743:SBJ||t745:VC	O
need	t745	25	need	e93	I_STATE	FUTURE+NONE+POS	O	O	O	cs30	O	VVI	I-VP	need	VB	t748:OBJ||t749:TMP	O
a	t746	25	a	O	O	O	O	O	O	cs30	O	AT0	B-NP	a	DT	O	O
solid	t747	25	solid	O	O	O	O	O	O	cs30	O	AJ0	I-NP	solid	JJ	O	O
offer	t748	25	offer	e94	OCCURRENCE	NONE+NONE+POS	O	O	O	cs30	O	NN1	I-NP	offer	NN	t746:NMOD||t747:NMOD	O
before	t749	25	before	O	O	O	O	O	O	cs30	O	CJS	B-PP	before	IN	t752:SUB	O
the	t750	25	the	O	O	O	O	O	O	cs30	O	AT0	B-NP	the	DT	O	O
stock	t751	25	stock	O	O	O	O	O	O	cs30	O	NN1	I-NP	stock	NN	t750:NMOD	O
begins	t752	25	begin	e95	ASPECTUAL	PRESENT+NONE+POS	O	O	O	cs30	O	VVZ	B-VP	begin	VBZ	t751:SBJ||t753:OPRD	O
to	t753	25	to	O	O	O	O	O	O	cs30	O	TO0	I-VP	to	TO	t754:IM	O
rise	t754	25	rise	e96	OCCURRENCE	INFINITIVE+NONE+POS	O	O	O	cs30	O	VVI	I-VP	rise	VB	t755:TMP	O
again	t755	25	again	O	O	O	O	O	O	cs30	O	AV0	B-ADVP	again	RB	O	O
.	t756	25	.	O	O	O	O	O	O	cs30	O	PUN	O	.	.	O	O

Mr.	t757	26	Mr.	O	O	O	O	O	O	cs30	O	NP0	B-NP	mr.	NNP	O	O
Drabinsky	t758	26	Drabinsky	O	O	O	O	O	O	cs30	O	NP0	I-NP	drabinsky	NNP	t757:TITLE	O
could	t759	26	could	O	O	O	O	O	O	cs30	O	VM0	B-VP	could	MD	t758:SBJ||t760:ADV||t761:VC||t765:P	mainVb
n't	t760	26	not	O	O	O	O	O	O	cs30	O	XX0	I-VP	not	RB	O	mainVb
be	t761	26	be	O	O	O	O	O	O	cs30	O	VBI	I-VP	be	VB	t762:VC	mainVb
reached	t762	26	reach	e97	OCCURRENCE	NONE+PERFECTIVE+NEG	O	O	O	cs30	O	VVN	I-VP	reach	VBN	t763:ADV	mainVb
for	t763	26	for	O	O	O	O	O	O	cs30	O	PRP	B-PP	for	IN	t764:PMOD	O
comment	t764	26	comment	O	O	O	O	O	O	cs30	O	NN1	B-NP	comment	NN	O	O
.	t765	26	.	O	O	O	O	O	O	cs30	O	PUN	O	.	.	O	O
