DCT_1989-10-27	O	O	O	O	O	O	tmx0	DATE	1989-10-27	O	O	NN1	B-NP	dct_1989-10-27	LS	O	O

CMS	t1	1	CMS	O	O	O+O+O	O	O	O	O	O	NP0	B-NP	cm	NNP	O	O
ENERGY	t2	1	ENERGY	O	O	O+O+O	O	O	O	O	O	NN1	I-NP	energy	NNP	t1:NAME||t3:POSTHON	O
Corp.	t3	1	Corp.	O	O	O+O+O	O	O	O	O	O	NN1	B-NP	corp.	NNP	O	O
said	t4	1	say	e1	REPORTING	PAST+NONE+POS	O	O	O	O	O	VVD	B-VP	say	VBD	t2:SBJ||t6:OBJ||t28:P	mainVb
management	t5	1	management	O	O	O	O	O	O	O	O	NN1	B-NP	management	NN	O	O
would	t6	1	would	O	O	O	O	O	O	O	O	VM0	B-VP	would	MD	t5:SBJ||t7:VC	O
recommend	t7	1	recommend	e2	I_ACTION	NONE+NONE+POS	O	O	O	O	O	VVI	I-VP	recommend	VB	t8:ADV||t11:TMP||t12:OBJ	O
to	t8	1	to	O	O	O	O	O	O	O	O	PRP	B-PP	to	TO	t10:PMOD	O
its	t9	1	its	O	O	O	O	O	O	O	O	DPS	B-NP	its	PRP$	O	O
board	t10	1	board	O	O	O	O	O	O	O	O	NN1	I-NP	board	NN	t9:NMOD	O
today	t11	1	today	O	O	O	tmx3	DATE	1989-10-27	O	O	AV0	B-NP	today	NN	O	O
that	t12	1	that	O	O	O	O	O	O	O	O	CJT	B-SBAR	that	IN	t17:SUB	O
its	t13	1	its	O	O	O	O	O	O	O	O	DPS	B-NP	its	PRP$	O	O
common	t14	1	common	O	O	O	O	O	O	O	O	AJ0	I-NP	common	JJ	O	O
stock	t15	1	stock	O	O	O	O	O	O	O	O	NN1	I-NP	stock	NN	t14:NMOD	O
dividend	t16	1	dividend	O	O	O	O	O	O	O	O	NN1	I-NP	dividend	NN	t13:NMOD||t15:NMOD	O
be	t17	1	be	O	O	O	O	O	O	O	O	VBI	B-VP	be	VB	t16:SBJ||t18:VC	O
reinstated	t18	1	reinstate	e4	OCCURRENCE	PRESENT+NONE+POS	O	O	O	O	O	VVN	I-VP	reinstate	VBN	t19:ADV||t27:TMP	O
at	t19	1	at	O	O	O	O	O	O	O	O	PRP	B-PP	at	IN	t24:PMOD	O
a	t20	1	a	O	O	O	O	O	O	O	O	AT0	B-NP	a	DT	O	O
"	t21	1	"	O	O	O	O	O	O	O	O	PUQ	I-NP	"	JJ	O	O
modest	t22	1	modest	O	O	O	O	O	O	O	O	AJ0	I-NP	modest	JJ	O	O
level	t23	1	level	O	O	O	O	O	O	O	O	NN1	I-NP	level	NN	t21:NMOD||t22:NMOD	O
"	t24	1	"	O	O	O	O	O	O	O	O	PUQ	I-NP	"	NN	t20:NMOD||t23:NMOD	O
later	t25	1	later	O	O	O	tmx5	DATE	1989-11-01	O	O	AV0	B-ADVP	later	RB	O	O
this	t26	1	this	O	O	O	tmx5	DATE	1989-11-01	O	O	DT0	B-NP	this	DT	O	O
year	t27	1	year	O	O	O	tmx5	DATE	1989-11-01	O	O	NN1	I-NP	year	NN	t25:NMOD||t26:NMOD	O
.	t28	1	.	O	O	O	O	O	O	O	O	PUN	O	.	.	O	O

The	t29	2	the	O	O	O	O	O	O	O	O	AT0	B-NP	the	DT	O	O
Dearborn	t30	2	Dearborn	O	O	O	O	O	O	O	O	NN1	I-NP	dearborn	NNP	O	O
,	t31	2	,	O	O	O	O	O	O	O	O	PUN	O	,	,	O	O
Mich.	t32	2	Mich.	O	O	O	O	O	O	O	O	NP0	B-NP	mich.	NNP	t30:NAME||t31:P||t33:P	O
,	t33	2	,	O	O	O	O	O	O	O	O	PUN	O	,	,	O	O
energy	t34	2	energy	O	O	O	O	O	O	O	O	NN1	B-NP	energy	NN	O	O
company	t35	2	company	O	O	O	O	O	O	O	O	NN1	I-NP	company	NN	t29:NMOD||t32:LOC||t34:NMOD	O
stopped	t36	2	stop	e6	ASPECTUAL	PAST+NONE+POS	O	O	O	O	O	VVD	B-VP	stop	VBD	t35:SBJ||t37:OPRD||t40:TMP||t46:PRP||t54:P	mainVb
paying	t37	2	pay	e7	OCCURRENCE	PRESPART+NONE+POS	O	O	O	O	O	VVG	I-VP	pay	VBG	t39:OBJ	mainVb
a	t38	2	a	O	O	O	O	O	O	O	O	AT0	B-NP	a	DT	O	O
dividend	t39	2	dividend	O	O	O	O	O	O	O	O	NN1	I-NP	dividend	NN	t38:NMOD	O
in	t40	2	in	O	O	O	O	O	O	O	O	PRP	B-PP	in	IN	t43:PMOD	O
the	t41	2	the	O	O	O	tmx8	DATE	1984-Q3	O	O	AT0	B-NP	the	DT	O	O
third	t42	2	third	O	O	O	tmx8	DATE	1984-Q3	O	O	ORD	I-NP	third	JJ	O	O
quarter	t43	2	quarter	O	O	O	tmx8	DATE	1984-Q3	O	O	NN1	I-NP	quarter	NN	t41:NMOD||t42:NMOD||t44:NMOD	O
of	t44	2	of	O	O	O	tmx8	DATE	1984-Q3	O	O	PRF	B-PP	of	IN	t45:PMOD	O
1984	t45	2	1984	O	O	O	tmx8	DATE	1984-Q3	O	O	CRD	B-NP	1984	CD	O	O
because	t46	2	because	O	O	O	O	O	O	cs9	O	PRP	B-PP	because	IN	t47:DEP||t48:PMOD	O
of	t47	2	of	O	O	O	O	O	O	cs9	O	PRP	B-PP	of	IN	O	O
troubles	t48	2	trouble	e10	OCCURRENCE	NONE+NONE+POS	O	O	O	cs9	O	NN2	B-NP	trouble	NNS	t49:LOC	O
at	t49	2	at	O	O	O	O	O	O	cs9	O	PRP	B-PP	at	IN	t53:PMOD	O
its	t50	2	its	O	O	O	O	O	O	cs9	O	DPS	B-NP	its	PRP$	O	O
Midland	t51	2	Midland	O	O	O	O	O	O	cs9	O	NP0	I-NP	midland	NNP	O	O
nuclear	t52	2	nuclear	O	O	O	O	O	O	cs9	O	AJ0	I-NP	nuclear	JJ	O	O
plant	t53	2	plant	O	O	O	O	O	O	cs9	O	NN1	I-NP	plant	NN	t50:NMOD||t51:NMOD||t52:NMOD	O
.	t54	2	.	O	O	O	O	O	O	cs9	O	PUN	O	.	.	O	O

In	t55	3	in	O	O	O	O	O	O	cs9	O	PRP	B-PP	in	IN	t56:PMOD	O
addition	t56	3	addition	O	O	O	O	O	O	cs9	O	NN1	B-NP	addition	NN	O	O
,	t57	3	,	O	O	O	O	O	O	cs9	O	PUN	O	,	,	O	O
CMS	t58	3	CMS	O	O	O	O	O	O	cs9	O	NP0	B-NP	cm	NNP	O	O
reported	t59	3	report	e11	REPORTING	PAST+NONE+POS	O	O	O	cs9	O	VVD	B-VP	report	VBD	t55:ADV||t57:P||t58:SBJ||t61:OBJ||t88:P	mainVb
third-quarter	t60	3	third-quarter	O	O	O	tmx12	DATE	1989-Q3	cs9	O	AJC	B-NP	third-quarter	JJ	O	O
net	t61	3	net	O	O	O	O	O	O	cs9	O	NN1	I-NP	net	NN	t60:NMOD||t62:NMOD	O
of	t62	3	of	O	O	O	O	O	O	cs9	O	PRF	B-PP	of	IN	t63:PMOD	O
$	t63	3	$	O	O	O	O	O	O	cs9	O	NN0	B-NP	$	$	t64:DEP||t65:DEP||t66:P||t67:COORD||t72:P||t73:NMOD	O
68.2	t64	3	68.2	O	O	O	O	O	O	cs9	O	CRD	I-NP	68.2	CD	O	O
million	t65	3	million	O	O	O	O	O	O	cs9	O	CRD	I-NP	million	CD	O	O
,	t66	3	,	O	O	O	O	O	O	cs9	O	PUN	O	,	,	O	O
or	t67	3	or	O	O	O	O	O	O	cs9	O	CJC	O	or	CC	t69:CONJ	O
83	t68	3	83	O	O	O	O	O	O	cs9	O	CRD	B-NP	83	CD	O	O
cents	t69	3	cent	O	O	O	O	O	O	cs9	O	NN2	I-NP	cent	NNS	t68:NMOD||t71:ADV	O
a	t70	3	a	O	O	O	O	O	O	cs9	O	AT0	B-NP	a	DT	O	O
share	t71	3	share	O	O	O	O	O	O	cs9	O	NN1	I-NP	share	NN	t70:NMOD	O
,	t72	3	,	O	O	O	O	O	O	cs9	O	PUN	O	,	,	O	O
up	t73	3	up	e13	STATE	NONE+NONE+POS	O	O	O	cs9	O	AVP	B-ADVP	up	RB	t74:AMOD	O
from	t74	3	from	O	O	O	O	O	O	cs9	O	PRP	B-PP	from	IN	t75:PMOD||t84:P||t87:TMP	O
$	t75	3	$	O	O	O	O	O	O	cs9	O	CRD	B-NP	$	$	t76:DEP||t77:DEP||t78:P||t79:COORD	O
66.8	t76	3	66.8	O	O	O	O	O	O	cs9	O	CRD	I-NP	66.8	CD	O	O
million	t77	3	million	O	O	O	O	O	O	cs9	O	CRD	I-NP	million	CD	O	O
,	t78	3	,	O	O	O	O	O	O	cs9	O	PUN	O	,	,	O	O
or	t79	3	or	O	O	O	O	O	O	cs9	O	CJC	O	or	CC	t81:CONJ	O
81	t80	3	81	O	O	O	O	O	O	cs9	O	CRD	B-NP	81	CD	O	O
cents	t81	3	cent	O	O	O	O	O	O	cs9	O	NN2	I-NP	cent	NNS	t80:NMOD||t83:ADV	O
a	t82	3	a	O	O	O	O	O	O	cs9	O	AT0	B-NP	a	DT	O	O
share	t83	3	share	O	O	O	O	O	O	cs9	O	NN1	I-NP	share	NN	t82:NMOD	O
,	t84	3	,	O	O	O	O	O	O	cs9	O	PUN	O	,	,	O	O
a	t85	3	a	O	O	O	tmx14	DATE	1988-Q3	cs9	O	AT0	B-NP	a	DT	O	O
year	t86	3	year	O	O	O	tmx14	DATE	1988-Q3	cs9	O	NN1	I-NP	year	NN	t85:NMOD	O
ago	t87	3	ago	O	O	O	tmx14	DATE	1988-Q3	cs9	O	AV0	B-ADVP	ago	RB	t86:AMOD	O
.	t88	3	.	O	O	O	O	O	O	cs9	O	PUN	O	.	.	O	O
