DCT_1989-11-02	O	O	O	O	O	O	tmx0	DATE	1989-11-02	O	O	NP0	B-NP	dct_1989-11-02	LS	O	O

Travelers	t1	1	Travelers	O	O	O+O+O	O	O	O	O	O	NP0	B-NP	traveler	NNP	t2:POSTHON||t3:SUFFIX	O
Corp.	t2	1	Corp.	O	O	O+O+O	O	O	O	O	O	NP0	B-NP	corp.	NNP	O	O
's	t3	1	's	O	O	O+O+O	O	O	O	O	O	POS	B-NP	's	POS	O	O
third-quarter	t4	1	third-quarter	O	O	O+O+O	tmx1	DATE	1989-Q3	O	O	NN1	I-NP	third-quarter	JJ	O	O
net	t5	1	net	O	O	O+O+O	O	O	O	O	O	NN1	I-NP	net	JJ	O	O
income	t6	1	income	O	O	O+O+O	O	O	O	O	O	NN1	I-NP	income	NN	t1:NMOD||t4:NMOD||t5:NMOD	O
rose	t7	1	rise	e2	OCCURRENCE	PAST+NONE+POS	O	O	O	O	O	VVD	B-VP	rise	VBD	t6:SBJ||t9:EXT||t10:P||t12:ADV||t23:P	mainVb
11	t8	1	11	O	O	O	O	O	O	O	O	CRD	B-NP	11	CD	O	O
%	t9	1	%	O	O	O	O	O	O	O	O	UNC	I-NP	%	NN	t8:NMOD	O
,	t10	1	,	O	O	O	O	O	O	O	O	PUN	O	,	,	O	O
even	t11	1	even	O	O	O	O	O	O	O	O	CJS	B-SBAR	even	RB	O	O
though	t12	1	though	O	O	O	O	O	O	O	O	CJS	I-SBAR	though	IN	t11:DEP||t18:SUB	O
claims	t13	1	claim	e3	OCCURRENCE	NONE+NONE+POS	O	O	O	O	O	NN2	B-NP	claim	NNS	t14:APPO	O
stemming	t14	1	stem	e4	OCCURRENCE	O	O	O	O	O	O	VVG	B-VP	stem	VBG	t15:ADV	O
from	t15	1	from	O	O	O	O	O	O	O	O	PRP	B-PP	from	IN	t16:PMOD	O
Hurricane	t16	1	Hurricane	e5	OCCURRENCE	NONE+NONE+POS	O	O	O	O	O	NP0	B-NP	hurricane	NNP	O	O
Hugo	t17	1	Hugo	O	O	O	O	O	O	O	O	NP0	I-NP	hugo	NNP	t16:NAME	O
reduced	t18	1	reduce	e6	OCCURRENCE	PAST+NONE+POS	O	O	O	O	O	VVD	B-VP	reduce	VBD	t13:SBJ||t19:OBJ||t20:EXT	O
results	t19	1	result	O	O	O	O	O	O	O	O	NN2	B-NP	result	NNS	O	O
$	t20	1	$	O	O	O	O	O	O	O	O	CRD	B-NP	$	$	t21:DEP||t22:DEP	O
40	t21	1	40	O	O	O	O	O	O	O	O	CRD	I-NP	40	CD	O	O
million	t22	1	million	O	O	O	O	O	O	O	O	CRD	I-NP	million	CD	O	O
.	t23	1	.	O	O	O	O	O	O	O	O	PUN	O	.	.	O	O

Net	t24	2	net	O	O	O	O	O	O	O	O	NP0	B-NP	net	NN	O	O
advanced	t25	2	advance	e7	OCCURRENCE	PAST+NONE+POS	O	O	O	O	O	VVD	B-VP	advance	VBD	t24:SBJ||t26:DIR||t37:DIR||t66:P	mainVb
to	t26	2	to	O	O	O	O	O	O	O	O	PRP	B-PP	to	TO	t27:PMOD	O
$	t27	2	$	O	O	O	O	O	O	O	O	CRD	B-NP	$	$	t28:DEP||t29:DEP||t30:P||t31:COORD||t36:P	O
94.2	t28	2	94.2	O	O	O	O	O	O	O	O	CRD	I-NP	94.2	CD	O	O
million	t29	2	million	O	O	O	O	O	O	O	O	CRD	I-NP	million	CD	O	O
,	t30	2	,	O	O	O	O	O	O	O	O	PUN	O	,	,	O	O
or	t31	2	or	O	O	O	O	O	O	O	O	CJC	O	or	CC	t33:CONJ	O
89	t32	2	89	O	O	O	O	O	O	O	O	CRD	B-NP	89	CD	O	O
cents	t33	2	cent	O	O	O	O	O	O	O	O	NN2	I-NP	cent	NNS	t32:NMOD||t35:ADV	O
a	t34	2	a	O	O	O	O	O	O	O	O	AT0	B-NP	a	DT	O	O
share	t35	2	share	O	O	O	O	O	O	O	O	NN1	I-NP	share	NN	t34:NMOD	O
,	t36	2	,	O	O	O	O	O	O	O	O	PUN	O	,	,	O	O
from	t37	2	from	O	O	O	O	O	O	O	O	PRP	B-PP	from	IN	t38:PMOD	O
$	t38	2	$	O	O	O	O	O	O	O	O	CRD	B-NP	$	$	t39:DEP||t40:DEP||t41:P||t42:COORD||t47:P||t48:NMOD||t57:P||t58:NMOD	O
85	t39	2	85	O	O	O	O	O	O	O	O	CRD	I-NP	85	CD	O	O
million	t40	2	million	O	O	O	O	O	O	O	O	CRD	I-NP	million	CD	O	O
,	t41	2	,	O	O	O	O	O	O	O	O	PUN	O	,	,	O	O
or	t42	2	or	O	O	O	O	O	O	O	O	CJC	O	or	CC	t44:CONJ	O
83	t43	2	83	O	O	O	O	O	O	O	O	CRD	B-NP	83	CD	O	O
cents	t44	2	cent	O	O	O	O	O	O	O	O	NN2	I-NP	cent	NNS	t43:NMOD||t46:ADV	O
a	t45	2	a	O	O	O	O	O	O	O	O	AT0	B-NP	a	DT	O	O
share	t46	2	share	O	O	O	O	O	O	O	O	NN1	I-NP	share	NN	t45:NMOD	O
,	t47	2	,	O	O	O	O	O	O	O	O	PUN	O	,	,	O	O
including	t48	2	include	O	O	O	O	O	O	O	O	PRP	B-PP	include	VBG	t52:PMOD	O
net	t49	2	net	O	O	O	O	O	O	O	O	AJ0	B-NP	net	JJ	O	O
realized	t50	2	realize	O	O	O	O	O	O	O	O	AJ0	I-NP	realize	VBN	O	O
investment	t51	2	investment	O	O	O	O	O	O	O	O	NN1	I-NP	investment	NN	O	O
gains	t52	2	gain	e8	OCCURRENCE	NONE+NONE+POS	O	O	O	O	O	NN2	I-NP	gain	NNS	t49:NMOD||t50:NMOD||t51:NMOD||t53:NMOD	O
of	t53	2	of	O	O	O	O	O	O	O	O	PRF	B-PP	of	IN	t54:PMOD	O
$	t54	2	$	O	O	O	O	O	O	O	O	NN0	B-NP	$	$	t55:DEP||t56:DEP	O
31	t55	2	31	O	O	O	O	O	O	O	O	CRD	B-NP	31	CD	O	O
million	t56	2	million	O	O	O	O	O	O	O	O	CRD	I-NP	million	CD	O	O
,	t57	2	,	O	O	O	O	O	O	O	O	PUN	O	,	,	O	O
up	t58	2	up	O	O	O	O	O	O	O	O	AVP	B-ADVP	up	RB	t59:AMOD	O
from	t59	2	from	O	O	O	O	O	O	O	O	PRP	B-PP	from	IN	t60:PMOD||t65:TMP	O
$	t60	2	$	O	O	O	O	O	O	O	O	CRD	B-NP	$	$	t61:DEP||t62:DEP	O
10	t61	2	10	O	O	O	O	O	O	O	O	CRD	I-NP	10	CD	O	O
million	t62	2	million	O	O	O	O	O	O	O	O	CRD	I-NP	million	CD	O	O
a	t63	2	a	O	O	O	tmx9	DATE	1988-Q3	O	O	AT0	B-NP	a	DT	O	O
year	t64	2	year	O	O	O	tmx9	DATE	1988-Q3	O	O	NN1	I-NP	year	NN	t63:NMOD	O
ago	t65	2	ago	O	O	O	tmx9	DATE	1988-Q3	O	O	AV0	B-ADVP	ago	RB	t64:AMOD	O
.	t66	2	.	O	O	O	O	O	O	O	O	PUN	O	.	.	O	O

But	t67	3	but	O	O	O	O	O	O	O	O	CJC	O	but	CC	O	O
revenue	t68	3	revenue	O	O	O	O	O	O	O	O	NN1	B-NP	revenue	NN	O	O
declined	t69	3	decline	e10	OCCURRENCE	PAST+NONE+POS	O	O	O	O	O	VVD	B-VP	decline	VBD	t67:DEP||t68:SBJ||t70:DIR||t74:DIR||t78:P	mainVb
to	t70	3	to	O	O	O	O	O	O	O	O	PRP	B-PP	to	TO	t71:PMOD	O
$	t71	3	$	O	O	O	O	O	O	O	O	CRD	B-NP	$	$	t72:DEP||t73:DEP	O
3	t72	3	3	O	O	O	O	O	O	O	O	CRD	I-NP	3	CD	O	O
billion	t73	3	billion	O	O	O	O	O	O	O	O	CRD	I-NP	billion	CD	O	O
from	t74	3	from	O	O	O	O	O	O	O	O	PRP	B-PP	from	IN	t75:PMOD	O
$	t75	3	$	O	O	O	O	O	O	O	O	ZZ0	B-NP	$	$	t76:DEP||t77:DEP	O
3.2	t76	3	3.2	O	O	O	O	O	O	O	O	CRD	I-NP	3.2	CD	O	O
billion	t77	3	billion	O	O	O	O	O	O	O	O	CRD	I-NP	billion	CD	O	O
.	t78	3	.	O	O	O	O	O	O	O	O	PUN	O	.	.	O	O

Travelers	t79	4	Travelers	O	O	O	O	O	O	O	O	NN2	B-NP	traveler	NNS	O	O
estimated	t80	4	estimate	e11	I_ACTION	PAST+NONE+POS	O	O	O	O	O	VVD	B-VP	estimate	VBD	t79:SBJ||t81:OBJ||t100:P	mainVb
that	t81	4	that	O	O	O	O	O	O	O	O	CJT	B-SBAR	that	IN	t87:SUB	O
the	t82	4	the	O	O	O	O	O	O	O	O	AT0	B-NP	the	DT	O	O
California	t83	4	California	O	O	O	O	O	O	O	O	NP0	I-NP	california	NNP	O	O
earthquake	t84	4	earthquake	e12	OCCURRENCE	NONE+NONE+POS	O	O	O	O	O	NN1	I-NP	earthquake	NN	t82:NMOD||t83:NMOD	O
last	t85	4	last	O	O	O	tmx13	DATE	1989-10	O	O	ORD	B-NP	last	JJ	O	O
month	t86	4	month	O	O	O	tmx13	DATE	1989-10	O	O	NN1	I-NP	month	NN	t85:NMOD	O
will	t87	4	will	O	O	O	O	O	O	O	O	VM0	B-VP	will	MD	t84:SBJ||t86:TMP||t88:VC	O
result	t88	4	result	e14	ASPECTUAL	FUTURE+NONE+POS	O	O	O	O	O	VVI	I-VP	result	VB	t89:ADV	O
in	t89	4	in	O	O	O	O	O	O	O	O	PRP	B-PP	in	IN	t93:PMOD	O
a	t90	4	a	O	O	O	O	O	O	O	O	AT0	B-NP	a	DT	O	O
fourth-quarter	t91	4	fourth-quarter	O	O	O	tmx15	DATE	1989-Q4	O	O	NN1	I-NP	fourth-quarter	NN	O	O
pre-tax	t92	4	pre-tax	O	O	O	O	O	O	O	O	NN1	I-NP	pre-tax	NN	t91:NMOD	O
charge	t93	4	charge	e16	OCCURRENCE	NONE+NONE+POS	O	O	O	O	O	NN1	I-NP	charge	NN	t90:NMOD||t92:NMOD||t94:NMOD	O
of	t94	4	of	O	O	O	O	O	O	O	O	PRF	B-PP	of	IN	t97:PMOD	O
less	t95	4	less	O	O	O	O	O	O	O	O	AV0	B-NP	less	JJR	O	O
than	t96	4	than	O	O	O	O	O	O	O	O	AV0	I-NP	than	IN	O	O
$	t97	4	$	O	O	O	O	O	O	O	O	NN0	I-NP	$	$	t95:DEP||t96:DEP||t98:DEP||t99:DEP	O
10	t98	4	10	O	O	O	O	O	O	O	O	CRD	I-NP	10	CD	O	O
million	t99	4	million	O	O	O	O	O	O	O	O	CRD	I-NP	million	CD	O	O
.	t100	4	.	O	O	O	O	O	O	O	O	PUN	O	.	.	O	O

The	t101	5	the	O	O	O	O	O	O	O	O	AT0	B-NP	the	DT	O	O
insurer	t102	5	insurer	O	O	O	O	O	O	O	O	NN1	I-NP	insurer	NN	t101:NMOD||t103:SUFFIX	O
's	t103	5	's	O	O	O	O	O	O	O	O	POS	B-NP	's	POS	O	O
earnings	t104	5	earnings	O	O	O	O	O	O	O	O	NN2	I-NP	earnings	NNS	t102:NMOD||t105:NMOD	O
from	t105	5	from	O	O	O	O	O	O	O	O	PRP	B-PP	from	IN	t110:PMOD	O
commercial	t106	5	commercial	O	O	O	O	O	O	O	O	AJ0	B-NP	commercial	JJ	O	O
property	t107	5	property	O	O	O	O	O	O	O	O	NN1	I-NP	property	NN	t106:NMOD||t108:COORD	O
/	t108	5	/	O	O	O	O	O	O	O	O	UNC	I-NP	/	:	t109:CONJ	O
casualty	t109	5	casualty	O	O	O	O	O	O	O	O	NN1	I-NP	casualty	NN	O	O
lines	t110	5	line	O	O	O	O	O	O	O	O	NN2	I-NP	line	NNS	t107:NMOD	O
fell	t111	5	fall	e17	OCCURRENCE	PAST+NONE+POS	O	O	O	O	O	VVD	B-VP	fell	VBD	t104:SBJ||t113:EXT||t114:TMP||t118:P||t119:ADV||t143:P	mainVb
59	t112	5	59	O	O	O	O	O	O	O	O	CRD	B-NP	59	CD	O	O
%	t113	5	%	O	O	O	O	O	O	O	O	UNC	I-NP	%	NN	t112:NMOD	O
in	t114	5	in	O	O	O	O	O	O	O	O	PRP	B-PP	in	IN	t117:PMOD	O
the	t115	5	the	O	O	O	tmx18	DATE	1989-Q3	O	O	AT0	B-NP	the	DT	O	O
latest	t116	5	latest	O	O	O	tmx18	DATE	1989-Q3	O	O	AJS	I-NP	latest	JJS	O	O
quarter	t117	5	quarter	O	O	O	tmx18	DATE	1989-Q3	O	O	NN1	I-NP	quarter	NN	t115:NMOD||t116:NMOD	O
,	t118	5	,	O	O	O	O	O	O	O	O	PUN	O	,	,	O	O
while	t119	5	while	O	O	O	O	O	O	O	O	CJS	B-SBAR	while	IN	t121:SUB	O
it	t120	5	it	O	O	O	O	O	O	O	O	PNP	B-NP	it	PRP	O	O
lost	t121	5	lose	e19	OCCURRENCE	PAST+NONE+POS	O	O	O	O	O	VVD	B-VP	lose	VBD	t120:SBJ||t122:OBJ||t125:LOC||t132:P||t133:ADV	O
$	t122	5	$	O	O	O	O	O	O	O	O	CRD	B-NP	$	$	t123:DEP||t124:DEP	O
7.2	t123	5	7.2	O	O	O	O	O	O	O	O	CRD	I-NP	7.2	CD	O	O
million	t124	5	million	O	O	O	O	O	O	O	O	CRD	I-NP	million	CD	O	O
in	t125	5	in	O	O	O	O	O	O	O	O	PRP	B-PP	in	IN	t131:PMOD	O
its	t126	5	its	O	O	O	O	O	O	O	O	DPS	B-NP	its	PRP$	O	O
personal	t127	5	personal	O	O	O	O	O	O	O	O	AJ0	I-NP	personal	JJ	O	O
property	t128	5	property	O	O	O	O	O	O	O	O	NN1	I-NP	property	NN	t127:NMOD||t129:COORD	O
/	t129	5	/	O	O	O	O	O	O	O	O	UNC	I-NP	/	:	t130:CONJ	O
casualty	t130	5	casualty	O	O	O	O	O	O	O	O	AJ0	I-NP	casualty	NN	O	O
business	t131	5	business	O	O	O	O	O	O	O	O	NN1	I-NP	business	NN	t126:NMOD||t128:NMOD	O
,	t132	5	,	O	O	O	O	O	O	O	O	PUN	O	,	,	O	O
compared	t133	5	compare	O	O	O	O	O	O	O	O	VVN	B-PP	compare	VBN	t134:PMOD	O
with	t134	5	with	O	O	O	O	O	O	O	O	PRP	B-PP	with	IN	t135:PMOD	O
earnings	t135	5	earnings	O	O	O	O	O	O	O	O	NN2	B-NP	earnings	NNS	t136:NMOD||t142:TMP	O
of	t136	5	of	O	O	O	O	O	O	O	O	PRF	B-PP	of	IN	t137:PMOD	O
$	t137	5	$	O	O	O	O	O	O	O	O	NN0	B-NP	$	$	t138:DEP||t139:DEP	O
6.1	t138	5	6.1	O	O	O	O	O	O	O	O	CRD	I-NP	6.1	CD	O	O
million	t139	5	million	O	O	O	O	O	O	O	O	CRD	I-NP	million	CD	O	O
a	t140	5	a	O	O	O	tmx20	DATE	1988-Q3	O	O	AT0	B-NP	a	DT	O	O
year	t141	5	year	O	O	O	tmx20	DATE	1988-Q3	O	O	NN1	I-NP	year	NN	t140:NMOD	O
ago	t142	5	ago	O	O	O	tmx20	DATE	1988-Q3	O	O	AV0	B-ADVP	ago	RB	t141:AMOD	O
.	t143	5	.	O	O	O	O	O	O	O	O	PUN	O	.	.	O	O

Travelers	t144	6	Travelers	O	O	O	O	O	O	O	O	NP0	B-NP	traveler	NNP	t145:SUFFIX	O
's	t145	6	's	O	O	O	O	O	O	O	O	POS	B-NP	's	POS	O	O
employee	t146	6	employee	O	O	O	O	O	O	O	O	NN1	I-NP	employee	NN	O	O
benefits	t147	6	benefit	O	O	O	O	O	O	O	O	VVZ	B-VP	benefit	NNS	t146:NMOD	O
group	t148	6	group	O	O	O	O	O	O	O	O	NN1	B-NP	group	NN	t144:NMOD||t147:NMOD||t149:P||t151:NMOD||t157:P	O
,	t149	6	,	O	O	O	O	O	O	O	O	PUN	O	,	,	O	O
which	t150	6	which	O	O	O	O	O	O	O	O	DTQ	B-NP	which	WDT	O	O
includes	t151	6	include	O	O	O	O	O	O	O	O	VVZ	B-VP	include	VBZ	t150:SBJ||t156:OBJ	O
its	t152	6	its	O	O	O	O	O	O	O	O	DPS	B-NP	its	PRP$	O	O
group	t153	6	group	O	O	O	O	O	O	O	O	NN1	I-NP	group	NN	O	O
health	t154	6	health	O	O	O	O	O	O	O	O	NN1	I-NP	health	NN	O	O
insurance	t155	6	insurance	O	O	O	O	O	O	O	O	NN1	I-NP	insurance	NN	t154:NMOD	O
operations	t156	6	operation	O	O	O	O	O	O	O	O	NN2	I-NP	operations	NNS	t152:NMOD||t153:NMOD||t155:NMOD	O
,	t157	6	,	O	O	O	O	O	O	O	O	PUN	O	,	,	O	O
posted	t158	6	post	O	O	O	O	O	O	O	O	VVD	B-VP	post	VBD	t148:SBJ||t159:OBJ||t164:P||t165:ADV||t175:P	mainVb
earnings	t159	6	earnings	O	O	O	O	O	O	O	O	NN2	B-NP	earnings	NNS	t160:NMOD	O
of	t160	6	of	O	O	O	O	O	O	O	O	PRF	B-PP	of	IN	t161:PMOD	O
$	t161	6	$	O	O	O	O	O	O	O	O	NN0	B-NP	$	$	t162:DEP||t163:DEP	O
24	t162	6	24	O	O	O	O	O	O	O	O	CRD	I-NP	24	CD	O	O
million	t163	6	million	O	O	O	O	O	O	O	O	CRD	I-NP	million	CD	O	O
,	t164	6	,	O	O	O	O	O	O	O	O	PUN	O	,	,	O	O
compared	t165	6	compare	O	O	O	O	O	O	O	O	VVN	B-PP	compare	VBN	t166:PMOD	O
with	t166	6	with	O	O	O	O	O	O	O	O	PRP	B-PP	with	IN	t168:PMOD	O
a	t167	6	a	O	O	O	O	O	O	O	O	AT0	B-NP	a	DT	O	O
loss	t168	6	loss	e21	OCCURRENCE	NONE+NONE+POS	O	O	O	O	O	NN1	I-NP	loss	NN	t167:NMOD||t169:NMOD	O
of	t169	6	of	O	O	O	O	O	O	O	O	PRF	B-PP	of	IN	t170:PMOD||t174:TMP	O
$	t170	6	$	O	O	O	O	O	O	O	O	NN0	B-NP	$	$	t171:DEP||t172:DEP	O
3	t171	6	3	O	O	O	O	O	O	O	O	CRD	I-NP	3	CD	O	O
million	t172	6	million	O	O	O	O	O	O	O	O	CRD	I-NP	million	CD	O	O
last	t173	6	last	O	O	O	tmx22	DATE	1988-Q3	O	O	ORD	B-NP	last	JJ	O	O
year	t174	6	year	O	O	O	tmx22	DATE	1988-Q3	O	O	NN1	I-NP	year	NN	t173:NMOD	O
.	t175	6	.	O	O	O	O	O	O	O	O	PUN	O	.	.	O	O

In	t176	7	in	O	O	O	O	O	O	O	O	PRP	B-PP	in	IN	t180:PMOD	O
the	t177	7	the	O	O	O	tmx23	DURATION	P9M	O	O	AT0	B-NP	the	DT	O	O
first	t178	7	first	O	O	O	tmx23	DURATION	P9M	O	O	ORD	I-NP	first	JJ	O	O
nine	t179	7	nine	O	O	O	tmx23	DURATION	P9M	O	O	CRD	I-NP	nine	CD	O	O
months	t180	7	month	O	O	O	tmx23	DURATION	P9M	O	O	NN2	I-NP	month	NNS	t177:NMOD||t178:NMOD||t179:NMOD	O
,	t181	7	,	O	O	O	O	O	O	O	O	PUN	O	,	,	O	O
net	t182	7	net	O	O	O	O	O	O	O	O	NN1	B-NP	net	NN	O	O
was	t183	7	be	O	O	O	O	O	O	O	O	VBD	B-VP	be	VBD	t176:TMP||t181:P||t182:SBJ||t184:PRD||t187:P||t188:ADV||t200:P	mainVb
$	t184	7	$	O	O	O	O	O	O	O	O	UNC	B-NP	$	$	t185:DEP||t186:DEP	O
306	t185	7	306	O	O	O	O	O	O	O	O	CRD	I-NP	306	CD	O	O
million	t186	7	million	O	O	O	O	O	O	O	O	CRD	I-NP	million	CD	O	O
,	t187	7	,	O	O	O	O	O	O	O	O	PUN	O	,	,	O	O
compared	t188	7	compare	O	O	O	O	O	O	O	O	VVN	B-PP	compare	VBN	t189:PMOD	O
with	t189	7	with	O	O	O	O	O	O	O	O	PRP	B-PP	with	IN	t191:PMOD	O
a	t190	7	a	O	O	O	O	O	O	O	O	AT0	B-NP	a	DT	O	O
loss	t191	7	loss	e24	OCCURRENCE	NONE+NONE+POS	O	O	O	O	O	NN1	I-NP	loss	NN	t190:NMOD||t192:NMOD||t196:TMP	O
of	t192	7	of	O	O	O	O	O	O	O	O	PRF	B-PP	of	IN	t193:PMOD	O
$	t193	7	$	O	O	O	O	O	O	O	O	NN0	B-NP	$	$	t194:DEP||t195:DEP	O
195	t194	7	195	O	O	O	O	O	O	O	O	CRD	I-NP	195	CD	O	O
million	t195	7	million	O	O	O	O	O	O	O	O	CRD	I-NP	million	CD	O	O
in	t196	7	in	O	O	O	O	O	O	O	O	PRP	B-PP	in	IN	t199:PMOD	O
the	t197	7	the	O	O	O	tmx25	DATE	1988	O	O	AT0	B-NP	the	DT	O	O
1988	t198	7	1988	O	O	O	tmx25	DATE	1988	O	O	CRD	I-NP	1988	CD	O	O
period	t199	7	period	O	O	O	tmx25	DATE	1988	O	O	NN1	I-NP	period	NN	t197:NMOD||t198:NMOD	O
.	t200	7	.	O	O	O	O	O	O	O	O	PUN	O	.	.	O	O

The	t201	8	the	O	O	O	O	O	O	O	O	AT0	B-NP	the	DT	O	O
year-ago	t202	8	year-ago	O	O	O	tmx26	DATE	1988	O	O	NN1	I-NP	year-ago	JJ	O	O
results	t203	8	result	e27	OCCURRENCE	NONE+NONE+POS	O	O	O	O	O	NN2	I-NP	result	NNS	t201:NMOD||t202:NMOD	O
included	t204	8	include	O	O	O	O	O	O	O	O	VVD	B-VP	include	VBD	t203:SBJ||t209:OBJ||t222:P	mainVb
a	t205	8	a	O	O	O	O	O	O	O	O	AT0	B-NP	a	DT	O	O
$	t206	8	$	O	O	O	O	O	O	O	O	CRD	I-NP	$	$	t207:DEP||t208:DEP	O
415	t207	8	415	O	O	O	O	O	O	O	O	CRD	I-NP	415	CD	O	O
million	t208	8	million	O	O	O	O	O	O	O	O	CRD	I-NP	million	CD	O	O
charge	t209	8	charge	e28	OCCURRENCE	NONE+NONE+POS	O	O	O	O	O	NN1	I-NP	charge	NN	t205:NMOD||t206:NMOD||t210:TMP||t215:NMOD	O
in	t210	8	in	O	O	O	O	O	O	O	O	PRP	B-PP	in	IN	t214:PMOD	O
the	t211	8	the	O	O	O	tmx29	DATE	1988-Q2	O	O	AT0	B-NP	the	DT	O	O
1988	t212	8	1988	O	O	O	tmx29	DATE	1988-Q2	O	O	CRD	I-NP	1988	CD	O	O
second	t213	8	second	O	O	O	tmx29	DATE	1988-Q2	O	O	ORD	I-NP	second	JJ	O	O
quarter	t214	8	quarter	O	O	O	tmx29	DATE	1988-Q2	O	O	NN1	I-NP	quarter	NN	t211:NMOD||t212:NMOD||t213:NMOD	O
for	t215	8	for	O	O	O	O	O	O	O	O	PRP	B-PP	for	IN	t216:PMOD	O
underperforming	t216	8	underperform	O	O	O	O	O	O	O	O	VVG	B-VP	underperform	VBG	t221:OBJ	O
real	t217	8	real	O	O	O	O	O	O	O	O	AJ0	B-NP	real	JJ	O	O
estate	t218	8	estate	O	O	O	O	O	O	O	O	NN1	I-NP	estate	NN	t217:NMOD||t219:COORD	O
and	t219	8	and	O	O	O	O	O	O	O	O	CJC	I-NP	and	CC	t220:CONJ	O
mortgage	t220	8	mortgage	O	O	O	O	O	O	O	O	NN1	I-NP	mortgage	NN	O	O
loans	t221	8	loan	O	O	O	O	O	O	O	O	NN2	I-NP	loan	NNS	t218:NMOD	O
.	t222	8	.	O	O	O	O	O	O	O	O	PUN	O	.	.	O	O
