DCT_1989-10-27	O	O	O	O	O	O	tmx0	DATE	1989-10-27	O	O	NP0	B-NP	dct_1989-10-27	LS	O	O

CAMBREX	t1	1	CAMBREX	O	O	O+O+O	O	O	O	O	O	NP0	B-NP	cambrex	NNP	t2:POSTHON||t3:P||t6:LOC	O
Corp.	t2	1	Corp.	O	O	O+O+O	O	O	O	O	O	NP0	B-NP	corp.	NNP	O	O
,	t3	1	,	O	O	O+O+O	O	O	O	O	O	PUN	O	,	,	O	O
Bayonne	t4	1	Bayonne	O	O	O+O+O	O	O	O	O	O	NP0	B-NP	bayonne	NNP	O	O
,	t5	1	,	O	O	O+O+O	O	O	O	O	O	PUN	O	,	,	O	O
N.J.	t6	1	N.J.	O	O	O+O+O	O	O	O	O	O	NP0	B-NP	n.j.	NNP	t4:NMOD||t5:P||t7:P	O
,	t7	1	,	O	O	O+O+O	O	O	O	O	O	PUN	O	,	,	O	O
declared	t8	1	declare	e1	OCCURRENCE	PAST+NONE+POS	O	O	O	O	O	VVD	B-VP	declare	VBD	t1:SBJ||t11:OBJ||t18:OPRD||t27:P	mainVb
its	t9	1	its	O	O	O	O	O	O	O	O	DPS	B-NP	its	PRP$	O	O
initial	t10	1	initial	O	O	O	O	O	O	O	O	AJ0	I-NP	initial	JJ	O	O
quarterly	t11	1	quarterly	O	O	O	O	O	O	O	O	NN1	I-NP	quarterly	NN	t9:NMOD||t10:NMOD||t12:NMOD	O
of	t12	1	of	O	O	O	O	O	O	O	O	PRF	B-PP	of	IN	t14:PMOD	O
five	t13	1	five	O	O	O	O	O	O	O	O	CRD	B-NP	five	CD	O	O
cents	t14	1	cent	O	O	O	O	O	O	O	O	NN2	I-NP	cent	NNS	t13:NMOD||t16:ADV	O
a	t15	1	a	O	O	O	O	O	O	O	O	AT0	B-NP	a	DT	O	O
share	t16	1	share	O	O	O	O	O	O	O	O	NN1	I-NP	share	NN	t15:NMOD	O
,	t17	1	,	O	O	O	O	O	O	O	O	PUN	O	,	,	O	O
payable	t18	1	payable	O	O	O	O	O	O	O	O	AJ0	B-NP	payable	JJ	t17:P||t20:TMP||t21:AMOD	O
Dec.	t19	1	Dec.	O	O	O	tmx2	DATE	1989-12-01	O	O	NN1	I-NP	dec.	NNP	O	O
1	t20	1	1	O	O	O	tmx2	DATE	1989-12-01	O	O	CRD	I-NP	1	CD	t19:NMOD	O
to	t21	1	to	O	O	O	O	O	O	O	O	TO0	B-VP	to	TO	t22:PMOD	O
stock	t22	1	stock	O	O	O	O	O	O	O	O	VVI	I-VP	stock	NN	t23:NMOD||t26:TMP	O
of	t23	1	of	O	O	O	O	O	O	O	O	PRF	B-PP	of	IN	t24:PMOD	O
record	t24	1	record	O	O	O	O	O	O	O	O	NN1	B-NP	record	NN	O	O
Nov.	t25	1	Nov.	O	O	O	tmx3	DATE	1989-11-10	O	O	NP0	B-NP	nov.	NNP	O	O
10	t26	1	10	O	O	O	tmx3	DATE	1989-11-10	O	O	CRD	I-NP	10	CD	t25:NMOD	O
.	t27	1	.	O	O	O	O	O	O	O	O	PUN	O	.	.	O	O

The	t28	2	the	O	O	O	O	O	O	O	O	AT0	B-NP	the	DT	O	O
maker	t29	2	maker	O	O	O	O	O	O	O	O	NN1	I-NP	maker	NN	t28:NMOD||t30:NMOD	O
of	t30	2	of	O	O	O	O	O	O	O	O	PRF	B-PP	of	IN	t32:PMOD	O
specialty	t31	2	specialty	O	O	O	O	O	O	O	O	NN1	B-NP	specialty	NN	O	O
chemicals	t32	2	chemical	O	O	O	O	O	O	O	O	NN2	I-NP	chemical	NNS	t31:NMOD	O
has	t33	2	have	O	O	O	O	O	O	O	O	VHZ	B-VP	have	VBZ	t29:SBJ||t37:OBJ||t39:P	mainVb
about	t34	2	about	O	O	O	O	O	O	O	O	AV0	B-NP	about	CD	O	O
5.9	t35	2	5.9	O	O	O	O	O	O	O	O	CRD	I-NP	5.9	CD	O	O
million	t36	2	million	O	O	O	O	O	O	O	O	CRD	I-NP	million	CD	t34:DEP||t35:DEP	O
shares	t37	2	share	O	O	O	O	O	O	O	O	NN2	I-NP	share	NNS	t36:NMOD||t38:APPO	O
outstanding	t38	2	outstanding	O	O	O	O	O	O	O	O	VVG	B-VP	outstanding	JJ	O	O
.	t39	2	.	O	O	O	O	O	O	O	O	PUN	O	.	.	O	O

The	t40	3	the	O	O	O	O	O	O	O	O	AT0	B-NP	the	DT	O	O
company	t41	3	company	O	O	O	O	O	O	O	O	NN1	I-NP	company	NN	t40:NMOD	O
said	t42	3	say	e4	REPORTING	PAST+NONE+POS	O	O	O	O	O	VVD	B-VP	say	VBD	t41:SBJ||t45:OBJ||t50:P	mainVb
the	t43	3	the	O	O	O	O	O	O	O	O	AT0	B-NP	the	DT	O	O
move	t44	3	move	e5	OCCURRENCE	NONE+NONE+POS	O	O	O	O	O	NN1	I-NP	move	NN	t43:NMOD	O
recognizes	t45	3	recognize	e6	OCCURRENCE	PRESENT+NONE+POS	O	O	O	O	O	VVZ	B-VP	recognize	VBZ	t44:SBJ||t49:OBJ	O
its	t46	3	its	O	O	O	O	O	O	O	O	DPS	B-NP	its	PRP$	O	O
strong	t47	3	strong	O	O	O	O	O	O	O	O	AJ0	I-NP	strong	JJ	O	O
financial	t48	3	financial	O	O	O	O	O	O	O	O	AJ0	I-NP	financial	JJ	O	O
position	t49	3	position	O	O	O	O	O	O	O	O	NN1	I-NP	position	NN	t46:NMOD||t47:NMOD||t48:NMOD	O
.	t50	3	.	O	O	O	O	O	O	O	O	PUN	O	.	.	O	O

Although	t51	4	although	O	O	O	O	O	O	O	O	CJS	B-SBAR	although	IN	t53:SUB	O
profits	t52	4	profit	O	O	O	O	O	O	O	O	NN2	B-NP	profits	NNS	O	O
were	t53	4	be	O	O	O	O	O	O	O	O	VBD	B-VP	be	VBD	t52:SBJ||t55:VC	O
"	t54	4	"	O	O	O	O	O	O	O	O	PUQ	I-VP	"	RBS	O	O
squeezed	t55	4	squeeze	e7	OCCURRENCE	PAST+NONE+POS	O	O	O	O	O	AJ0	I-VP	squeeze	VBN	t54:MNR||t56:ADV||t57:TMP||t59:P||t61:PRP	O
"	t56	4	"	O	O	O	O	O	O	O	O	PUQ	O	"	RP	O	O
in	t57	4	in	O	O	O	O	O	O	O	O	PRP	B-PP	in	IN	t58:PMOD	O
1989	t58	4	1989	O	O	O	tmx8	DATE	1989	O	O	CRD	B-NP	1989	CD	O	O
,	t59	4	,	O	O	O	O	O	O	O	O	PUN	O	,	,	O	O
mainly	t60	4	mainly	O	O	O	O	O	O	O	O	AV0	B-ADVP	mainly	RB	O	O
as	t61	4	as	O	O	O	O	O	O	cs9	O	PRP	B-PP	as	IN	t60:PMOD||t63:PMOD	O
a	t62	4	a	O	O	O	O	O	O	cs9	O	AT0	B-NP	a	DT	O	O
result	t63	4	result	O	O	O	O	O	O	cs9	O	NN1	I-NP	result	NN	t62:NMOD||t64:NMOD	O
of	t64	4	of	O	O	O	O	O	O	cs9	O	PRF	B-PP	of	IN	t67:PMOD	O
higher	t65	4	higher	O	O	O	O	O	O	cs9	O	AJC	B-NP	higher	JJR	O	O
raw-material	t66	4	raw-material	O	O	O	O	O	O	cs9	O	AJ0	I-NP	raw-material	JJ	O	O
costs	t67	4	cost	e10	OCCURRENCE	NONE+NONE+POS	O	O	O	cs9	O	NN2	I-NP	costs	NNS	t65:NMOD||t66:NMOD	O
,	t68	4	,	O	O	O	O	O	O	cs9	O	PUN	O	,	,	O	O
the	t69	4	the	O	O	O	O	O	O	cs9	O	AT0	B-NP	the	DT	O	O
company	t70	4	company	O	O	O	O	O	O	cs9	O	NN1	I-NP	company	NN	t69:NMOD	O
said	t71	4	say	e11	REPORTING	PAST+NONE+POS	O	O	O	cs9	O	VVD	B-VP	say	VBD	t51:ADV||t68:P||t70:SBJ||t73:OBJ||t85:P	mainVb
it	t72	4	it	O	O	O	O	O	O	cs9	O	PNP	B-NP	it	PRP	O	O
is	t73	4	be	O	O	O	O	O	O	cs9	O	VBZ	B-VP	be	VBZ	t72:SBJ||t74:PRD||t81:TMP||t83:COORD	O
confident	t74	4	confident	e12	I_STATE	PRESENT+NONE+POS	O	O	O	cs9	O	AJ0	B-ADJP	confident	JJ	t75:AMOD	O
about	t75	4	about	O	O	O	O	O	O	cs9	O	PRP	B-PP	about	IN	t77:PMOD	O
future	t76	4	future	O	O	O	O	O	O	cs9	O	AJ0	B-NP	future	JJ	O	O
earnings	t77	4	earnings	O	O	O	O	O	O	cs9	O	NN2	I-NP	earnings	NNS	t76:NMOD||t78:COORD	O
and	t78	4	and	O	O	O	O	O	O	cs9	O	CJC	I-NP	and	CC	t80:CONJ	O
cash	t79	4	cash	O	O	O	O	O	O	cs9	O	NN1	I-NP	cash	NN	O	O
flow	t80	4	flow	e13	OCCURRENCE	NONE+NONE+POS	O	O	O	cs9	O	NN1	I-NP	flow	NN	t79:NMOD	O
for	t81	4	for	O	O	O	O	O	O	cs9	O	PRP	B-PP	for	IN	t82:PMOD	O
1990	t82	4	1990	O	O	O	tmx14	DATE	1990	cs9	O	CRD	B-NP	1990	CD	O	O
and	t83	4	and	O	O	O	tmx14	DATE	1990	cs9	O	CJC	O	and	CC	t84:CONJ	O
beyond	t84	4	beyond	O	O	O	tmx14	DATE	1990	cs9	O	AV0	B-ADVP	beyond	IN	O	O
.	t85	4	.	O	O	O	O	O	O	cs9	O	PUN	O	.	.	O	O

In	t86	5	in	O	O	O	O	O	O	cs9	O	PRP	B-PP	in	IN	t89:PMOD	O
national	t87	5	national	O	O	O	O	O	O	cs9	O	AJ0	B-NP	national	JJ	O	O
over-the-counter	t88	5	over-the-counter	O	O	O	O	O	O	cs9	O	NN1	I-NP	over-the-counter	NN	t87:NMOD	O
trading	t89	5	trading	e15	OCCURRENCE	NONE+NONE+POS	O	O	O	cs9	O	NN1	I-NP	trading	NN	t88:NMOD	O
yesterday	t90	5	yesterday	O	O	O	tmx16	DATE	1989-10-26	cs9	O	AV0	B-NP	yesterday	NN	O	O
,	t91	5	,	O	O	O	O	O	O	cs9	O	PUN	O	,	,	O	O
Cambrex	t92	5	Cambrex	O	O	O	O	O	O	cs9	O	NP0	B-NP	cambrex	NNP	O	O
shares	t93	5	share	O	O	O	O	O	O	cs9	O	VVZ	I-NP	share	NNS	t92:NMOD	O
rose	t94	5	rise	e17	OCCURRENCE	PAST+NONE+POS	O	O	O	cs9	O	VVD	B-VP	rise	VBD	t86:LOC||t90:TMP||t91:P||t93:SBJ||t96:EXT||t97:OPRD||t104:P	mainVb
50	t95	5	50	O	O	O	O	O	O	cs9	O	CRD	B-NP	50	CD	O	O
cents	t96	5	cent	O	O	O	O	O	O	cs9	O	NN2	I-NP	cent	NNS	t95:NMOD	O
to	t97	5	to	O	O	O	O	O	O	cs9	O	TO0	B-VP	to	TO	t98:IM	O
close	t98	5	close	e18	OCCURRENCE	INFINITIVE+NONE+POS	O	O	O	cs9	O	VVI	I-VP	close	VB	t99:ADV	O
at	t99	5	at	O	O	O	O	O	O	cs9	O	PRP	B-PP	at	IN	t100:PMOD	O
$	t100	5	$	O	O	O	O	O	O	cs9	O	NN0	B-NP	$	$	t101:NMOD||t103:ADV	O
13	t101	5	13	O	O	O	O	O	O	cs9	O	CRD	I-NP	13	CD	O	O
a	t102	5	a	O	O	O	O	O	O	cs9	O	AT0	B-NP	a	DT	O	O
share	t103	5	share	O	O	O	O	O	O	cs9	O	NN1	I-NP	share	NN	t102:NMOD	O
.	t104	5	.	O	O	O	O	O	O	cs9	O	PUN	O	.	.	O	O
