DCT_1998-01-20	O	O	O	O	O	O	tmx0	DATE	1998-01-20	O	O	NN1	B-NP	dct_1998-01-20	NN	O	O

For	t1	1	for	O	O	O+O+O	O	O	O	O	O	PRP	B-PP	for	IN	t3:PMOD	O
his	t2	1	he	O	O	O+O+O	O	O	O	O	O	DPS	B-NP	his	PRP$	O	O
part	t3	1	part	O	O	O+O+O	O	O	O	O	O	NN1	I-NP	part	NN	t2:NMOD	O
,	t4	1	,	O	O	O+O+O	O	O	O	O	O	PUN	O	,	,	O	O
Fidel	t5	1	Fidel	O	O	O+O+O	O	O	O	O	O	NP0	B-NP	fidel	NNP	O	O
Castro	t6	1	Castro	O	O	O+O+O	O	O	O	O	O	NP0	I-NP	castro	NNP	t5:NAME	O
is	t7	1	be	O	O	O+O+O	O	O	O	O	O	VBZ	B-VP	be	VBZ	t1:ADV||t4:P||t6:SBJ||t11:PRD||t12:P	mainVb
the	t8	1	the	O	O	O+O+O	O	O	O	O	O	AT0	B-NP	the	DT	O	O
ultimate	t9	1	ultimate	O	O	O+O+O	O	O	O	O	O	AJ0	I-NP	ultimate	JJ	O	O
political	t10	1	political	O	O	O+O+O	O	O	O	O	O	AJ0	I-NP	political	JJ	O	O
survivor	t11	1	survivor	O	O	O+O+O	O	O	O	O	O	NN1	I-NP	survivor	NN	t8:NMOD||t9:NMOD||t10:NMOD	O
.	t12	1	.	O	O	O+O+O	O	O	O	O	O	PUN	O	.	.	O	O

People	t13	2	people	O	O	O+O+O	O	O	O	O	O	NN0	B-NP	people	NN	O	O
have	t14	2	have	O	O	O+O+O	O	O	O	O	O	VHB	B-VP	have	VBP	t13:SBJ||t15:VC||t21:P||t22:COORD||t33:P	mainVb
predicted	t15	2	predict	e1	I_ACTION	PRESENT+PERFECTIVE+POS	O	O	O	O	O	VVN	I-VP	predict	VBN	t17:OBJ||t20:TMP	mainVb
his	t16	2	he	O	O	O	O	O	O	O	O	DPS	B-NP	his	PRP$	O	O
demise	t17	2	demise	e2	OCCURRENCE	NONE+NONE+POS	O	O	O	O	O	NN1	I-NP	demise	NN	t16:NMOD	O
so	t18	2	so	O	O	O	O	O	O	O	O	AV0	B-ADVP	so	RB	O	O
many	t19	2	many	O	O	O	O	O	O	O	O	DT0	B-NP	many	DT	t18:AMOD	O
times	t20	2	time	O	O	O	O	O	O	O	O	NN2	I-NP	times	NNS	t19:NMOD	O
,	t21	2	,	O	O	O	O	O	O	O	O	PUN	O	,	,	O	O
and	t22	2	and	O	O	O	O	O	O	O	O	CJC	O	and	CC	t25:CONJ	O
the	t23	2	the	O	O	O	O	O	O	O	O	AT0	B-NP	the	DT	O	O
US	t24	2	US	O	O	O	O	O	O	O	O	NP0	I-NP	us	NNP	t23:NMOD	O
has	t25	2	have	O	O	O	O	O	O	O	O	VHZ	B-VP	have	VBZ	t24:SBJ||t26:VC	O
tried	t26	2	try	e3	I_ACTION	PRESENT+PERFECTIVE+POS	O	O	O	O	O	VVN	I-VP	try	VBN	t27:OPRD	O
to	t27	2	to	O	O	O	O	O	O	O	O	TO0	I-VP	to	TO	t28:IM	O
hasten	t28	2	hasten	e4	OCCURRENCE	INFINITIVE+NONE+POS	O	O	O	O	O	VVI	I-VP	hasten	VB	t29:OBJ||t30:ADV	O
it	t29	2	it	O	O	O	O	O	O	O	O	PNP	B-NP	it	PRP	O	O
on	t30	2	on	O	O	O	O	O	O	O	O	PRP	B-PP	on	IN	t32:PMOD	O
several	t31	2	several	O	O	O	O	O	O	O	O	DT0	B-NP	several	DT	O	O
occasions	t32	2	occasion	O	O	O	O	O	O	O	O	NN2	I-NP	occasions	NNS	t31:NMOD	O
.	t33	2	.	O	O	O	O	O	O	O	O	PUN	O	.	.	O	O

Time	t34	3	Time	O	O	O	O	O	O	O	O	NN1	B-NP	time	NN	t35:COORD	O
and	t35	3	and	O	O	O	O	O	O	O	O	AV0	B-ADVP	and	CC	t36:CONJ	O
again	t36	3	again	O	O	O	O	O	O	O	O	AV0	I-ADVP	again	RB	O	O
,	t37	3	,	O	O	O	O	O	O	O	O	PUN	O	,	,	O	O
he	t38	3	he	O	O	O	O	O	O	O	O	PNP	B-NP	he	PRP	O	O
endures	t39	3	endure	e5	OCCURRENCE	PRESENT+NONE+POS	O	O	O	O	O	VVZ	B-VP	endure	VBZ	t34:OBJ||t37:P||t38:SBJ||t40:P	mainVb
.	t40	3	.	O	O	O	O	O	O	O	O	PUN	O	.	.	O	O

He	t41	4	he	O	O	O	O	O	O	O	O	PNP	B-NP	he	PRP	O	O
has	t42	4	have	O	O	O	O	O	O	O	O	VHZ	B-VP	have	VBZ	t41:SBJ||t43:VC||t50:P	mainVb
outlasted	t43	4	outlast	e6	OCCURRENCE	PRESENT+PERFECTIVE+POS	O	O	O	O	O	VVN	I-VP	outlast	VBN	t44:COORD	mainVb
and	t44	4	and	O	O	O	O	O	O	O	O	CJC	O	and	CC	t46:CONJ	O
sometimes	t45	4	sometimes	O	O	O	O	O	O	O	O	AV0	B-ADVP	sometimes	RB	O	O
outsmarted	t46	4	outsmart	e7	OCCURRENCE	PRESENT+PERFECTIVE+POS	O	O	O	O	O	VVD	B-VP	outsmart	VBD	t45:TMP||t49:OBJ	O
eight	t47	4	eight	O	O	O	O	O	O	O	O	CRD	B-NP	eight	CD	O	O
American	t48	4	american	O	O	O	O	O	O	O	O	AJ0	I-NP	american	JJ	O	O
presidents	t49	4	president	O	O	O	O	O	O	O	O	NN2	I-NP	president	NNS	t47:NMOD||t48:NMOD	O
.	t50	4	.	O	O	O	O	O	O	O	O	PUN	O	.	.	O	O

Fidel	t51	5	Fidel	O	O	O	O	O	O	O	O	NP0	B-NP	fidel	NNP	O	O
Castro	t52	5	Castro	O	O	O	O	O	O	O	O	NP0	I-NP	castro	NNP	t51:NAME	O
invited	t53	5	invite	e8	OCCURRENCE	PAST+NONE+POS	O	O	O	O	O	VVD	B-VP	invite	VBD	t52:SBJ||t55:OBJ||t56:OPRD||t61:P	mainVb
John	t54	5	John	O	O	O	O	O	O	O	O	NP0	B-NP	john	NNP	O	O
Paul	t55	5	Paul	O	O	O	O	O	O	O	O	NP0	I-NP	paul	NNP	t54:NAME	O
to	t56	5	to	O	O	O	O	O	O	O	O	TO0	B-VP	to	TO	t57:IM	O
come	t57	5	come	e9	OCCURRENCE	INFINITIVE+NONE+POS	O	O	O	O	O	VVI	I-VP	come	VB	t58:ADV	O
for	t58	5	for	O	O	O	O	O	O	cs10	O	PRP	B-PP	for	IN	t60:PMOD	O
a	t59	5	a	O	O	O	O	O	O	cs10	O	AT0	B-NP	a	DT	O	O
reason	t60	5	reason	O	O	O	O	O	O	cs10	O	NN1	I-NP	reason	NN	t59:NMOD	O
.	t61	5	.	O	O	O	O	O	O	cs10	O	PUN	O	.	.	O	O

This	t62	6	this	e11	O	PRESENT+NONE+POS	O	O	O	cs10	O	DT0	B-NP	this	DT	O	O
is	t63	6	be	e8	STATE	PRESENT+NONE+POS	O	O	O	cs10	O	VBZ	B-VP	be	VBZ	t62:SBJ||t64:ADV||t66:PRD||t73:P	mainVb
clearly	t64	6	clearly	O	O	O	O	O	O	cs10	O	AV0	B-ADVP	clearly	RB	O	O
an	t65	6	a	O	O	O	O	O	O	cs10	O	AT0	B-NP	an	DT	O	O
opportunity	t66	6	opportunity	O	O	O	O	O	O	cs10	O	NN1	I-NP	opportunity	NN	t65:NMOD||t67:NMOD	O
for	t67	6	for	O	O	O	O	O	O	cs10	O	PRP	B-PP	for	IN	t69:SUB	O
Cuba	t68	6	Cuba	O	O	O	O	O	O	cs10	O	NP0	B-NP	cuba	NNP	O	O
to	t69	6	to	O	O	O	O	O	O	cs10	O	TO0	B-VP	to	TO	t68:SBJ||t70:IM	O
look	t70	6	look	O	O	O	O	O	O	cs10	O	VVI	I-VP	look	VB	t71:PRD||t72:MNR	O
good	t71	6	good	O	O	O	O	O	O	cs10	O	AJ0	B-ADJP	good	JJ	O	O
internationally	t72	6	internationally	O	O	O	O	O	O	cs10	O	AV0	B-ADVP	internationally	RB	O	O
.	t73	6	.	O	O	O	O	O	O	cs10	O	PUN	O	.	.	O	O

The	t74	7	the	O	O	O	O	O	O	cs10	O	AT0	B-NP	the	DT	O	O
entire	t75	7	entire	O	O	O	O	O	O	cs10	O	AJ0	I-NP	entire	JJ	O	O
world	t76	7	world	O	O	O	O	O	O	cs10	O	NN1	I-NP	world	NN	t74:NMOD||t75:NMOD	O
will	t77	7	will	O	O	O	O	O	O	cs10	O	VM0	B-VP	will	MD	t76:SBJ||t78:VC||t85:P	mainVb
see	t78	7	see	e12	PERCEPTION	FUTURE+NONE+POS	O	O	O	cs10	O	VVI	I-VP	see	VB	t79:OBJ	mainVb
images	t79	7	image	O	O	O	O	O	O	cs10	O	NN2	B-NP	image	NNS	t80:NMOD	O
of	t80	7	of	O	O	O	O	O	O	cs10	O	PRF	B-PP	of	IN	t82:PMOD	O
the	t81	7	the	O	O	O	O	O	O	cs10	O	AT0	B-NP	the	DT	O	O
Pope	t82	7	Pope	O	O	O	O	O	O	cs10	O	NP0	I-NP	pope	NNP	t81:NMOD||t83:LOC	O
in	t83	7	in	O	O	O	O	O	O	cs10	O	PRP	B-PP	in	IN	t84:PMOD	O
Cuba	t84	7	Cuba	O	O	O	O	O	O	cs10	O	NP0	B-NP	cuba	NNP	O	O
.	t85	7	.	O	O	O	O	O	O	cs10	O	PUN	O	.	.	O	O

They	t86	8	they	O	O	O	O	O	O	cs10	O	PNP	B-NP	they	PRP	O	O
'll	t87	8	will	O	O	O	O	O	O	cs10	O	VM0	B-VP	'll	MD	t86:SBJ||t88:VC||t96:P	mainVb
see	t88	8	see	e13	PERCEPTION	FUTURE+NONE+POS	O	O	O	cs10	O	VVI	I-VP	see	VB	t89:OBJ	mainVb
images	t89	8	image	O	O	O	O	O	O	cs10	O	NN2	B-NP	image	NNS	t90:NMOD	O
of	t90	8	of	O	O	O	O	O	O	cs10	O	PRF	B-PP	of	IN	t92:PMOD	O
the	t91	8	the	O	O	O	O	O	O	cs10	O	AT0	B-NP	the	DT	O	O
Pope	t92	8	Pope	O	O	O	O	O	O	cs10	O	NN1	I-NP	pope	NNP	t91:NMOD||t93:NMOD	O
with	t93	8	with	O	O	O	O	O	O	cs10	O	PRP	B-PP	with	IN	t95:PMOD	O
Fidel	t94	8	Fidel	O	O	O	O	O	O	cs10	O	NP0	B-NP	fidel	NNP	O	O
Castro	t95	8	Castro	O	O	O	O	O	O	cs10	O	NP0	I-NP	castro	NNP	t94:NAME	O
.	t96	8	.	O	O	O	O	O	O	cs10	O	PUN	O	.	.	O	O

It	t97	9	it	O	O	O	O	O	O	cs10	O	PNP	B-NP	it	PRP	O	O
will	t98	9	will	O	O	O	O	O	O	cs10	O	VM0	B-VP	will	MD	t97:SBJ||t99:VC||t132:P	mainVb
give	t99	9	give	e14	OCCURRENCE	FUTURE+NONE+POS	O	O	O	cs10	O	VVI	I-VP	give	VB	t101:OBJ||t106:OBJ	mainVb
the	t100	9	the	O	O	O	O	O	O	cs10	O	AT0	B-NP	the	DT	O	O
rest	t101	9	rest	O	O	O	O	O	O	cs10	O	NN1	I-NP	rest	NN	t100:NMOD||t102:NMOD	O
of	t102	9	of	O	O	O	O	O	O	cs10	O	PRF	B-PP	of	IN	t104:PMOD	O
the	t103	9	the	O	O	O	O	O	O	cs10	O	AT0	B-NP	the	DT	O	O
world	t104	9	world	O	O	O	O	O	O	cs10	O	NN1	I-NP	world	NN	t103:NMOD	O
the	t105	9	the	O	O	O	O	O	O	cs10	O	AT0	B-NP	the	DT	O	O
view	t106	9	view	O	O	O	O	O	O	cs10	O	NN1	I-NP	view	NN	t105:NMOD||t107:NMOD	O
that	t107	9	that	O	O	O	O	O	O	cs10	O	CJT	B-SBAR	that	IN	t109:SUB	O
Cuba	t108	9	Cuba	O	O	O	O	O	O	cs10	O	NP0	B-NP	cuba	NNP	O	O
is	t109	9	be	O	O	O	O	O	O	cs10	O	VBZ	B-VP	be	VBZ	t108:SBJ||t110:PRD	O
like	t110	9	like	O	O	O	O	O	O	cs10	O	PRP	B-PP	like	IN	t123:SUB	O
any	t111	9	any	O	O	O	O	O	O	cs10	O	DT0	B-NP	any	DT	O	O
other	t112	9	other	O	O	O	O	O	O	cs10	O	AJ0	I-NP	other	JJ	O	O
nation	t113	9	nation	O	O	O	O	O	O	cs10	O	NN1	I-NP	nation	NN	t111:NMOD||t112:NMOD||t114:P||t115:APPO||t122:P	O
,	t114	9	,	O	O	O	O	O	O	cs10	O	PUN	O	,	,	O	O
something	t115	9	something	O	O	O	O	O	O	cs10	O	PNI	B-NP	something	NN	t118:NMOD	O
the	t116	9	the	O	O	O	O	O	O	cs10	O	AT0	I-NP	the	DT	O	O
US	t117	9	US	O	O	O	O	O	O	cs10	O	NP0	I-NP	us	NNP	t116:NMOD	O
has	t118	9	have	O	O	O	O	O	O	cs10	O	VHZ	I-NP	have	VBZ	t117:SBJ||t119:P||t120:ADV	O
,	t119	9	,	O	O	O	O	O	O	cs10	O	PUN	O	,	,	O	O
of	t120	9	of	O	O	O	O	O	O	cs10	O	AV0	B-PP	of	IN	t121:PMOD	O
course	t121	9	course	O	O	O	O	O	O	cs10	O	AV0	B-NP	course	NN	O	O
,	t122	9	,	O	O	O	O	O	O	cs10	O	PUN	O	,	,	O	O
tried	t123	9	try	e15	I_ACTION	PRESENT+PERFECTIVE+POS	O	O	O	cs10	O	VVD	B-VP	try	VBD	t113:SBJ||t124:OPRD	O
to	t124	9	to	O	O	O	O	O	O	cs10	O	TO0	I-VP	to	TO	t125:IM	O
persuade	t125	9	persuade	e16	I_ACTION	INFINITIVE+NONE+POS	O	O	O	cs10	O	VVI	I-VP	persuade	VB	t127:OBJ||t128:OBJ	O
the	t126	9	the	O	O	O	O	O	O	cs10	O	AT0	B-NP	the	DT	O	O
world	t127	9	world	O	O	O	O	O	O	cs10	O	NN1	I-NP	world	NN	t126:NMOD	O
that	t128	9	that	O	O	O	O	O	O	cs10	O	CJT	B-SBAR	that	IN	t130:SUB	O
it	t129	9	it	O	O	O	O	O	O	cs10	O	PNP	B-NP	it	PRP	O	O
is	t130	9	be	O	O	O	O	O	O	cs10	O	VBZ	B-VP	be	VBZ	t129:SBJ||t131:ADV	O
not	t131	9	not	O	O	O	O	O	O	cs10	O	XX0	O	not	RB	O	O
.	t132	9	.	O	O	O	O	O	O	cs10	O	PUN	O	.	.	O	O

For	t133	10	for	O	O	O	O	O	O	cs10	O	PRP	B-PP	for	IN	t136:PMOD	O
nearly	t134	10	nearly	O	O	O	tmx17	DURATION	P40Y	cs10	O	AV0	B-NP	nearly	RB	O	O
forty	t135	10	forty	O	O	O	tmx17	DURATION	P40Y	cs10	O	CRD	I-NP	forty	JJ	t134:AMOD	O
years	t136	10	year	O	O	O	tmx17	DURATION	P40Y	cs10	O	NN2	I-NP	years	NNS	t135:NMOD	O
,	t137	10	,	O	O	O	O	O	O	cs10	O	PUN	O	,	,	O	O
the	t138	10	the	O	O	O	O	O	O	cs10	O	AT0	B-NP	the	DT	O	O
United	t139	10	United	O	O	O	O	O	O	cs10	O	NP0	I-NP	united	NNP	O	O
States	t140	10	States	O	O	O	O	O	O	cs10	O	NP0	I-NP	state	NNPS	t138:NMOD||t139:NAME	O
has	t141	10	have	O	O	O	O	O	O	cs10	O	VHZ	B-VP	have	VBZ	t133:TMP||t137:P||t140:SBJ||t142:VC||t154:P	mainVb
said	t142	10	say	e18	REPORTING	PRESENT+PERFECTIVE+POS	O	O	O	cs10	O	VVN	I-VP	say	VBN	t143:MNR||t145:OBJ	mainVb
categorically	t143	10	categorically	O	O	O	O	O	O	cs10	O	AV0	B-ADVP	categorically	RB	O	O
it	t144	10	it	O	O	O	O	O	O	cs10	O	PNP	B-NP	it	PRP	O	O
would	t145	10	would	O	O	O	O	O	O	cs10	O	VM0	B-VP	would	MD	t144:SBJ||t146:ADV||t147:VC	O
not	t146	10	not	O	O	O	O	O	O	cs10	O	XX0	I-VP	not	RB	O	O
tolerate	t147	10	tolerate	e19	I_ACTION	NONE+NONE+NEG	O	O	O	cs10	O	VVI	I-VP	tolerate	VB	t149:OBJ||t150:LOC	O
totalitarian	t148	10	totalitarian	O	O	O	O	O	O	cs10	O	AJ0	B-NP	totalitarian	JJ	O	O
rule	t149	10	rule	O	O	O	O	O	O	cs10	O	NN1	I-NP	rule	NN	t148:NMOD	O
in	t150	10	in	O	O	O	O	O	O	cs10	O	PRP	B-PP	in	IN	t153:PMOD	O
its	t151	10	its	O	O	O	O	O	O	cs10	O	DPS	B-NP	its	PRP$	O	O
own	t152	10	own	O	O	O	O	O	O	cs10	O	DT0	I-NP	own	JJ	O	O
backyard	t153	10	backyard	O	O	O	O	O	O	cs10	O	NN1	I-NP	backyard	NN	t151:NMOD||t152:NMOD	O
.	t154	10	.	O	O	O	O	O	O	cs10	O	PUN	O	.	.	O	O

It	t155	11	it	O	O	O	O	O	O	cs10	O	PNP	B-NP	it	PRP	O	O
is	t156	11	be	O	O	O	O	O	O	cs10	O	VBZ	B-VP	be	VBZ	t155:SBJ||t162:PRD||t170:P	mainVb
the	t157	11	the	O	O	O	O	O	O	cs10	O	AT0	B-NP	the	DT	O	O
US	t158	11	US	O	O	O	O	O	O	cs10	O	NP0	I-NP	us	NNP	O	O
economic	t159	11	economic	O	O	O	O	O	O	cs10	O	AJ0	I-NP	economic	JJ	t160:COORD	O
and	t160	11	and	O	O	O	O	O	O	cs10	O	CJC	I-NP	and	CC	t161:CONJ	O
political	t161	11	political	O	O	O	O	O	O	cs10	O	AJ0	I-NP	political	JJ	O	O
embargo	t162	11	embargo	e20	OCCURRENCE	NONE+NONE+POS	O	O	O	cs10	O	NN1	I-NP	embargo	NN	t157:NMOD||t158:NMOD||t159:NMOD||t164:NMOD	O
which	t163	11	which	O	O	O	O	O	O	cs10	O	DTQ	B-NP	which	WDT	O	O
has	t164	11	have	O	O	O	O	O	O	cs10	O	VHZ	B-VP	have	VBZ	t163:SBJ||t165:VC	O
kept	t165	11	keep	e21	ASPECTUAL	PRESENT+PERFECTIVE+POS	O	O	O	cs10	O	VVN	I-VP	keep	VBN	t166:OBJ||t167:OPRD	O
Cuba	t166	11	Cuba	O	O	O	O	O	O	cs10	O	NP0	B-NP	cuba	NNP	O	O
in	t167	11	in	O	O	O	O	O	O	cs10	O	PRP	B-PP	in	IN	t169:PMOD	O
a	t168	11	a	O	O	O	O	O	O	cs10	O	AT0	B-NP	a	DT	O	O
box	t169	11	box	O	O	O	O	O	O	cs10	O	NN1	I-NP	box	NN	t168:NMOD	O
.	t170	11	.	O	O	O	O	O	O	cs10	O	PUN	O	.	.	O	O

The	t171	12	the	O	O	O	O	O	O	cs10	O	AT0	B-NP	the	DT	O	O
main	t172	12	main	O	O	O	O	O	O	cs10	O	AJ0	I-NP	main	JJ	O	O
positive	t173	12	positive	O	O	O	O	O	O	cs10	O	AJ0	I-NP	positive	JJ	t171:NMOD||t172:NMOD||t174:EXTR	O
for	t174	12	for	O	O	O	O	O	O	cs10	O	PRP	B-PP	for	IN	t176:SUB	O
Castro	t175	12	Castro	O	O	O	O	O	O	cs10	O	NP0	B-NP	castro	NNP	O	O
to	t176	12	to	O	O	O	O	O	O	cs10	O	TO0	B-VP	to	TO	t175:SBJ||t177:IM	O
invite	t177	12	invite	e22	OCCURRENCE	INFINITIVE+NONE+POS	O	O	O	cs10	O	VVI	I-VP	invite	VB	t179:OBJ	O
the	t178	12	the	O	O	O	O	O	O	cs10	O	AT0	B-NP	the	DT	O	O
Pope	t179	12	Pope	O	O	O	O	O	O	cs10	O	NN1	I-NP	pope	NNP	t178:NMOD	O
is	t180	12	be	O	O	O	O	O	O	cs10	O	VBZ	B-VP	be	VBZ	t173:SBJ||t181:PRD||t215:P	mainVb
international	t181	12	international	O	O	O	O	O	O	cs10	O	AJ0	B-ADJP	international	JJ	t182:P||t183:AMOD	O
,	t182	12	,	O	O	O	O	O	O	cs10	O	PUN	O	,	,	O	O
to	t183	12	to	O	O	O	O	O	O	cs10	O	TO0	B-VP	to	TO	t184:IM	O
be	t184	12	be	O	O	O	O	O	O	cs10	O	VBI	I-VP	be	VB	t185:PRD	O
able	t185	12	able	e23	I_STATE	INFINITIVE+NONE+POS	O	O	O	cs10	O	AJ0	B-ADJP	able	JJ	t186:AMOD	O
to	t186	12	to	O	O	O	O	O	O	cs10	O	TO0	B-VP	to	TO	t187:IM	O
say	t187	12	say	e24	REPORTING	INFINITIVE+NONE+POS	O	O	O	cs10	O	VVI	I-VP	say	VB	t197:OBJ	O
to	t188	12	to	O	O	O	O	O	O	cs10	O	PRP	B-PP	to	TO	t190:PMOD	O
the	t189	12	the	O	O	O	O	O	O	cs10	O	AT0	B-NP	the	DT	O	O
rest	t190	12	rest	O	O	O	O	O	O	cs10	O	NN1	I-NP	rest	NN	t189:NMOD||t191:NMOD	O
of	t191	12	of	O	O	O	O	O	O	cs10	O	PRF	B-PP	of	IN	t193:PMOD	O
the	t192	12	the	O	O	O	O	O	O	cs10	O	AT0	B-NP	the	DT	O	O
world	t193	12	world	O	O	O	O	O	O	cs10	O	NN1	I-NP	world	NN	t192:NMOD	O
,	t194	12	,	O	O	O	O	O	O	cs10	O	PUN	O	,	,	O	O
this	t195	12	this	O	O	O	O	O	O	cs10	O	DT0	B-NP	this	DT	O	O
government	t196	12	government	O	O	O	O	O	O	cs10	O	NN1	I-NP	government	NN	t195:NMOD	O
is	t197	12	be	O	O	O	O	O	O	cs10	O	VBZ	B-VP	be	VBZ	t188:ADV||t194:P||t196:SBJ||t198:ADV||t207:PRD	O
not	t198	12	not	O	O	O	O	O	O	cs10	O	XX0	O	not	RB	O	O
as	t199	12	as	O	O	O	O	O	O	cs10	O	PRP	B-PP	as	IN	t200:SUB||t205:DEP	O
closed	t200	12	close	O	O	O	O	O	O	cs10	O	AJ0	B-ADJP	close	VBN	t201:P||t202:ADV||t204:P	O
,	t201	12	,	O	O	O	O	O	O	cs10	O	PUN	O	,	,	O	O
as	t202	12	as	O	O	O	O	O	O	cs10	O	CJS	B-PP	as	IN	t203:PMOD	O
intolerant	t203	12	intolerant	O	O	O	O	O	O	cs10	O	AJ0	B-NP	intolerant	JJ	O	O
,	t204	12	,	O	O	O	O	O	O	cs10	O	PUN	O	,	,	O	O
uh	t205	12	uh	O	O	O	O	O	O	cs10	O	ITJ	B-NP	uh	UH	O	O
as	t206	12	as	O	O	O	O	O	O	cs10	O	AV0	I-NP	as	IN	O	O
totalitarian	t207	12	totalitarian	O	O	O	O	O	O	cs10	O	AJ0	I-NP	totalitarian	JJ	t199:AMOD||t206:AMOD||t208:AMOD	O
as	t208	12	as	O	O	O	O	O	O	cs10	O	CJS	B-SBAR	as	IN	t210:SUB	O
some	t209	12	some	O	O	O	O	O	O	cs10	O	DT0	B-NP	some	DT	O	O
make	t210	12	make	e25	I_ACTION	PRESENT+NONE+POS	O	O	O	cs10	O	VVB	B-VP	make	VBP	t209:SBJ||t211:OBJ||t212:PRT||t213:OPRD	O
it	t211	12	it	O	O	O	O	O	O	cs10	O	PNP	B-NP	it	PRP	O	O
out	t212	12	out	O	O	O	O	O	O	cs10	O	AVP	B-PRT	out	RP	O	O
to	t213	12	to	O	O	O	O	O	O	cs10	O	TO0	B-VP	to	TO	t214:IM	O
be	t214	12	be	O	O	O	O	O	O	cs10	O	VBI	I-VP	be	VB	O	O
.	t215	12	.	O	O	O	O	O	O	cs10	O	PUN	O	.	.	O	O

One	t216	13	one	O	O	O	O	O	O	cs10	O	CRD	B-NP	one	CD	t217:NMOD	O
of	t217	13	of	O	O	O	O	O	O	cs10	O	PRF	B-PP	of	IN	t219:PMOD	O
the	t218	13	the	O	O	O	O	O	O	cs10	O	AT0	B-NP	the	DT	O	O
scenarios	t219	13	scenario	O	O	O	O	O	O	cs10	O	NN2	I-NP	scenario	NNS	t218:NMOD||t221:APPO	O
widely	t220	13	widely	O	O	O	O	O	O	cs10	O	AV0	B-VP	widely	RB	O	O
advanced	t221	13	advance	e26	REPORTING	PASTPART+NONE+POS	O	O	O	cs10	O	VVN	I-VP	advance	VBN	t220:MNR||t222:TMP	O
before	t222	13	before	O	O	O	O	O	O	cs10	O	PRP	B-PP	before	IN	t224:PMOD	O
the	t223	13	the	O	O	O	O	O	O	cs10	O	AT0	B-NP	the	DT	O	O
visit	t224	13	visit	e27	OCCURRENCE	NONE+NONE+POS	O	O	O	cs10	O	NN1	I-NP	visit	NN	t223:NMOD	O
is	t225	13	be	O	O	O	O	O	O	cs10	O	VBZ	B-VP	be	VBZ	t216:SBJ||t226:PRD||t247:P	mainVb
that	t226	13	that	O	O	O	O	O	O	cs10	O	CJT	B-SBAR	that	IN	t238:SUB	O
through	t227	13	through	O	O	O	O	O	O	cs10	O	PRP	B-PP	through	IN	t229:PMOD	O
the	t228	13	the	O	O	O	O	O	O	cs10	O	AT0	B-NP	the	DT	O	O
Pope	t229	13	Pope	O	O	O	O	O	O	cs10	O	NP0	I-NP	pope	NNP	t228:NMOD	O
,	t230	13	,	O	O	O	O	O	O	cs10	O	PUN	O	,	,	O	O
Cuba	t231	13	Cuba	O	O	O	O	O	O	cs10	O	NP0	B-NP	cuba	NNP	t232:P||t234:APPO||t237:P	O
,	t232	13	,	O	O	O	O	O	O	cs10	O	PUN	O	,	,	O	O
still	t233	13	still	O	O	O	O	O	O	cs10	O	AV0	B-ADVP	still	RB	O	O
led	t234	13	lead	e28	OCCURRENCE	PASTPART+NONE+POS	O	O	O	cs10	O	VVN	B-VP	lead	VBN	t233:ADV||t235:LGS	O
by	t235	13	by	O	O	O	O	O	O	cs10	O	PRP	B-PP	by	IN	t236:PMOD	O
Castro	t236	13	Castro	O	O	O	O	O	O	cs10	O	NP0	B-NP	castro	NNP	O	O
,	t237	13	,	O	O	O	O	O	O	cs10	O	PUN	O	,	,	O	O
can	t238	13	can	O	O	O	O	O	O	cs10	O	VM0	B-VP	can	MD	t227:ADV||t230:P||t231:SBJ||t239:VC	O
begin	t239	13	begin	e29	ASPECTUAL	NONE+NONE+POS	O	O	O	cs10	O	VVI	I-VP	begin	VB	t243:OBJ	O
a	t240	13	a	O	O	O	O	O	O	cs10	O	AT0	B-NP	a	DT	O	O
more	t241	13	more	O	O	O	O	O	O	cs10	O	AV0	I-NP	more	RBR	O	O
productive	t242	13	productive	O	O	O	O	O	O	cs10	O	AJ0	I-NP	productive	JJ	t241:AMOD	O
relationship	t243	13	relationship	e30	OCCURRENCE	NONE+NONE+POS	O	O	O	cs10	O	NN1	I-NP	relationship	NN	t240:NMOD||t242:NMOD||t244:NMOD	O
with	t244	13	with	O	O	O	O	O	O	cs10	O	PRP	B-PP	with	IN	t246:PMOD	O
the	t245	13	the	O	O	O	O	O	O	cs10	O	AT0	B-NP	the	DT	O	O
world	t246	13	world	O	O	O	O	O	O	cs10	O	NN1	I-NP	world	NN	t245:NMOD	O
.	t247	13	.	O	O	O	O	O	O	cs10	O	PUN	O	.	.	O	O

That	t248	14	that	e30	OCCURRENCE	O	O	O	O	cs10	O	DT0	B-NP	that	DT	O	O
will	t249	14	will	O	O	O	O	O	O	cs10	O	VM0	B-VP	will	MD	t248:SBJ||t250:P||t251:ADV||t253:P||t254:VC||t260:P	mainVb
,	t250	14	,	O	O	O	O	O	O	cs10	O	PUN	O	,	,	O	O
in	t251	14	in	O	O	O	O	O	O	cs10	O	PRP	B-PP	in	IN	t252:PMOD	O
turn	t252	14	turn	O	O	O	O	O	O	cs10	O	NN1	B-NP	turn	NN	O	O
,	t253	14	,	O	O	O	O	O	O	cs10	O	PUN	O	,	,	O	O
bring	t254	14	bring	e31	OCCURRENCE	NONE+NONE+POS	O	O	O	cs10	O	VVB	B-VP	bring	VBP	t255:OBJ	O
pressure	t255	14	pressure	O	O	O	O	O	O	cs10	O	NN1	B-NP	pressure	NN	t256:NMOD||t258:NMOD	O
on	t256	14	on	O	O	O	O	O	O	cs10	O	PRP	B-PP	on	IN	t257:PMOD	O
Washington	t257	14	Washington	O	O	O	O	O	O	cs10	O	NP0	B-NP	washington	NNP	O	O
to	t258	14	to	O	O	O	O	O	O	cs10	O	TO0	B-VP	to	TO	t259:IM	O
change	t259	14	change	e32	OCCURRENCE	INFINITIVE+NONE+POS	O	O	O	cs10	O	VVI	I-VP	change	VB	O	O
.	t260	14	.	O	O	O	O	O	O	cs10	O	PUN	O	.	.	O	O

Those	t261	15	those	O	O	O	O	O	O	cs10	O	DT0	B-NP	those	DT	O	O
observers	t262	15	observer	O	O	O	O	O	O	cs10	O	NN2	I-NP	observer	NNS	t261:NMOD||t263:APPO	O
looking	t263	15	look	e33	I_ACTION	PRESPART+NONE+POS	O	O	O	cs10	O	VVG	B-VP	look	VBG	t264:ADV	O
for	t264	15	for	O	O	O	O	O	O	cs10	O	PRP	B-PP	for	IN	t266:PMOD	O
a	t265	15	a	O	O	O	O	O	O	cs10	O	AV0	B-NP	a	DT	O	O
battle	t266	15	battle	e34	OCCURRENCE	NONE+NONE+POS	O	O	O	cs10	O	AV0	I-NP	battle	NN	t265:NMOD||t267:NMOD	O
between	t267	15	between	O	O	O	O	O	O	cs10	O	PRP	B-PP	between	IN	t269:PMOD	O
uncompromising	t268	15	uncompromising	O	O	O	O	O	O	cs10	O	AJ0	B-NP	uncompromising	JJ	O	O
representatives	t269	15	representative	O	O	O	O	O	O	cs10	O	NN2	I-NP	representative	NNS	t268:NMOD||t270:COORD	O
and	t270	15	and	O	O	O	O	O	O	cs10	O	CJC	O	and	CC	t273:CONJ	O
very	t271	15	very	O	O	O	O	O	O	cs10	O	AV0	B-NP	very	RB	O	O
different	t272	15	different	O	O	O	O	O	O	cs10	O	AJ0	I-NP	different	JJ	t271:AMOD	O
ideologies	t273	15	ideology	O	O	O	O	O	O	cs10	O	NN2	I-NP	ideology	NNS	t272:NMOD	O
will	t274	15	will	O	O	O	O	O	O	cs10	O	VM0	B-VP	will	MD	t262:SBJ||t275:P||t276:LOC||t279:P||t280:VC||t282:P	mainVb
,	t275	15	,	O	O	O	O	O	O	cs10	O	PUN	O	,	,	O	O
in	t276	15	in	O	O	O	O	O	O	cs10	O	PRP	B-PP	in	IN	t278:PMOD	O
all	t277	15	all	O	O	O	O	O	O	cs10	O	DT0	B-NP	all	DT	O	O
likelihood	t278	15	likelihood	O	O	O	O	O	O	cs10	O	NN1	I-NP	likelihood	NN	t277:NMOD	O
,	t279	15	,	O	O	O	O	O	O	cs10	O	PUN	O	,	,	O	O
be	t280	15	be	O	O	O	O	O	O	cs10	O	VBI	B-NP	be	VB	t281:VC	O
disappointed	t281	15	disappoint	e35	STATE	FUTURE+NONE+POS	O	O	O	cs10	O	AJ0	I-NP	disappoint	VBN	O	O
.	t282	15	.	O	O	O	O	O	O	cs10	O	PUN	O	.	.	O	O

Castro	t283	16	Castro	O	O	O	O	O	O	cs10	O	NP0	B-NP	castro	NNP	O	O
has	t284	16	have	O	O	O	O	O	O	cs10	O	VHZ	B-VP	have	VBZ	t283:SBJ||t285:VC||t297:P	mainVb
said	t285	16	say	O	O	O	O	O	O	cs10	O	VVN	I-VP	say	VBN	t286:OBJ	mainVb
that	t286	16	that	O	O	O	O	O	O	cs10	O	CJT	B-SBAR	that	IN	t288:SUB	O
you	t287	16	you	O	O	O	O	O	O	cs10	O	PNP	B-NP	you	PRP	O	O
can	t288	16	can	O	O	O	O	O	O	cs10	O	VM0	B-VP	can	MD	t287:SBJ||t289:VC	O
be	t289	16	be	O	O	O	O	O	O	cs10	O	VBI	I-VP	be	VB	t291:PRD||t292:COORD	O
a	t290	16	a	O	O	O	O	O	O	cs10	O	AT0	B-NP	a	DT	O	O
Communist	t291	16	communist	O	O	O	O	O	O	cs10	O	AJ0	I-NP	communist	JJ	t290:NMOD	O
and	t292	16	and	O	O	O	O	O	O	cs10	O	CJC	I-NP	and	CC	t294:CONJ	O
still	t293	16	still	O	O	O	O	O	O	cs10	O	AV0	I-NP	still	RB	O	O
be	t294	16	be	O	O	O	O	O	O	cs10	O	VBI	I-NP	be	VB	t293:ADV||t296:PRD	O
a	t295	16	a	O	O	O	O	O	O	cs10	O	AT0	I-NP	a	DT	O	O
Christian	t296	16	Christian	O	O	O	O	O	O	cs10	O	NN1	I-NP	christian	NN	t295:NMOD	O
.	t297	16	.	O	O	O	O	O	O	cs10	O	PUN	O	.	.	O	O

He	t298	17	he	O	O	O	O	O	O	cs10	O	PNP	B-NP	he	PRP	O	O
says	t299	17	say	e36	REPORTING	PRESENT+NONE+POS	O	O	O	cs10	O	VVZ	B-VP	say	VBZ	t298:SBJ||t305:OBJ||t314:P	mainVb
he	t300	17	he	O	O	O	O	O	O	cs10	O	PNP	B-NP	he	PRP	t301:COORD	O
and	t301	17	and	O	O	O	O	O	O	cs10	O	CJC	O	and	CC	t303:CONJ	O
the	t302	17	the	O	O	O	O	O	O	cs10	O	AT0	B-NP	the	DT	O	O
Pope	t303	17	Pope	O	O	O	O	O	O	cs10	O	NN1	I-NP	pope	NNP	t302:NMOD	O
both	t304	17	both	O	O	O	O	O	O	cs10	O	AV0	B-NP	both	DT	O	O
want	t305	17	want	e37	I_STATE	PRESENT+NONE+POS	O	O	O	cs10	O	VVB	I-NP	want	VBP	t300:SBJ||t304:DEP||t306:OPRD	O
to	t306	17	to	O	O	O	O	O	O	cs10	O	TO0	B-VP	to	TO	t307:IM	O
end	t307	17	end	e38	ASPECTUAL	INFINITIVE+NONE+POS	O	O	O	cs10	O	VVI	I-VP	end	VB	t309:OBJ||t312:MNR	O
the	t308	17	the	O	O	O	O	O	O	cs10	O	AT0	B-NP	the	DT	O	O
exploitation	t309	17	exploitation	e39	OCCURRENCE	NONE+NONE+POS	O	O	O	cs10	O	NN1	I-NP	exploitation	NN	t308:NMOD||t310:NMOD	O
of	t310	17	of	O	O	O	O	O	O	cs10	O	PRF	B-PP	of	IN	t311:PMOD	O
man	t311	17	man	O	O	O	O	O	O	cs10	O	NN1	B-NP	man	NN	O	O
by	t312	17	by	O	O	O	O	O	O	cs10	O	PRP	B-PP	by	IN	t313:PMOD	O
man	t313	17	man	O	O	O	O	O	O	cs10	O	NN1	B-NP	man	NN	O	O
.	t314	17	.	O	O	O	O	O	O	cs10	O	PUN	O	.	.	O	O

The	t315	18	the	O	O	O	O	O	O	cs10	O	AT0	B-NP	the	DT	O	O
question	t316	18	question	O	O	O	O	O	O	cs10	O	NN1	I-NP	question	NN	t315:NMOD	O
is	t317	18	be	O	O	O	O	O	O	cs10	O	VBZ	B-VP	be	VBZ	t316:SBJ||t319:PRD||t322:P	mainVb
who	t318	18	who	O	O	O	O	O	O	cs10	O	PNQ	B-NP	who	WP	O	O
will	t319	18	will	O	O	O	O	O	O	cs10	O	VM0	B-VP	will	MD	t318:SBJ||t320:VC||t321:VC	O
Cubans	t320	18	Cubans	O	O	O	O	O	O	cs10	O	NN2	I-VP	cubans	JJ	O	O
believe	t321	18	believe	e40	STATE	FUTURE+NONE+POS	O	O	O	cs10	O	VVI	B-NP	believe	VB	O	O
?	t322	18	?	O	O	O	O	O	O	cs10	O	PUN	O	?	.	O	O

The	t323	19	the	O	O	O	O	O	O	cs10	O	AT0	B-NP	the	DT	O	O
main	t324	19	main	O	O	O	O	O	O	cs10	O	AJ0	I-NP	main	JJ	O	O
negative	t325	19	negative	O	O	O	O	O	O	cs10	O	NN1	I-NP	negative	NN	t323:NMOD||t324:NMOD	O
is	t326	19	be	O	O	O	O	O	O	cs10	O	VBZ	B-VP	be	VBZ	t325:SBJ||t328:PRD||t348:P	mainVb
the	t327	19	the	O	O	O	O	O	O	cs10	O	AT0	B-NP	the	DT	O	O
risk	t328	19	risk	O	O	O	O	O	O	cs10	O	NN1	I-NP	risk	NN	t327:NMOD||t329:NMOD	O
that	t329	19	that	O	O	O	O	O	O	cs10	O	CJT	B-SBAR	that	IN	t334:SUB	O
the	t330	19	the	O	O	O	O	O	O	cs10	O	AT0	B-NP	the	DT	O	O
Pope	t331	19	Pope	O	O	O	O	O	O	cs10	O	NP0	I-NP	pope	NNP	t330:NMOD||t332:SUFFIX	O
's	t332	19	's	O	O	O	O	O	O	cs10	O	POS	B-NP	's	POS	O	O
visit	t333	19	visit	e41	OCCURRENCE	NONE+NONE+POS	O	O	O	cs10	O	NN1	I-NP	visit	NN	t331:NMOD	O
will	t334	19	will	O	O	O	O	O	O	cs10	O	VM0	B-VP	will	MD	t333:SBJ||t335:VC	O
persuade	t335	19	persuade	e42	I_ACTION	FUTURE+NONE+POS	O	O	O	cs10	O	VVI	I-VP	persuade	VB	t340:OBJ||t341:OPRD	O
a	t336	19	a	O	O	O	O	O	O	cs10	O	AT0	B-NP	a	DT	O	O
great	t337	19	great	O	O	O	O	O	O	cs10	O	AJ0	I-NP	great	JJ	t338:AMOD	O
many	t338	19	many	O	O	O	O	O	O	cs10	O	DT0	I-NP	many	DT	O	O
more	t339	19	more	O	O	O	O	O	O	cs10	O	DT0	I-NP	more	DT	O	O
Cubans	t340	19	Cubans	O	O	O	O	O	O	cs10	O	NN2	I-NP	cubans	JJ	t336:NMOD||t337:NMOD||t339:AMOD	O
to	t341	19	to	O	O	O	O	O	O	cs10	O	TO0	B-VP	to	TO	t342:IM	O
break	t342	19	break	e43	OCCURRENCE	INFINITIVE+NONE+POS	O	O	O	cs10	O	VVI	I-VP	break	VB	t343:ADV	O
loose	t343	19	loose	O	O	O	O	O	O	cs10	O	NN1	B-NP	loose	JJ	t344:AMOD	O
of	t344	19	of	O	O	O	O	O	O	cs10	O	PRF	B-PP	of	IN	t347:PMOD	O
the	t345	19	the	O	O	O	O	O	O	cs10	O	AT0	B-NP	the	DT	O	O
Cuban	t346	19	cuban	O	O	O	O	O	O	cs10	O	AJ0	I-NP	cuban	JJ	O	O
government	t347	19	government	O	O	O	O	O	O	cs10	O	NN1	I-NP	government	NN	t345:NMOD||t346:NMOD	O
.	t348	19	.	O	O	O	O	O	O	cs10	O	PUN	O	.	.	O	O

If	t349	20	if	O	O	O	O	O	O	cs10	O	CJS	B-SBAR	if	IN	t350:ADV	O
so	t350	20	so	O	O	O	O	O	O	cs10	O	AV0	B-ADVP	so	RB	O	O
,	t351	20	,	O	O	O	O	O	O	cs10	O	PUN	O	,	,	O	O
then	t352	20	then	O	O	O	O	O	O	cs10	O	AV0	B-ADVP	then	RB	O	O
the	t353	20	the	O	O	O	O	O	O	cs10	O	AT0	B-NP	the	DT	O	O
Pope	t354	20	Pope	O	O	O	O	O	O	cs10	O	NP0	I-NP	pope	NNP	t353:NMOD||t355:SUFFIX	O
's	t355	20	's	O	O	O	O	O	O	cs10	O	POS	B-NP	's	POS	O	O
visit	t356	20	visit	e44	OCCURRENCE	NONE+NONE+POS	O	O	O	cs10	O	NN1	I-NP	visit	NN	t354:NMOD	O
would	t357	20	would	O	O	O	O	O	O	cs10	O	VM0	B-VP	would	MD	t349:ADV||t351:P||t352:ADV||t356:SBJ||t358:ADV||t359:VC||t373:P	mainVb
really	t358	20	really	O	O	O	O	O	O	cs10	O	AV0	I-VP	really	RB	O	mainVb
open	t359	20	open	e45	ASPECTUAL	NONE+NONE+POS	O	O	O	cs10	O	VVI	I-VP	open	VB	t360:PRT||t363:OBJ||t369:ADV	mainVb
up	t360	20	up	O	O	O	O	O	O	cs10	O	AVP	B-PRT	up	RP	O	O
a	t361	20	a	O	O	O	O	O	O	cs10	O	AT0	B-NP	a	DT	O	O
new	t362	20	new	O	O	O	O	O	O	cs10	O	AJ0	I-NP	new	JJ	O	O
chapter	t363	20	chapter	e46	OCCURRENCE	NONE+NONE+POS	O	O	O	cs10	O	NN1	I-NP	chapter	NN	t361:NMOD||t362:NMOD||t364:LOC	O
in	t364	20	in	O	O	O	O	O	O	cs10	O	PRP	B-PP	in	IN	t368:PMOD	O
the	t365	20	the	O	O	O	O	O	O	cs10	O	AT0	B-NP	the	DT	O	O
government	t366	20	government	O	O	O	O	O	O	cs10	O	NN1	I-NP	government	NN	t365:NMOD||t367:SUFFIX	O
's	t367	20	's	O	O	O	O	O	O	cs10	O	POS	B-NP	's	POS	O	O
relations	t368	20	relation	O	O	O	O	O	O	cs10	O	NN2	I-NP	relations	NNS	t366:NMOD	O
with	t369	20	with	O	O	O	O	O	O	cs10	O	PRP	B-PP	with	IN	t372:PMOD	O
its	t370	20	its	O	O	O	O	O	O	cs10	O	DPS	B-NP	its	PRP$	O	O
own	t371	20	own	O	O	O	O	O	O	cs10	O	DT0	I-NP	own	JJ	O	O
society	t372	20	society	O	O	O	O	O	O	cs10	O	NN1	I-NP	society	NN	t370:NMOD||t371:NMOD	O
.	t373	20	.	O	O	O	O	O	O	cs10	O	PUN	O	.	.	O	O

For	t374	21	for	O	O	O	O	O	O	cs10	O	PRP	B-PP	for	IN	t377:PMOD	O
the	t375	21	the	O	O	O	O	O	O	cs10	O	AT0	B-NP	the	DT	O	O
Cuban	t376	21	cuban	O	O	O	O	O	O	cs10	O	AJ0	I-NP	cuban	JJ	O	O
government	t377	21	government	O	O	O	O	O	O	cs10	O	NN1	I-NP	government	NN	t375:NMOD||t376:NMOD	O
,	t378	21	,	O	O	O	O	O	O	cs10	O	PUN	O	,	,	O	O
that	t379	21	that	O	O	O	O	O	O	cs10	O	DT0	B-NP	that	WDT	O	O
is	t380	21	be	O	O	O	O	O	O	cs10	O	VBZ	B-VP	be	VBZ	t374:ADV||t378:P||t379:SBJ||t382:PRD||t383:P	mainVb
the	t381	21	the	O	O	O	O	O	O	cs10	O	AT0	B-NP	the	DT	O	O
risk	t382	21	risk	O	O	O	O	O	O	cs10	O	NN1	I-NP	risk	NN	t381:NMOD	O
.	t383	21	.	O	O	O	O	O	O	cs10	O	PUN	O	.	.	O	O

At	t384	22	at	O	O	O	O	O	O	cs10	O	PRP	B-PP	at	IN	t386:PMOD	O
the	t385	22	the	O	O	O	O	O	O	cs10	O	AT0	B-NP	the	DT	O	O
end	t386	22	end	O	O	O	O	O	O	cs10	O	NN1	I-NP	end	NN	t385:NMOD||t387:NMOD	O
of	t387	22	of	O	O	O	O	O	O	cs10	O	PRF	B-PP	of	IN	t389:PMOD	O
the	t388	22	the	O	O	O	O	O	O	cs10	O	AT0	B-NP	the	DT	O	O
broadcast	t389	22	broadcast	O	O	O	O	O	O	cs10	O	NN1	I-NP	broadcast	NN	t388:NMOD	O
this	t390	22	this	O	O	O	tmx47	TIME	1998-01-20TEV	cs10	O	DT0	B-NP	this	DT	O	O
evening	t391	22	evening	O	O	O	tmx47	TIME	1998-01-20TEV	cs10	O	NN1	I-NP	evening	NN	t390:NMOD	O
,	t392	22	,	O	O	O	O	O	O	cs10	O	PUN	O	,	,	O	O
one	t393	22	one	O	O	O	O	O	O	cs10	O	CRD	B-NP	one	CD	O	O
more	t394	22	more	O	O	O	O	O	O	cs10	O	DT0	I-NP	more	DT	O	O
trip	t395	22	trip	O	O	O	O	O	O	cs10	O	NN1	I-NP	trip	NN	t384:TMP||t391:NMOD||t392:P||t393:NMOD||t394:NMOD||t396:NMOD||t398:NMOD||t409:P	mainVb
around	t396	22	around	O	O	O	O	O	O	cs10	O	PRP	B-PP	around	IN	t397:PMOD	O
Havana	t397	22	Havana	O	O	O	O	O	O	cs10	O	NP0	B-NP	havana	NNP	O	O
to	t398	22	to	O	O	O	O	O	O	cs10	O	TO0	B-VP	to	TO	t399:IM	O
see	t399	22	see	O	O	O	O	O	O	cs10	O	VVI	I-VP	see	VB	t402:OBJ	O
what	t400	22	what	O	O	O	O	O	O	cs10	O	DTQ	B-NP	what	WP	O	O
it	t401	22	it	O	O	O	O	O	O	cs10	O	PNP	B-NP	it	PRP	O	O
's	t402	22	be	O	O	O	O	O	O	cs10	O	VHZ	B-VP	's	VBZ	t401:SBJ||t403:VC	O
been	t403	22	be	O	O	O	O	O	O	cs10	O	VBN	I-VP	be	VBN	t404:PRD||t405:TMP	O
like	t404	22	like	O	O	O	O	O	O	cs10	O	PRP	B-PP	like	IN	t400:PMOD	O
since	t405	22	since	O	O	O	O	O	O	cs10	O	PRP	B-PP	since	IN	t408:PMOD	O
the	t406	22	the	O	O	O	O	O	O	cs10	O	AT0	B-NP	the	DT	O	O
last	t407	22	last	O	O	O	O	O	O	cs10	O	ORD	I-NP	last	JJ	O	O
time	t408	22	time	O	O	O	O	O	O	cs10	O	NN1	I-NP	time	NN	t406:NMOD||t407:NMOD	O
.	t409	22	.	O	O	O	O	O	O	cs10	O	PUN	O	.	.	O	O

And	t410	23	and	O	O	O	O	O	O	cs10	O	CJC	O	and	CC	O	O
in	t411	23	in	O	O	O	O	O	O	cs10	O	PRP	B-PP	in	IN	t414:PMOD	O
just	t412	23	just	O	O	O	O	O	O	cs10	O	AV0	B-NP	just	RB	O	O
a	t413	23	a	O	O	O	O	O	O	cs10	O	AT0	I-NP	a	DT	O	O
moment	t414	23	moment	O	O	O	O	O	O	cs10	O	NN1	I-NP	moment	NN	t412:NMOD||t413:NMOD	O
Diane	t415	23	Diane	O	O	O	O	O	O	cs10	O	NP0	I-NP	diane	NNP	O	O
Sawyer	t416	23	Sawyer	O	O	O	O	O	O	cs10	O	NP0	I-NP	sawyer	NNP	t415:NAME	O
will	t417	23	will	O	O	O	O	O	O	cs10	O	VM0	B-VP	will	MD	t410:DEP||t411:TMP||t416:SBJ||t418:VC||t422:P	mainVb
have	t418	23	have	O	O	O	O	O	O	cs10	O	VHI	I-VP	have	VB	t421:OBJ	mainVb
some	t419	23	some	O	O	O	O	O	O	cs10	O	DT0	B-NP	some	DT	O	O
other	t420	23	other	O	O	O	O	O	O	cs10	O	AJ0	I-NP	other	JJ	O	O
news	t421	23	news	O	O	O	O	O	O	cs10	O	NN1	I-NP	news	NN	t419:NMOD||t420:NMOD	O
.	t422	23	.	O	O	O	O	O	O	cs10	O	PUN	O	.	.	O	O
