DCT_1989-11-02	O	O	O	O	O	O	tmx0	DATE	1989-11-02	O	O	NP0	B-NP	dct_1989-11-02	LS	O	O

GOODY	t1	1	GOODY	O	O	O+O+O	O	O	O	O	O	NP0	B-NP	goody	NNP	O	O
PRODUCTS	t2	1	PRODUCTS	O	O	O+O+O	O	O	O	O	O	NN2	I-NP	products	NNP	t1:NAME||t3:POSTHON	O
Inc.	t3	1	Inc.	O	O	O+O+O	O	O	O	O	O	NN1	I-NP	inc.	NNP	O	O
cut	t4	1	cut	e1	OCCURRENCE	PAST+NONE+POS	O	O	O	O	O	VVN	B-VP	cut	VBD	t2:SBJ||t7:OBJ||t8:DIR||t13:DIR||t18:P	mainVb
its	t5	1	its	O	O	O	O	O	O	O	O	DPS	B-NP	its	PRP$	O	O
quarterly	t6	1	quarterly	O	O	O	O	O	O	O	O	AJ0	I-NP	quarterly	JJ	O	O
dividend	t7	1	dividend	O	O	O	O	O	O	O	O	NN1	I-NP	dividend	NN	t5:NMOD||t6:NMOD	O
to	t8	1	to	O	O	O	O	O	O	O	O	PRP	B-PP	to	TO	t10:PMOD	O
five	t9	1	five	O	O	O	O	O	O	O	O	CRD	B-NP	five	CD	O	O
cents	t10	1	cent	O	O	O	O	O	O	O	O	NN2	I-NP	cent	NNS	t9:NMOD||t12:ADV	O
a	t11	1	a	O	O	O	O	O	O	O	O	AT0	B-NP	a	DT	O	O
share	t12	1	share	O	O	O	O	O	O	O	O	NN1	I-NP	share	NN	t11:NMOD	O
from	t13	1	from	O	O	O	O	O	O	O	O	PRP	B-PP	from	IN	t15:PMOD	O
11.5	t14	1	11.5	O	O	O	O	O	O	O	O	CRD	B-NP	11.5	CD	O	O
cents	t15	1	cent	O	O	O	O	O	O	O	O	NN2	I-NP	cent	NNS	t14:NMOD||t17:ADV	O
a	t16	1	a	O	O	O	O	O	O	O	O	AT0	B-NP	a	DT	O	O
share	t17	1	share	O	O	O	O	O	O	O	O	NN1	I-NP	share	NN	t16:NMOD	O
.	t18	1	.	O	O	O	O	O	O	O	O	PUN	O	.	.	O	O

The	t19	2	the	O	O	O	O	O	O	O	O	AT0	B-NP	the	DT	O	O
reduced	t20	2	reduce	O	O	O	O	O	O	O	O	AJ0	I-NP	reduce	VBN	O	O
dividend	t21	2	dividend	O	O	O	O	O	O	O	O	NN1	I-NP	dividend	NN	t19:NMOD||t20:NMOD	O
is	t22	2	be	O	O	O	O	O	O	O	O	VBZ	B-VP	be	VBZ	t21:SBJ||t23:PRD||t32:P	mainVb
payable	t23	2	payable	e2	OCCURRENCE	PRESENT+NONE+POS	O	O	O	O	O	AJ0	B-ADJP	payable	JJ	t25:TMP||t26:AMOD	O
Jan.	t24	2	Jan.	O	O	O	tmx3	DATE	1990-01-02	O	O	NN1	B-NP	jan.	NNP	O	O
2	t25	2	2	O	O	O	tmx3	DATE	1990-01-02	O	O	CRD	I-NP	2	CD	t24:NMOD	O
to	t26	2	to	O	O	O	O	O	O	O	O	TO0	B-VP	to	TO	t27:PMOD	O
stock	t27	2	stock	O	O	O	O	O	O	O	O	VVI	I-VP	stock	NN	t28:NMOD||t31:TMP	O
of	t28	2	of	O	O	O	O	O	O	O	O	PRF	B-PP	of	IN	t29:PMOD	O
record	t29	2	record	O	O	O	O	O	O	O	O	NN1	B-NP	record	NN	O	O
Dec.	t30	2	Dec.	O	O	O	tmx4	DATE	1989-12-15	O	O	NP0	B-NP	dec.	NNP	O	O
15	t31	2	15	O	O	O	tmx4	DATE	1989-12-15	O	O	CRD	I-NP	15	CD	t30:NMOD	O
.	t32	2	.	O	O	O	O	O	O	O	O	PUN	O	.	.	O	O

The	t33	3	the	O	O	O	O	O	O	O	O	AT0	B-NP	the	DT	O	O
Kearny	t34	3	Kearny	O	O	O	O	O	O	O	O	NP0	I-NP	kearny	NNP	O	O
,	t35	3	,	O	O	O	O	O	O	O	O	PUN	O	,	,	O	O
N.J.-based	t36	3	n.j.-based	O	O	O	O	O	O	O	O	AJ0	B-NP	n.j.-base	NNP	t34:NAME||t35:P	O
maker	t37	3	maker	O	O	O	O	O	O	O	O	NN1	I-NP	maker	NN	t33:NMOD||t36:NMOD||t38:NMOD	O
of	t38	3	of	O	O	O	O	O	O	O	O	PRF	B-PP	of	IN	t40:PMOD	O
hair	t39	3	hair	O	O	O	O	O	O	O	O	NN1	B-NP	hair	NN	O	O
accessories	t40	3	accessory	O	O	O	O	O	O	O	O	NN2	I-NP	accessory	NNS	t39:NMOD||t41:COORD	O
and	t41	3	and	O	O	O	O	O	O	O	O	CJC	O	and	CC	t44:CONJ	O
other	t42	3	other	O	O	O	O	O	O	O	O	AJ0	B-NP	other	JJ	O	O
cosmetic	t43	3	cosmetic	O	O	O	O	O	O	O	O	AJ0	I-NP	cosmetic	JJ	O	O
products	t44	3	product	O	O	O	O	O	O	O	O	NN2	I-NP	product	NNS	t42:NMOD||t43:NMOD	O
said	t45	3	say	e5	REPORTING	PAST+NONE+POS	O	O	O	O	O	VVD	B-VP	say	VBD	t37:SBJ||t47:OBJ||t64:P	mainVb
it	t46	3	it	O	O	O	O	O	O	O	O	PNP	B-NP	it	PRP	O	O
cut	t47	3	cut	e6	OCCURRENCE	PAST+NONE+POS	O	O	O	O	O	VVB	B-VP	cut	VBD	t46:SBJ||t49:OBJ	O
the	t48	3	the	O	O	O	O	O	O	O	O	AT0	B-NP	the	DT	O	O
dividend	t49	3	dividend	O	O	O	O	O	O	O	O	NN1	I-NP	dividend	NN	t48:NMOD||t50:NMOD	O
due	t50	3	due	O	O	O	O	O	O	cs7	O	PRP	B-ADJP	due	JJ	t51:AMOD	O
to	t51	3	to	O	O	O	O	O	O	cs7	O	PRP	B-PP	to	TO	t54:PMOD	O
its	t52	3	its	O	O	O	O	O	O	cs7	O	DPS	B-NP	its	PRP$	O	O
third-quarter	t53	3	third-quarter	O	O	O	tmx8	DATE	1989-Q3	cs7	O	NN1	I-NP	third-quarter	NN	O	O
loss	t54	3	loss	e9	OCCURRENCE	NONE+NONE+POS	O	O	O	cs7	O	NN1	I-NP	loss	NN	t52:NMOD||t53:NMOD||t55:NMOD	O
of	t55	3	of	O	O	O	O	O	O	cs7	O	PRF	B-PP	of	IN	t56:PMOD	O
$	t56	3	$	O	O	O	O	O	O	cs7	O	NN0	B-NP	$	$	t57:NMOD||t58:P||t59:COORD	O
992,000	t57	3	992,000	O	O	O	O	O	O	cs7	O	CRD	I-NP	992,000	CD	O	O
,	t58	3	,	O	O	O	O	O	O	cs7	O	PUN	O	,	,	O	O
or	t59	3	or	O	O	O	O	O	O	cs7	O	CJC	O	or	CC	t61:CONJ	O
15	t60	3	15	O	O	O	O	O	O	cs7	O	CRD	B-NP	15	CD	O	O
cents	t61	3	cent	O	O	O	O	O	O	cs7	O	NN2	I-NP	cent	NNS	t60:NMOD||t63:ADV	O
a	t62	3	a	O	O	O	O	O	O	cs7	O	AT0	B-NP	a	DT	O	O
share	t63	3	share	O	O	O	O	O	O	cs7	O	NN1	I-NP	share	NN	t62:NMOD	O
.	t64	3	.	O	O	O	O	O	O	cs7	O	PUN	O	.	.	O	O

In	t65	4	in	O	O	O	O	O	O	cs7	O	PRP	B-PP	in	IN	t68:PMOD	O
the	t66	4	the	O	O	O	tmx10	DATE	1988-Q3	cs7	O	AT0	B-NP	the	DT	O	O
year-ago	t67	4	year-ago	O	O	O	tmx10	DATE	1988-Q3	cs7	O	NN1	I-NP	year-ago	JJ	O	O
quarter	t68	4	quarter	O	O	O	tmx10	DATE	1988-Q3	cs7	O	NN1	I-NP	quarter	NN	t66:NMOD||t67:NMOD	O
,	t69	4	,	O	O	O	O	O	O	cs7	O	PUN	O	,	,	O	O
the	t70	4	the	O	O	O	O	O	O	cs7	O	AT0	B-NP	the	DT	O	O
company	t71	4	company	O	O	O	O	O	O	cs7	O	NN1	I-NP	company	NN	t70:NMOD	O
reported	t72	4	report	e11	REPORTING	PAST+NONE+POS	O	O	O	cs7	O	VVN	B-VP	report	VBD	t65:TMP||t69:P||t71:SBJ||t74:OBJ||t85:P	mainVb
net	t73	4	net	O	O	O	O	O	O	cs7	O	AJ0	B-NP	net	JJ	O	O
income	t74	4	income	O	O	O	O	O	O	cs7	O	NN1	I-NP	income	NN	t73:NMOD||t75:NMOD	O
of	t75	4	of	O	O	O	O	O	O	cs7	O	PRF	B-PP	of	IN	t76:PMOD	O
$	t76	4	$	O	O	O	O	O	O	cs7	O	NN0	B-NP	$	$	t77:DEP||t78:DEP||t79:P||t80:COORD	O
1.9	t77	4	1.9	O	O	O	O	O	O	cs7	O	CRD	I-NP	1.9	CD	O	O
million	t78	4	million	O	O	O	O	O	O	cs7	O	CRD	I-NP	million	CD	O	O
,	t79	4	,	O	O	O	O	O	O	cs7	O	PUN	O	,	,	O	O
or	t80	4	or	O	O	O	O	O	O	cs7	O	CJC	O	or	CC	t82:CONJ	O
29	t81	4	29	O	O	O	O	O	O	cs7	O	CRD	B-NP	29	CD	O	O
cents	t82	4	cent	O	O	O	O	O	O	cs7	O	NN2	I-NP	cent	NNS	t81:NMOD||t84:ADV	O
a	t83	4	a	O	O	O	O	O	O	cs7	O	AT0	B-NP	a	DT	O	O
share	t84	4	share	O	O	O	O	O	O	cs7	O	NN1	I-NP	share	NN	t83:NMOD	O
.	t85	4	.	O	O	O	O	O	O	cs7	O	PUN	O	.	.	O	O

The	t86	5	the	O	O	O	O	O	O	cs7	O	AT0	B-NP	the	DT	O	O
company	t87	5	company	O	O	O	O	O	O	cs7	O	NN1	I-NP	company	NN	t86:NMOD	O
also	t88	5	also	O	O	O	O	O	O	cs7	O	AV0	B-ADVP	also	RB	O	O
adopted	t89	5	adopt	e12	I_ACTION	PAST+NONE+POS	O	O	O	cs7	O	VVN	B-VP	adopt	VBD	t87:SBJ||t88:ADV||t92:OBJ||t93:P	mainVb
an	t90	5	a	O	O	O	O	O	O	cs7	O	AT0	B-NP	an	DT	O	O
anti-takeover	t91	5	anti-takeover	O	O	O	O	O	O	cs7	O	NN1	I-NP	anti-takeover	JJ	O	O
plan	t92	5	plan	O	O	O	O	O	O	cs7	O	NN1	I-NP	plan	NN	t90:NMOD||t91:NMOD	O
.	t93	5	.	O	O	O	O	O	O	cs7	O	PUN	O	.	.	O	O
