DCT_1989-10-30	O	O	O	O	O	O	tmx0	DATE	1989-10-30	O	O	NP0	B-NP	dct_1989-10-30	LS	O	O

Unisys	t1	1	Unisys	O	O	O+O+O	O	O	O	O	O	NP0	B-NP	unisys	NNP	t2:POSTHON||t3:SUFFIX	O
Corp.	t2	1	Corp.	O	O	O+O+O	O	O	O	O	O	NP0	B-NP	corp.	NNP	O	O
's	t3	1	's	O	O	O+O+O	O	O	O	O	O	POS	B-NP	's	POS	O	O
announcement	t4	1	announcement	e1	I_ACTION	NONE+NONE+POS	O	O	O	O	O	NN1	I-NP	announcement	NN	t1:NMOD||t5:TMP||t6:NMOD	O
Friday	t5	1	Friday	O	O	O	tmx2	DATE	1989-10-27	O	O	NP0	B-NP	friday	NNP	O	O
of	t6	1	of	O	O	O	O	O	O	O	O	PRF	B-PP	of	IN	t11:PMOD	O
a	t7	1	a	O	O	O	O	O	O	O	O	AT0	B-NP	a	DT	O	O
$	t8	1	$	O	O	O	O	O	O	O	O	CRD	I-NP	$	$	t9:DEP||t10:DEP	O
648.2	t9	1	648.2	O	O	O	O	O	O	O	O	CRD	I-NP	648.2	CD	O	O
million	t10	1	million	O	O	O	O	O	O	O	O	CRD	I-NP	million	CD	O	O
loss	t11	1	loss	e3	STATE	NONE+NONE+POS	O	O	O	O	O	NN1	I-NP	loss	NN	t7:NMOD||t8:NMOD||t12:NMOD	O
for	t12	1	for	O	O	O	O	O	O	O	O	PRP	B-PP	for	IN	t15:PMOD	O
the	t13	1	the	O	O	O	tmx4	DATE	1989-Q3	O	O	AT0	B-NP	the	DT	O	O
third	t14	1	third	O	O	O	tmx4	DATE	1989-Q3	O	O	ORD	I-NP	third	JJ	O	O
quarter	t15	1	quarter	O	O	O	tmx4	DATE	1989-Q3	O	O	NN1	I-NP	quarter	NN	t13:NMOD||t14:NMOD	O
showed	t16	1	show	O	O	O	O	O	O	O	O	VVD	B-VP	show	VBD	t4:SBJ||t17:OBJ||t40:P	mainVb
that	t17	1	that	O	O	O	O	O	O	O	O	CJT	B-SBAR	that	IN	t20:SUB	O
the	t18	1	the	O	O	O	O	O	O	O	O	AT0	B-NP	the	DT	O	O
company	t19	1	company	O	O	O	O	O	O	O	O	NN1	I-NP	company	NN	t18:NMOD	O
is	t20	1	be	O	O	O	O	O	O	O	O	VBZ	B-VP	be	VBZ	t19:SBJ||t21:VC	O
moving	t21	1	move	e5	OCCURRENCE	PRESENT+PROGRESSIVE+POS	O	O	O	O	O	VVG	I-VP	move	VBG	t22:MNR||t26:OPRD	O
even	t22	1	even	O	O	O	O	O	O	O	O	AV0	B-ADVP	even	RB	t23:AMOD||t24:AMOD	O
faster	t23	1	faster	O	O	O	O	O	O	O	O	AV0	I-ADVP	faster	RBR	O	O
than	t24	1	than	O	O	O	O	O	O	O	O	CJS	B-SBAR	than	IN	t25:SUB	O
expected	t25	1	expect	e6	I_STATE	PASTPART+NONE+POS	O	O	O	O	O	VVN	B-VP	expect	VBN	O	O
to	t26	1	to	O	O	O	O	O	O	O	O	TO0	I-VP	to	TO	t27:IM	O
take	t27	1	take	e7	OCCURRENCE	INFINITIVE+NONE+POS	O	O	O	O	O	VVI	I-VP	take	VB	t28:OBJ||t29:ADV||t33:COORD	O
write-offs	t28	1	write-off	e8	OCCURRENCE	NONE+NONE+POS	O	O	O	O	O	NN2	B-NP	write-offs	NNS	O	O
on	t29	1	on	O	O	O	O	O	O	O	O	PRP	B-PP	on	IN	t32:PMOD	O
its	t30	1	its	O	O	O	O	O	O	O	O	DPS	B-NP	its	PRP$	O	O
various	t31	1	various	O	O	O	O	O	O	O	O	AJ0	I-NP	various	JJ	O	O
problems	t32	1	problem	O	O	O	O	O	O	O	O	NN2	I-NP	problem	NNS	t30:NMOD||t31:NMOD	O
and	t33	1	and	O	O	O	O	O	O	O	O	CJC	O	and	CC	t34:CONJ	O
prepare	t34	1	prepare	e9	I_ACTION	PRESENT+NONE+POS	O	O	O	O	O	VVB	B-VP	prepare	VB	t35:ADV	O
for	t35	1	for	O	O	O	O	O	O	O	O	PRP	B-PP	for	IN	t39:PMOD	O
a	t36	1	a	O	O	O	O	O	O	O	O	AT0	B-NP	a	DT	O	O
turnaround	t37	1	turnaround	e10	OCCURRENCE	NONE+NONE+POS	O	O	O	O	O	NN1	I-NP	turnaround	NN	t36:NMOD	O
next	t38	1	next	O	O	O	tmx11	DATE	1990	O	O	ORD	B-NP	next	IN	O	O
year	t39	1	year	O	O	O	tmx11	DATE	1990	O	O	NN1	I-NP	year	NN	t37:NMOD||t38:NMOD	O
.	t40	1	.	O	O	O	O	O	O	O	O	PUN	O	.	.	O	O

At	t41	2	at	O	O	O	O	O	O	O	O	PRP	B-PP	at	IN	t44:PMOD	O
the	t42	2	the	O	O	O	O	O	O	O	O	AT0	B-NP	the	DT	O	O
same	t43	2	same	O	O	O	O	O	O	O	O	DT0	I-NP	same	JJ	O	O
time	t44	2	time	O	O	O	O	O	O	O	O	NN1	I-NP	time	NN	t42:NMOD||t43:NMOD	O
,	t45	2	,	O	O	O	O	O	O	O	O	PUN	O	,	,	O	O
the	t46	2	the	O	O	O	O	O	O	O	O	AT0	B-NP	the	DT	O	O
sheer	t47	2	sheer	O	O	O	O	O	O	O	O	AJ0	I-NP	sheer	NN	O	O
size	t48	2	size	O	O	O	O	O	O	O	O	NN1	I-NP	size	NN	t46:NMOD||t47:NMOD||t49:NMOD||t52:P||t53:APPO||t59:P	O
of	t49	2	of	O	O	O	O	O	O	O	O	PRF	B-PP	of	IN	t51:PMOD	O
the	t50	2	the	O	O	O	O	O	O	O	O	AT0	B-NP	the	DT	O	O
loss	t51	2	loss	e12	STATE	NONE+NONE+POS	O	O	O	O	O	NN1	I-NP	loss	NN	t50:NMOD	O
,	t52	2	,	O	O	O	O	O	O	O	O	PUN	O	,	,	O	O
coupled	t53	2	couple	O	O	O	O	O	O	O	O	VVN	B-VP	couple	VBN	t54:ADV	O
with	t54	2	with	O	O	O	O	O	O	O	O	PRP	B-PP	with	IN	t56:PMOD	O
a	t55	2	a	O	O	O	O	O	O	O	O	AT0	B-NP	a	DT	O	O
slowing	t56	2	slowing	O	O	O	O	O	O	O	O	NN1	I-NP	slowing	NN	t55:NMOD||t57:NMOD	O
of	t57	2	of	O	O	O	O	O	O	O	O	PRF	B-PP	of	IN	t58:PMOD	O
orders	t58	2	order	e13	OCCURRENCE	NONE+NONE+POS	O	O	O	O	O	NN2	B-NP	order	NNS	O	O
,	t59	2	,	O	O	O	O	O	O	O	O	PUN	O	,	,	O	O
made	t60	2	make	e14	OCCURRENCE	PAST+NONE+POS	O	O	O	O	O	VVD	B-VP	make	VBD	t41:TMP||t45:P||t48:SBJ||t63:OBJ||t64:OPRD||t79:P	mainVb
some	t61	2	some	O	O	O	O	O	O	O	O	DT0	B-NP	some	DT	O	O
securities	t62	2	security	O	O	O	O	O	O	O	O	NN2	I-NP	security	NNS	O	O
analysts	t63	2	analyst	O	O	O	O	O	O	O	O	NN2	I-NP	analyst	NNS	t61:NMOD||t62:NMOD	O
wonder	t64	2	wonder	e15	I_STATE	PRESENT+NONE+POS	O	O	O	O	O	VVB	B-VP	wonder	VB	t70:OBJ	O
just	t65	2	just	O	O	O	O	O	O	O	O	AV0	B-ADVP	just	RB	O	O
how	t66	2	how	O	O	O	O	O	O	O	O	AVQ	B-ADVP	how	WRB	t65:AMOD||t67:AMOD	O
strong	t67	2	strong	O	O	O	O	O	O	O	O	AJ0	B-NP	strong	JJ	O	O
that	t68	2	that	O	O	O	O	O	O	O	O	CJT	B-SBAR	that	DT	O	O
turnaround	t69	2	turnaround	O	O	O	O	O	O	O	O	NN1	B-NP	turnaround	NN	t68:NMOD	O
will	t70	2	will	O	O	O	O	O	O	O	O	VM0	B-VP	will	MD	t69:SBJ||t71:VC	O
be	t71	2	be	O	O	O	O	O	O	O	O	VBI	I-VP	be	VB	t66:PRD||t72:LOC	O
at	t72	2	at	O	O	O	O	O	O	O	O	PRP	B-PP	at	IN	t75:PMOD	O
the	t73	2	the	O	O	O	O	O	O	O	O	AT0	B-NP	the	DT	O	O
computer	t74	2	computer	O	O	O	O	O	O	O	O	NN1	I-NP	computer	NN	O	O
maker	t75	2	maker	O	O	O	O	O	O	O	O	NN1	I-NP	maker	NN	t73:NMOD||t74:NMOD||t76:COORD	O
and	t76	2	and	O	O	O	O	O	O	O	O	CJC	I-NP	and	CC	t78:CONJ	O
defense-electronics	t77	2	defense-electronics	O	O	O	O	O	O	O	O	NN2	I-NP	defense-electronics	NN	t80:OBJ	O
concern	t78	2	concern	O	O	O	O	O	O	O	O	NN1	I-NP	concern	NN	t77:NMOD	O
.	t79	2	.	O	O	O	O	O	O	O	O	PUN	O	.	.	O	O
"	t80	2	"	O	O	O	O	O	O	O	O	PUQ	O	"	NN	O	O

Unisys	t81	3	Unisys	O	O	O	O	O	O	O	O	NP0	B-NP	unisys	NNP	O	O
is	t82	3	be	O	O	O	O	O	O	O	O	VBZ	B-VP	be	VBZ	t81:SBJ||t83:VC||t85:P	mainVb
getting	t83	3	get	e16	I_STATE	PRESENT+PROGRESSIVE+POS	O	O	O	O	O	VVG	I-VP	get	VBG	t84:VC	mainVb
clobbered	t84	3	clobber	e17	STATE	PASTPART+NONE+POS	O	O	O	O	O	VVN	I-VP	clobber	VBN	O	mainVb
.	t85	3	.	O	O	O	O	O	O	O	O	PUN	O	.	.	O	O

Just	t86	4	just	O	O	O	O	O	O	O	O	AV0	B-ADVP	just	RB	O	O
clobbered	t87	4	clobber	O	O	O	O	O	O	O	O	VVD	B-VP	clobber	VBN	t86:ADV	O
,	t88	4	,	O	O	O	O	O	O	O	O	PUN	O	,	,	O	O
"	t89	4	"	O	O	O	O	O	O	O	O	PUQ	O	"	NNP	O	O
said	t90	4	say	e18	REPORTING	PAST+NONE+POS	O	O	O	O	O	VVD	B-VP	say	VBD	t87:OBJ||t88:P||t89:SBJ||t92:SBJ||t108:P	mainVb
Ulric	t91	4	Ulric	O	O	O	O	O	O	O	O	NP0	B-NP	ulric	NNP	O	O
Weil	t92	4	Weil	O	O	O	O	O	O	O	O	NP0	I-NP	weil	NNP	t91:NAME||t93:P||t95:APPO	O
,	t93	4	,	O	O	O	O	O	O	O	O	PUN	O	,	,	O	O
an	t94	4	a	O	O	O	O	O	O	O	O	AT0	B-NP	an	DT	O	O
analyst	t95	4	analyst	O	O	O	O	O	O	O	O	NN1	I-NP	analyst	NN	t94:NMOD||t96:LOC||t101:NMOD	O
at	t96	4	at	O	O	O	O	O	O	O	O	PRP	B-PP	at	IN	t99:PMOD	O
Weil	t97	4	Weil	O	O	O	O	O	O	O	O	NP0	B-NP	weil	NNP	O	O
amp	t98	4	amp	O	O	O	O	O	O	O	O	NN1	I-NP	amp	NNP	O	O
Associates	t99	4	Associates	O	O	O	O	O	O	O	O	NN2	I-NP	associate	NNPS	t97:NAME||t98:NAME	O
who	t100	4	who	O	O	O	O	O	O	O	O	PNQ	B-NP	who	WP	t109:OBJ	O
had	t101	4	have	O	O	O	O	O	O	O	O	VHD	B-VP	have	VBD	t100:SBJ||t102:TMP||t103:VC	O
once	t102	4	once	O	O	O	O	O	O	O	O	AV0	I-VP	once	RB	O	O
been	t103	4	be	O	O	O	O	O	O	O	O	VBN	I-VP	be	VBN	t104:PRD	O
high	t104	4	high	e19	STATE	PAST+PERFECTIVE+POS	O	O	O	O	O	AJ0	B-ADJP	high	JJ	t105:AMOD	O
on	t105	4	on	O	O	O	O	O	O	O	O	PRP	B-PP	on	IN	t107:PMOD	O
the	t106	4	the	O	O	O	O	O	O	O	O	AT0	B-NP	the	DT	O	O
company	t107	4	company	O	O	O	O	O	O	O	O	NN1	I-NP	company	NN	t106:NMOD	O
.	t108	4	.	O	O	O	O	O	O	O	O	PUN	O	.	.	O	O
"	t109	4	"	O	O	O	O	O	O	O	O	PUQ	O	"	NN	O	O

The	t110	5	the	O	O	O	O	O	O	O	O	AT0	B-NP	the	DT	O	O
quarter	t111	5	quarter	O	O	O	O	O	O	O	O	NN1	I-NP	quarter	NN	t110:NMOD	O
was	t112	5	be	O	O	O	O	O	O	O	O	VBD	B-VP	be	VBD	t111:SBJ||t113:PRD||t114:P||t115:COORD||t122:P	mainVb
terrible	t113	5	terrible	O	O	O	O	O	O	O	O	AJ0	B-ADJP	terrible	JJ	O	O
,	t114	5	,	O	O	O	O	O	O	O	O	PUN	O	,	,	O	O
and	t115	5	and	O	O	O	O	O	O	O	O	CJC	O	and	CC	t118:CONJ	O
the	t116	5	the	O	O	O	O	O	O	O	O	AT0	B-NP	the	DT	O	O
future	t117	5	future	O	O	O	O	O	O	O	O	NN1	I-NP	future	NN	t116:NMOD	O
looks	t118	5	look	O	O	O	O	O	O	O	O	VVZ	B-VP	look	VBZ	t117:SBJ||t119:PRD	O
anything	t119	5	anything	O	O	O	O	O	O	O	O	PNI	B-NP	anything	NN	t120:COORD	O
but	t120	5	but	O	O	O	O	O	O	O	O	PRP	B-PP	but	CC	t121:CONJ	O
encouraging	t121	5	encourage	O	O	O	O	O	O	O	O	AJ0	B-NP	encourage	VBG	t123:OBJ	O
.	t122	5	.	O	O	O	O	O	O	O	O	PUN	O	.	.	O	O
"	t123	5	"	O	O	O	O	O	O	O	O	PUQ	O	"	NN	O	O

Unisys	t124	6	Unisys	O	O	O	O	O	O	O	O	NP0	B-NP	unisys	NNP	t125:P||t128:NMOD||t147:P	O
,	t125	6	,	O	O	O	O	O	O	O	O	PUN	O	,	,	O	O
whose	t126	6	whose	O	O	O	O	O	O	O	O	DTQ	B-NP	whose	WP$	O	O
revenue	t127	6	revenue	O	O	O	O	O	O	O	O	NN1	I-NP	revenue	NN	t126:NMOD	O
inched	t128	6	inch	e20	OCCURRENCE	PAST+NONE+POS	O	O	O	O	O	VVD	B-VP	inch	VBD	t127:SBJ||t129:DIR||t132:TMP||t135:DIR||t139:DIR	O
up	t129	6	up	O	O	O	O	O	O	O	O	PRP	B-ADVP	up	RB	t131:AMOD	O
3.7	t130	6	3.7	O	O	O	O	O	O	O	O	CRD	B-NP	3.7	CD	O	O
%	t131	6	%	O	O	O	O	O	O	O	O	UNC	I-NP	%	NN	t130:NMOD	O
in	t132	6	in	O	O	O	O	O	O	O	O	PRP	B-PP	in	IN	t134:PMOD	O
the	t133	6	the	O	O	O	tmx21	DATE	1989-Q3	O	O	AT0	B-NP	the	DT	O	O
quarter	t134	6	quarter	O	O	O	tmx21	DATE	1989-Q3	O	O	NN1	I-NP	quarter	NN	t133:NMOD	O
to	t135	6	to	O	O	O	O	O	O	O	O	PRP	B-PP	to	TO	t136:PMOD	O
$	t136	6	$	O	O	O	O	O	O	O	O	NN0	B-NP	$	$	t137:DEP||t138:DEP	O
2.35	t137	6	2.35	O	O	O	O	O	O	O	O	CRD	I-NP	2.35	CD	O	O
billion	t138	6	billion	O	O	O	O	O	O	O	O	CRD	I-NP	billion	CD	O	O
from	t139	6	from	O	O	O	O	O	O	O	O	PRP	B-PP	from	IN	t140:PMOD||t143:TMP	O
$	t140	6	$	O	O	O	O	O	O	O	O	ZZ0	B-NP	$	$	t141:DEP||t142:DEP	O
2.27	t141	6	2.27	O	O	O	O	O	O	O	O	CRD	I-NP	2.27	CD	O	O
billion	t142	6	billion	O	O	O	O	O	O	O	O	CRD	I-NP	billion	CD	O	O
in	t143	6	in	O	O	O	O	O	O	O	O	PRP	B-PP	in	IN	t146:PMOD	O
the	t144	6	the	O	O	O	tmx22	DATE	1988-Q3	O	O	AT0	B-NP	the	DT	O	O
year-earlier	t145	6	year-earlier	O	O	O	tmx22	DATE	1988-Q3	O	O	AJC	I-NP	year-earlier	JJR	O	O
quarter	t146	6	quarter	O	O	O	tmx22	DATE	1988-Q3	O	O	NN1	I-NP	quarter	NN	t144:NMOD||t145:NMOD	O
,	t147	6	,	O	O	O	O	O	O	O	O	PUN	O	,	,	O	O
had	t148	6	have	e23	STATE	PAST+NONE+POS	O	O	O	O	O	VHD	B-VP	have	VBD	t124:SBJ||t151:OBJ||t157:P	mainVb
an	t149	6	a	O	O	O	O	O	O	O	O	AT0	B-NP	an	DT	O	O
operating	t150	6	operating	O	O	O	O	O	O	O	O	AJ0	I-NP	operating	NN	O	O
loss	t151	6	loss	e24	STATE	NONE+NONE+POS	O	O	O	O	O	NN1	I-NP	loss	NN	t149:NMOD||t150:NMOD||t152:NMOD	O
of	t152	6	of	O	O	O	O	O	O	O	O	PRF	B-PP	of	IN	t154:PMOD	O
about	t153	6	about	O	O	O	O	O	O	O	O	AV0	B-NP	about	IN	O	O
$	t154	6	$	O	O	O	O	O	O	O	O	CRD	I-NP	$	$	t153:DEP||t155:DEP||t156:DEP	O
30	t155	6	30	O	O	O	O	O	O	O	O	CRD	I-NP	30	CD	O	O
million	t156	6	million	O	O	O	O	O	O	O	O	CRD	I-NP	million	CD	O	O
.	t157	6	.	O	O	O	O	O	O	O	O	PUN	O	.	.	O	O

On	t158	7	on	O	O	O	O	O	O	O	O	PRP	B-PP	on	IN	t159:PMOD	O
top	t159	7	top	O	O	O	O	O	O	O	O	PRP	B-NP	top	NN	t160:NMOD	O
of	t160	7	of	O	O	O	O	O	O	O	O	PRP	B-PP	of	IN	t161:PMOD	O
that	t161	7	that	O	O	O	O	O	O	O	O	DT0	B-NP	that	DT	O	O
,	t162	7	,	O	O	O	O	O	O	O	O	PUN	O	,	,	O	O
the	t163	7	the	O	O	O	O	O	O	O	O	AT0	B-NP	the	DT	O	O
Blue	t164	7	Blue	O	O	O	O	O	O	O	O	AJ0	I-NP	blue	NNP	O	O
Bell	t165	7	Bell	O	O	O	O	O	O	O	O	NN1	I-NP	bell	NNP	t164:NAME	O
,	t166	7	,	O	O	O	O	O	O	O	O	PUN	O	,	,	O	O
Pa.	t167	7	Pa.	O	O	O	O	O	O	O	O	NP0	B-NP	pa.	NNP	t165:NMOD||t166:P||t168:P	O
,	t168	7	,	O	O	O	O	O	O	O	O	PUN	O	,	,	O	O
concern	t169	7	concern	O	O	O	O	O	O	O	O	NN1	B-NP	concern	NN	t163:NMOD||t167:LOC	O
took	t170	7	take	e25	OCCURRENCE	PAST+NONE+POS	O	O	O	O	O	VVD	B-VP	take	VBD	t158:ADV||t162:P||t169:SBJ||t175:OBJ||t183:P	mainVb
a	t171	7	a	O	O	O	O	O	O	O	O	AT0	B-NP	a	DT	O	O
$	t172	7	$	O	O	O	O	O	O	O	O	CRD	I-NP	$	$	t173:DEP||t174:DEP	O
230	t173	7	230	O	O	O	O	O	O	O	O	CRD	I-NP	230	CD	O	O
million	t174	7	million	O	O	O	O	O	O	O	O	CRD	I-NP	million	CD	O	O
charge	t175	7	charge	e26	OCCURRENCE	NONE+NONE+POS	O	O	O	O	O	NN1	I-NP	charge	NN	t171:NMOD||t172:NMOD||t176:APPO	O
related	t176	7	relate	O	O	O	O	O	O	O	O	VVD	B-VP	relate	VBN	t177:AMOD	O
to	t177	7	to	O	O	O	O	O	O	O	O	PRP	B-PP	to	TO	t179:PMOD	O
the	t178	7	the	O	O	O	O	O	O	O	O	AT0	B-NP	the	DT	O	O
layoffs	t179	7	layoff	e27	OCCURRENCE	NONE+NONE+POS	O	O	O	O	O	NN2	I-NP	layoff	NNS	t178:NMOD||t180:NMOD	O
of	t180	7	of	O	O	O	O	O	O	O	O	PRF	B-PP	of	IN	t182:PMOD	O
8,000	t181	7	8,000	O	O	O	O	O	O	O	O	CRD	B-NP	8,000	CD	O	O
employees	t182	7	employee	O	O	O	O	O	O	O	O	NN2	I-NP	employee	NNS	t181:NMOD	O
.	t183	7	.	O	O	O	O	O	O	O	O	PUN	O	.	.	O	O

That	t184	8	that	O	O	O	O	O	O	O	O	DT0	B-NP	that	DT	O	O
is	t185	8	be	O	O	O	O	O	O	O	O	VBZ	B-VP	be	VBZ	t184:SBJ||t186:PRD||t208:P	mainVb
at	t186	8	at	O	O	O	O	O	O	O	O	PRP	B-PP	at	IN	t189:PMOD	O
the	t187	8	the	O	O	O	O	O	O	O	O	AT0	B-NP	the	DT	O	O
high	t188	8	high	O	O	O	O	O	O	O	O	AJ0	I-NP	high	JJ	O	O
end	t189	8	end	O	O	O	O	O	O	O	O	NN1	I-NP	end	NN	t187:NMOD||t188:NMOD||t190:NMOD	O
of	t190	8	of	O	O	O	O	O	O	O	O	PRF	B-PP	of	IN	t192:PMOD	O
the	t191	8	the	O	O	O	O	O	O	O	O	AT0	B-NP	the	DT	O	O
range	t192	8	range	O	O	O	O	O	O	O	O	NN1	I-NP	range	NN	t191:NMOD||t193:NMOD	O
of	t193	8	of	O	O	O	O	O	O	O	O	PRF	B-PP	of	IN	t197:PMOD	O
7,000	t194	8	7,000	O	O	O	O	O	O	O	O	CRD	B-NP	7,000	CD	O	O
to	t195	8	to	O	O	O	O	O	O	O	O	PRP	B-PP	to	CD	t194:DEP	O
8,000	t196	8	8,000	O	O	O	O	O	O	O	O	CRD	B-NP	8,000	NN	O	O
employees	t197	8	employee	O	O	O	O	O	O	O	O	NN2	I-NP	employee	NNS	t195:NMOD||t196:NMOD||t200:NMOD	O
that	t198	8	that	O	O	O	O	O	O	O	O	CJT	B-SBAR	that	WDT	O	O
Unisys	t199	8	Unisys	O	O	O	O	O	O	O	O	NP0	B-NP	unisys	NNP	O	O
said	t200	8	say	e28	REPORTING	PAST+NONE+POS	O	O	O	O	O	VVD	B-VP	say	VBD	t199:SBJ||t203:TMP||t204:OBJ	O
a	t201	8	a	O	O	O	tmx29	DATE	1989-09	O	O	AT0	B-NP	a	DT	O	O
month	t202	8	month	O	O	O	tmx29	DATE	1989-09	O	O	NN1	I-NP	month	NN	t201:NMOD	O
ago	t203	8	ago	O	O	O	tmx29	DATE	1989-09	O	O	AV0	B-ADVP	ago	RB	t202:AMOD	O
would	t204	8	would	O	O	O	O	O	O	O	O	VM0	B-VP	would	MD	t205:VC	O
be	t205	8	be	O	O	O	O	O	O	O	O	VBI	I-VP	be	VB	t206:VC	O
laid	t206	8	lay	e30	STATE	NONE+NONE+POS	O	O	O	O	O	VVN	I-VP	lay	VBN	t207:PRT	O
off	t207	8	off	O	O	O	O	O	O	O	O	AVP	B-PRT	off	IN	t198:PMOD	O
.	t208	8	.	O	O	O	O	O	O	O	O	PUN	O	.	.	O	O

Unisys	t209	9	Unisys	O	O	O	O	O	O	O	O	NP0	B-NP	unisys	NNP	O	O
said	t210	9	say	e31	REPORTING	PAST+NONE+POS	O	O	O	O	O	VVD	B-VP	say	VBD	t209:SBJ||t212:OBJ||t242:P	mainVb
that	t211	9	that	O	O	O	O	O	O	O	O	DT0	B-NP	that	DT	O	O
should	t212	9	should	O	O	O	O	O	O	O	O	VM0	B-VP	should	MD	t211:SBJ||t213:VC	O
help	t213	9	help	e32	I_STATE	NONE+NONE+POS	O	O	O	O	O	VVI	I-VP	help	VB	t214:OBJ||t215:OPRD	O
it	t214	9	it	O	O	O	O	O	O	O	O	PNP	B-NP	it	PRP	O	O
save	t215	9	save	e33	OCCURRENCE	INFINITIVE+NONE+POS	O	O	O	O	O	VVI	B-VP	save	VB	t216:OBJ	O
$	t216	9	$	O	O	O	O	O	O	O	O	CRD	B-NP	$	$	t217:DEP||t218:DEP||t220:ADV||t221:NMOD||t223:P||t225:LOC	O
500	t217	9	500	O	O	O	O	O	O	O	O	CRD	I-NP	500	CD	O	O
million	t218	9	million	O	O	O	O	O	O	O	O	CRD	I-NP	million	CD	O	O
a	t219	9	a	O	O	O	O	O	O	O	O	AT0	B-NP	a	DT	O	O
year	t220	9	year	O	O	O	O	O	O	O	O	NN1	I-NP	year	NN	t219:NMOD	O
in	t221	9	in	O	O	O	O	O	O	O	O	PRP	B-PP	in	IN	t222:PMOD	O
costs	t222	9	cost	O	O	O	O	O	O	O	O	NN2	B-NP	costs	NNS	O	O
,	t223	9	,	O	O	O	O	O	O	O	O	PUN	O	,	,	O	O
again	t224	9	again	O	O	O	O	O	O	O	O	AV0	B-ADVP	again	RB	O	O
at	t225	9	at	O	O	O	O	O	O	O	O	PRP	B-PP	at	IN	t224:PMOD||t228:PMOD	O
the	t226	9	the	O	O	O	O	O	O	O	O	AT0	B-NP	the	DT	O	O
high	t227	9	high	O	O	O	O	O	O	O	O	AJ0	I-NP	high	JJ	O	O
end	t228	9	end	O	O	O	O	O	O	O	O	NN1	I-NP	end	NN	t226:NMOD||t227:NMOD||t229:NMOD	O
of	t229	9	of	O	O	O	O	O	O	O	O	PRF	B-PP	of	IN	t233:PMOD	O
the	t230	9	the	O	O	O	O	O	O	O	O	AT0	B-NP	the	DT	O	O
previously	t231	9	previously	O	O	O	O	O	O	O	O	AV0	I-NP	previously	RB	t232:AMOD	O
reported	t232	9	report	O	O	O	O	O	O	O	O	AJ0	I-NP	report	VBN	O	O
range	t233	9	range	O	O	O	O	O	O	O	O	NN1	I-NP	range	NN	t230:NMOD||t231:NMOD||t234:NMOD	O
of	t234	9	of	O	O	O	O	O	O	O	O	PRF	B-PP	of	IN	t235:PMOD	O
$	t235	9	$	O	O	O	O	O	O	O	O	NN0	B-NP	$	$	t236:DEP||t237:DEP||t238:DEP||t239:DEP||t240:DEP||t241:DEP	O
400	t236	9	400	O	O	O	O	O	O	O	O	CRD	I-NP	400	CD	O	O
million	t237	9	million	O	O	O	O	O	O	O	O	CRD	I-NP	million	CD	O	O
to	t238	9	to	O	O	O	O	O	O	O	O	PRP	B-PP	to	TO	O	O
$	t239	9	$	O	O	O	O	O	O	O	O	NN0	B-NP	$	$	O	O
500	t240	9	500	O	O	O	O	O	O	O	O	CRD	I-NP	500	CD	O	O
million	t241	9	million	O	O	O	O	O	O	O	O	CRD	I-NP	million	CD	O	O
.	t242	9	.	O	O	O	O	O	O	O	O	PUN	O	.	.	O	O

The	t243	10	the	O	O	O	O	O	O	O	O	AT0	B-NP	the	DT	O	O
company	t244	10	company	O	O	O	O	O	O	O	O	NN1	I-NP	company	NN	t243:NMOD	O
also	t245	10	also	O	O	O	O	O	O	O	O	AV0	B-ADVP	also	RB	O	O
took	t246	10	take	e34	OCCURRENCE	PAST+NONE+POS	O	O	O	O	O	VVD	B-VP	take	VBD	t244:SBJ||t245:ADV||t248:OBJ||t253:PRP||t261:P||t262:TMP||t277:P	mainVb
a	t247	10	a	O	O	O	O	O	O	O	O	AT0	B-NP	a	DT	O	O
write-off	t248	10	write-off	e35	OCCURRENCE	NONE+NONE+POS	O	O	O	O	O	NN1	I-NP	write-off	NN	t247:NMOD||t249:NMOD	O
of	t249	10	of	O	O	O	O	O	O	O	O	PRF	B-PP	of	IN	t250:PMOD	O
$	t250	10	$	O	O	O	O	O	O	O	O	NN0	B-NP	$	$	t251:DEP||t252:DEP	O
150	t251	10	150	O	O	O	O	O	O	O	O	CRD	B-NP	150	CD	O	O
million	t252	10	million	O	O	O	O	O	O	O	O	CRD	I-NP	million	CD	O	O
to	t253	10	to	O	O	O	O	O	O	O	O	TO0	B-VP	to	TO	t254:IM	O
cover	t254	10	cover	e36	OCCURRENCE	INFINITIVE+NONE+POS	O	O	O	O	O	VVI	I-VP	cover	VB	t255:OBJ	O
losses	t255	10	loss	e37	STATE	NONE+NONE+POS	O	O	O	O	O	NN2	B-NP	losses	NNS	t256:LOC	O
on	t256	10	on	O	O	O	O	O	O	O	O	PRP	B-PP	on	IN	t260:PMOD	O
some	t257	10	some	O	O	O	O	O	O	O	O	DT0	B-NP	some	DT	O	O
fixed-price	t258	10	fixed-price	O	O	O	O	O	O	O	O	AJ0	I-NP	fixed-price	NN	O	O
defense	t259	10	defense	O	O	O	O	O	O	O	O	NN1	I-NP	defense	NN	O	O
contracts	t260	10	contract	O	O	O	O	O	O	O	O	NN2	I-NP	contract	NNS	t257:NMOD||t258:NMOD||t259:NMOD	O
,	t261	10	,	O	O	O	O	O	O	O	O	PUN	O	,	,	O	O
as	t262	10	as	O	O	O	O	O	O	O	O	CJS	B-SBAR	as	IN	t266:SUB	O
some	t263	10	some	O	O	O	O	O	O	O	O	DT0	B-NP	some	DT	O	O
new	t264	10	new	O	O	O	O	O	O	O	O	AJ0	I-NP	new	JJ	O	O
managers	t265	10	manager	O	O	O	O	O	O	O	O	NN2	I-NP	manager	NNS	t263:NMOD||t264:NMOD	O
took	t266	10	take	e38	OCCURRENCE	PAST+NONE+POS	O	O	O	O	O	VVD	B-VP	take	VBD	t265:SBJ||t269:OBJ	O
a	t267	10	a	O	O	O	O	O	O	O	O	AT0	B-NP	a	DT	O	O
hard	t268	10	hard	O	O	O	O	O	O	O	O	AJ0	I-NP	hard	JJ	O	O
look	t269	10	look	e39	OCCURRENCE	NONE+NONE+POS	O	O	O	O	O	NN1	I-NP	look	NN	t267:NMOD||t268:NMOD||t270:NMOD	O
at	t270	10	at	O	O	O	O	O	O	O	O	PRP	B-PP	at	IN	t272:PMOD	O
the	t271	10	the	O	O	O	O	O	O	O	O	AT0	B-NP	the	DT	O	O
prospects	t272	10	prospects	O	O	O	O	O	O	O	O	NN2	I-NP	prospect	NNS	t271:NMOD||t273:NMOD	O
for	t273	10	for	O	O	O	O	O	O	O	O	PRP	B-PP	for	IN	t276:PMOD	O
that	t274	10	that	O	O	O	O	O	O	O	O	DT0	B-NP	that	DT	O	O
slow-growing	t275	10	slow-growing	O	O	O	O	O	O	O	O	AJ0	I-NP	slow-grow	NN	O	O
business	t276	10	business	O	O	O	O	O	O	O	O	NN1	I-NP	business	NN	t274:NMOD||t275:NMOD	O
.	t277	10	.	O	O	O	O	O	O	O	O	PUN	O	.	.	O	O

In	t278	11	in	O	O	O	O	O	O	O	O	PRP	B-PP	in	IN	t279:PMOD	O
addition	t279	11	addition	O	O	O	O	O	O	O	O	NN1	B-NP	addition	NN	O	O
,	t280	11	,	O	O	O	O	O	O	O	O	PUN	O	,	,	O	O
Unisys	t281	11	Unisys	O	O	O	O	O	O	O	O	NP0	B-NP	unisys	NNP	O	O
set	t282	11	set	e40	OCCURRENCE	PAST+NONE+POS	O	O	O	O	O	VVD	B-VP	set	VBD	t278:ADV||t280:P||t281:SBJ||t283:PRT||t286:OBJ||t297:PRP||t317:P	mainVb
up	t283	11	up	O	O	O	O	O	O	O	O	AVP	B-PRT	up	RP	O	O
an	t284	11	a	O	O	O	O	O	O	O	O	AT0	B-NP	an	DT	O	O
unspecified	t285	11	unspecified	O	O	O	O	O	O	O	O	AJ0	I-NP	unspecified	JJ	O	O
reserve	t286	11	reserve	O	O	O	O	O	O	O	O	NN1	I-NP	reserve	NN	t284:NMOD||t285:NMOD||t289:PRN	O
--	t287	11	--	O	O	O	O	O	O	O	O	UNC	O	--	:	O	O
apparently	t288	11	apparently	O	O	O	O	O	O	O	O	AV0	B-NP	apparently	RB	O	O
$	t289	11	$	O	O	O	O	O	O	O	O	NN0	I-NP	$	$	t287:P||t288:DEP||t290:DEP||t291:DEP||t292:DEP||t293:DEP||t294:DEP||t295:DEP||t296:P	O
60	t290	11	60	O	O	O	O	O	O	O	O	CRD	B-NP	60	CD	O	O
million	t291	11	million	O	O	O	O	O	O	O	O	CRD	I-NP	million	CD	O	O
to	t292	11	to	O	O	O	O	O	O	O	O	PRP	B-PP	to	TO	O	O
$	t293	11	$	O	O	O	O	O	O	O	O	NN0	B-NP	$	$	O	O
70	t294	11	70	O	O	O	O	O	O	O	O	CRD	I-NP	70	CD	O	O
million	t295	11	million	O	O	O	O	O	O	O	O	CRD	I-NP	million	CD	O	O
--	t296	11	--	O	O	O	O	O	O	O	O	UNC	O	--	:	O	O
to	t297	11	to	O	O	O	O	O	O	O	O	TO0	B-VP	to	TO	t298:IM	O
cover	t298	11	cover	e41	OCCURRENCE	INFINITIVE+NONE+POS	O	O	O	O	O	VVI	I-VP	cover	VB	t301:OBJ	O
the	t299	11	the	O	O	O	O	O	O	O	O	AT0	B-NP	the	DT	O	O
minimum	t300	11	minimum	O	O	O	O	O	O	O	O	AJ0	I-NP	minimum	JJ	O	O
amount	t301	11	amount	O	O	O	O	O	O	O	O	NN1	I-NP	amount	NN	t299:NMOD||t300:NMOD||t303:NMOD	O
it	t302	11	it	O	O	O	O	O	O	O	O	PNP	B-NP	it	PRP	O	O
will	t303	11	will	O	O	O	O	O	O	O	O	VM0	B-VP	will	MD	t302:SBJ||t304:VC	O
have	t304	11	have	O	O	O	O	O	O	O	O	VHI	I-VP	have	VB	t305:OPRD	O
to	t305	11	to	O	O	O	O	O	O	O	O	TO0	I-VP	to	TO	t306:IM	O
pay	t306	11	pay	e42	OCCURRENCE	FUTURE+NONE+POS	O	O	O	O	O	VVI	I-VP	pay	VB	t308:OBJ||t309:PRP	O
the	t307	11	the	O	O	O	O	O	O	O	O	AT0	B-NP	the	DT	O	O
government	t308	11	government	O	O	O	O	O	O	O	O	NN1	I-NP	government	NN	t307:NMOD	O
because	t309	11	because	O	O	O	O	O	O	cs43	O	PRP	B-PP	because	IN	t310:DEP||t312:PMOD	O
of	t310	11	of	O	O	O	O	O	O	cs43	O	PRP	B-PP	of	IN	O	O
its	t311	11	its	O	O	O	O	O	O	cs43	O	DPS	B-NP	its	PRP$	O	O
involvement	t312	11	involvement	e44	OCCURRENCE	NONE+NONE+POS	O	O	O	cs43	O	NN1	I-NP	involvement	NN	t311:NMOD||t313:NMOD	O
in	t313	11	in	O	O	O	O	O	O	cs43	O	PRP	B-PP	in	IN	t316:PMOD	O
the	t314	11	the	O	O	O	O	O	O	cs43	O	AT0	B-NP	the	DT	O	O
defense-procurement	t315	11	defense-procurement	O	O	O	O	O	O	cs43	O	NN1	I-NP	defense-procurement	NN	O	O
scandal	t316	11	scandal	e45	OCCURRENCE	NONE+NONE+POS	O	O	O	cs43	O	NN1	I-NP	scandal	NN	t314:NMOD||t315:NMOD	O
.	t317	11	.	O	O	O	O	O	O	cs43	O	PUN	O	.	.	O	O

Unisys	t318	12	Unisys	O	O	O	O	O	O	cs43	O	NP0	B-NP	unisys	NNP	O	O
also	t319	12	also	O	O	O	O	O	O	cs43	O	AV0	B-ADVP	also	RB	O	O
noted	t320	12	note	e46	REPORTING	PAST+NONE+POS	O	O	O	cs43	O	VVD	B-VP	note	VBD	t318:SBJ||t319:ADV||t321:OBJ||t350:P	mainVb
that	t321	12	that	O	O	O	O	O	O	cs43	O	CJT	B-SBAR	that	IN	t323:SUB	O
it	t322	12	it	O	O	O	O	O	O	cs43	O	PNP	B-NP	it	PRP	O	O
paid	t323	12	pay	e47	OCCURRENCE	PAST+NONE+POS	O	O	O	cs43	O	VVD	B-VP	pay	VBD	t322:SBJ||t324:OBJ||t329:TMP||t332:P||t334:ADV	O
$	t324	12	$	O	O	O	O	O	O	cs43	O	CRD	B-NP	$	$	t325:DEP||t326:DEP||t327:NMOD	O
78.8	t325	12	78.8	O	O	O	O	O	O	cs43	O	CRD	I-NP	78.8	CD	O	O
million	t326	12	million	O	O	O	O	O	O	cs43	O	CRD	I-NP	million	CD	O	O
in	t327	12	in	O	O	O	O	O	O	cs43	O	PRP	B-PP	in	IN	t328:PMOD	O
taxes	t328	12	tax	O	O	O	O	O	O	cs43	O	NN2	B-NP	tax	NNS	O	O
during	t329	12	during	O	O	O	O	O	O	cs43	O	PRP	B-PP	during	IN	t331:PMOD	O
the	t330	12	the	O	O	O	tmx48	DATE	1989-Q3	cs43	O	AT0	B-NP	the	DT	O	O
quarter	t331	12	quarter	O	O	O	tmx48	DATE	1989-Q3	cs43	O	NN1	I-NP	quarter	NN	t330:NMOD	O
,	t332	12	,	O	O	O	O	O	O	cs43	O	PUN	O	,	,	O	O
even	t333	12	even	O	O	O	O	O	O	cs43	O	CJS	B-SBAR	even	RB	O	O
though	t334	12	though	O	O	O	O	O	O	cs43	O	CJS	I-SBAR	though	IN	t333:DEP||t338:SUB	O
tax	t335	12	tax	O	O	O	O	O	O	cs43	O	NN1	B-NP	tax	NN	O	O
payments	t336	12	payment	O	O	O	O	O	O	cs43	O	NN2	I-NP	payment	NNS	t335:NMOD	O
normally	t337	12	normally	O	O	O	O	O	O	cs43	O	AV0	B-ADVP	normally	RB	O	O
would	t338	12	would	O	O	O	O	O	O	cs43	O	VM0	B-VP	would	MD	t336:SBJ||t337:ADV||t339:VC	O
be	t339	12	be	O	O	O	O	O	O	cs43	O	VBI	I-VP	be	VB	t340:PRD||t341:TMP	O
minimal	t340	12	minimal	O	O	O	O	O	O	cs43	O	AJ0	B-ADJP	minimal	JJ	O	O
in	t341	12	in	O	O	O	O	O	O	cs43	O	PRP	B-PP	in	IN	t343:PMOD	O
a	t342	12	a	O	O	O	O	O	O	cs43	O	AT0	B-NP	a	DT	O	O
quarter	t343	12	quarter	O	O	O	O	O	O	cs43	O	NN1	I-NP	quarter	NN	t342:NMOD||t345:NMOD	O
that	t344	12	that	O	O	O	O	O	O	cs43	O	CJT	B-NP	that	WDT	O	O
produced	t345	12	produce	O	O	O	O	O	O	cs43	O	VVD	B-VP	produce	VBD	t344:SBJ||t349:OBJ	O
such	t346	12	such	O	O	O	O	O	O	cs43	O	DT0	B-NP	such	PDT	O	O
a	t347	12	a	O	O	O	O	O	O	cs43	O	AT0	I-NP	a	DT	O	O
big	t348	12	big	O	O	O	O	O	O	cs43	O	AJ0	I-NP	big	JJ	O	O
loss	t349	12	loss	O	O	O	O	O	O	cs43	O	NN1	I-NP	loss	NN	t346:NMOD||t347:NMOD||t348:NMOD	O
.	t350	12	.	O	O	O	O	O	O	cs43	O	PUN	O	.	.	O	O

The	t351	13	the	O	O	O	O	O	O	cs43	O	AT0	B-NP	the	DT	O	O
tax	t352	13	tax	O	O	O	O	O	O	cs43	O	NN1	I-NP	tax	NN	O	O
payments	t353	13	payment	O	O	O	O	O	O	cs43	O	NN2	I-NP	payment	NNS	t351:NMOD||t352:NMOD	O
will	t354	13	will	O	O	O	O	O	O	cs43	O	VM0	B-VP	will	MD	t353:SBJ||t355:VC||t372:P	mainVb
leave	t355	13	leave	e49	OCCURRENCE	FUTURE+NONE+POS	O	O	O	cs43	O	VVI	I-VP	leave	VB	t356:OBJ||t357:ADV	mainVb
Unisys	t356	13	Unisys	O	O	O	O	O	O	cs43	O	NP0	B-NP	unisys	NNP	O	O
with	t357	13	with	O	O	O	O	O	O	cs43	O	PRP	B-PP	with	IN	t358:PMOD	O
$	t358	13	$	O	O	O	O	O	O	cs43	O	CRD	B-NP	$	$	t359:DEP||t360:DEP||t361:NMOD	O
225	t359	13	225	O	O	O	O	O	O	cs43	O	CRD	I-NP	225	CD	O	O
million	t360	13	million	O	O	O	O	O	O	cs43	O	CRD	I-NP	million	CD	O	O
in	t361	13	in	O	O	O	O	O	O	cs43	O	PRP	B-PP	in	IN	t363:PMOD	O
loss	t362	13	loss	O	O	O	O	O	O	cs43	O	NN1	B-NP	loss	NN	O	O
carry-forwards	t363	13	carry-forward	O	O	O	O	O	O	cs43	O	NN2	I-NP	carry-forwards	NNS	t362:NMOD||t365:NMOD	O
that	t364	13	that	O	O	O	O	O	O	cs43	O	CJT	B-NP	that	WDT	O	O
will	t365	13	will	O	O	O	O	O	O	cs43	O	VM0	B-VP	will	MD	t364:SBJ||t366:VC	O
cut	t366	13	cut	e50	ASPECTUAL	FUTURE+NONE+POS	O	O	O	cs43	O	VVI	I-VP	cut	VB	t368:OBJ||t369:TMP	O
tax	t367	13	tax	O	O	O	O	O	O	cs43	O	NN1	B-NP	tax	NN	O	O
payments	t368	13	payment	e51	OCCURRENCE	NONE+NONE+POS	O	O	O	cs43	O	NN2	I-NP	payment	NNS	t367:NMOD	O
in	t369	13	in	O	O	O	O	O	O	cs43	O	PRP	B-PP	in	IN	t371:PMOD	O
future	t370	13	future	O	O	O	tmx52	DATE	FUTURE_REF	cs43	O	AJ0	B-NP	future	JJ	O	O
quarters	t371	13	quarter	O	O	O	tmx52	DATE	FUTURE_REF	cs43	O	NN2	I-NP	quarters	NNS	t370:NMOD	O
.	t372	13	.	O	O	O	O	O	O	cs43	O	PUN	O	.	.	O	O

In	t373	14	in	O	O	O	O	O	O	cs43	O	PRP	B-PP	in	IN	t374:PMOD	O
addition	t374	14	addition	O	O	O	O	O	O	cs43	O	NN1	B-NP	addition	NN	O	O
,	t375	14	,	O	O	O	O	O	O	cs43	O	PUN	O	,	,	O	O
Unisys	t376	14	Unisys	O	O	O	O	O	O	cs43	O	NP0	B-NP	unisys	NNP	O	O
said	t377	14	say	e53	REPORTING	PAST+NONE+POS	O	O	O	cs43	O	VVD	B-VP	say	VBD	t373:ADV||t375:P||t376:SBJ||t379:OBJ||t413:P	mainVb
it	t378	14	it	O	O	O	O	O	O	cs43	O	PNP	B-NP	it	PRP	O	O
reduced	t379	14	reduce	e54	OCCURRENCE	PAST+NONE+POS	O	O	O	cs43	O	VVD	B-VP	reduce	VBD	t378:SBJ||t381:OBJ||t384:EXT||t387:TMP||t390:P||t391:ADV	O
computer	t380	14	computer	O	O	O	O	O	O	cs43	O	NN1	B-NP	computer	NN	O	O
inventories	t381	14	inventory	O	O	O	O	O	O	cs43	O	VVZ	B-VP	inventory	NNS	t380:NMOD	O
a	t382	14	a	O	O	O	O	O	O	cs43	O	AT0	B-NP	a	DT	O	O
further	t383	14	further	O	O	O	O	O	O	cs43	O	AJC	I-NP	further	JJ	O	O
$	t384	14	$	O	O	O	O	O	O	cs43	O	CRD	I-NP	$	$	t382:NMOD||t383:NMOD||t385:DEP||t386:DEP	O
100	t385	14	100	O	O	O	O	O	O	cs43	O	CRD	I-NP	100	CD	O	O
million	t386	14	million	O	O	O	O	O	O	cs43	O	CRD	I-NP	million	CD	O	O
during	t387	14	during	O	O	O	O	O	O	cs43	O	PRP	B-PP	during	IN	t389:PMOD	O
the	t388	14	the	O	O	O	tmx55	DATE	1989-Q3	cs43	O	AT0	B-NP	the	DT	O	O
quarter	t389	14	quarter	O	O	O	tmx55	DATE	1989-Q3	cs43	O	NN1	I-NP	quarter	NN	t388:NMOD	O
,	t390	14	,	O	O	O	O	O	O	cs43	O	PUN	O	,	,	O	O
leaving	t391	14	leave	e56	OCCURRENCE	PRESPART+NONE+POS	O	O	O	cs43	O	VVG	B-VP	leave	VBG	t392:OBJ||t393:LOC-OPRD	O
it	t392	14	it	O	O	O	O	O	O	cs43	O	PNP	B-NP	it	PRP	O	O
within	t393	14	within	O	O	O	O	O	O	cs43	O	PRP	B-PP	within	IN	t394:PMOD	O
$	t394	14	$	O	O	O	O	O	O	cs43	O	CRD	B-NP	$	$	t395:DEP||t396:DEP||t397:NMOD	O
100	t395	14	100	O	O	O	O	O	O	cs43	O	CRD	I-NP	100	CD	O	O
million	t396	14	million	O	O	O	O	O	O	cs43	O	CRD	I-NP	million	CD	O	O
of	t397	14	of	O	O	O	O	O	O	cs43	O	PRF	B-PP	of	IN	t399:PMOD	O
its	t398	14	its	O	O	O	O	O	O	cs43	O	DPS	B-NP	its	PRP$	O	O
goal	t399	14	goal	O	O	O	O	O	O	cs43	O	NN1	I-NP	goal	NN	t398:NMOD||t400:NMOD	O
of	t400	14	of	O	O	O	O	O	O	cs43	O	PRF	B-PP	of	IN	t402:PMOD	O
a	t401	14	a	O	O	O	O	O	O	cs43	O	AT0	B-NP	a	DT	O	O
reduction	t402	14	reduction	e57	STATE	NONE+NONE+POS	O	O	O	cs43	O	NN1	I-NP	reduction	NN	t401:NMOD||t403:NMOD||t407:TMP	O
of	t403	14	of	O	O	O	O	O	O	cs43	O	PRF	B-PP	of	IN	t404:PMOD	O
$	t404	14	$	O	O	O	O	O	O	cs43	O	NN0	B-NP	$	$	t405:DEP||t406:DEP	O
500	t405	14	500	O	O	O	O	O	O	cs43	O	CRD	I-NP	500	CD	O	O
million	t406	14	million	O	O	O	O	O	O	cs43	O	CRD	I-NP	million	CD	O	O
by	t407	14	by	O	O	O	O	O	O	cs43	O	PRP	B-PP	by	IN	t409:PMOD	O
the	t408	14	the	O	O	O	tmx58	DATE	1989	cs43	O	AT0	B-NP	the	DT	O	O
end	t409	14	end	O	O	O	tmx58	DATE	1989	cs43	O	NN1	I-NP	end	NN	t408:NMOD||t410:NMOD	O
of	t410	14	of	O	O	O	tmx58	DATE	1989	cs43	O	PRF	B-PP	of	IN	t412:PMOD	O
the	t411	14	the	O	O	O	tmx58	DATE	1989	cs43	O	AT0	B-NP	the	DT	O	O
year	t412	14	year	O	O	O	tmx58	DATE	1989	cs43	O	NN1	I-NP	year	NN	t411:NMOD	O
.	t413	14	.	O	O	O	O	O	O	cs43	O	PUN	O	.	.	O	O

Still	t414	15	still	O	O	O	O	O	O	cs43	O	AV0	B-ADVP	still	RB	O	O
,	t415	15	,	O	O	O	O	O	O	cs43	O	PUN	O	,	,	O	O
Unisys	t416	15	Unisys	O	O	O	O	O	O	cs43	O	NP0	B-NP	unisys	NNP	O	O
said	t417	15	say	e59	REPORTING	PAST+NONE+POS	O	O	O	cs43	O	VVD	B-VP	say	VBD	t414:ADV||t415:P||t416:SBJ||t421:OBJ||t451:P	mainVb
its	t418	15	its	O	O	O	O	O	O	cs43	O	DPS	B-NP	its	PRP$	O	O
European	t419	15	european	O	O	O	O	O	O	cs43	O	AJ0	I-NP	european	JJ	O	O
business	t420	15	business	O	O	O	O	O	O	cs43	O	NN1	I-NP	business	NN	t418:NMOD||t419:NMOD	O
was	t421	15	be	O	O	O	O	O	O	cs43	O	VBD	B-VP	be	VBD	t420:SBJ||t422:PRD||t423:TMP||t426:P||t429:ADV	O
weak	t422	15	weak	e60	STATE	PAST+NONE+POS	O	O	O	cs43	O	AJ0	B-ADJP	weak	JJ	O	O
during	t423	15	during	O	O	O	O	O	O	cs43	O	PRP	B-PP	during	IN	t425:PMOD	O
the	t424	15	the	O	O	O	tmx61	DATE	1989-Q3	cs43	O	AT0	B-NP	the	DT	O	O
quarter	t425	15	quarter	O	O	O	tmx61	DATE	1989-Q3	cs43	O	NN1	I-NP	quarter	NN	t424:NMOD	O
,	t426	15	,	O	O	O	O	O	O	cs43	O	PUN	O	,	,	O	O
a	t427	15	a	O	O	O	O	O	O	cs43	O	AT0	B-NP	a	DT	O	O
worrisome	t428	15	worrisome	O	O	O	O	O	O	cs43	O	AJ0	I-NP	worrisome	JJ	O	O
sign	t429	15	sign	O	O	O	O	O	O	cs43	O	NN1	I-NP	sign	NN	t427:NMOD||t428:NMOD||t430:NMOD	O
given	t430	15	give	O	O	O	O	O	O	cs43	O	CJS	B-PP	give	VBN	t431:PMOD	O
that	t431	15	that	O	O	O	O	O	O	cs43	O	CJS	B-SBAR	that	IN	t434:SUB	O
the	t432	15	the	O	O	O	O	O	O	cs43	O	AT0	B-NP	the	DT	O	O
company	t433	15	company	O	O	O	O	O	O	cs43	O	NN1	I-NP	company	NN	t432:NMOD	O
has	t434	15	have	O	O	O	O	O	O	cs43	O	VHZ	B-VP	have	VBZ	t433:SBJ||t435:VC	O
relied	t435	15	rely	e62	I_STATE	PRESENT+PERFECTIVE+POS	O	O	O	cs43	O	VVN	I-VP	rely	VBN	t436:ADV||t440:PRP||t446:TMP	O
on	t436	15	on	O	O	O	O	O	O	cs43	O	PRP	B-PP	on	IN	t438:PMOD	O
solid	t437	15	solid	O	O	O	O	O	O	cs43	O	AJ0	B-NP	solid	JJ	O	O
results	t438	15	result	O	O	O	O	O	O	cs43	O	NN2	I-NP	result	NNS	t437:NMOD||t439:LOC	O
overseas	t439	15	overseas	O	O	O	O	O	O	cs43	O	AV0	B-ADVP	overseas	JJ	O	O
to	t440	15	to	O	O	O	O	O	O	cs43	O	TO0	B-VP	to	TO	t441:IM	O
overcome	t441	15	overcome	e63	I_ACTION	INFINITIVE+NONE+POS	O	O	O	cs43	O	VVI	I-VP	overcome	VB	t442:OBJ	O
weakness	t442	15	weakness	O	O	O	O	O	O	cs43	O	NN1	B-NP	weakness	NN	t443:LOC	O
in	t443	15	in	O	O	O	O	O	O	cs43	O	PRP	B-PP	in	IN	t445:PMOD	O
the	t444	15	the	O	O	O	O	O	O	cs43	O	AT0	B-NP	the	DT	O	O
U.S.	t445	15	U.S.	O	O	O	O	O	O	cs43	O	NP0	I-NP	u.s.	NNP	t444:NMOD	O
over	t446	15	over	O	O	O	O	O	O	cs43	O	PRP	B-PP	over	IN	t450:PMOD	O
the	t447	15	the	O	O	O	tmx64	DATE	PAST_REF	cs43	O	AT0	B-NP	the	DT	O	O
past	t448	15	past	O	O	O	tmx64	DATE	PAST_REF	cs43	O	AJ0	I-NP	past	JJ	O	O
several	t449	15	several	O	O	O	tmx64	DATE	PAST_REF	cs43	O	DT0	I-NP	several	DT	O	O
quarters	t450	15	quarter	O	O	O	tmx64	DATE	PAST_REF	cs43	O	NN2	I-NP	quarters	NNS	t447:NMOD||t448:NMOD||t449:NMOD	O
.	t451	15	.	O	O	O	O	O	O	cs43	O	PUN	O	.	.	O	O

The	t452	16	the	O	O	O	O	O	O	cs43	O	AT0	B-NP	the	DT	O	O
company	t453	16	company	O	O	O	O	O	O	cs43	O	NN1	I-NP	company	NN	t452:NMOD	O
also	t454	16	also	O	O	O	O	O	O	cs43	O	AV0	B-ADVP	also	RB	O	O
reported	t455	16	report	e65	REPORTING	PAST+NONE+POS	O	O	O	cs43	O	VVD	B-VP	report	VBD	t453:SBJ||t454:ADV||t457:OBJ||t470:P	mainVb
slower	t456	16	slower	O	O	O	O	O	O	cs43	O	AV0	B-NP	slow	JJR	O	O
growth	t457	16	growth	e66	STATE	NONE+NONE+POS	O	O	O	cs43	O	NN1	I-NP	growth	NN	t456:NMOD||t458:LOC	O
in	t458	16	in	O	O	O	O	O	O	cs43	O	PRP	B-PP	in	IN	t461:PMOD	O
another	t459	16	another	O	O	O	O	O	O	cs43	O	DT0	B-NP	another	DT	O	O
important	t460	16	important	O	O	O	O	O	O	cs43	O	AJ0	I-NP	important	JJ	O	O
business	t461	16	business	O	O	O	O	O	O	cs43	O	NN1	I-NP	business	NN	t459:NMOD||t460:NMOD||t462:P||t463:APPO	O
:	t462	16	:	O	O	O	O	O	O	cs43	O	PUN	O	:	:	O	O
systems	t463	16	system	O	O	O	O	O	O	cs43	O	NN2	B-NP	system	NNS	t465:NMOD	O
that	t464	16	that	O	O	O	O	O	O	cs43	O	CJT	B-NP	that	WDT	O	O
use	t465	16	use	O	O	O	O	O	O	cs43	O	VVB	B-VP	use	VBP	t464:SBJ||t469:OBJ	O
the	t466	16	the	O	O	O	O	O	O	cs43	O	AT0	B-NP	the	DT	O	O
Unix	t467	16	Unix	O	O	O	O	O	O	cs43	O	NN1	I-NP	unix	NNP	O	O
operating	t468	16	operating	O	O	O	O	O	O	cs43	O	VVG	I-NP	operate	VBG	O	O
system	t469	16	system	O	O	O	O	O	O	cs43	O	NN1	I-NP	system	NN	t466:NMOD||t467:NMOD||t468:NMOD	O
.	t470	16	.	O	O	O	O	O	O	cs43	O	PUN	O	.	.	O	O

That	t471	17	that	O	O	O	O	O	O	cs43	O	DT0	B-NP	that	DT	O	O
would	t472	17	would	O	O	O	O	O	O	cs43	O	VM0	B-VP	would	MD	t471:SBJ||t473:VC||t524:P	mainVb
be	t473	17	be	O	O	O	O	O	O	cs43	O	VBI	I-VP	be	VB	t476:PRD||t477:ADV||t482:P||t483:PRP	mainVb
a	t474	17	a	O	O	O	O	O	O	cs43	O	AT0	B-NP	a	DT	O	O
huge	t475	17	huge	O	O	O	O	O	O	cs43	O	AJ0	I-NP	huge	JJ	O	O
problem	t476	17	problem	e67	STATE	NONE+NONE+POS	O	O	O	cs43	O	NN1	I-NP	problem	NN	t474:NMOD||t475:NMOD	O
if	t477	17	if	O	O	O	O	O	O	cs43	O	CJS	B-SBAR	if	IN	t479:SUB	O
it	t478	17	it	O	O	O	O	O	O	cs43	O	PNP	B-NP	it	PRP	O	O
were	t479	17	be	O	O	O	O	O	O	cs43	O	VBD	B-VP	be	VBD	t478:SBJ||t480:VC	O
to	t480	17	to	O	O	O	O	O	O	cs43	O	TO0	I-VP	to	TO	t481:IM	O
continue	t481	17	continue	e68	ASPECTUAL	INFINITIVE+NONE+POS	O	O	O	cs43	O	VVI	I-VP	continue	VB	O	O
,	t482	17	,	O	O	O	O	O	O	cs43	O	PUN	O	,	,	O	O
because	t483	17	because	O	O	O	O	O	O	cs69	O	CJS	B-SBAR	because	IN	t485:SUB	O
Unisys	t484	17	Unisys	O	O	O	O	O	O	cs69	O	NP0	B-NP	unisys	NNP	O	O
is	t485	17	be	O	O	O	O	O	O	cs69	O	VBZ	B-VP	be	VBZ	t484:SBJ||t486:VC	O
betting	t486	17	bet	e70	OCCURRENCE	PRESENT+PROGRESSIVE+POS	O	O	O	cs69	O	VVG	I-VP	bet	VBG	t488:OBJ||t489:ADV	O
its	t487	17	its	O	O	O	O	O	O	cs69	O	DPS	B-NP	its	PRP$	O	O
business	t488	17	business	O	O	O	O	O	O	cs69	O	NN1	I-NP	business	NN	t487:NMOD	O
on	t489	17	on	O	O	O	O	O	O	cs69	O	PRP	B-PP	on	IN	t491:PMOD	O
the	t490	17	the	O	O	O	O	O	O	cs69	O	AT0	B-NP	the	DT	O	O
assumption	t491	17	assumption	O	O	O	O	O	O	cs69	O	NN1	I-NP	assumption	NN	t490:NMOD||t492:NMOD	O
that	t492	17	that	O	O	O	O	O	O	cs69	O	CJT	B-SBAR	that	IN	t494:SUB	O
customers	t493	17	customer	O	O	O	O	O	O	cs69	O	NN2	B-NP	customer	NNS	O	O
want	t494	17	want	e71	I_STATE	PRESENT+NONE+POS	O	O	O	cs69	O	VVB	B-VP	want	VBP	t493:SBJ||t495:OPRD	O
to	t495	17	to	O	O	O	O	O	O	cs69	O	TO0	I-VP	to	TO	t496:IM	O
move	t496	17	move	e72	OCCURRENCE	INFINITIVE+NONE+POS	O	O	O	cs69	O	VVI	I-VP	move	VB	t497:DIR	O
away	t497	17	away	O	O	O	O	O	O	cs69	O	PRP	B-PRT	away	RB	t498:AMOD||t510:COORD	O
from	t498	17	from	O	O	O	O	O	O	cs69	O	PRP	B-PP	from	IN	t499:PMOD	O
using	t499	17	use	O	O	O	O	O	O	cs69	O	VVG	B-VP	use	VBG	t501:OBJ	O
operating	t500	17	operate	O	O	O	O	O	O	cs69	O	VVG	B-NP	operate	VBG	O	O
systems	t501	17	system	O	O	O	O	O	O	cs69	O	NN2	I-NP	system	NNS	t500:NMOD||t503:NMOD	O
that	t502	17	that	O	O	O	O	O	O	cs69	O	CJT	B-NP	that	WDT	O	O
run	t503	17	run	O	O	O	O	O	O	cs69	O	VVN	B-VP	run	VBP	t502:SBJ||t504:ADV	O
on	t504	17	on	O	O	O	O	O	O	cs69	O	PRP	B-PP	on	IN	t509:PMOD	O
only	t505	17	only	O	O	O	O	O	O	cs69	O	AV0	B-NP	only	CD	O	O
one	t506	17	one	O	O	O	O	O	O	cs69	O	CRD	I-NP	one	CD	t505:DEP	O
manufacturer	t507	17	manufacturer	O	O	O	O	O	O	cs69	O	NN1	I-NP	manufacturer	NN	t506:NMOD||t508:SUFFIX	O
's	t508	17	's	O	O	O	O	O	O	cs69	O	POS	B-NP	's	POS	O	O
equipment	t509	17	equipment	O	O	O	O	O	O	cs69	O	NN1	I-NP	equipment	NN	t507:NMOD	O
and	t510	17	and	O	O	O	O	O	O	cs69	O	CJC	O	and	CC	t511:CONJ	O
toward	t511	17	toward	O	O	O	O	O	O	cs69	O	AJ0	B-NP	toward	IN	t512:PMOD	O
systems	t512	17	system	O	O	O	O	O	O	cs69	O	NN2	I-NP	system	NNS	t515:PRN||t518:NMOD	O
--	t513	17	--	O	O	O	O	O	O	cs69	O	UNC	O	--	:	O	O
mainly	t514	17	mainly	O	O	O	O	O	O	cs69	O	AV0	B-NP	mainly	RB	O	O
Unix	t515	17	Unix	O	O	O	O	O	O	cs69	O	NP0	I-NP	unix	NNP	t513:P||t514:NMOD||t516:P	O
--	t516	17	--	O	O	O	O	O	O	cs69	O	UNC	O	--	:	O	O
that	t517	17	that	O	O	O	O	O	O	cs69	O	DT0	B-NP	that	WDT	O	O
work	t518	17	work	O	O	O	O	O	O	cs69	O	NN1	I-NP	work	VBP	t517:SBJ||t519:LOC	O
on	t519	17	on	O	O	O	O	O	O	cs69	O	PRP	B-PP	on	IN	t523:PMOD	O
almost	t520	17	almost	O	O	O	O	O	O	cs69	O	AV0	B-NP	almost	RB	O	O
anyone	t521	17	anyone	O	O	O	O	O	O	cs69	O	PNI	I-NP	anyone	NN	t520:NMOD||t522:SUFFIX	O
's	t522	17	's	O	O	O	O	O	O	cs69	O	POS	B-NP	's	POS	O	O
machines	t523	17	machine	O	O	O	O	O	O	cs69	O	NN2	I-NP	machine	NNS	t521:NMOD	O
.	t524	17	.	O	O	O	O	O	O	cs69	O	PUN	O	.	.	O	O

In	t525	18	in	O	O	O	O	O	O	cs69	O	PRP	B-PP	in	IN	t526:PMOD	O
addition	t526	18	addition	O	O	O	O	O	O	cs69	O	NN1	B-NP	addition	NN	O	O
,	t527	18	,	O	O	O	O	O	O	cs69	O	PUN	O	,	,	O	O
Unisys	t528	18	Unisys	O	O	O	O	O	O	cs69	O	NP0	B-NP	unisys	NNP	O	O
must	t529	18	must	O	O	O	O	O	O	cs69	O	VM0	B-VP	must	MD	t525:ADV||t527:P||t528:SBJ||t530:VC||t537:P	mainVb
deal	t530	18	deal	e73	I_ACTION	NONE+NONE+POS	O	O	O	cs69	O	VVI	I-VP	deal	VB	t531:ADV	mainVb
with	t531	18	with	O	O	O	O	O	O	cs69	O	PRP	B-PP	with	IN	t536:PMOD	O
its	t532	18	its	O	O	O	O	O	O	cs69	O	DPS	B-NP	its	PRP$	O	O
increasingly	t533	18	increasingly	O	O	O	O	O	O	cs69	O	AV0	I-NP	increasingly	RB	O	O
oppressive	t534	18	oppressive	O	O	O	O	O	O	cs69	O	AJ0	I-NP	oppressive	JJ	t533:AMOD	O
debt	t535	18	debt	O	O	O	O	O	O	cs69	O	NN1	I-NP	debt	NN	O	O
load	t536	18	load	O	O	O	O	O	O	cs69	O	NN1	I-NP	load	NN	t532:NMOD||t534:NMOD||t535:NMOD	O
.	t537	18	.	O	O	O	O	O	O	cs69	O	PUN	O	.	.	O	O

Debt	t538	19	debt	O	O	O	O	O	O	cs69	O	NP0	B-NP	debt	NN	O	O
has	t539	19	have	O	O	O	O	O	O	cs69	O	VHZ	B-VP	have	VBZ	t538:SBJ||t540:VC||t554:P	mainVb
risen	t540	19	rise	e74	OCCURRENCE	PRESENT+PERFECTIVE+POS	O	O	O	cs69	O	VVN	I-VP	rise	VBN	t541:DIR	mainVb
to	t541	19	to	O	O	O	O	O	O	cs69	O	PRP	B-PP	to	TO	t543:PMOD	O
around	t542	19	around	O	O	O	O	O	O	cs69	O	AV0	B-NP	around	IN	O	O
$	t543	19	$	O	O	O	O	O	O	cs69	O	NN0	I-NP	$	$	t542:DEP||t544:DEP||t545:DEP||t546:P||t547:COORD	O
4	t544	19	4	O	O	O	O	O	O	cs69	O	CRD	I-NP	4	CD	O	O
billion	t545	19	billion	O	O	O	O	O	O	cs69	O	CRD	I-NP	billion	CD	O	O
,	t546	19	,	O	O	O	O	O	O	cs69	O	PUN	O	,	,	O	O
or	t547	19	or	O	O	O	O	O	O	cs69	O	CJC	O	or	CC	t550:CONJ	O
about	t548	19	about	O	O	O	O	O	O	cs69	O	AV0	B-NP	about	RB	O	O
50	t549	19	50	O	O	O	O	O	O	cs69	O	CRD	I-NP	50	CD	t548:DEP	O
%	t550	19	%	O	O	O	O	O	O	cs69	O	NN0	I-NP	%	NN	t549:NMOD||t551:NMOD	O
of	t551	19	of	O	O	O	O	O	O	cs69	O	PRF	B-PP	of	IN	t553:PMOD	O
total	t552	19	total	O	O	O	O	O	O	cs69	O	AJ0	B-NP	total	JJ	O	O
capitalization	t553	19	capitalization	O	O	O	O	O	O	cs69	O	NN1	I-NP	capitalization	NN	t552:NMOD	O
.	t554	19	.	O	O	O	O	O	O	cs69	O	PUN	O	.	.	O	O

That	t555	20	that	O	O	O	O	O	O	cs69	O	DT0	B-NP	that	DT	O	O
means	t556	20	mean	O	O	O	O	O	O	cs69	O	VVZ	B-VP	mean	VBZ	t555:SBJ||t558:OBJ||t580:P	mainVb
Unisys	t557	20	Unisys	O	O	O	O	O	O	cs69	O	NP0	B-NP	unisys	NNP	O	O
must	t558	20	must	O	O	O	O	O	O	cs69	O	VM0	B-VP	must	MD	t557:SBJ||t559:VC	O
pay	t559	20	pay	e75	OCCURRENCE	NONE+NONE+POS	O	O	O	cs69	O	VVI	I-VP	pay	VB	t561:OBJ||t567:TMP||t568:P||t569:ADV	O
about	t560	20	about	O	O	O	O	O	O	cs69	O	PRP	B-NP	about	IN	O	O
$	t561	20	$	O	O	O	O	O	O	cs69	O	CRD	I-NP	$	$	t560:DEP||t562:DEP||t563:DEP||t564:NMOD	O
100	t562	20	100	O	O	O	O	O	O	cs69	O	CRD	I-NP	100	CD	O	O
million	t563	20	million	O	O	O	O	O	O	cs69	O	CRD	I-NP	million	CD	O	O
in	t564	20	in	O	O	O	O	O	O	cs69	O	PRP	B-PP	in	IN	t565:PMOD	O
interest	t565	20	interest	O	O	O	O	O	O	cs69	O	NN1	B-NP	interest	NN	O	O
every	t566	20	every	O	O	O	tmx76	SET	P1Q	cs69	O	AT0	B-NP	every	DT	O	O
quarter	t567	20	quarter	O	O	O	tmx76	SET	P1Q	cs69	O	NN1	I-NP	quarter	NN	t566:NMOD	O
,	t568	20	,	O	O	O	O	O	O	cs69	O	PUN	O	,	,	O	O
on	t569	20	on	O	O	O	O	O	O	cs69	O	PRP	B-PP	on	IN	t570:PMOD	O
top	t570	20	top	O	O	O	O	O	O	cs69	O	PRP	B-NP	top	NN	t571:NMOD	O
of	t571	20	of	O	O	O	O	O	O	cs69	O	PRP	B-PP	of	IN	t572:PMOD	O
$	t572	20	$	O	O	O	O	O	O	cs69	O	NN0	B-NP	$	$	t573:DEP||t574:DEP||t575:NMOD	O
27	t573	20	27	O	O	O	O	O	O	cs69	O	CRD	I-NP	27	CD	O	O
million	t574	20	million	O	O	O	O	O	O	cs69	O	CRD	I-NP	million	CD	O	O
in	t575	20	in	O	O	O	O	O	O	cs69	O	PRP	B-PP	in	IN	t576:PMOD	O
dividends	t576	20	dividend	O	O	O	O	O	O	cs69	O	NN2	B-NP	dividend	NNS	t577:NMOD	O
on	t577	20	on	O	O	O	O	O	O	cs69	O	PRP	B-PP	on	IN	t579:PMOD	O
preferred	t578	20	preferred	O	O	O	O	O	O	cs69	O	AJ0	B-NP	prefer	VBN	O	O
stock	t579	20	stock	O	O	O	O	O	O	cs69	O	NN1	I-NP	stock	NN	t578:NMOD	O
.	t580	20	.	O	O	O	O	O	O	cs69	O	PUN	O	.	.	O	O

Jim	t581	21	Jim	O	O	O	O	O	O	cs69	O	NP0	B-NP	jim	NNP	O	O
Unruh	t582	21	Unruh	O	O	O	O	O	O	cs69	O	NP0	I-NP	unruh	NNP	t581:NAME	O
,	t583	21	,	O	O	O	O	O	O	cs69	O	PUN	O	,	,	O	O
Unisys	t584	21	Unisys	O	O	O	O	O	O	cs69	O	NP0	B-NP	unisys	NNP	t585:SUFFIX	O
's	t585	21	's	O	O	O	O	O	O	cs69	O	POS	B-NP	's	POS	O	O
president	t586	21	president	O	O	O	O	O	O	cs69	O	NN1	I-NP	president	NN	t582:NMOD||t583:P||t584:NMOD||t587:P	O
,	t587	21	,	O	O	O	O	O	O	cs69	O	PUN	O	,	,	O	O
said	t588	21	say	e77	REPORTING	PAST+NONE+POS	O	O	O	cs69	O	VVD	B-VP	say	VBD	t586:SBJ||t590:OBJ||t596:P	mainVb
he	t589	21	he	O	O	O	O	O	O	cs69	O	PNP	B-NP	he	PRP	O	O
is	t590	21	be	O	O	O	O	O	O	cs69	O	VBZ	B-VP	be	VBZ	t589:SBJ||t591:VC	O
approaching	t591	21	approach	e78	OCCURRENCE	PRESENT+PROGRESSIVE+POS	O	O	O	cs69	O	VVG	I-VP	approach	VBG	t593:OBJ||t594:MNR	O
next	t592	21	next	O	O	O	O	O	O	cs69	O	ORD	B-NP	next	JJ	O	O
year	t593	21	year	O	O	O	O	O	O	cs69	O	NN1	I-NP	year	NN	t592:NMOD	O
with	t594	21	with	O	O	O	O	O	O	cs69	O	PRP	B-PP	with	IN	t595:PMOD	O
caution	t595	21	caution	O	O	O	O	O	O	cs69	O	NN1	B-NP	caution	NN	O	O
.	t596	21	.	O	O	O	O	O	O	cs69	O	PUN	O	.	.	O	O

He	t597	22	he	O	O	O	O	O	O	cs69	O	PNP	B-NP	he	PRP	O	O
said	t598	22	say	e79	REPORTING	PAST+NONE+POS	O	O	O	cs69	O	VVD	B-VP	say	VBD	t597:SBJ||t605:OBJ||t607:P||t608:COORD||t618:P	mainVb
the	t599	22	the	O	O	O	O	O	O	cs69	O	AT0	B-NP	the	DT	O	O
strength	t600	22	strength	O	O	O	O	O	O	cs69	O	NN1	I-NP	strength	NN	t599:NMOD||t601:NMOD	O
of	t601	22	of	O	O	O	O	O	O	cs69	O	PRF	B-PP	of	IN	t604:PMOD	O
the	t602	22	the	O	O	O	O	O	O	cs69	O	AT0	B-NP	the	DT	O	O
world-wide	t603	22	world-wide	O	O	O	O	O	O	cs69	O	AJ0	I-NP	world-wide	JJ	O	O
economy	t604	22	economy	O	O	O	O	O	O	cs69	O	NN1	I-NP	economy	NN	t602:NMOD||t603:NMOD	O
is	t605	22	be	O	O	O	O	O	O	cs69	O	VBZ	B-VP	be	VBZ	t600:SBJ||t606:PRD	O
suspect	t606	22	suspect	e80	STATE	PRESENT+NONE+POS	O	O	O	cs69	O	NN1	B-NP	suspect	JJ	O	O
,	t607	22	,	O	O	O	O	O	O	cs69	O	PUN	O	,	,	O	O
and	t608	22	and	O	O	O	O	O	O	cs69	O	CJC	O	and	CC	t609:CONJ	O
does	t609	22	do	O	O	O	O	O	O	cs69	O	VDZ	B-NP	do	VBZ	t610:ADV||t611:VC	O
n't	t610	22	not	O	O	O	O	O	O	cs69	O	XX0	I-NP	not	RB	O	O
see	t611	22	see	O	O	O	O	O	O	cs69	O	VVI	B-VP	see	VB	t614:OBJ	O
much	t612	22	much	O	O	O	O	O	O	cs69	O	DT0	B-NP	much	JJ	O	O
revenue	t613	22	revenue	O	O	O	O	O	O	cs69	O	NN1	I-NP	revenue	NN	O	O
growth	t614	22	growth	O	O	O	O	O	O	cs69	O	NN1	I-NP	growth	NN	t612:NMOD||t613:NMOD||t615:LOC	O
in	t615	22	in	O	O	O	O	O	O	cs69	O	PRP	B-PP	in	IN	t617:PMOD	O
the	t616	22	the	O	O	O	O	O	O	cs69	O	AT0	B-NP	the	DT	O	O
cards	t617	22	card	O	O	O	O	O	O	cs69	O	NN2	I-NP	cards	NNS	t616:NMOD	O
.	t618	22	.	O	O	O	O	O	O	cs69	O	PUN	O	.	.	O	O

He	t619	23	he	O	O	O	O	O	O	cs69	O	PNP	B-NP	he	PRP	O	O
also	t620	23	also	O	O	O	O	O	O	cs69	O	AV0	B-ADVP	also	RB	O	O
said	t621	23	say	e81	REPORTING	PAST+NONE+POS	O	O	O	cs69	O	VVD	B-VP	say	VBD	t619:SBJ||t620:ADV||t622:OBJ||t639:P	mainVb
that	t622	23	that	O	O	O	O	O	O	cs69	O	CJT	B-SBAR	that	IN	t634:SUB	O
the	t623	23	the	O	O	O	O	O	O	cs69	O	AT0	B-NP	the	DT	O	O
price	t624	23	price	O	O	O	O	O	O	cs69	O	NN1	I-NP	price	NN	O	O
wars	t625	23	war	O	O	O	O	O	O	cs69	O	NN2	I-NP	war	NNS	t623:NMOD||t624:NMOD||t626:APPO	O
flaring	t626	23	flare	e82	OCCURRENCE	PRESPART+NONE+POS	O	O	O	cs69	O	VVG	B-VP	flare	VBG	t627:PRT||t628:LOC	O
up	t627	23	up	O	O	O	O	O	O	cs69	O	AVP	B-PRT	up	RP	O	O
in	t628	23	in	O	O	O	O	O	O	cs69	O	PRP	B-PP	in	IN	t629:PMOD	O
parts	t629	23	part	O	O	O	O	O	O	cs69	O	NN2	B-NP	parts	NNS	t630:NMOD	O
of	t630	23	of	O	O	O	O	O	O	cs69	O	PRF	B-PP	of	IN	t633:PMOD	O
the	t631	23	the	O	O	O	O	O	O	cs69	O	AT0	B-NP	the	DT	O	O
computer	t632	23	computer	O	O	O	O	O	O	cs69	O	NN1	I-NP	computer	NN	O	O
industry	t633	23	industry	O	O	O	O	O	O	cs69	O	NN1	I-NP	industry	NN	t631:NMOD||t632:NMOD	O
will	t634	23	will	O	O	O	O	O	O	cs69	O	VM0	B-VP	will	MD	t625:SBJ||t635:VC	O
continue	t635	23	continue	e83	ASPECTUAL	FUTURE+NONE+POS	O	O	O	cs69	O	VVI	I-VP	continue	VB	t636:TMP	O
through	t636	23	through	O	O	O	O	O	O	cs69	O	PRP	B-PP	through	IN	t638:PMOD	O
next	t637	23	next	O	O	O	tmx84	DATE	1990	cs69	O	ORD	B-NP	next	JJ	O	O
year	t638	23	year	O	O	O	tmx84	DATE	1990	cs69	O	NN1	I-NP	year	NN	t637:NMOD	O
.	t639	23	.	O	O	O	O	O	O	cs69	O	PUN	O	.	.	O	O

He	t640	24	he	O	O	O	O	O	O	cs69	O	PNP	B-NP	he	PRP	O	O
said	t641	24	say	e85	REPORTING	PAST+NONE+POS	O	O	O	cs69	O	VVD	B-VP	say	VBD	t640:SBJ||t648:OBJ||t665:P	mainVb
the	t642	24	the	O	O	O	O	O	O	cs69	O	AT0	B-NP	the	DT	O	O
move	t643	24	move	e86	OCCURRENCE	NONE+NONE+POS	O	O	O	cs69	O	NN1	I-NP	move	NN	t642:NMOD||t644:NMOD	O
toward	t644	24	toward	O	O	O	O	O	O	cs69	O	PRP	B-PP	toward	IN	t647:PMOD	O
standard	t645	24	standard	O	O	O	O	O	O	cs69	O	NN1	B-NP	standard	JJ	O	O
operating	t646	24	operating	O	O	O	O	O	O	cs69	O	VVG	I-NP	operate	VBG	O	O
systems	t647	24	system	O	O	O	O	O	O	cs69	O	NN2	I-NP	system	NNS	t645:NMOD||t646:NMOD	O
means	t648	24	mean	O	O	O	O	O	O	cs69	O	VVZ	B-VP	mean	VBZ	t643:SBJ||t650:OBJ	O
customers	t649	24	customer	O	O	O	O	O	O	cs69	O	NN2	B-NP	customer	NNS	O	O
are	t650	24	be	O	O	O	O	O	O	cs69	O	VBB	B-VP	be	VBP	t649:SBJ||t651:ADV||t652:VC||t660:COORD	O
n't	t651	24	not	O	O	O	O	O	O	cs69	O	XX0	I-VP	not	RB	O	O
locked	t652	24	lock	e87	OCCURRENCE	PRESENT+NONE+NEG	O	O	O	cs69	O	VVN	I-VP	lock	VBN	t653:ADV	O
into	t653	24	into	O	O	O	O	O	O	cs69	O	PRP	B-PP	into	IN	t654:PMOD	O
buying	t654	24	buy	O	O	O	O	O	O	cs69	O	VVG	B-VP	buy	VBG	t655:ADV	O
from	t655	24	from	O	O	O	O	O	O	cs69	O	PRP	B-PP	from	IN	t659:PMOD	O
their	t656	24	they	O	O	O	O	O	O	cs69	O	DPS	B-NP	their	PRP$	O	O
traditional	t657	24	traditional	O	O	O	O	O	O	cs69	O	AJ0	I-NP	traditional	JJ	O	O
computer	t658	24	computer	O	O	O	O	O	O	cs69	O	NN1	I-NP	computer	NN	O	O
supplier	t659	24	supplier	O	O	O	O	O	O	cs69	O	NN1	I-NP	supplier	NN	t656:NMOD||t657:NMOD||t658:NMOD	O
and	t660	24	and	O	O	O	O	O	O	cs69	O	CJC	O	and	CC	t661:CONJ	O
can	t661	24	can	O	O	O	O	O	O	cs69	O	VM0	B-VP	can	MD	t662:VC	O
force	t662	24	force	O	O	O	O	O	O	cs69	O	VVI	I-VP	force	VB	t663:OBJ||t664:OPRD	O
prices	t663	24	price	O	O	O	O	O	O	cs69	O	NN2	B-NP	price	NNS	O	O
down	t664	24	down	O	O	O	O	O	O	cs69	O	AVP	B-ADVP	down	RP	O	O
.	t665	24	.	O	O	O	O	O	O	cs69	O	PUN	O	.	.	O	O

That	t666	25	that	O	O	O	O	O	O	cs88	O	DT0	B-NP	that	DT	O	O
,	t667	25	,	O	O	O	O	O	O	cs88	O	PUN	O	,	,	O	O
he	t668	25	he	O	O	O	O	O	O	cs88	O	PNP	B-NP	he	PRP	O	O
said	t669	25	say	e89	REPORTING	PAST+NONE+POS	O	O	O	cs88	O	VVD	B-VP	say	VBD	t667:P||t668:SBJ||t670:P||t671:OBJ	mainVb
,	t670	25	,	O	O	O	O	O	O	cs88	O	PUN	O	,	,	O	O
is	t671	25	be	O	O	O	O	O	O	cs88	O	VBZ	B-VP	be	VBZ	t666:SBJ||t674:PRD-PRP||t679:P||t681:COORD||t701:P	O
why	t672	25	why	O	O	O	O	O	O	cs88	O	AVQ	B-ADVP	why	WRB	O	O
Unisys	t673	25	Unisys	O	O	O	O	O	O	cs88	O	NP0	B-NP	unisys	NNP	O	O
is	t674	25	be	O	O	O	O	O	O	cs88	O	VBZ	B-VP	be	VBZ	t673:SBJ||t675:VC	O
overhauling	t675	25	overhaul	e90	OCCURRENCE	PRESENT+PROGRESSIVE+POS	O	O	O	cs88	O	VVG	I-VP	overhaul	VBG	t672:PRP||t678:OBJ	O
its	t676	25	its	O	O	O	O	O	O	cs88	O	DPS	B-NP	its	PRP$	O	O
whole	t677	25	whole	O	O	O	O	O	O	cs88	O	AJ0	I-NP	whole	JJ	O	O
business	t678	25	business	O	O	O	O	O	O	cs88	O	NN1	I-NP	business	NN	t676:NMOD||t677:NMOD	O
:	t679	25	:	O	O	O	O	O	O	cs88	O	PUN	O	:	:	O	O
It	t680	25	it	O	O	O	O	O	O	cs88	O	PNP	B-NP	it	PRP	O	O
needs	t681	25	need	e91	I_STATE	PRESENT+NONE+POS	O	O	O	cs88	O	VVZ	B-VP	need	VBZ	t680:SBJ||t682:OPRD	O
to	t682	25	to	O	O	O	O	O	O	cs88	O	TO0	I-VP	to	TO	t683:IM	O
prepare	t683	25	prepare	e92	OCCURRENCE	INFINITIVE+NONE+POS	O	O	O	cs88	O	VVI	I-VP	prepare	VB	t684:ADV	O
for	t684	25	for	O	O	O	O	O	O	cs88	O	PRP	B-PP	for	IN	t686:PMOD	O
a	t685	25	a	O	O	O	O	O	O	cs88	O	AT0	B-NP	a	DT	O	O
world	t686	25	world	O	O	O	O	O	O	cs88	O	NN1	I-NP	world	NN	t685:NMOD||t691:NMOD	O
in	t687	25	in	O	O	O	O	O	O	cs88	O	PRP	B-PP	in	IN	t688:PMOD	O
which	t688	25	which	O	O	O	O	O	O	cs88	O	DTQ	B-NP	which	WDT	O	O
profit	t689	25	profit	O	O	O	O	O	O	cs88	O	NN1	I-NP	profit	NN	O	O
margins	t690	25	margin	O	O	O	O	O	O	cs88	O	NN2	I-NP	margin	NNS	t689:NMOD	O
will	t691	25	will	O	O	O	O	O	O	cs88	O	VM0	B-VP	will	MD	t690:SBJ||t692:VC	O
be	t692	25	be	O	O	O	O	O	O	cs88	O	VBI	I-VP	be	VB	t687:LOC||t693:PRD	O
lower	t693	25	lower	e93	STATE	FUTURE+NONE+POS	O	O	O	cs88	O	AJC	B-ADJP	low	JJR	t694:AMOD	O
than	t694	25	than	O	O	O	O	O	O	cs88	O	CJS	B-PP	than	IN	t697:SUB	O
computer	t695	25	computer	O	O	O	O	O	O	cs88	O	NN1	B-NP	computer	NN	O	O
companies	t696	25	company	O	O	O	O	O	O	cs88	O	NN2	I-NP	company	NNS	t695:NMOD	O
have	t697	25	have	O	O	O	O	O	O	cs88	O	VHB	B-VP	have	VBP	t696:SBJ||t698:VC	O
been	t698	25	be	O	O	O	O	O	O	cs88	O	VBN	I-VP	be	VBN	t699:VC	O
used	t699	25	use	e94	OCCURRENCE	PRESENT+PERFECTIVE+POS	O	O	O	cs88	O	VVN	I-VP	use	VBN	t700:OPRD	O
to	t700	25	to	O	O	O	O	O	O	cs88	O	PRP	B-PP	to	TO	t702:PMOD	O
.	t701	25	.	O	O	O	O	O	O	cs88	O	PUN	O	.	.	O	O
"	t702	25	"	O	O	O	O	O	O	cs88	O	PUQ	O	"	NN	O	O

We	t703	26	we	O	O	O	O	O	O	cs88	O	PNP	B-NP	we	PRP	O	O
've	t704	26	have	O	O	O	O	O	O	cs88	O	VHB	B-VP	've	VBP	t703:SBJ||t705:VC	O
approached	t705	26	approach	e95	OCCURRENCE	PRESENT+PERFECTIVE+POS	O	O	O	cs88	O	VVN	I-VP	approach	VBN	t706:OBJ||t707:ADV	O
this	t706	26	this	O	O	O	O	O	O	cs88	O	DT0	B-NP	this	DT	O	O
not	t707	26	not	O	O	O	O	O	O	cs88	O	XX0	I-NP	not	RB	t708:COORD	O
as	t708	26	as	O	O	O	O	O	O	cs88	O	PRP	B-PP	as	IN	t710:PMOD||t718:COORD	O
a	t709	26	a	O	O	O	O	O	O	cs88	O	AT0	B-NP	a	DT	O	O
response	t710	26	response	O	O	O	O	O	O	cs88	O	NN1	I-NP	response	NN	t709:NMOD||t711:NMOD	O
to	t711	26	to	O	O	O	O	O	O	cs88	O	PRP	B-PP	to	TO	t714:PMOD	O
a	t712	26	a	O	O	O	O	O	O	cs88	O	AT0	B-NP	a	DT	O	O
temporary	t713	26	temporary	O	O	O	O	O	O	cs88	O	AJ0	I-NP	temporary	JJ	O	O
condition	t714	26	condition	O	O	O	O	O	O	cs88	O	NN1	I-NP	condition	NN	t712:NMOD||t713:NMOD||t715:LOC	O
in	t715	26	in	O	O	O	O	O	O	cs88	O	PRP	B-PP	in	IN	t717:PMOD	O
the	t716	26	the	O	O	O	O	O	O	cs88	O	AT0	B-NP	the	DT	O	O
industry	t717	26	industry	O	O	O	O	O	O	cs88	O	NN1	I-NP	industry	NN	t716:NMOD	O
but	t718	26	but	O	O	O	O	O	O	cs88	O	CJC	O	but	CC	t719:CONJ	O
as	t719	26	as	O	O	O	O	O	O	cs88	O	PRP	B-PP	as	IN	t722:PMOD	O
a	t720	26	a	O	O	O	O	O	O	cs88	O	AT0	B-NP	a	DT	O	O
fundamental	t721	26	fundamental	O	O	O	O	O	O	cs88	O	AJ0	I-NP	fundamental	JJ	O	O
change	t722	26	change	O	O	O	O	O	O	cs88	O	NN1	I-NP	change	NN	t720:NMOD||t721:NMOD||t725:NMOD	O
the	t723	26	the	O	O	O	O	O	O	cs88	O	AT0	B-NP	the	DT	O	O
industry	t724	26	industry	O	O	O	O	O	O	cs88	O	NN1	I-NP	industry	NN	t723:NMOD	O
is	t725	26	be	O	O	O	O	O	O	cs88	O	VBZ	B-VP	be	VBZ	t724:SBJ||t726:VC	O
going	t726	26	go	O	O	O	O	O	O	cs88	O	VVG	I-VP	go	VBG	t727:ADV	O
through	t727	26	through	O	O	O	O	O	O	cs88	O	AVP	B-ADVP	through	IN	O	O
,	t728	26	,	O	O	O	O	O	O	cs88	O	PUN	O	,	,	O	O
"	t729	26	"	O	O	O	O	O	O	cs88	O	PUQ	O	"	NNP	O	O
Mr.	t730	26	Mr.	O	O	O	O	O	O	cs88	O	NP0	B-NP	mr.	NNP	O	O
Unruh	t731	26	Unruh	O	O	O	O	O	O	cs88	O	NP0	I-NP	unruh	NNP	t729:NAME||t730:TITLE	O
said	t732	26	say	e96	REPORTING	PAST+NONE+POS	O	O	O	cs88	O	VVD	B-VP	say	VBD	t704:OBJ||t728:P||t731:SBJ||t733:P||t734:P	mainVb
.	t733	26	.	O	O	O	O	O	O	cs88	O	PUN	O	.	.	O	O
"	t734	26	"	O	O	O	O	O	O	cs88	O	PUQ	O	"	)	O	O

The	t735	27	the	O	O	O	O	O	O	cs88	O	AT0	B-NP	the	DT	O	O
information-systems	t736	27	information-system	O	O	O	O	O	O	cs88	O	NN2	I-NP	information-system	NNS	O	O
industry	t737	27	industry	O	O	O	O	O	O	cs88	O	NN1	I-NP	industry	NN	t735:NMOD||t736:NMOD	O
is	t738	27	be	O	O	O	O	O	O	cs88	O	VBZ	B-VP	be	VBZ	t737:SBJ||t739:TMP||t740:VC||t746:P||t747:COORD||t759:P	mainVb
still	t739	27	still	O	O	O	O	O	O	cs88	O	AV0	I-VP	still	RB	O	mainVb
going	t740	27	go	O	O	O	O	O	O	cs88	O	VVG	I-VP	go	VBG	t741:VC	mainVb
to	t741	27	to	O	O	O	O	O	O	cs88	O	TO0	I-VP	to	TO	t742:IM	mainVb
be	t742	27	be	O	O	O	O	O	O	cs88	O	VBI	I-VP	be	VB	t745:PRD	mainVb
a	t743	27	a	O	O	O	O	O	O	cs88	O	AT0	B-NP	a	DT	O	O
high-growth	t744	27	high-growth	O	O	O	O	O	O	cs88	O	NN1	I-NP	high-growth	NN	O	O
business	t745	27	business	e97	STATE	FUTURE+NONE+POS	O	O	O	cs88	O	NN1	I-NP	business	NN	t743:NMOD||t744:NMOD	O
,	t746	27	,	O	O	O	O	O	O	cs88	O	PUN	O	,	,	O	O
and	t747	27	and	O	O	O	O	O	O	cs88	O	CJC	O	and	CC	t749:CONJ	O
we	t748	27	we	O	O	O	O	O	O	cs88	O	PNP	B-NP	we	PRP	O	O
're	t749	27	be	O	O	O	O	O	O	cs88	O	VBB	B-VP	're	VBP	t748:SBJ||t750:PRD	O
confident	t750	27	confident	e98	I_STATE	PRESENT+NONE+POS	O	O	O	cs88	O	AJ0	B-ADJP	confident	JJ	t751:AMOD	O
that	t751	27	that	O	O	O	O	O	O	cs88	O	CJT	B-SBAR	that	IN	t753:SUB	O
we	t752	27	we	O	O	O	O	O	O	cs88	O	PNP	B-NP	we	PRP	t756:NMOD	O
have	t753	27	have	e99	STATE	PRESENT+NONE+POS	O	O	O	cs88	O	VHB	B-VP	have	VBP	t752:SBJ||t755:OBJ	O
tremendous	t754	27	tremendous	O	O	O	O	O	O	cs88	O	AJ0	B-NP	tremendous	JJ	O	O
assets	t755	27	asset	O	O	O	O	O	O	cs88	O	NN2	I-NP	assets	NNS	t754:NMOD	O
as	t756	27	as	O	O	O	O	O	O	cs88	O	PRP	B-PP	as	IN	t758:PMOD	O
a	t757	27	a	O	O	O	O	O	O	cs88	O	AT0	B-NP	a	DT	O	O
company	t758	27	company	O	O	O	O	O	O	cs88	O	NN1	I-NP	company	NN	t757:NMOD	O
.	t759	27	.	O	O	O	O	O	O	cs88	O	PUN	O	.	.	O	O

But	t760	28	but	O	O	O	O	O	O	cs88	O	CJC	O	but	CC	O	O
we	t761	28	we	O	O	O	O	O	O	cs88	O	PNP	B-NP	we	PRP	O	O
do	t762	28	do	O	O	O	O	O	O	cs88	O	VDB	B-VP	do	VBP	t760:DEP||t761:SBJ||t763:ADV||t764:VC||t771:P||t772:P	mainVb
n't	t763	28	not	O	O	O	O	O	O	cs88	O	XX0	I-VP	not	RB	O	mainVb
minimize	t764	28	minimize	e100	I_STATE	PRESENT+NONE+NEG	O	O	O	cs88	O	VVI	I-VP	minimize	VB	t766:OBJ	mainVb
the	t765	28	the	O	O	O	O	O	O	cs88	O	AT0	B-NP	the	DT	O	O
challenges	t766	28	challenge	e101	OCCURRENCE	NONE+NONE+POS	O	O	O	cs88	O	NN2	I-NP	challenge	NNS	t765:NMOD||t767:NMOD	O
of	t767	28	of	O	O	O	O	O	O	cs88	O	PRF	B-PP	of	IN	t770:PMOD	O
the	t768	28	the	O	O	O	tmx102	DATE	FUTURE_REF	cs88	O	AT0	B-NP	the	DT	O	O
near	t769	28	near	O	O	O	tmx102	DATE	FUTURE_REF	cs88	O	AJ0	I-NP	near	JJ	O	O
term	t770	28	term	O	O	O	tmx102	DATE	FUTURE_REF	cs88	O	NN1	I-NP	term	NN	t768:NMOD||t769:NMOD	O
.	t771	28	.	O	O	O	O	O	O	cs88	O	PUN	O	.	.	O	O
"	t772	28	"	O	O	O	O	O	O	cs88	O	PUQ	O	"	''	O	O

Securities	t773	29	Securities	O	O	O	O	O	O	cs88	O	NN2	B-NP	security	NNS	O	O
analysts	t774	29	analyst	O	O	O	O	O	O	cs88	O	NN2	I-NP	analyst	NNS	t773:NMOD	O
were	t775	29	be	O	O	O	O	O	O	cs88	O	VBD	B-VP	be	VBD	t774:SBJ||t778:PRD||t779:P||t780:ADV||t788:P	mainVb
even	t776	29	even	O	O	O	O	O	O	cs88	O	AV0	B-ADVP	even	RB	O	O
more	t777	29	more	O	O	O	O	O	O	cs88	O	AV0	B-ADJP	more	RBR	O	O
cautious	t778	29	cautious	e103	STATE	PAST+NONE+POS	O	O	O	cs88	O	AJ0	I-ADJP	cautious	JJ	t776:AMOD||t777:AMOD	O
,	t779	29	,	O	O	O	O	O	O	cs88	O	PUN	O	,	,	O	O
having	t780	29	have	O	O	O	O	O	O	cs88	O	VHG	B-VP	have	VBG	t781:VC	O
been	t781	29	be	O	O	O	O	O	O	cs88	O	VBN	I-VP	be	VBN	t782:VC	O
burned	t782	29	burn	e104	OCCURRENCE	PASTPART+PERFECTIVE+POS	O	O	O	cs88	O	VVN	I-VP	burn	VBN	t783:TMP||t784:ADV||t787:TMP	O
repeatedly	t783	29	repeatedly	O	O	O	O	O	O	cs88	O	AV0	B-ADVP	repeatedly	RB	O	O
on	t784	29	on	O	O	O	O	O	O	cs88	O	PRP	B-PP	on	IN	t785:PMOD	O
Unisys	t785	29	Unisys	O	O	O	O	O	O	cs88	O	NP0	B-NP	unisys	NNP	O	O
this	t786	29	this	O	O	O	tmx105	DATE	1989	cs88	O	DT0	B-NP	this	DT	O	O
year	t787	29	year	O	O	O	tmx105	DATE	1989	cs88	O	NN1	I-NP	year	NN	t786:NMOD	O
.	t788	29	.	O	O	O	O	O	O	cs88	O	PUN	O	.	.	O	O

Some	t789	30	some	O	O	O	O	O	O	cs88	O	DT0	B-NP	some	DT	O	O
had	t790	30	have	O	O	O	O	O	O	cs88	O	VHD	B-VP	have	VBD	t789:SBJ||t791:VC||t821:P	mainVb
predicted	t791	30	predict	e106	I_ACTION	PAST+PERFECTIVE+POS	O	O	O	cs88	O	VVN	I-VP	predict	VBN	t792:OBJ||t800:ADV||t803:P||t804:ADV	mainVb
earnings	t792	30	earnings	e107	OCCURRENCE	NONE+NONE+POS	O	O	O	cs88	O	NN2	B-NP	earnings	NNS	t793:NMOD	O
of	t793	30	of	O	O	O	O	O	O	cs88	O	PRF	B-PP	of	IN	t796:PMOD	O
more	t794	30	more	O	O	O	O	O	O	cs88	O	AV0	B-NP	more	RBR	O	O
than	t795	30	than	O	O	O	O	O	O	cs88	O	AV0	I-NP	than	IN	O	O
$	t796	30	$	O	O	O	O	O	O	cs88	O	NN0	I-NP	$	$	t794:DEP||t795:DEP||t797:DEP||t799:ADV	O
4	t797	30	4	O	O	O	O	O	O	cs88	O	CRD	I-NP	4	CD	O	O
a	t798	30	a	O	O	O	O	O	O	cs88	O	AT0	B-NP	a	DT	O	O
share	t799	30	share	O	O	O	O	O	O	cs88	O	NN1	I-NP	share	NN	t798:NMOD	O
for	t800	30	for	O	O	O	O	O	O	cs88	O	PRP	B-PP	for	IN	t802:PMOD	O
this	t801	30	this	O	O	O	tmx108	DATE	1989	cs88	O	DT0	B-NP	this	DT	O	O
year	t802	30	year	O	O	O	tmx108	DATE	1989	cs88	O	NN1	I-NP	year	NN	t801:NMOD	O
,	t803	30	,	O	O	O	O	O	O	cs88	O	PUN	O	,	,	O	O
up	t804	30	up	O	O	O	O	O	O	cs88	O	AVP	B-ADVP	up	RB	t805:AMOD	O
from	t805	30	from	O	O	O	O	O	O	cs88	O	PRP	B-PP	from	IN	t811:PMOD||t815:TMP	O
last	t806	30	last	O	O	O	tmx109	DATE	1988	cs88	O	ORD	B-NP	last	JJ	O	O
year	t807	30	year	O	O	O	tmx109	DATE	1988	cs88	O	NN1	I-NP	year	NN	t806:NMOD||t808:SUFFIX	O
's	t808	30	's	O	O	O	O	O	O	cs88	O	POS	B-NP	's	POS	O	O
fully	t809	30	fully	O	O	O	O	O	O	cs88	O	AV0	I-NP	fully	RB	O	O
diluted	t810	30	dilute	O	O	O	O	O	O	cs88	O	VVN	I-NP	dilute	VBN	t809:AMOD	O
$	t811	30	$	O	O	O	O	O	O	cs88	O	NN0	I-NP	$	$	t807:NMOD||t810:NMOD||t812:NMOD||t814:ADV	O
3.27	t812	30	3.27	O	O	O	O	O	O	cs88	O	CRD	I-NP	3.27	CD	O	O
a	t813	30	a	O	O	O	O	O	O	cs88	O	AT0	B-NP	a	DT	O	O
share	t814	30	share	O	O	O	O	O	O	cs88	O	NN1	I-NP	share	NN	t813:NMOD	O
on	t815	30	on	O	O	O	O	O	O	cs88	O	PRP	B-PP	on	IN	t816:PMOD	O
earnings	t816	30	earnings	O	O	O	O	O	O	cs88	O	NN2	B-NP	earnings	NNS	t817:NMOD	O
of	t817	30	of	O	O	O	O	O	O	cs88	O	PRF	B-PP	of	IN	t818:PMOD	O
$	t818	30	$	O	O	O	O	O	O	cs88	O	NN0	B-NP	$	$	t819:DEP||t820:DEP	O
680.6	t819	30	680.6	O	O	O	O	O	O	cs88	O	CRD	I-NP	680.6	CD	O	O
million	t820	30	million	O	O	O	O	O	O	cs88	O	CRD	I-NP	million	CD	O	O
.	t821	30	.	O	O	O	O	O	O	cs88	O	PUN	O	.	.	O	O

But	t822	31	but	O	O	O	O	O	O	cs88	O	CJC	O	but	CC	O	O
the	t823	31	the	O	O	O	O	O	O	cs88	O	AT0	B-NP	the	DT	O	O
company	t824	31	company	O	O	O	O	O	O	cs88	O	NN1	I-NP	company	NN	t823:NMOD	O
said	t825	31	say	e110	REPORTING	PAST+NONE+POS	O	O	O	cs88	O	VVD	B-VP	say	VBD	t822:DEP||t824:SBJ||t826:TMP||t827:OBJ||t874:P	mainVb
Friday	t826	31	Friday	O	O	O	tmx111	DATE	1989-10-27	cs88	O	NP0	B-NP	friday	NNP	O	O
that	t827	31	that	O	O	O	O	O	O	cs88	O	CJT	B-SBAR	that	IN	t829:SUB	O
it	t828	31	it	O	O	O	O	O	O	cs88	O	PNP	B-NP	it	PRP	O	O
had	t829	31	have	e112	OCCURRENCE	PAST+NONE+POS	O	O	O	cs88	O	VHD	B-VP	have	VBD	t828:SBJ||t830:OBJ||t835:TMP||t840:P||t841:ADV	O
losses	t830	31	loss	e113	STATE	NONE+NONE+POS	O	O	O	cs88	O	NN2	B-NP	losses	NNS	t831:NMOD	O
of	t831	31	of	O	O	O	O	O	O	cs88	O	PRF	B-PP	of	IN	t832:PMOD	O
$	t832	31	$	O	O	O	O	O	O	cs88	O	NN0	B-NP	$	$	t833:DEP||t834:DEP	O
673.3	t833	31	673.3	O	O	O	O	O	O	cs88	O	CRD	I-NP	673.3	CD	O	O
million	t834	31	million	O	O	O	O	O	O	cs88	O	CRD	I-NP	million	CD	O	O
through	t835	31	through	O	O	O	O	O	O	cs88	O	PRP	B-PP	through	IN	t839:PMOD	O
the	t836	31	the	O	O	O	tmx114	DURATION	P9M	cs88	O	AT0	B-NP	the	DT	O	O
first	t837	31	first	O	O	O	tmx114	DURATION	P9M	cs88	O	ORD	I-NP	first	JJ	O	O
nine	t838	31	nine	O	O	O	tmx114	DURATION	P9M	cs88	O	CRD	I-NP	nine	CD	O	O
months	t839	31	month	O	O	O	tmx114	DURATION	P9M	cs88	O	NN2	I-NP	month	NNS	t836:NMOD||t837:NMOD||t838:NMOD	O
,	t840	31	,	O	O	O	O	O	O	cs88	O	PUN	O	,	,	O	O
compared	t841	31	compare	O	O	O	O	O	O	cs88	O	VVN	B-PP	compare	VBN	t842:PMOD	O
with	t842	31	with	O	O	O	O	O	O	cs88	O	PRP	B-PP	with	IN	t843:PMOD	O
earnings	t843	31	earnings	e115	STATE	NONE+NONE+POS	O	O	O	cs88	O	NN2	B-NP	earnings	NNS	t846:TMP||t847:NMOD	O
a	t844	31	a	O	O	O	tmx116	DATE	1988	cs88	O	AT0	B-NP	a	DT	O	O
year	t845	31	year	O	O	O	tmx116	DATE	1988	cs88	O	NN1	I-NP	year	NN	t844:NMOD	O
earlier	t846	31	earlier	O	O	O	O	O	O	cs88	O	AV0	B-ADVP	earlier	RBR	t845:AMOD	O
of	t847	31	of	O	O	O	O	O	O	cs88	O	PRF	B-PP	of	IN	t848:PMOD	O
$	t848	31	$	O	O	O	O	O	O	cs88	O	NN0	B-NP	$	$	t849:DEP||t850:DEP||t851:P||t852:COORD	O
382.2	t849	31	382.2	O	O	O	O	O	O	cs88	O	CRD	I-NP	382.2	CD	O	O
million	t850	31	million	O	O	O	O	O	O	cs88	O	CRD	I-NP	million	CD	O	O
,	t851	31	,	O	O	O	O	O	O	cs88	O	PUN	O	,	,	O	O
or	t852	31	or	O	O	O	O	O	O	cs88	O	CJC	O	or	CC	t853:CONJ	O
$	t853	31	$	O	O	O	O	O	O	cs88	O	CRD	B-NP	$	$	t854:NMOD||t856:ADV||t858:APPO	O
2.22	t854	31	2.22	O	O	O	O	O	O	cs88	O	CRD	I-NP	2.22	CD	O	O
a	t855	31	a	O	O	O	O	O	O	cs88	O	AT0	B-NP	a	DT	O	O
share	t856	31	share	O	O	O	O	O	O	cs88	O	NN1	I-NP	share	NN	t855:NMOD	O
fully	t857	31	fully	O	O	O	O	O	O	cs88	O	AV0	B-ADVP	fully	RB	O	O
diluted	t858	31	dilute	O	O	O	O	O	O	cs88	O	VVN	B-VP	dilute	VBN	t857:ADV||t859:P||t860:ADV	O
,	t859	31	,	O	O	O	O	O	O	cs88	O	PUN	O	,	,	O	O
as	t860	31	as	O	O	O	O	O	O	cs88	O	CJS	B-SBAR	as	IN	t862:SUB	O
revenue	t861	31	revenue	O	O	O	O	O	O	cs88	O	NN1	B-NP	revenue	NN	O	O
inched	t862	31	inch	e117	OCCURRENCE	PAST+NONE+POS	O	O	O	cs88	O	VVD	B-VP	inch	VBD	t861:SBJ||t863:DIR||t865:EXT||t866:DIR||t870:DIR	O
up	t863	31	up	O	O	O	O	O	O	cs88	O	PRP	B-ADVP	up	RB	O	O
1.4	t864	31	1.4	O	O	O	O	O	O	cs88	O	CRD	B-NP	1.4	CD	O	O
%	t865	31	%	O	O	O	O	O	O	cs88	O	UNC	I-NP	%	NN	t864:NMOD	O
to	t866	31	to	O	O	O	O	O	O	cs88	O	PRP	B-PP	to	TO	t867:PMOD	O
$	t867	31	$	O	O	O	O	O	O	cs88	O	NN0	B-NP	$	$	t868:DEP||t869:DEP	O
7.13	t868	31	7.13	O	O	O	O	O	O	cs88	O	CRD	I-NP	7.13	CD	O	O
billion	t869	31	billion	O	O	O	O	O	O	cs88	O	CRD	I-NP	billion	CD	O	O
from	t870	31	from	O	O	O	O	O	O	cs88	O	PRP	B-PP	from	IN	t871:PMOD	O
$	t871	31	$	O	O	O	O	O	O	cs88	O	ZZ0	B-NP	$	$	t872:DEP||t873:DEP	O
7.03	t872	31	7.03	O	O	O	O	O	O	cs88	O	CRD	I-NP	7.03	CD	O	O
billion	t873	31	billion	O	O	O	O	O	O	cs88	O	CRD	I-NP	billion	CD	O	O
.	t874	31	.	O	O	O	O	O	O	cs88	O	PUN	O	.	.	O	O

And	t875	32	and	O	O	O	O	O	O	cs88	O	CJC	O	and	CC	O	O
Unisys	t876	32	Unisys	O	O	O	O	O	O	cs88	O	NP0	B-NP	unisys	NNP	O	O
is	t877	32	be	O	O	O	O	O	O	cs88	O	VBZ	B-VP	be	VBZ	t875:DEP||t876:SBJ||t878:VC||t890:P	mainVb
expected	t878	32	expect	e118	I_STATE	PRESENT+NONE+POS	O	O	O	cs88	O	VVN	I-VP	expect	VBN	t879:OPRD	mainVb
to	t879	32	to	O	O	O	O	O	O	cs88	O	TO0	I-VP	to	TO	t880:IM	mainVb
do	t880	32	do	e119	OCCURRENCE	INFINITIVE+NONE+POS	O	O	O	cs88	O	VDI	I-VP	do	VB	t881:OBJ	mainVb
little	t881	32	little	O	O	O	O	O	O	cs88	O	AJ0	B-ADJP	little	RB	t882:AMOD||t883:AMOD	O
better	t882	32	better	O	O	O	O	O	O	cs88	O	AV0	B-ADVP	better	RB	O	O
than	t883	32	than	O	O	O	O	O	O	cs88	O	CJS	B-PP	than	IN	t884:SUB	O
break	t884	32	break	O	O	O	O	O	O	cs88	O	NN1	B-NP	break	VB	t885:ADV||t886:TMP	O
even	t885	32	even	O	O	O	O	O	O	cs88	O	AV0	B-ADVP	even	JJ	O	O
in	t886	32	in	O	O	O	O	O	O	cs88	O	PRP	B-PP	in	IN	t889:PMOD	O
the	t887	32	the	O	O	O	tmx120	DATE	1989-Q4	cs88	O	AT0	B-NP	the	DT	O	O
fourth	t888	32	fourth	O	O	O	tmx120	DATE	1989-Q4	cs88	O	ORD	I-NP	fourth	JJ	O	O
quarter	t889	32	quarter	O	O	O	tmx120	DATE	1989-Q4	cs88	O	NN1	I-NP	quarter	NN	t887:NMOD||t888:NMOD	O
.	t890	32	.	O	O	O	O	O	O	cs88	O	PUN	O	.	.	O	O

So	t891	33	so	O	O	O	O	O	O	cs121	O	CJS	O	so	IN	O	O
Steve	t892	33	Steve	O	O	O	O	O	O	cs121	O	NP0	B-NP	steve	NNP	O	O
Milunovich	t893	33	Milunovich	O	O	O	O	O	O	cs121	O	NP0	I-NP	milunovich	NNP	t892:NAME||t894:LOC	O
at	t894	33	at	O	O	O	O	O	O	cs121	O	PRP	B-PP	at	IN	t896:PMOD	O
First	t895	33	First	O	O	O	O	O	O	cs121	O	ORD	B-NP	first	NNP	O	O
Boston	t896	33	Boston	O	O	O	O	O	O	cs121	O	NP0	I-NP	boston	NNP	t895:NAME	O
said	t897	33	say	e122	REPORTING	PAST+NONE+POS	O	O	O	cs121	O	VVD	B-VP	say	VBD	t891:DEP||t893:SBJ||t899:OBJ||t915:P||t916:P	mainVb
he	t898	33	he	O	O	O	O	O	O	cs121	O	PNP	B-NP	he	PRP	O	O
is	t899	33	be	O	O	O	O	O	O	cs121	O	VBZ	B-VP	be	VBZ	t898:SBJ||t900:VC	O
cutting	t900	33	cut	e123	OCCURRENCE	PRESENT+PROGRESSIVE+POS	O	O	O	cs121	O	VVG	I-VP	cut	VBG	t903:OBJ||t907:DIR||t912:DIR	O
his	t901	33	he	O	O	O	O	O	O	cs121	O	DPS	B-NP	his	PRP$	O	O
earnings	t902	33	earnings	O	O	O	O	O	O	cs121	O	NN2	I-NP	earnings	NNS	O	O
estimate	t903	33	estimate	e124	I_STATE	NONE+NONE+POS	O	O	O	cs121	O	VVB	B-VP	estimate	NN	t901:NMOD||t902:NMOD||t904:NMOD	O
for	t904	33	for	O	O	O	O	O	O	cs121	O	PRP	B-PP	for	IN	t906:PMOD	O
next	t905	33	next	O	O	O	tmx125	DATE	1990	cs121	O	ORD	B-NP	next	JJ	O	O
year	t906	33	year	O	O	O	tmx125	DATE	1990	cs121	O	NN1	I-NP	year	NN	t905:NMOD	O
to	t907	33	to	O	O	O	O	O	O	cs121	O	PRP	B-PP	to	TO	t908:PMOD	O
$	t908	33	$	O	O	O	O	O	O	cs121	O	NN0	B-NP	$	$	t909:NMOD||t911:ADV	O
2	t909	33	2	O	O	O	O	O	O	cs121	O	CRD	I-NP	2	CD	O	O
a	t910	33	a	O	O	O	O	O	O	cs121	O	AT0	B-NP	a	DT	O	O
share	t911	33	share	O	O	O	O	O	O	cs121	O	NN1	I-NP	share	NN	t910:NMOD	O
from	t912	33	from	O	O	O	O	O	O	cs121	O	PRP	B-PP	from	IN	t913:PMOD	O
$	t913	33	$	O	O	O	O	O	O	cs121	O	ZZ0	B-NP	$	$	t914:NMOD	O
3	t914	33	3	O	O	O	O	O	O	cs121	O	CRD	I-NP	3	CD	O	O
.	t915	33	.	O	O	O	O	O	O	cs121	O	PUN	O	.	.	O	O
"	t916	33	"	O	O	O	O	O	O	cs121	O	PUQ	O	"	''	O	O

I	t917	34	I	O	O	O	O	O	O	cs121	O	PNP	B-NP	i	PRP	O	O
was	t918	34	be	O	O	O	O	O	O	cs121	O	VBD	B-VP	be	VBD	t917:SBJ||t919:VC	O
feeling	t919	34	feel	O	O	O	O	O	O	cs121	O	VVG	I-VP	feel	VBG	t920:OBJ	O
like	t920	34	like	O	O	O	O	O	O	cs121	O	PRP	B-PP	like	IN	t922:SUB	O
I	t921	34	I	O	O	O	O	O	O	cs121	O	PNP	B-NP	i	PRP	O	O
was	t922	34	be	O	O	O	O	O	O	cs121	O	VBD	B-VP	be	VBD	t921:SBJ||t924:PRD||t925:EXTR	O
too	t923	34	too	O	O	O	O	O	O	cs121	O	AV0	B-ADJP	too	RB	O	O
high	t924	34	high	O	O	O	O	O	O	cs121	O	AJ0	I-ADJP	high	JJ	t923:AMOD	O
to	t925	34	to	O	O	O	O	O	O	cs121	O	TO0	B-VP	to	TO	t926:IM	O
begin	t926	34	begin	O	O	O	O	O	O	cs121	O	VVI	I-VP	begin	VB	t927:ADV	O
with	t927	34	with	O	O	O	O	O	O	cs121	O	PRP	B-PP	with	RB	O	O
,	t928	34	,	O	O	O	O	O	O	cs121	O	PUN	O	,	,	O	O
"	t929	34	"	O	O	O	O	O	O	cs121	O	PUQ	O	"	''	O	O
he	t930	34	he	O	O	O	O	O	O	cs121	O	PNP	B-NP	he	PRP	O	O
said	t931	34	say	O	O	O	O	O	O	cs121	O	VVD	B-VP	say	VBD	t918:OBJ||t928:P||t929:P||t930:SBJ||t932:P	mainVb
.	t932	34	.	O	O	O	O	O	O	cs121	O	PUN	O	.	.	O	O

Mr.	t933	35	Mr.	O	O	O	O	O	O	cs121	O	NP0	B-NP	mr.	NNP	O	O
Weil	t934	35	Weil	O	O	O	O	O	O	cs121	O	NP0	I-NP	weil	NNP	t933:TITLE||t935:NMOD	O
of	t935	35	of	O	O	O	O	O	O	cs121	O	PRF	B-PP	of	IN	t938:PMOD	O
Weil	t936	35	Weil	O	O	O	O	O	O	cs121	O	NP0	B-NP	weil	NNP	O	O
amp	t937	35	amp	O	O	O	O	O	O	cs121	O	NN1	I-NP	amp	NNP	O	O
Associates	t938	35	Associates	O	O	O	O	O	O	cs121	O	NP0	I-NP	associate	NNPS	t936:NAME||t937:NAME	O
said	t939	35	say	O	O	O	O	O	O	cs121	O	VVD	B-VP	say	VBD	t934:SBJ||t941:OBJ||t951:COORD||t963:P||t964:P	mainVb
he	t940	35	he	O	O	O	O	O	O	cs121	O	PNP	B-NP	he	PRP	O	O
will	t941	35	will	O	O	O	O	O	O	cs121	O	VM0	B-VP	will	MD	t940:SBJ||t942:VC	O
remain	t942	35	remain	e126	STATE	FUTURE+NONE+POS	O	O	O	cs121	O	VVI	I-VP	remain	VB	t943:LOC-PRD||t948:TMP	O
at	t943	35	at	O	O	O	O	O	O	cs121	O	PRP	B-PP	at	IN	t944:PMOD	O
$	t944	35	$	O	O	O	O	O	O	cs121	O	NN0	B-NP	$	$	t945:NMOD||t947:ADV	O
1	t945	35	1	O	O	O	O	O	O	cs121	O	CRD	I-NP	1	CD	O	O
a	t946	35	a	O	O	O	O	O	O	cs121	O	AT0	B-NP	a	DT	O	O
share	t947	35	share	O	O	O	O	O	O	cs121	O	NN1	I-NP	share	NN	t946:NMOD	O
for	t948	35	for	O	O	O	O	O	O	cs121	O	PRP	B-PP	for	IN	t950:PMOD	O
next	t949	35	next	O	O	O	tmx127	DATE	1990	cs121	O	ORD	B-NP	next	JJ	O	O
year	t950	35	year	O	O	O	tmx127	DATE	1990	cs121	O	NN1	I-NP	year	NN	t949:NMOD	O
but	t951	35	but	O	O	O	O	O	O	cs121	O	CJC	O	but	CC	t952:CONJ	O
said	t952	35	say	e128	REPORTING	PAST+NONE+POS	O	O	O	cs121	O	VVD	B-VP	say	VBD	t954:OBJ	O
he	t953	35	he	O	O	O	O	O	O	cs121	O	PNP	B-NP	he	PRP	O	O
wonders	t954	35	wonder	e129	I_STATE	PRESENT+NONE+POS	O	O	O	cs121	O	VVZ	B-VP	wonder	VBZ	t953:SBJ||t955:OBJ	O
whether	t955	35	whether	O	O	O	O	O	O	cs121	O	CJS	B-SBAR	whether	IN	t960:SUB	O
even	t956	35	even	O	O	O	O	O	O	cs121	O	AV0	B-ADVP	even	RB	O	O
that	t957	35	that	O	O	O	O	O	O	cs121	O	CJT	B-SBAR	that	DT	O	O
low	t958	35	low	O	O	O	O	O	O	cs121	O	AJ0	B-NP	low	JJ	O	O
target	t959	35	target	O	O	O	O	O	O	cs121	O	NN1	I-NP	target	NN	t956:NMOD||t957:NMOD||t958:NMOD	O
is	t960	35	be	O	O	O	O	O	O	cs121	O	VBZ	B-VP	be	VBZ	t959:SBJ||t961:PRD	O
at	t961	35	at	e130	STATE	PRESENT+NONE+POS	O	O	O	cs121	O	PRP	B-PP	at	IN	t962:PMOD	O
risk	t962	35	risk	O	O	O	O	O	O	cs121	O	NN1	B-NP	risk	NN	O	O
.	t963	35	.	O	O	O	O	O	O	cs121	O	PUN	O	.	.	O	O
"	t964	35	"	O	O	O	O	O	O	cs121	O	PUQ	O	"	''	O	O

The	t965	36	the	O	O	O	O	O	O	cs121	O	AT0	B-NP	the	DT	O	O
break-even	t966	36	break-even	O	O	O	O	O	O	cs121	O	AJ0	I-NP	break-even	NN	O	O
point	t967	36	point	O	O	O	O	O	O	cs121	O	NN1	I-NP	point	NN	t965:NMOD||t966:NMOD||t968:NMOD	O
for	t968	36	for	O	O	O	O	O	O	cs121	O	PRP	B-PP	for	IN	t970:PMOD	O
next	t969	36	next	O	O	O	tmx131	DATE	1990	cs121	O	ORD	B-NP	next	JJ	O	O
year	t970	36	year	O	O	O	tmx131	DATE	1990	cs121	O	NN1	I-NP	year	NN	t969:NMOD	O
is	t971	36	be	O	O	O	O	O	O	cs121	O	VBZ	B-VP	be	VBZ	t967:SBJ||t973:PRD||t974:P||t975:COORD||t980:P||t981:P	mainVb
much	t972	36	much	O	O	O	O	O	O	cs121	O	AV0	B-ADJP	much	RB	O	O
lower	t973	36	lower	e132	STATE	PRESENT+NONE+POS	O	O	O	cs121	O	AJC	I-ADJP	low	JJR	t972:AMOD	O
,	t974	36	,	O	O	O	O	O	O	cs121	O	PUN	O	,	,	O	O
but	t975	36	but	O	O	O	O	O	O	cs121	O	CJC	O	but	CC	t976:CONJ	O
is	t976	36	be	O	O	O	O	O	O	cs121	O	VBZ	B-VP	be	VBZ	t977:SBJ||t978:PRD	O
it	t977	36	it	O	O	O	O	O	O	cs121	O	PNP	B-NP	it	PRP	O	O
low	t978	36	low	e133	STATE	PRESENT+NONE+POS	O	O	O	cs121	O	AJ0	B-ADJP	low	JJ	t979:AMOD	O
enough	t979	36	enough	O	O	O	O	O	O	cs121	O	AV0	I-ADJP	enough	RB	O	O
?	t980	36	?	O	O	O	O	O	O	cs121	O	PUN	O	?	.	O	O
"	t981	36	"	O	O	O	O	O	O	cs121	O	PUQ	O	"	''	O	O

he	t982	37	he	O	O	O	O	O	O	cs121	O	PNP	B-NP	he	PRP	O	O
asked	t983	37	ask	e134	I_ACTION	PAST+NONE+POS	O	O	O	cs121	O	VVD	B-VP	ask	VBD	t982:SBJ||t984:P	mainVb
.	t984	37	.	O	O	O	O	O	O	cs121	O	PUN	O	.	.	O	O

Reflecting	t985	38	reflect	O	O	O	O	O	O	cs121	O	VVG	B-VP	reflect	VBG	t987:OBJ	O
the	t986	38	the	O	O	O	O	O	O	cs121	O	AT0	B-NP	the	DT	O	O
concern	t987	38	concern	O	O	O	O	O	O	cs121	O	NN1	I-NP	concern	NN	t986:NMOD	O
,	t988	38	,	O	O	O	O	O	O	cs121	O	PUN	O	,	,	O	O
Unisys	t989	38	Unisys	O	O	O	O	O	O	cs121	O	NP0	B-NP	unisys	NNP	O	O
stock	t990	38	stock	O	O	O	O	O	O	cs121	O	NN1	I-NP	stock	NN	t989:NMOD	O
fell	t991	38	fall	e135	OCCURRENCE	PAST+NONE+POS	O	O	O	cs121	O	VVD	B-VP	fell	VBD	t985:ADV||t988:P||t990:SBJ||t995:EXT||t996:DIR||t999:LOC||t1002:TMP||t1003:LOC||t1009:P	mainVb
a	t992	38	a	O	O	O	O	O	O	cs121	O	AT0	B-NP	a	DT	O	O
further	t993	38	further	O	O	O	O	O	O	cs121	O	AJC	I-NP	further	JJ	O	O
75	t994	38	75	O	O	O	O	O	O	cs121	O	CRD	I-NP	75	CD	O	O
cents	t995	38	cent	O	O	O	O	O	O	cs121	O	NN2	I-NP	cent	NNS	t992:NMOD||t993:NMOD||t994:NMOD	O
to	t996	38	to	O	O	O	O	O	O	cs121	O	PRP	B-PP	to	TO	t997:PMOD	O
$	t997	38	$	O	O	O	O	O	O	cs121	O	NN0	B-NP	$	$	t998:NMOD	O
16.25	t998	38	16.25	O	O	O	O	O	O	cs121	O	CRD	I-NP	16.25	CD	O	O
in	t999	38	in	O	O	O	O	O	O	cs121	O	PRP	B-PP	in	IN	t1001:PMOD	O
composite	t1000	38	composite	O	O	O	O	O	O	cs121	O	AJ0	B-NP	composite	JJ	O	O
trading	t1001	38	trading	O	O	O	O	O	O	cs121	O	NN1	I-NP	trading	NN	t1000:NMOD	O
Friday	t1002	38	Friday	O	O	O	tmx136	DATE	1989-10-27	cs121	O	NP0	B-NP	friday	NNP	O	O
on	t1003	38	on	O	O	O	O	O	O	cs121	O	PRP	B-PP	on	IN	t1008:PMOD	O
the	t1004	38	the	O	O	O	O	O	O	cs121	O	AT0	B-NP	the	DT	O	O
New	t1005	38	New	O	O	O	O	O	O	cs121	O	NP0	I-NP	new	NNP	O	O
York	t1006	38	York	O	O	O	O	O	O	cs121	O	NP0	I-NP	york	NNP	t1005:NAME	O
Stock	t1007	38	Stock	O	O	O	O	O	O	cs121	O	NP0	I-NP	stock	NNP	O	O
Exchange	t1008	38	Exchange	O	O	O	O	O	O	cs121	O	NP0	I-NP	exchange	NNP	t1004:NMOD||t1006:NAME||t1007:NAME	O
.	t1009	38	.	O	O	O	O	O	O	cs121	O	PUN	O	.	.	O	O
