DCT_1989-11-02	O	O	O	O	O	O	tmx0	DATE	1989-11-02	O	O	NP0	B-NP	dct_1989-11-02	LS	O	O

Oshkosh	t1	1	Oshkosh	O	O	O+O+O	O	O	O	O	O	NP0	B-NP	oshkosh	NNP	O	O
Truck	t2	1	Truck	O	O	O+O+O	O	O	O	O	O	NP0	I-NP	truck	NNP	t1:NAME||t3:POSTHON||t4:P||t7:LOC	O
Corp.	t3	1	Corp.	O	O	O+O+O	O	O	O	O	O	NP0	B-NP	corp.	NNP	O	O
,	t4	1	,	O	O	O+O+O	O	O	O	O	O	PUN	O	,	,	O	O
Oshkosh	t5	1	Oshkosh	O	O	O+O+O	O	O	O	O	O	NP0	B-NP	oshkosh	NNP	O	O
,	t6	1	,	O	O	O+O+O	O	O	O	O	O	PUN	O	,	,	O	O
Wis.	t7	1	Wis.	O	O	O+O+O	O	O	O	O	O	NP0	B-NP	wis.	NNP	t5:NMOD||t6:P||t8:P	O
,	t8	1	,	O	O	O+O+O	O	O	O	O	O	PUN	O	,	,	O	O
estimated	t9	1	estimate	e1	REPORTING	PAST+NONE+POS	O	O	O	O	O	VVD	B-VP	estimate	VBD	t2:SBJ||t18:OBJ||t36:P	mainVb
earnings	t10	1	earnings	O	O	O	O	O	O	O	O	NN2	B-NP	earnings	NNS	t11:NMOD	O
for	t11	1	for	O	O	O	O	O	O	O	O	PRP	B-PP	for	IN	t14:PMOD	O
its	t12	1	its	O	O	O	O	O	O	O	O	DPS	B-NP	its	PRP$	O	O
fourth	t13	1	fourth	O	O	O	tmx2	DATE	1998-Q4	O	O	ORD	I-NP	fourth	JJ	O	O
quarter	t14	1	quarter	O	O	O	tmx2	DATE	1998-Q4	O	O	NN1	I-NP	quarter	NN	t12:NMOD||t13:NMOD||t15:APPO	O
ended	t15	1	end	O	O	O	O	O	O	O	O	VVD	B-VP	end	VBN	t17:TMP	O
Sept.	t16	1	Sept.	O	O	O	tmx3	DATE	1989-09	O	O	NP0	B-NP	sept.	NNP	O	O
30	t17	1	30	O	O	O	tmx3	DATE	1989-09	O	O	CRD	I-NP	30	CD	t16:NMOD	O
fell	t18	1	fall	e4	OCCURRENCE	PAST+NONE+POS	O	O	O	O	O	VVD	B-VP	fell	VBD	t10:SBJ||t20:EXT||t21:DIR||t24:DIR	O
50	t19	1	50	O	O	O	O	O	O	O	O	CRD	B-NP	50	CD	O	O
%	t20	1	%	O	O	O	O	O	O	O	O	UNC	I-NP	%	NN	t19:NMOD	O
to	t21	1	to	O	O	O	O	O	O	O	O	PRP	B-PP	to	TO	t23:PMOD	O
75	t22	1	75	O	O	O	O	O	O	O	O	CRD	B-NP	75	CD	O	O
%	t23	1	%	O	O	O	O	O	O	O	O	UNC	I-NP	%	NN	t22:NMOD	O
below	t24	1	below	O	O	O	O	O	O	O	O	PRP	B-PP	below	IN	t27:PMOD	O
the	t25	1	the	O	O	O	O	O	O	O	O	AT0	B-NP	the	DT	O	O
year-earlier	t26	1	year-earlier	O	O	O	O	O	O	O	O	NN1	I-NP	year-earlier	JJR	O	O
$	t27	1	$	O	O	O	O	O	O	O	O	ZZ0	B-NP	$	$	t25:NMOD||t26:NMOD||t28:DEP||t29:DEP||t30:P||t31:COORD	O
4.5	t28	1	4.5	O	O	O	O	O	O	O	O	CRD	I-NP	4.5	CD	O	O
million	t29	1	million	O	O	O	O	O	O	O	O	CRD	I-NP	million	CD	O	O
,	t30	1	,	O	O	O	O	O	O	O	O	PUN	O	,	,	O	O
or	t31	1	or	O	O	O	O	O	O	O	O	CJC	O	or	CC	t33:CONJ	O
51	t32	1	51	O	O	O	O	O	O	O	O	CRD	B-NP	51	CD	O	O
cents	t33	1	cent	O	O	O	O	O	O	O	O	NN2	I-NP	cent	NNS	t32:NMOD||t35:ADV	O
a	t34	1	a	O	O	O	O	O	O	O	O	AT0	B-NP	a	DT	O	O
share	t35	1	share	O	O	O	O	O	O	O	O	NN1	I-NP	share	NN	t34:NMOD	O
.	t36	1	.	O	O	O	O	O	O	O	O	PUN	O	.	.	O	O

The	t37	2	the	O	O	O	O	O	O	O	O	AT0	B-NP	the	DT	O	O
truck	t38	2	truck	O	O	O	O	O	O	O	O	NN1	I-NP	truck	NN	O	O
maker	t39	2	maker	O	O	O	O	O	O	O	O	NN1	I-NP	maker	NN	t37:NMOD||t38:NMOD	O
said	t40	2	say	e5	REPORTING	PAST+NONE+POS	O	O	O	O	O	VVD	B-VP	say	VBD	t39:SBJ||t47:OBJ||t56:P	mainVb
the	t41	2	the	O	O	O	O	O	O	O	O	AT0	B-NP	the	DT	O	O
significant	t42	2	significant	O	O	O	O	O	O	O	O	AJ0	I-NP	significant	JJ	O	O
drop	t43	2	drop	e6	OCCURRENCE	NONE+NONE+POS	O	O	O	O	O	NN1	I-NP	drop	NN	t41:NMOD||t42:NMOD||t44:LOC	O
in	t44	2	in	O	O	O	O	O	O	O	O	PRP	B-PP	in	IN	t46:PMOD	O
net	t45	2	net	O	O	O	O	O	O	O	O	AJ0	B-NP	net	JJ	O	O
income	t46	2	income	O	O	O	O	O	O	O	O	NN1	I-NP	income	NN	t45:NMOD	O
will	t47	2	will	O	O	O	O	O	O	O	O	VM0	B-VP	will	MD	t43:SBJ||t48:VC	O
result	t48	2	result	e7	I_ACTION	FUTURE+NONE+POS	O	O	O	O	O	VVI	I-VP	result	VB	t49:ADV	O
in	t49	2	in	O	O	O	O	O	O	O	O	PRP	B-PP	in	IN	t51:PMOD	O
lower	t50	2	lower	O	O	O	O	O	O	O	O	AJC	B-NP	low	JJR	O	O
earnings	t51	2	earnings	e8	OCCURRENCE	NONE+NONE+POS	O	O	O	O	O	NN2	I-NP	earnings	NNS	t50:NMOD||t52:NMOD	O
for	t52	2	for	O	O	O	O	O	O	O	O	PRP	B-PP	for	IN	t55:PMOD	O
the	t53	2	the	O	O	O	tmx9	DATE	1989	O	O	AT0	B-NP	the	DT	O	O
fiscal	t54	2	fiscal	O	O	O	tmx9	DATE	1989	O	O	AJ0	I-NP	fiscal	JJ	O	O
year	t55	2	year	O	O	O	tmx9	DATE	1989	O	O	NN1	I-NP	year	NN	t53:NMOD||t54:NMOD	O
.	t56	2	.	O	O	O	O	O	O	O	O	PUN	O	.	.	O	O

In	t57	3	in	O	O	O	O	O	O	O	O	PRP	B-PP	in	IN	t59:PMOD	O
fiscal	t58	3	fiscal	O	O	O	tmx10	DATE	1989	O	O	AJ0	B-NP	fiscal	JJ	O	O
1988	t59	3	1988	O	O	O	tmx10	DATE	1989	O	O	CRD	I-NP	1988	CD	t58:NMOD	O
,	t60	3	,	O	O	O	O	O	O	O	O	PUN	O	,	,	O	O
the	t61	3	the	O	O	O	O	O	O	O	O	AT0	B-NP	the	DT	O	O
company	t62	3	company	O	O	O	O	O	O	O	O	NN1	I-NP	company	NN	t61:NMOD	O
earned	t63	3	earn	e11	OCCURRENCE	PAST+NONE+POS	O	O	O	O	O	VVD	B-VP	earn	VBD	t57:TMP||t60:P||t62:SBJ||t64:OBJ||t74:ADV||t80:P	mainVb
$	t64	3	$	O	O	O	O	O	O	O	O	NN0	B-NP	$	$	t65:DEP||t66:DEP||t67:P||t68:COORD||t73:P	O
17.3	t65	3	17.3	O	O	O	O	O	O	O	O	CRD	I-NP	17.3	CD	O	O
million	t66	3	million	O	O	O	O	O	O	O	O	CRD	I-NP	million	CD	O	O
,	t67	3	,	O	O	O	O	O	O	O	O	PUN	O	,	,	O	O
or	t68	3	or	O	O	O	O	O	O	O	O	CJC	O	or	CC	t69:CONJ	O
$	t69	3	$	O	O	O	O	O	O	O	O	CRD	B-NP	$	$	t70:NMOD||t72:ADV	O
1.92	t70	3	1.92	O	O	O	O	O	O	O	O	CRD	I-NP	1.92	CD	O	O
a	t71	3	a	O	O	O	O	O	O	O	O	AT0	B-NP	a	DT	O	O
share	t72	3	share	O	O	O	O	O	O	O	O	NN1	I-NP	share	NN	t71:NMOD	O
,	t73	3	,	O	O	O	O	O	O	O	O	PUN	O	,	,	O	O
on	t74	3	on	O	O	O	O	O	O	O	O	PRP	B-PP	on	IN	t75:PMOD	O
revenue	t75	3	revenue	O	O	O	O	O	O	O	O	PRP	B-NP	revenue	NN	t76:NMOD	O
of	t76	3	of	O	O	O	O	O	O	O	O	PRP	B-PP	of	IN	t77:PMOD	O
$	t77	3	$	O	O	O	O	O	O	O	O	NN0	B-NP	$	$	t78:DEP||t79:DEP	O
352.9	t78	3	352.9	O	O	O	O	O	O	O	O	CRD	I-NP	352.9	CD	O	O
million	t79	3	million	O	O	O	O	O	O	O	O	CRD	I-NP	million	CD	O	O
.	t80	3	.	O	O	O	O	O	O	O	O	PUN	O	.	.	O	O

Oshkosh	t81	4	Oshkosh	O	O	O	O	O	O	O	O	NP0	B-NP	oshkosh	NNP	O	O
Truck	t82	4	Truck	O	O	O	O	O	O	O	O	NP0	I-NP	truck	NNP	t81:NAME	O
attributed	t83	4	attribute	e12	REPORTING	PAST+NONE+POS	O	O	O	O	O	VVD	B-VP	attribute	VBD	t82:SBJ||t85:OBJ||t89:ADV||t113:P	mainVb
the	t84	4	the	O	O	O	O	O	O	O	O	AT0	B-NP	the	DT	O	O
downturn	t85	4	downturn	e13	OCCURRENCE	NONE+NONE+POS	O	O	O	O	O	NN1	I-NP	downturn	NN	t84:NMOD||t86:LOC	O
in	t86	4	in	O	O	O	O	O	O	O	O	PRP	B-PP	in	IN	t88:PMOD	O
its	t87	4	its	O	O	O	O	O	O	O	O	DPS	B-NP	its	PRP$	O	O
earnings	t88	4	earnings	O	O	O	O	O	O	O	O	NN2	I-NP	earnings	NNS	t87:NMOD	O
to	t89	4	to	O	O	O	O	O	O	O	O	PRP	B-PP	to	TO	t92:PMOD	O
higher	t90	4	higher	O	O	O	O	O	O	O	O	AJC	B-NP	higher	JJR	O	O
start-up	t91	4	start-up	O	O	O	O	O	O	O	O	NN1	I-NP	start-up	NN	O	O
costs	t92	4	cost	O	O	O	O	O	O	O	O	NN2	I-NP	costs	NNS	t90:NMOD||t91:NMOD||t93:NMOD	O
of	t93	4	of	O	O	O	O	O	O	O	O	PRF	B-PP	of	IN	t97:PMOD	O
its	t94	4	its	O	O	O	O	O	O	O	O	DPS	B-NP	its	PRP$	O	O
new	t95	4	new	O	O	O	O	O	O	O	O	AJ0	I-NP	new	JJ	O	O
chassis	t96	4	chassis	O	O	O	O	O	O	O	O	NN1	I-NP	chassis	NN	O	O
division	t97	4	division	O	O	O	O	O	O	O	O	NN1	I-NP	division	NN	t94:NMOD||t95:NMOD||t96:NMOD||t98:P||t102:COORD	O
,	t98	4	,	O	O	O	O	O	O	O	O	PUN	O	,	,	O	O
a	t99	4	a	O	O	O	O	O	O	O	O	AT0	B-NP	a	DT	O	O
softer	t100	4	softer	O	O	O	O	O	O	O	O	AJC	I-NP	soft	JJR	O	O
motor-home	t101	4	motor-home	O	O	O	O	O	O	O	O	NN1	I-NP	motor-home	NN	O	O
market	t102	4	market	O	O	O	O	O	O	O	O	NN1	I-NP	market	NN	t99:NMOD||t100:NMOD||t101:NMOD||t103:COORD	O
and	t103	4	and	O	O	O	O	O	O	O	O	CJC	O	and	CC	t106:CONJ	O
higher	t104	4	higher	O	O	O	O	O	O	O	O	AJC	B-NP	higher	JJR	O	O
administrative	t105	4	administrative	O	O	O	O	O	O	O	O	AJ0	I-NP	administrative	JJ	O	O
costs	t106	4	cost	O	O	O	O	O	O	O	O	NN2	I-NP	costs	NNS	t104:NMOD||t105:NMOD||t107:NMOD	O
of	t107	4	of	O	O	O	O	O	O	O	O	PRF	B-PP	of	IN	t108:PMOD	O
compliance	t108	4	compliance	O	O	O	O	O	O	O	O	NN1	B-NP	compliance	NN	t109:NMOD	O
with	t109	4	with	O	O	O	O	O	O	O	O	PRP	B-PP	with	IN	t112:PMOD	O
government	t110	4	government	O	O	O	O	O	O	O	O	NN1	B-NP	government	NN	O	O
contractor	t111	4	contractor	O	O	O	O	O	O	O	O	NN1	I-NP	contractor	NN	t110:NMOD	O
regulations	t112	4	regulation	O	O	O	O	O	O	O	O	NN2	I-NP	regulation	NNS	t111:NMOD	O
.	t113	4	.	O	O	O	O	O	O	O	O	PUN	O	.	.	O	O

The	t114	5	the	O	O	O	O	O	O	O	O	AT0	B-NP	the	DT	O	O
company	t115	5	company	O	O	O	O	O	O	O	O	NN1	I-NP	company	NN	t114:NMOD	O
said	t116	5	say	e14	REPORTING	PAST+NONE+POS	O	O	O	O	O	VVD	B-VP	say	VBD	t115:SBJ||t118:OBJ||t138:P	mainVb
it	t117	5	it	O	O	O	O	O	O	O	O	PNP	B-NP	it	PRP	O	O
is	t118	5	be	O	O	O	O	O	O	O	O	VBZ	B-VP	be	VBZ	t117:SBJ||t119:PRD	O
in	t119	5	in	O	O	O	O	O	O	O	O	PRP	B-PP	in	IN	t121:PMOD	O
the	t120	5	the	O	O	O	O	O	O	O	O	AT0	B-NP	the	DT	O	O
process	t121	5	process	O	O	O	O	O	O	O	O	NN1	I-NP	process	NN	t120:NMOD||t122:NMOD	O
of	t122	5	of	O	O	O	O	O	O	O	O	PRF	B-PP	of	IN	t123:PMOD	O
phasing	t123	5	phase	e15	OCCURRENCE	PRESPART+NONE+POS	O	O	O	O	O	VVG	B-VP	phase	VBG	t124:PRT||t126:OBJ	O
out	t124	5	out	O	O	O	O	O	O	O	O	AVP	B-PRT	out	RP	O	O
John	t125	5	John	O	O	O	O	O	O	O	O	NP0	B-NP	john	NNP	O	O
Deere	t126	5	Deere	O	O	O	O	O	O	O	O	NP0	I-NP	deere	NNP	t125:NAME||t127:P||t130:APPO	O
,	t127	5	,	O	O	O	O	O	O	O	O	PUN	O	,	,	O	O
its	t128	5	its	O	O	O	O	O	O	O	O	DPS	B-NP	its	PRP$	O	O
current	t129	5	current	O	O	O	O	O	O	O	O	AJ0	I-NP	current	JJ	O	O
source	t130	5	source	O	O	O	O	O	O	O	O	NN1	I-NP	source	NN	t128:NMOD||t129:NMOD||t131:NMOD	O
of	t131	5	of	O	O	O	O	O	O	O	O	PRF	B-PP	of	IN	t132:PMOD	O
production	t132	5	production	O	O	O	O	O	O	O	O	NN1	B-NP	production	NN	t133:NMOD	O
for	t133	5	for	O	O	O	O	O	O	O	O	PRP	B-PP	for	IN	t137:PMOD	O
midsized	t134	5	midsized	O	O	O	O	O	O	O	O	AJ0	B-NP	midsized	JJ	O	O
motor	t135	5	motor	O	O	O	O	O	O	O	O	NN1	I-NP	motor	NN	O	O
home	t136	5	home	O	O	O	O	O	O	O	O	AV0	I-NP	home	NN	t135:NMOD	O
chassis	t137	5	chassis	O	O	O	O	O	O	O	O	NN1	I-NP	chassis	NN	t134:NMOD||t136:NMOD	O
.	t138	5	.	O	O	O	O	O	O	O	O	PUN	O	.	.	O	O

In	t139	6	in	O	O	O	O	O	O	O	O	PRP	B-PP	in	IN	t140:PMOD	O
anticipation	t140	6	anticipation	O	O	O	O	O	O	O	O	NN1	B-NP	anticipation	NN	t141:NMOD	O
of	t141	6	of	O	O	O	O	O	O	O	O	PRF	B-PP	of	IN	t143:PMOD	O
the	t142	6	the	O	O	O	O	O	O	O	O	AT0	B-NP	the	DT	O	O
start-up	t143	6	start-up	O	O	O	O	O	O	O	O	NN1	I-NP	start-up	NN	t142:NMOD||t144:NMOD	O
of	t144	6	of	O	O	O	O	O	O	O	O	PRF	B-PP	of	IN	t147:PMOD	O
its	t145	6	its	O	O	O	O	O	O	O	O	DPS	B-NP	its	PRP$	O	O
new	t146	6	new	O	O	O	O	O	O	O	O	AJ0	I-NP	new	JJ	O	O
factory	t147	6	factory	O	O	O	O	O	O	O	O	NN1	I-NP	factory	NN	t145:NMOD||t146:NMOD	O
,	t148	6	,	O	O	O	O	O	O	O	O	PUN	O	,	,	O	O
the	t149	6	the	O	O	O	O	O	O	O	O	AT0	B-NP	the	DT	O	O
company	t150	6	company	O	O	O	O	O	O	O	O	NN1	I-NP	company	NN	t149:NMOD	O
said	t151	6	say	e16	REPORTING	PAST+NONE+POS	O	O	O	O	O	VVD	B-VP	say	VBD	t139:LOC||t148:P||t150:SBJ||t156:OBJ||t166:P	mainVb
a	t152	6	a	O	O	O	O	O	O	O	O	AT0	B-NP	a	DT	O	O
larger-than-normal	t153	6	larger-than-normal	O	O	O	O	O	O	O	O	AJ0	I-NP	larger-than-normal	JJ	O	O
chassis	t154	6	chassis	O	O	O	O	O	O	O	O	NN1	I-NP	chassis	NN	O	O
supply	t155	6	supply	O	O	O	O	O	O	O	O	NN1	I-NP	supply	NN	t152:NMOD||t153:NMOD||t154:NMOD	O
has	t156	6	have	O	O	O	O	O	O	O	O	VHZ	B-VP	have	VBZ	t155:SBJ||t157:VC	O
been	t157	6	be	O	O	O	O	O	O	O	O	VBN	I-VP	be	VBN	t158:VC	O
built	t158	6	build	e17	OCCURRENCE	PRESENT+PERFECTIVE+POS	O	O	O	O	O	VVN	I-VP	build	VBN	t159:PRP	O
to	t159	6	to	O	O	O	O	O	O	O	O	TO0	I-VP	to	TO	t160:IM	O
carry	t160	6	carry	e18	I_ACTION	INFINITIVE+NONE+POS	O	O	O	O	O	VVI	I-VP	carry	VB	t161:OBJ||t162:TMP	O
it	t161	6	it	O	O	O	O	O	O	O	O	PNP	B-NP	it	PRP	O	O
through	t162	6	through	O	O	O	O	O	O	O	O	PRP	B-PP	through	IN	t165:PMOD	O
the	t163	6	the	O	O	O	O	O	O	O	O	AT0	B-NP	the	DT	O	O
transition	t164	6	transition	O	O	O	O	O	O	O	O	NN1	I-NP	transition	NN	O	O
period	t165	6	period	O	O	O	O	O	O	O	O	NN1	I-NP	period	NN	t163:NMOD||t164:NMOD	O
.	t166	6	.	O	O	O	O	O	O	O	O	PUN	O	.	.	O	O
