DCT_1989-11-01	O	O	O	O	O	O	tmx0	DATE	1989-11-01	O	O	NP0	B-NP	dct_1989-11-01	LS	O	O

Cilcorp	t1	1	Cilcorp	O	O	O+O+O	O	O	O	O	O	NP0	B-NP	cilcorp	NNP	t2:POSTHON||t3:P||t6:LOC||t7:P	O
Inc.	t2	1	Inc.	O	O	O+O+O	O	O	O	O	O	NP0	I-NP	inc.	NNP	O	O
,	t3	1	,	O	O	O+O+O	O	O	O	O	O	PUN	O	,	,	O	O
Peoria	t4	1	Peoria	O	O	O+O+O	O	O	O	O	O	NP0	B-NP	peoria	NNP	O	O
,	t5	1	,	O	O	O+O+O	O	O	O	O	O	PUN	O	,	,	O	O
Ill.	t6	1	Ill.	O	O	O+O+O	O	O	O	O	O	NP0	B-NP	ill.	NNP	t4:NMOD||t5:P	O
,	t7	1	,	O	O	O+O+O	O	O	O	O	O	PUN	O	,	,	O	O
said	t8	1	say	e1	REPORTING	PAST+NONE+POS	O	O	O	O	O	VVD	B-VP	say	VBD	t1:SBJ||t10:OBJ||t29:P	mainVb
it	t9	1	it	O	O	O	O	O	O	O	O	PNP	B-NP	it	PRP	O	O
agreed	t10	1	agree	e2	I_ACTION	PAST+NONE+POS	O	O	O	O	O	VVD	B-VP	agree	VBD	t9:SBJ||t11:OPRD	O
to	t11	1	to	O	O	O	O	O	O	O	O	TO0	I-VP	to	TO	t12:IM	O
acquire	t12	1	acquire	e3	OCCURRENCE	INFINITIVE+NONE+POS	O	O	O	O	O	VVI	I-VP	acquire	VB	t19:OBJ	O
the	t13	1	the	O	O	O	O	O	O	O	O	AT0	B-NP	the	DT	O	O
environmental	t14	1	environmental	O	O	O	O	O	O	O	O	AJ0	I-NP	environmental	JJ	O	O
consulting	t15	1	consulting	O	O	O	O	O	O	O	O	NN1	I-NP	consulting	NN	t14:NMOD||t16:COORD	O
and	t16	1	and	O	O	O	O	O	O	O	O	CJC	O	and	CC	t18:CONJ	O
analytical	t17	1	analytical	O	O	O	O	O	O	O	O	AJ0	B-NP	analytical	JJ	O	O
service	t18	1	service	O	O	O	O	O	O	O	O	NN1	I-NP	service	NN	t17:NMOD	O
businesses	t19	1	business	O	O	O	O	O	O	O	O	NN2	I-NP	business	NNS	t13:NMOD||t15:NMOD||t20:NMOD	O
of	t20	1	of	O	O	O	O	O	O	O	O	PRF	B-PP	of	IN	t23:PMOD	O
Hunter	t21	1	Hunter	O	O	O	O	O	O	O	O	NP0	B-NP	hunter	NNP	O	O
Environmental	t22	1	Environmental	O	O	O	O	O	O	O	O	AJ0	I-NP	environmental	NNP	O	O
Services	t23	1	Services	O	O	O	O	O	O	O	O	NN2	I-NP	services	NNP	t21:NAME||t22:NAME||t24:POSTHON||t25:NMOD	O
Inc.	t24	1	Inc.	O	O	O	O	O	O	O	O	NN1	I-NP	inc.	NNP	O	O
of	t25	1	of	O	O	O	O	O	O	O	O	PRF	B-PP	of	IN	t28:PMOD	O
Southport	t26	1	Southport	O	O	O	O	O	O	O	O	NP0	B-NP	southport	NNP	O	O
,	t27	1	,	O	O	O	O	O	O	O	O	PUN	O	,	,	O	O
Conn.	t28	1	Conn.	O	O	O	O	O	O	O	O	NP0	B-NP	conn.	NNP	t26:NMOD||t27:P	O
.	t29	1	.	O	O	O	O	O	O	O	O	PUN	O	.	.	O	O

The	t30	2	the	O	O	O	O	O	O	O	O	AT0	B-NP	the	DT	O	O
utility	t31	2	utility	O	O	O	O	O	O	O	O	NN1	I-NP	utility	NN	O	O
holding	t32	2	hold	O	O	O	O	O	O	O	O	VVG	I-NP	hold	VBG	O	O
company	t33	2	company	O	O	O	O	O	O	O	O	NN1	I-NP	company	NN	t30:NMOD||t31:NMOD||t32:NMOD	O
said	t34	2	say	e4	REPORTING	PAST+NONE+POS	O	O	O	O	O	VVD	B-VP	say	VBD	t33:SBJ||t36:OBJ||t60:P	mainVb
Hunter	t35	2	Hunter	O	O	O	O	O	O	O	O	NP0	B-NP	hunter	NNP	O	O
will	t36	2	will	O	O	O	O	O	O	O	O	VM0	B-VP	will	MD	t35:SBJ||t37:VC	O
receive	t37	2	receive	e5	OCCURRENCE	FUTURE+NONE+POS	O	O	O	O	O	VVI	I-VP	receive	VB	t39:OBJ||t57:ADV	O
390,000	t38	2	390,000	O	O	O	O	O	O	O	O	CRD	B-NP	390,000	CD	O	O
shares	t39	2	share	O	O	O	O	O	O	O	O	NN2	I-NP	share	NNS	t38:NMOD||t40:NMOD	O
of	t40	2	of	O	O	O	O	O	O	O	O	PRF	B-PP	of	IN	t43:PMOD	O
a	t41	2	a	O	O	O	O	O	O	O	O	AT0	B-NP	a	DT	O	O
new	t42	2	new	O	O	O	O	O	O	O	O	AJ0	I-NP	new	JJ	O	O
series	t43	2	series	O	O	O	O	O	O	O	O	NN0	I-NP	series	NN	t41:NMOD||t42:NMOD||t44:NMOD	O
of	t44	2	of	O	O	O	O	O	O	O	O	PRF	B-PP	of	IN	t48:PMOD	O
Cilcorp	t45	2	Cilcorp	O	O	O	O	O	O	O	O	NP0	B-NP	cilcorp	NNP	O	O
convertible	t46	2	convertible	O	O	O	O	O	O	O	O	AJ0	I-NP	convertible	NN	O	O
preferred	t47	2	preferred	O	O	O	O	O	O	O	O	AJ0	I-NP	prefer	VBN	O	O
stock	t48	2	stock	O	O	O	O	O	O	O	O	NN1	I-NP	stock	NN	t45:NMOD||t46:NMOD||t47:NMOD||t49:NMOD	O
with	t49	2	with	O	O	O	O	O	O	O	O	PRP	B-PP	with	IN	t52:PMOD	O
a	t50	2	a	O	O	O	O	O	O	O	O	AT0	B-NP	a	DT	O	O
face	t51	2	face	O	O	O	O	O	O	O	O	NN1	I-NP	face	NN	O	O
value	t52	2	value	O	O	O	O	O	O	O	O	NN1	I-NP	value	NN	t50:NMOD||t51:NMOD||t53:NMOD	O
of	t53	2	of	O	O	O	O	O	O	O	O	PRF	B-PP	of	IN	t54:PMOD	O
$	t54	2	$	O	O	O	O	O	O	O	O	NN0	B-NP	$	$	t55:DEP||t56:DEP	O
39	t55	2	39	O	O	O	O	O	O	O	O	CRD	I-NP	39	CD	O	O
million	t56	2	million	O	O	O	O	O	O	O	O	CRD	I-NP	million	CD	O	O
for	t57	2	for	O	O	O	O	O	O	O	O	PRP	B-PP	for	IN	t59:PMOD	O
the	t58	2	the	O	O	O	O	O	O	O	O	AT0	B-NP	the	DT	O	O
businesses	t59	2	business	O	O	O	O	O	O	O	O	NN2	I-NP	business	NNS	t58:NMOD	O
.	t60	2	.	O	O	O	O	O	O	O	O	PUN	O	.	.	O	O

Cilcorp	t61	3	Cilcorp	O	O	O	O	O	O	O	O	NP0	B-NP	cilcorp	NNP	O	O
will	t62	3	will	O	O	O	O	O	O	O	O	VM0	B-VP	will	MD	t61:SBJ||t63:ADV||t64:VC||t73:P	mainVb
also	t63	3	also	O	O	O	O	O	O	O	O	AV0	I-VP	also	RB	O	mainVb
assume	t64	3	assume	e6	I_ACTION	FUTURE+NONE+POS	O	O	O	O	O	VVI	I-VP	assume	VB	t65:OBJ	mainVb
$	t65	3	$	O	O	O	O	O	O	O	O	NN0	B-NP	$	$	t66:DEP||t67:DEP||t68:NMOD	O
22	t66	3	22	O	O	O	O	O	O	O	O	CRD	I-NP	22	CD	O	O
million	t67	3	million	O	O	O	O	O	O	O	O	CRD	I-NP	million	CD	O	O
of	t68	3	of	O	O	O	O	O	O	O	O	PRF	B-PP	of	IN	t72:PMOD	O
Hunter	t69	3	Hunter	O	O	O	O	O	O	O	O	NP0	B-NP	hunter	NNP	t70:SUFFIX	O
's	t70	3	's	O	O	O	O	O	O	O	O	POS	B-NP	's	POS	O	O
existing	t71	3	exist	O	O	O	O	O	O	O	O	AJ0	I-NP	exist	VBG	O	O
debt	t72	3	debt	O	O	O	O	O	O	O	O	NN1	I-NP	debt	NN	t69:NMOD||t71:NMOD	O
.	t73	3	.	O	O	O	O	O	O	O	O	PUN	O	.	.	O	O

As	t74	4	as	O	O	O	O	O	O	O	O	PRP	B-PP	as	IN	t75:PMOD	O
part	t75	4	part	O	O	O	O	O	O	O	O	NN1	B-NP	part	NN	t76:NMOD	O
of	t76	4	of	O	O	O	O	O	O	O	O	PRF	B-PP	of	IN	t78:PMOD	O
the	t77	4	the	O	O	O	O	O	O	O	O	AT0	B-NP	the	DT	O	O
agreement	t78	4	agreement	O	O	O	O	O	O	O	O	NN1	I-NP	agreement	NN	t77:NMOD	O
,	t79	4	,	O	O	O	O	O	O	O	O	PUN	O	,	,	O	O
Cilcorp	t80	4	Cilcorp	O	O	O	O	O	O	O	O	NP0	B-NP	cilcorp	NNP	O	O
said	t81	4	say	e7	REPORTING	PAST+NONE+POS	O	O	O	O	O	VVD	B-VP	say	VBD	t74:ADV||t79:P||t80:SBJ||t83:OBJ||t96:P	mainVb
it	t82	4	it	O	O	O	O	O	O	O	O	PNP	B-NP	it	PRP	O	O
will	t83	4	will	O	O	O	O	O	O	O	O	VM0	B-VP	will	MD	t82:SBJ||t84:VC	O
pay	t84	4	pay	e8	OCCURRENCE	FUTURE+NONE+POS	O	O	O	O	O	VVI	I-VP	pay	VB	t85:OBJ||t86:OBJ||t89:ADV	O
Hunter	t85	4	Hunter	O	O	O	O	O	O	O	O	NP0	B-NP	hunter	NNP	O	O
$	t86	4	$	O	O	O	O	O	O	O	O	CRD	B-NP	$	$	t87:DEP||t88:DEP	O
4	t87	4	4	O	O	O	O	O	O	O	O	CRD	I-NP	4	CD	O	O
million	t88	4	million	O	O	O	O	O	O	O	O	CRD	I-NP	million	CD	O	O
in	t89	4	in	O	O	O	O	O	O	cs9	O	PRP	B-PP	in	IN	t90:PMOD	O
exchange	t90	4	exchange	O	O	O	O	O	O	cs9	O	NN1	B-NP	exchange	NN	t91:NMOD	O
for	t91	4	for	O	O	O	O	O	O	cs9	O	PRP	B-PP	for	IN	t92:PMOD	O
agreements	t92	4	agreement	e10	OCCURRENCE	NONE+NONE+POS	O	O	O	cs9	O	NN2	B-NP	agreement	NNS	t94:NMOD	O
not	t93	4	not	O	O	O	O	O	O	cs9	O	XX0	O	not	RB	O	O
to	t94	4	to	O	O	O	O	O	O	cs9	O	TO0	B-VP	to	TO	t93:ADV||t95:IM	O
compete	t95	4	compete	O	O	O	O	O	O	cs9	O	VVI	I-VP	compete	VB	O	O
.	t96	4	.	O	O	O	O	O	O	cs9	O	PUN	O	.	.	O	O

Cilcorp	t97	5	Cilcorp	O	O	O	O	O	O	cs9	O	NP0	B-NP	cilcorp	NNP	O	O
said	t98	5	say	e11	REPORTING	PAST+NONE+POS	O	O	O	cs9	O	VVD	B-VP	say	VBD	t97:SBJ||t104:OBJ||t116:P	mainVb
the	t99	5	the	O	O	O	O	O	O	cs9	O	AT0	B-NP	the	DT	O	O
businesses	t100	5	business	O	O	O	O	O	O	cs9	O	NN2	I-NP	business	NNS	t99:NMOD||t101:NMOD	O
to	t101	5	to	O	O	O	O	O	O	cs9	O	TO0	B-VP	to	TO	t102:IM	O
be	t102	5	be	O	O	O	O	O	O	cs9	O	VBI	I-VP	be	VB	t103:VC	O
acquired	t103	5	acquire	e12	OCCURRENCE	INFINITIVE+NONE+POS	O	O	O	cs9	O	VVN	I-VP	acquire	VBN	O	O
had	t104	5	have	e13	OCCURRENCE	PAST+NONE+POS	O	O	O	cs9	O	VHD	B-NP	have	VBD	t100:SBJ||t105:OBJ	O
revenue	t105	5	revenue	O	O	O	O	O	O	cs9	O	NN1	I-NP	revenue	NN	t106:NMOD||t110:TMP	O
of	t106	5	of	O	O	O	O	O	O	cs9	O	PRF	B-PP	of	IN	t107:PMOD	O
$	t107	5	$	O	O	O	O	O	O	cs9	O	NN0	B-NP	$	$	t108:DEP||t109:DEP	O
76	t108	5	76	O	O	O	O	O	O	cs9	O	CRD	I-NP	76	CD	O	O
million	t109	5	million	O	O	O	O	O	O	cs9	O	CRD	I-NP	million	CD	O	O
for	t110	5	for	O	O	O	O	O	O	cs9	O	PRP	B-PP	for	IN	t112:PMOD	O
the	t111	5	the	O	O	O	tmx14	DURATION	P1Y	cs9	O	AT0	B-NP	the	DT	O	O
year	t112	5	year	O	O	O	tmx14	DURATION	P1Y	cs9	O	NN1	I-NP	year	NN	t111:NMOD||t113:APPO	O
ended	t113	5	end	O	O	O	O	O	O	cs9	O	VVD	B-VP	end	VBN	t115:TMP	O
March	t114	5	March	O	O	O	tmx15	DATE	1989-03-31	cs9	O	NP0	B-NP	march	NNP	O	O
31	t115	5	31	O	O	O	tmx15	DATE	1989-03-31	cs9	O	CRD	I-NP	31	CD	t114:NMOD	O
.	t116	5	.	O	O	O	O	O	O	cs9	O	PUN	O	.	.	O	O

Separately	t117	6	separately	O	O	O	O	O	O	cs9	O	AV0	B-ADVP	separately	RB	O	O
,	t118	6	,	O	O	O	O	O	O	cs9	O	PUN	O	,	,	O	O
Cilcorp	t119	6	Cilcorp	O	O	O	O	O	O	cs9	O	NP0	B-NP	cilcorp	NNP	O	O
said	t120	6	say	e16	REPORTING	PAST+NONE+POS	O	O	O	cs9	O	VVD	B-VP	say	VBD	t117:ADV||t118:P||t119:SBJ||t122:OBJ||t153:P	mainVb
it	t121	6	it	O	O	O	O	O	O	cs9	O	PNP	B-NP	it	PRP	O	O
plans	t122	6	plan	e17	I_STATE	PRESENT+NONE+POS	O	O	O	cs9	O	VVZ	B-VP	plan	VBZ	t121:SBJ||t123:OPRD	O
to	t123	6	to	O	O	O	O	O	O	cs9	O	TO0	I-VP	to	TO	t124:IM	O
purchase	t124	6	purchase	e18	OCCURRENCE	INFINITIVE+NONE+POS	O	O	O	cs9	O	VVI	I-VP	purchase	VB	t130:OBJ||t140:TMP||t144:MNR	O
as	t125	6	as	O	O	O	O	O	O	cs9	O	AV0	B-NP	as	RB	O	O
many	t126	6	many	O	O	O	O	O	O	cs9	O	DT0	I-NP	many	JJ	t125:DEP||t127:DEP||t128:DEP||t129:DEP	O
as	t127	6	as	O	O	O	O	O	O	cs9	O	CJS	I-NP	as	IN	O	O
1.4	t128	6	1.4	O	O	O	O	O	O	cs9	O	CRD	I-NP	1.4	CD	O	O
million	t129	6	million	O	O	O	O	O	O	cs9	O	CRD	I-NP	million	CD	O	O
shares	t130	6	share	O	O	O	O	O	O	cs9	O	NN2	I-NP	share	NNS	t126:NMOD||t131:P||t132:COORD	O
,	t131	6	,	O	O	O	O	O	O	cs9	O	PUN	O	,	,	O	O
or	t132	6	or	O	O	O	O	O	O	cs9	O	CJC	O	or	CC	t134:CONJ	O
10	t133	6	10	O	O	O	O	O	O	cs9	O	CRD	B-NP	10	CD	O	O
%	t134	6	%	O	O	O	O	O	O	cs9	O	UNC	B-NP	%	NN	t133:NMOD||t135:NMOD	O
of	t135	6	of	O	O	O	O	O	O	cs9	O	PRF	B-PP	of	IN	t138:PMOD	O
its	t136	6	its	O	O	O	O	O	O	cs9	O	DPS	B-NP	its	PRP$	O	O
common	t137	6	common	O	O	O	O	O	O	cs9	O	AJ0	I-NP	common	JJ	O	O
stock	t138	6	stock	O	O	O	O	O	O	cs9	O	NN1	I-NP	stock	NN	t136:NMOD||t137:NMOD||t139:APPO	O
outstanding	t139	6	outstanding	O	O	O	O	O	O	cs9	O	VVG	B-VP	outstanding	JJ	O	O
from	t140	6	from	O	O	O	O	O	O	cs9	O	AV0	B-ADVP	from	IN	t141:PMOD	O
time	t141	6	time	O	O	O	O	O	O	cs9	O	AV0	I-ADVP	time	NN	t142:NMOD	O
to	t142	6	to	O	O	O	O	O	O	cs9	O	TO0	B-VP	to	TO	t143:PMOD	O
time	t143	6	time	O	O	O	O	O	O	cs9	O	VVI	I-VP	time	NN	O	O
on	t144	6	on	O	O	O	O	O	O	cs9	O	PRP	B-PP	on	IN	t147:PMOD||t148:COORD	O
the	t145	6	the	O	O	O	O	O	O	cs9	O	AT0	B-NP	the	DT	O	O
open	t146	6	open	O	O	O	O	O	O	cs9	O	AJ0	I-NP	open	JJ	O	O
market	t147	6	market	O	O	O	O	O	O	cs9	O	NN1	I-NP	market	NN	t145:NMOD||t146:NMOD	O
and	t148	6	and	O	O	O	O	O	O	cs9	O	CJC	O	and	CC	t149:CONJ	O
through	t149	6	through	O	O	O	O	O	O	cs9	O	PRP	B-PP	through	IN	t152:PMOD	O
privately	t150	6	privately	O	O	O	O	O	O	cs9	O	AV0	B-NP	privately	RB	O	O
negotiated	t151	6	negotiate	O	O	O	O	O	O	cs9	O	AJ0	I-NP	negotiate	VBN	t150:AMOD	O
transactions	t152	6	transaction	O	O	O	O	O	O	cs9	O	NN2	I-NP	transactions	NNS	t151:NMOD	O
.	t153	6	.	O	O	O	O	O	O	cs9	O	PUN	O	.	.	O	O

The	t154	7	the	O	O	O	O	O	O	cs9	O	AT0	B-NP	the	DT	O	O
company	t155	7	company	O	O	O	O	O	O	cs9	O	NN1	I-NP	company	NN	t154:NMOD||t156:P||t159:NMOD||t165:P	O
,	t156	7	,	O	O	O	O	O	O	cs9	O	PUN	O	,	,	O	O
which	t157	7	which	O	O	O	O	O	O	cs9	O	DTQ	B-NP	which	WDT	O	O
currently	t158	7	currently	O	O	O	tmx19	DATE	PRESENT_REF	cs9	O	AV0	B-ADVP	currently	RB	O	O
has	t159	7	have	e20	OCCURRENCE	PRESENT+NONE+POS	O	O	O	cs9	O	VHZ	B-NP	have	VBZ	t157:SBJ||t158:TMP||t163:OBJ	O
13.5	t160	7	13.5	O	O	O	O	O	O	cs9	O	CRD	I-NP	13.5	CD	O	O
million	t161	7	million	O	O	O	O	O	O	cs9	O	CRD	I-NP	million	CD	t160:DEP	O
common	t162	7	common	O	O	O	O	O	O	cs9	O	AJ0	I-NP	common	JJ	O	O
shares	t163	7	share	O	O	O	O	O	O	cs9	O	NN2	I-NP	share	NNS	t161:NMOD||t162:NMOD||t164:APPO	O
outstanding	t164	7	outstanding	O	O	O	O	O	O	cs9	O	VVG	B-VP	outstanding	JJ	O	O
,	t165	7	,	O	O	O	O	O	O	cs9	O	PUN	O	,	,	O	O
said	t166	7	say	e21	REPORTING	PAST+NONE+POS	O	O	O	cs9	O	VVD	B-VP	say	VBD	t155:SBJ||t168:OBJ||t175:P	mainVb
it	t167	7	it	O	O	O	O	O	O	cs9	O	PNP	B-NP	it	PRP	O	O
has	t168	7	have	e22	OCCURRENCE	PRESENT+NONE+POS	O	O	O	cs9	O	VHZ	B-VP	have	VBZ	t167:SBJ||t171:OBJ	O
no	t169	7	no	O	O	O	O	O	O	cs9	O	AT0	B-NP	no	DT	O	O
specific	t170	7	specific	O	O	O	O	O	O	cs9	O	AJ0	I-NP	specific	JJ	O	O
plans	t171	7	plan	O	O	O	O	O	O	cs9	O	NN2	I-NP	plan	NNS	t169:NMOD||t170:NMOD||t172:NMOD	O
for	t172	7	for	O	O	O	O	O	O	cs9	O	PRP	B-PP	for	IN	t174:PMOD	O
the	t173	7	the	O	O	O	O	O	O	cs9	O	AT0	B-NP	the	DT	O	O
shares	t174	7	share	O	O	O	O	O	O	cs9	O	NN2	I-NP	share	NNS	t173:NMOD	O
.	t175	7	.	O	O	O	O	O	O	cs9	O	PUN	O	.	.	O	O
