DCT_2013-03-22	O	O	O	O	O	O	tmx0	DATE	2013-03-22	O	O	NP0	B-NP	dct_2013-03-22	LS	O	O

Oil	t1	1	Oil	O	O	O+O+O	O	O	O	O	O	NP0	B-NP	oil	NN	O	O
giant	t2	1	giant	O	O	O+O+O	O	O	O	O	O	AJ0	I-NP	giant	NN	t1:NMOD||t3:APPO	O
BP	t3	1	BP	O	O	O+O+O	O	O	O	O	O	NP0	I-NP	bp	NNP	O	O
has	t4	1	have	O	O	O+O+O	O	O	O	O	O	VHZ	B-VP	have	VBZ	t2:SBJ||t5:VC||t28:P	mainVb
said	t5	1	say	e1	REPORTING	PRESENT+PERFECTIVE+POS	O	O	O	O	O	VVN	I-VP	say	VBN	t7:OBJ	mainVb
it	t6	1	it	O	O	O	O	O	O	O	O	PNP	B-NP	it	PRP	O	O
will	t7	1	will	O	O	O	O	O	O	O	O	VM0	B-VP	will	MD	t6:SBJ||t8:VC	O
buy	t8	1	buy	e2	OCCURRENCE	FUTURE+NONE+POS	O	O	O	O	O	VVI	I-VP	buy	VB	t9:ADV||t10:OBJ||t14:P||t15:ADV	O
back	t9	1	back	O	O	O	O	O	O	O	O	AVP	B-ADVP	back	RP	t16:AMOD	O
$	t10	1	$	O	O	O	O	O	O	O	O	CRD	B-NP	$	$	t11:NMOD||t12:NMOD	O
8bn	t11	1	8bn	O	O	O	O	O	O	O	O	NN0	I-NP	8bn	CD	O	O
of	t12	1	of	O	O	O	O	O	O	O	O	PRF	B-PP	of	IN	t13:PMOD	O
shares	t13	1	share	O	O	O	O	O	O	O	O	NN2	B-NP	share	NNS	O	O
,	t14	1	,	O	O	O	O	O	O	O	O	PUN	O	,	,	O	O
returning	t15	1	return	e3	OCCURRENCE	PRESPART+NONE+POS	O	O	O	O	O	VVG	B-VP	return	VBG	t19:OBJ	O
to	t16	1	to	O	O	O	O	O	O	O	O	PRP	B-PP	to	TO	t17:PMOD	O
shareholders	t17	1	shareholder	O	O	O	O	O	O	O	O	NN2	B-NP	shareholder	NNS	O	O
the	t18	1	the	O	O	O	O	O	O	O	O	AT0	B-NP	the	DT	O	O
money	t19	1	money	O	O	O	O	O	O	O	O	NN1	I-NP	money	NN	t18:NMOD||t21:NMOD	O
they	t20	1	they	O	O	O	O	O	O	O	O	PNP	B-NP	they	PRP	O	O
had	t21	1	have	O	O	O	O	O	O	O	O	VHD	B-VP	have	VBD	t20:SBJ||t22:VC	O
put	t22	1	put	e4	OCCURRENCE	PAST+PERFECTIVE+POS	O	O	O	O	O	VVN	I-VP	put	VBN	t23:PUT	O
into	t23	1	into	O	O	O	O	O	O	O	O	PRP	B-PP	into	IN	t27:PMOD	O
a	t24	1	a	O	O	O	O	O	O	O	O	AT0	B-NP	a	DT	O	O
complicated	t25	1	complicated	O	O	O	O	O	O	O	O	AJ0	I-NP	complicate	VBN	O	O
Russian	t26	1	russian	O	O	O	O	O	O	O	O	AJ0	I-NP	russian	JJ	O	O
venture	t27	1	venture	O	O	O	O	O	O	O	O	NN1	I-NP	venture	NN	t24:NMOD||t25:NMOD||t26:NMOD	O
.	t28	1	.	O	O	O	O	O	O	O	O	PUN	O	.	.	O	O

It	t29	2	it	O	O	O	O	O	O	O	O	PNP	B-NP	it	PRP	O	O
said	t30	2	say	e5	REPORTING	PAST+NONE+POS	O	O	O	O	O	VVD	B-VP	say	VBD	t29:SBJ||t33:OBJ||t54:P	mainVb
it	t31	2	it	O	O	O	O	O	O	O	O	PNP	B-NP	it	PRP	O	O
"	t32	2	"	O	O	O	O	O	O	O	O	PUQ	O	"	NNP	O	O
expected	t33	2	expect	e6	I_STATE	PAST+NONE+POS	O	O	O	O	O	VVD	B-VP	expect	VBD	t31:SBJ||t32:SBJ||t34:OPRD	O
to	t34	2	to	O	O	O	O	O	O	O	O	TO0	I-VP	to	TO	t35:IM	O
return	t35	2	return	e7	OCCURRENCE	INFINITIVE+NONE+POS	O	O	O	O	O	VVI	I-VP	return	VB	t36:DIR||t40:OBJ	O
to	t36	2	to	O	O	O	O	O	O	O	O	PRP	B-PP	to	TO	t38:PMOD	O
BP	t37	2	BP	O	O	O	O	O	O	O	O	NP0	B-NP	bp	NNP	O	O
shareholders	t38	2	shareholder	O	O	O	O	O	O	O	O	NN2	I-NP	shareholder	NNS	t37:NMOD	O
an	t39	2	a	O	O	O	O	O	O	O	O	AT0	B-NP	an	DT	O	O
amount	t40	2	amount	O	O	O	O	O	O	O	O	NN1	I-NP	amount	NN	t39:NMOD||t41:APPO	O
equivalent	t41	2	equivalent	O	O	O	O	O	O	O	O	NN1	I-NP	equivalent	JJ	t42:AMOD	O
to	t42	2	to	O	O	O	O	O	O	O	O	PRP	B-PP	to	TO	t44:PMOD	O
the	t43	2	the	O	O	O	O	O	O	O	O	AT0	B-NP	the	DT	O	O
value	t44	2	value	O	O	O	O	O	O	O	O	NN1	I-NP	value	NN	t43:NMOD||t45:NMOD	O
of	t45	2	of	O	O	O	O	O	O	O	O	PRF	B-PP	of	IN	t50:PMOD	O
the	t46	2	the	O	O	O	O	O	O	O	O	AT0	B-NP	the	DT	O	O
company	t47	2	company	O	O	O	O	O	O	O	O	NN1	I-NP	company	NN	t46:NMOD||t48:SUFFIX	O
's	t48	2	's	O	O	O	O	O	O	O	O	POS	B-NP	's	POS	O	O
original	t49	2	original	O	O	O	O	O	O	O	O	AJ0	I-NP	original	JJ	O	O
investment	t50	2	investment	e8	OCCURRENCE	PAST+NONE+POS	O	O	O	O	O	NN1	I-NP	investment	NN	t47:NMOD||t49:NMOD||t51:LOC	O
in	t51	2	in	O	O	O	O	O	O	O	O	PRP	B-PP	in	IN	t53:PMOD	O
TNK-BP	t52	2	tnk-bp	O	O	O	O	O	O	O	O	NP0	B-NP	tnk-bp	NNP	O	O
"	t53	2	"	O	O	O	O	O	O	O	O	PUQ	I-NP	"	NNP	t52:NAME	O
.	t54	2	.	O	O	O	O	O	O	O	O	PUN	O	.	.	O	O

BP	t55	3	bp	O	O	O	O	O	O	O	O	NP0	B-NP	bp	NNP	O	O
agreed	t56	3	agree	e9	I_ACTION	PAST+NONE+POS	O	O	O	O	O	VVD	B-VP	agree	VBD	t55:SBJ||t57:OPRD||t82:P	mainVb
to	t57	3	to	O	O	O	O	O	O	O	O	TO0	I-VP	to	TO	t58:IM	mainVb
sell	t58	3	sell	e10	OCCURRENCE	INFINITIVE+NONE+POS	O	O	O	O	O	VVI	I-VP	sell	VB	t59:PRT||t63:OBJ||t66:DTV||t72:ADV	mainVb
back	t59	3	back	O	O	O	O	O	O	O	O	AVP	B-ADVP	back	RP	O	O
its	t60	3	its	O	O	O	O	O	O	O	O	DPS	B-NP	its	PRP$	O	O
50	t61	3	50	O	O	O	O	O	O	O	O	CRD	I-NP	50	CD	O	O
%	t62	3	%	O	O	O	O	O	O	O	O	UNC	I-NP	%	NN	t61:NMOD	O
stake	t63	3	stake	O	O	O	O	O	O	O	O	NN1	I-NP	stake	NN	t60:NMOD||t62:NMOD||t64:LOC	O
in	t64	3	in	O	O	O	O	O	O	O	O	PRP	B-PP	in	IN	t65:PMOD	O
TNK-BP	t65	3	tnk-bp	O	O	O	O	O	O	O	O	NP0	B-NP	tnk-bp	NNP	O	O
to	t66	3	to	O	O	O	O	O	O	O	O	PRP	B-PP	to	TO	t69:PMOD	O
Russia	t67	3	Russia	O	O	O	O	O	O	O	O	NP0	B-NP	russia	NNP	t68:SUFFIX	O
's	t68	3	's	O	O	O	O	O	O	O	O	POS	B-NP	's	POS	O	O
Rosneft	t69	3	Rosneft	O	O	O	O	O	O	O	O	NP0	I-NP	rosneft	NNP	t67:NMOD||t70:LOC	O
in	t70	3	in	O	O	O	O	O	O	O	O	PRP	B-PP	in	IN	t71:PMOD	O
October	t71	3	October	O	O	O	tmx1	DATE	2012-10	O	O	NP0	B-NP	october	NNP	O	O
in	t72	3	in	O	O	O	O	O	O	O	O	PRP	B-PP	in	IN	t73:PMOD	O
return	t73	3	return	O	O	O	O	O	O	O	O	PRP	B-NP	return	NN	t74:NMOD	O
for	t74	3	for	O	O	O	O	O	O	O	O	PRP	B-PP	for	IN	t75:PMOD	O
$	t75	3	$	O	O	O	O	O	O	O	O	NN0	B-NP	$	$	t76:NMOD||t77:APPO	O
17.1	t76	3	17.1	O	O	O	O	O	O	O	O	CRD	I-NP	17.1	CD	O	O
bn	t77	3	bn	O	O	O	O	O	O	O	O	NN0	I-NP	bn	VBN	t78:ADV	O
in	t78	3	in	O	O	O	O	O	O	O	O	PRP	B-PP	in	IN	t79:PMOD	O
cash	t79	3	cash	O	O	O	O	O	O	O	O	NN1	B-NP	cash	NN	t80:COORD	O
and	t80	3	and	O	O	O	O	O	O	O	O	CJC	I-NP	and	CC	t81:CONJ	O
shares	t81	3	share	O	O	O	O	O	O	O	O	NN2	I-NP	share	NNS	O	O
.	t82	3	.	O	O	O	O	O	O	O	O	PUN	O	.	.	O	O

It	t83	4	it	O	O	O	O	O	O	O	O	PNP	B-NP	it	PRP	O	O
invested	t84	4	invest	e11	OCCURRENCE	PAST+NONE+POS	O	O	O	O	O	VVD	B-VP	invest	VBD	t83:SBJ||t85:ADV||t87:TMP||t89:P	mainVb
in	t85	4	in	O	O	O	O	O	O	O	O	PRP	B-PP	in	IN	t86:PMOD	O
TNK-BP	t86	4	TNK-BP	O	O	O	O	O	O	O	O	NP0	B-NP	tnk-bp	NNP	O	O
in	t87	4	in	O	O	O	O	O	O	O	O	PRP	B-PP	in	IN	t88:PMOD	O
2003	t88	4	2003	O	O	O	tmx2	DATE	2003	O	O	CRD	B-NP	2003	CD	O	O
.	t89	4	.	O	O	O	O	O	O	O	O	PUN	O	.	.	O	O

BP	t90	5	bp	O	O	O	O	O	O	O	O	NP0	B-NP	bp	NNP	O	O
chairman	t91	5	chairman	O	O	O	O	O	O	O	O	NN1	I-NP	chairman	NN	O	O
Carl-Henric	t92	5	Carl-Henric	O	O	O	O	O	O	O	O	NP0	I-NP	carl-henric	NNP	O	O
Svanberg	t93	5	Svanberg	O	O	O	O	O	O	O	O	NP0	I-NP	svanberg	NNP	t90:NAME||t91:NAME||t92:NAME	O
said	t94	5	say	e12	REPORTING	PAST+NONE+POS	O	O	O	O	O	VVD	B-VP	say	VBD	t93:SBJ||t95:P||t96:DTV||t98:OBJ||t112:P	mainVb
:	t95	5	:	O	O	O	O	O	O	O	O	PUN	O	:	:	O	O
"	t96	5	"	O	O	O	O	O	O	O	O	PUQ	O	"	TO	O	O
We	t97	5	we	O	O	O	O	O	O	O	O	PNP	B-NP	we	PRP	O	O
expect	t98	5	expect	e13	I_STATE	PRESENT+NONE+POS	O	O	O	O	O	VVB	B-VP	expect	VBP	t97:SBJ||t103:OBJ	O
our	t99	5	we	O	O	O	O	O	O	O	O	DPS	B-NP	our	PRP$	O	O
stake	t100	5	stake	O	O	O	O	O	O	O	O	NN1	I-NP	stake	NN	t99:NMOD||t101:LOC	O
in	t101	5	in	O	O	O	O	O	O	O	O	PRP	B-PP	in	IN	t102:PMOD	O
Rosneft	t102	5	Rosneft	O	O	O	O	O	O	O	O	NP0	B-NP	rosneft	NNP	O	O
will	t103	5	will	O	O	O	O	O	O	O	O	VM0	B-VP	will	MD	t100:SBJ||t104:VC	O
generate	t104	5	generate	e14	OCCURRENCE	FUTURE+NONE+POS	O	O	O	O	O	VVI	I-VP	generate	VB	t106:OBJ	O
long-term	t105	5	long-term	O	O	O	O	O	O	O	O	AJ0	B-NP	long-term	JJ	O	O
value	t106	5	value	O	O	O	O	O	O	O	O	NN1	I-NP	value	NN	t105:NMOD||t107:NMOD	O
for	t107	5	for	O	O	O	O	O	O	O	O	PRP	B-PP	for	IN	t108:PMOD	O
BP	t108	5	bp	O	O	O	O	O	O	O	O	NP0	B-NP	bp	NNP	t109:COORD	O
and	t109	5	and	O	O	O	O	O	O	O	O	CJC	O	and	CC	t111:CONJ	O
its	t110	5	its	O	O	O	O	O	O	O	O	DPS	B-NP	its	PRP$	O	O
shareholders	t111	5	shareholder	O	O	O	O	O	O	O	O	NN2	I-NP	shareholder	NNS	t110:NMOD	O
.	t112	5	.	O	O	O	O	O	O	O	O	PUN	O	.	.	O	O

But	t113	6	but	O	O	O	O	O	O	O	O	CJC	O	but	CC	O	O
this	t114	6	this	O	O	O	O	O	O	O	O	DT0	B-NP	this	DT	O	O
buyback	t115	6	buyback	O	O	O	O	O	O	O	O	NN1	I-NP	buyback	NN	O	O
programme	t116	6	programme	O	O	O	O	O	O	O	O	NN1	I-NP	programme	NN	t114:NMOD||t115:NMOD	O
should	t117	6	should	O	O	O	O	O	O	O	O	VM0	B-VP	should	MD	t113:DEP||t116:SBJ||t118:ADV||t119:VC||t139:P||t140:P	mainVb
also	t118	6	also	O	O	O	O	O	O	O	O	AV0	I-VP	also	RB	O	mainVb
allow	t119	6	allow	e15	I_ACTION	NONE+NONE+POS	O	O	O	O	O	VVI	I-VP	allow	VB	t121:OBJ||t122:OPRD	mainVb
our	t120	6	we	O	O	O	O	O	O	O	O	DPS	B-NP	our	PRP$	O	O
shareholders	t121	6	shareholder	O	O	O	O	O	O	O	O	NN2	I-NP	shareholder	NNS	t120:NMOD	O
to	t122	6	to	O	O	O	O	O	O	O	O	TO0	B-VP	to	TO	t123:IM	O
see	t123	6	see	e16	OCCURRENCE	INFINITIVE+NONE+POS	O	O	O	O	O	VVI	I-VP	see	VB	t124:OBJ||t125:LOC	O
benefits	t124	6	benefit	O	O	O	O	O	O	O	O	NN2	B-NP	benefit	NNS	O	O
in	t125	6	in	O	O	O	O	O	O	O	O	PRP	B-PP	in	IN	t127:PMOD	O
the	t126	6	the	O	O	O	O	O	O	O	O	AT0	B-NP	the	DT	O	O
near-term	t127	6	near-term	O	O	O	O	O	O	O	O	NN1	I-NP	near-term	NN	t126:NMOD||t128:NMOD	O
from	t128	6	from	O	O	O	O	O	O	O	O	PRP	B-PP	from	IN	t130:PMOD	O
the	t129	6	the	O	O	O	O	O	O	O	O	AT0	B-NP	the	DT	O	O
value	t130	6	value	O	O	O	O	O	O	O	O	NN1	I-NP	value	NN	t129:NMOD||t132:NMOD	O
we	t131	6	we	O	O	O	O	O	O	O	O	PNP	B-NP	we	PRP	O	O
have	t132	6	have	O	O	O	O	O	O	O	O	VHB	B-VP	have	VBP	t131:SBJ||t133:VC	O
realised	t133	6	realise	e17	OCCURRENCE	PRESENT+PERFECTIVE+POS	O	O	O	O	O	VVN	I-VP	realise	VBN	t134:MNR	O
by	t134	6	by	O	O	O	O	O	O	O	O	PRP	B-PP	by	IN	t135:PMOD	O
reshaping	t135	6	reshape	e18	OCCURRENCE	PRESPART+NONE+POS	O	O	O	O	O	VVG	B-VP	reshape	VBG	t138:OBJ	O
our	t136	6	we	O	O	O	O	O	O	O	O	DPS	B-NP	our	PRP$	O	O
Russian	t137	6	russian	O	O	O	O	O	O	O	O	AJ0	I-NP	russian	JJ	O	O
business	t138	6	business	O	O	O	O	O	O	O	O	NN1	I-NP	business	NN	t136:NMOD||t137:NMOD	O
.	t139	6	.	O	O	O	O	O	O	O	O	PUN	O	.	.	O	O
"	t140	6	"	O	O	O	O	O	O	O	O	PUQ	O	"	''	O	O

BP	t141	7	bp	O	O	O	O	O	O	O	O	NP0	B-NP	bp	NNP	O	O
expects	t142	7	expect	e19	I_STATE	PRESENT+NONE+POS	O	O	O	O	O	VVZ	B-VP	expect	VBZ	t141:SBJ||t147:OBJ||t156:P	mainVb
the	t143	7	the	O	O	O	O	O	O	O	O	AT0	B-NP	the	DT	O	O
share	t144	7	share	O	O	O	O	O	O	O	O	NN1	I-NP	share	NN	O	O
buyback	t145	7	buyback	O	O	O	O	O	O	O	O	NN1	I-NP	buyback	NN	t144:NMOD	O
programme	t146	7	programme	O	O	O	O	O	O	O	O	NN1	I-NP	programme	NN	t143:NMOD||t145:NMOD	O
could	t147	7	could	O	O	O	O	O	O	O	O	VM0	B-VP	could	MD	t146:SBJ||t148:VC	O
take	t148	7	take	e20	OCCURRENCE	NONE+NONE+POS	O	O	O	O	O	VVI	I-VP	take	VB	t153:OBJ||t154:OPRD	O
between	t149	7	between	O	O	O	O	O	O	O	O	PRP	B-PP	between	IN	O	O
12	t150	7	12	O	O	O	tmx3	DURATION	P12M	O	O	CRD	B-NP	12	CD	t149:DEP||t151:COORD	O
and	t151	7	and	O	O	O	O	O	O	O	O	CJC	O	and	CC	t152:CONJ	O
18	t152	7	18	O	O	O	tmx4	DURATION	P18M	O	O	CRD	B-NP	18	CD	O	O
months	t153	7	month	O	O	O	tmx4	DURATION	P18M	O	O	NN2	I-NP	month	NNS	t150:NMOD	O
to	t154	7	to	O	O	O	O	O	O	O	O	TO0	B-VP	to	TO	t155:IM	O
complete	t155	7	complete	e21	ASPECTUAL	INFINITIVE+NONE+POS	O	O	O	O	O	VVI	I-VP	complete	VB	O	O
.	t156	7	.	O	O	O	O	O	O	O	O	PUN	O	.	.	O	O

"	t157	8	"	O	O	O	O	O	O	O	O	PUQ	O	"	NN	O	O
In	t158	8	in	O	O	O	O	O	O	O	O	PRP	B-PP	in	IN	t159:PMOD	O
2003	t159	8	2003	O	O	O	tmx1000	DATE	2003	O	O	CRD	B-NP	2003	CD	O	O
BP	t160	8	BP	O	O	O	O	O	O	O	O	NP0	I-NP	bp	NNP	t157:TITLE	O
invested	t161	8	invest	e22	OCCURRENCE	PAST+NONE+POS	O	O	O	O	O	VVD	B-VP	invest	VBD	t158:TMP||t160:SBJ||t163:OBJ||t165:ADV||t171:ADV||t177:P	O
around	t162	8	around	O	O	O	O	O	O	O	O	AVP	B-ADVP	around	IN	O	O
$	t163	8	$	O	O	O	O	O	O	O	O	CRD	B-NP	$	$	t162:DEP||t164:NMOD	O
8bn	t164	8	8bn	O	O	O	O	O	O	O	O	NN0	I-NP	8bn	CD	O	O
in	t165	8	in	O	O	O	O	O	O	O	O	PRP	B-PP	in	IN	t166:PMOD	O
cash	t166	8	cash	O	O	O	O	O	O	O	O	NN1	B-NP	cash	NN	t167:P||t168:COORD	O
,	t167	8	,	O	O	O	O	O	O	O	O	PUN	O	,	,	O	O
shares	t168	8	share	O	O	O	O	O	O	O	O	NN2	B-NP	share	NNS	t169:COORD	O
and	t169	8	and	O	O	O	O	O	O	O	O	CJC	I-NP	and	CC	t170:CONJ	O
assets	t170	8	asset	O	O	O	O	O	O	O	O	NN2	I-NP	assets	NNS	O	O
in	t171	8	in	O	O	O	O	O	O	O	O	PRP	B-PP	in	IN	t173:PMOD	O
the	t172	8	the	O	O	O	O	O	O	O	O	AT0	B-NP	the	DT	O	O
formation	t173	8	formation	e44	OCCURRENCE	NONE+NONE+POS	O	O	O	O	O	NN1	I-NP	formation	NN	t172:NMOD||t174:NMOD	O
of	t174	8	of	O	O	O	O	O	O	O	O	PRF	B-PP	of	IN	t175:PMOD	O
TNK-BP	t175	8	tnk-bp	O	O	O	O	O	O	O	O	NP0	B-NP	tnk-bp	NNP	O	O
,	t176	8	,	O	O	O	O	O	O	O	O	PUN	O	,	,	O	O
"	t177	8	"	O	O	O	O	O	O	O	O	PUQ	O	"	:	O	O
the	t178	8	the	O	O	O	O	O	O	O	O	AT0	B-NP	the	DT	O	O
oil	t179	8	oil	O	O	O	O	O	O	O	O	NN1	I-NP	oil	NN	O	O
giant	t180	8	giant	O	O	O	O	O	O	O	O	AJ0	I-NP	giant	NN	t178:NMOD||t179:NMOD	O
said	t181	8	say	e23	REPORTING	PAST+NONE+POS	O	O	O	O	O	VVD	B-VP	say	VBD	t161:OBJ||t176:P||t180:SBJ||t182:P	mainVb
.	t182	8	.	O	O	O	O	O	O	O	O	PUN	O	.	.	O	O

"	t183	9	"	O	O	O	O	O	O	O	O	PUQ	O	"	NN	t184:NMOD	O
Over	t184	9	over	O	O	O	O	O	O	O	O	AVP	B-PP	over	IN	t187:PMOD	O
the	t185	9	the	O	O	O	tmx5	DURATION	P1DE	O	O	AT0	B-NP	the	DT	O	O
following	t186	9	follow	O	O	O	tmx5	DURATION	P1DE	O	O	AJ0	I-NP	following	JJ	O	O
decade	t187	9	decade	O	O	O	tmx5	DURATION	P1DE	O	O	NN1	I-NP	decade	NN	t185:NMOD||t186:NMOD	O
BP	t188	9	bp	O	O	O	O	O	O	O	O	NP0	I-NP	bp	NNP	t183:TITLE	O
received	t189	9	receive	e24	OCCURRENCE	PAST+NONE+POS	O	O	O	O	O	VVD	B-VP	receive	VBD	t188:SBJ||t191:OBJ||t197:ADV||t201:P||t202:P	mainVb
a	t190	9	a	O	O	O	O	O	O	O	O	AT0	B-NP	a	DT	O	O
total	t191	9	total	O	O	O	O	O	O	O	O	NN1	I-NP	total	NN	t190:NMOD||t192:NMOD	O
of	t192	9	of	O	O	O	O	O	O	O	O	PRF	B-PP	of	IN	t193:PMOD	O
$	t193	9	$	O	O	O	O	O	O	O	O	ZZ0	B-NP	$	$	t194:NMOD||t195:NMOD	O
19bn	t194	9	19bn	O	O	O	O	O	O	O	O	NN0	I-NP	19bn	CD	O	O
in	t195	9	in	O	O	O	O	O	O	O	O	PRP	B-PP	in	IN	t196:PMOD	O
dividends	t196	9	dividend	O	O	O	O	O	O	O	O	NN2	B-NP	dividend	NNS	O	O
from	t197	9	from	O	O	O	O	O	O	O	O	PRP	B-PP	from	IN	t200:PMOD	O
the	t198	9	the	O	O	O	O	O	O	O	O	AT0	B-NP	the	DT	O	O
joint	t199	9	joint	O	O	O	O	O	O	O	O	AJ0	I-NP	joint	JJ	O	O
venture	t200	9	venture	O	O	O	O	O	O	O	O	NN1	I-NP	venture	NN	t198:NMOD||t199:NMOD	O
.	t201	9	.	O	O	O	O	O	O	O	O	PUN	O	.	.	O	O
"	t202	9	"	O	O	O	O	O	O	O	O	PUQ	O	"	''	O	O

Although	t203	10	although	O	O	O	O	O	O	O	O	CJS	B-SBAR	although	IN	t212:SUB	O
BP	t204	10	bp	O	O	O	O	O	O	O	O	NP0	B-NP	bp	NNP	t205:SUFFIX	O
's	t205	10	's	O	O	O	O	O	O	O	O	POS	B-NP	's	POS	O	O
involvement	t206	10	involvement	e25	OCCURRENCE	NONE+PERFECTIVE+POS	O	O	O	O	O	NN1	I-NP	involvement	NN	t204:NMOD||t207:LOC	O
in	t207	10	in	O	O	O	O	O	O	O	O	PRP	B-PP	in	IN	t211:PMOD	O
the	t208	10	the	O	O	O	O	O	O	O	O	AT0	B-NP	the	DT	O	O
Russian	t209	10	russian	O	O	O	O	O	O	O	O	AJ0	I-NP	russian	JJ	O	O
joint	t210	10	joint	O	O	O	O	O	O	O	O	AJ0	I-NP	joint	JJ	O	O
venture	t211	10	venture	O	O	O	O	O	O	O	O	NN1	I-NP	venture	NN	t208:NMOD||t209:NMOD||t210:NMOD	O
has	t212	10	have	O	O	O	O	O	O	O	O	VHZ	B-VP	have	VBZ	t206:SBJ||t213:VC	O
been	t213	10	be	O	O	O	O	O	O	O	O	VBN	I-VP	be	VBN	t214:PRD	O
lucrative	t214	10	lucrative	e45	STATE	PRESENT+PERFECTIVE+POS	O	O	O	O	O	AJ0	B-ADJP	lucrative	JJ	O	O
,	t215	10	,	O	O	O	O	O	O	O	O	PUN	O	,	,	O	O
relations	t216	10	relation	O	O	O	O	O	O	O	O	NN2	B-NP	relations	NNS	t217:NMOD	O
with	t217	10	with	O	O	O	O	O	O	O	O	PRP	B-PP	with	IN	t219:PMOD	O
its	t218	10	its	O	O	O	O	O	O	O	O	DPS	B-NP	its	PRP$	O	O
partners	t219	10	partner	O	O	O	O	O	O	O	O	NN2	I-NP	partner	NNS	t218:NMOD	O
have	t220	10	have	O	O	O	O	O	O	O	O	VHB	B-VP	have	VBP	t203:ADV||t215:P||t216:SBJ||t221:TMP||t222:VC||t226:P	mainVb
often	t221	10	often	O	O	O	O	O	O	O	O	AV0	I-VP	often	RB	O	mainVb
been	t222	10	be	O	O	O	O	O	O	O	O	VBN	I-VP	be	VBN	t223:PRD	mainVb
fraught	t223	10	fraught	e26	STATE	PRESENT+PERFECTIVE+POS	O	O	O	O	O	AJ0	B-ADJP	fraught	JJ	t224:AMOD	O
with	t224	10	with	O	O	O	O	O	O	O	O	PRP	B-PP	with	IN	t225:PMOD	O
disagreement	t225	10	disagreement	O	O	O	O	O	O	O	O	NN1	B-NP	disagreement	NN	O	O
.	t226	10	.	O	O	O	O	O	O	O	O	PUN	O	.	.	O	O

In	t227	11	in	O	O	O	O	O	O	O	O	PRP	B-PP	in	IN	t228:PMOD	O
2011	t228	11	2011	O	O	O	tmx6	DATE	2011	O	O	CRD	B-NP	2011	CD	O	O
,	t229	11	,	O	O	O	O	O	O	O	O	PUN	O	,	,	O	O
the	t230	11	the	O	O	O	O	O	O	O	O	AT0	B-NP	the	DT	O	O
AAR	t231	11	AAR	O	O	O	O	O	O	O	O	NP0	I-NP	aar	NNP	O	O
consortium	t232	11	consortium	O	O	O	O	O	O	O	O	NN1	I-NP	consortium	NN	t230:NMOD||t231:NMOD	O
attempted	t233	11	attempt	e27	I_ACTION	PAST+NONE+POS	O	O	O	O	O	VVN	B-VP	attempt	VBD	t227:TMP||t229:P||t232:SBJ||t234:OPRD||t250:COORD||t256:P	mainVb
to	t234	11	to	O	O	O	O	O	O	O	O	TO0	I-VP	to	TO	t235:IM	mainVb
block	t235	11	block	e28	ASPECTUAL	INFINITIVE+NONE+POS	O	O	O	O	O	VVI	I-VP	block	VB	t239:OBJ||t247:MNR	mainVb
a	t236	11	a	O	O	O	O	O	O	O	O	AT0	B-NP	a	DT	O	O
drilling	t237	11	drilling	O	O	O	O	O	O	O	O	NN1	I-NP	drilling	VBG	O	O
joint	t238	11	joint	O	O	O	O	O	O	O	O	AJ0	I-NP	joint	JJ	O	O
venture	t239	11	venture	O	O	O	O	O	O	O	O	NN1	I-NP	venture	NN	t236:NMOD||t237:NMOD||t238:NMOD||t240:LOC||t243:NMOD	O
in	t240	11	in	O	O	O	O	O	O	O	O	PRP	B-PP	in	IN	t242:PMOD	O
the	t241	11	the	O	O	O	O	O	O	O	O	AT0	B-NP	the	DT	O	O
Arctic	t242	11	Arctic	O	O	O	O	O	O	O	O	AJ0	I-NP	arctic	NNP	t241:NMOD	O
between	t243	11	between	O	O	O	O	O	O	O	O	PRP	B-PP	between	IN	t244:PMOD	O
BP	t244	11	BP	O	O	O	O	O	O	O	O	NP0	B-NP	bp	NNP	t245:COORD	O
and	t245	11	and	O	O	O	O	O	O	O	O	CJC	I-NP	and	CC	t246:CONJ	O
Rosneft	t246	11	Rosneft	O	O	O	O	O	O	O	O	NP0	I-NP	rosneft	NNP	O	O
through	t247	11	through	O	O	O	O	O	O	O	O	PRP	B-PP	through	IN	t249:PMOD	O
the	t248	11	the	O	O	O	O	O	O	O	O	AT0	B-NP	the	DT	O	O
courts	t249	11	court	O	O	O	O	O	O	O	O	NN2	I-NP	court	NNS	t248:NMOD	O
and	t250	11	and	O	O	O	O	O	O	O	O	CJC	O	and	CC	t253:CONJ	O
the	t251	11	the	O	O	O	O	O	O	O	O	AT0	B-NP	the	DT	O	O
plan	t252	11	plan	O	O	O	O	O	O	O	O	NN1	I-NP	plan	NN	t251:NMOD	O
was	t253	11	be	O	O	O	O	O	O	O	O	VBD	B-VP	be	VBD	t252:SBJ||t254:TMP||t255:VC	O
eventually	t254	11	eventually	O	O	O	O	O	O	O	O	AV0	I-VP	eventually	RB	O	O
dropped	t255	11	drop	e29	OCCURRENCE	PAST+NONE+POS	O	O	O	O	O	VVN	I-VP	drop	VBN	O	O
.	t256	11	.	O	O	O	O	O	O	O	O	PUN	O	.	.	O	O

As	t257	12	as	O	O	O	O	O	O	O	O	PRP	B-PP	as	RB	t258:DEP||t259:DEP||t261:CONJ	O
well	t258	12	well	O	O	O	O	O	O	O	O	PRP	I-PP	well	RB	O	O
as	t259	12	as	O	O	O	O	O	O	O	O	PRP	I-PP	as	IN	O	O
internal	t260	12	internal	O	O	O	O	O	O	O	O	AJ0	B-NP	internal	JJ	O	O
wrangles	t261	12	wrangle	O	O	O	O	O	O	O	O	NN2	I-NP	wrangle	NNS	t260:NMOD	O
,	t262	12	,	O	O	O	O	O	O	O	O	PUN	O	,	,	O	O
BP	t263	12	bp	O	O	O	O	O	O	O	O	NP0	B-NP	bp	NNP	O	O
employees	t264	12	employee	O	O	O	O	O	O	O	O	NN2	I-NP	employee	NNS	t263:NMOD||t265:LOC	O
at	t265	12	at	O	O	O	O	O	O	O	O	PRP	B-PP	at	IN	t266:PMOD	O
TNK-BP	t266	12	TNK-BP	O	O	O	O	O	O	O	O	NP0	B-NP	tnk-bp	NNP	O	O
have	t267	12	have	O	O	O	O	O	O	O	O	VHB	B-VP	have	VBP	t257:TMP||t262:P||t264:SBJ||t268:VC||t273:P	mainVb
fallen	t268	12	fall	e30	OCCURRENCE	PRESENT+PERFECTIVE+POS	O	O	O	O	O	VVN	I-VP	fall	VBN	t269:OBJ	mainVb
foul	t269	12	foul	O	O	O	O	O	O	O	O	AJ0	B-ADJP	foul	NN	t270:NMOD	O
of	t270	12	of	O	O	O	O	O	O	O	O	PRF	B-PP	of	IN	t272:PMOD	O
Russian	t271	12	russian	O	O	O	O	O	O	O	O	AJ0	B-NP	russian	JJ	O	O
authorities	t272	12	authority	O	O	O	O	O	O	O	O	NN2	I-NP	authorities	NNS	t271:NMOD	O
.	t273	12	.	O	O	O	O	O	O	O	O	PUN	O	.	.	O	O

While	t274	13	while	O	O	O	O	O	O	O	O	CJS	B-SBAR	while	IN	t275:SUB	O
serving	t275	13	serve	e31	OCCURRENCE	PAST+PROGRESSIVE+POS	O	O	O	O	O	VVG	B-VP	serve	VBG	t276:ADV	O
as	t276	13	as	O	O	O	O	O	O	O	O	AV0	B-ADVP	as	IN	t277:PMOD	O
head	t277	13	head	O	O	O	O	O	O	O	O	AV0	I-ADVP	head	NN	t278:NMOD	O
of	t278	13	of	O	O	O	O	O	O	O	O	PRF	B-PP	of	IN	t279:PMOD	O
TNK-BP	t279	13	tnk-bp	O	O	O	O	O	O	O	O	NP0	B-NP	tnk-bp	NNP	O	O
,	t280	13	,	O	O	O	O	O	O	O	O	PUN	O	,	,	O	O
Bob	t281	13	Bob	O	O	O	O	O	O	O	O	NP0	B-NP	bob	NNP	O	O
Dudley	t282	13	Dudley	O	O	O	O	O	O	O	O	NP0	I-NP	dudley	NNP	t281:NAME||t283:HYPH||t284:TMP||t286:APPO	O
-	t283	13	-	O	O	O	O	O	O	O	O	PUN	O	-	HYPH	O	O
now	t284	13	now	O	O	O	tmx9	DATE	PRESENT_REF	O	O	AV0	B-ADVP	now	RB	O	O
the	t285	13	the	O	O	O	O	O	O	O	O	AT0	B-NP	the	DT	O	O
head	t286	13	head	O	O	O	O	O	O	O	O	NN1	I-NP	head	NN	t285:NMOD||t287:NMOD||t289:NMOD	O
of	t287	13	of	O	O	O	O	O	O	O	O	PRF	B-PP	of	IN	t288:PMOD	O
BP	t288	13	bp	O	O	O	O	O	O	O	O	NP0	B-NP	bp	NNP	O	O
as	t289	13	as	O	O	O	O	O	O	O	O	PRP	B-PP	as	IN	t291:PMOD	O
a	t290	13	a	O	O	O	O	O	O	O	O	AT0	B-NP	a	DT	O	O
whole	t291	13	whole	O	O	O	O	O	O	O	O	NN1	I-NP	whole	JJ	t290:NMOD||t292:HYPH	O
-	t292	13	-	O	O	O	O	O	O	O	O	PUN	O	-	HYPH	O	O
had	t293	13	have	O	O	O	O	O	O	O	O	VHD	B-VP	have	VBD	t274:ADV||t280:P||t282:SBJ||t295:OBJ||t296:OPRD||t297:COORD||t314:P	mainVb
his	t294	13	he	O	O	O	O	O	O	O	O	DPS	B-NP	his	PRP$	O	O
office	t295	13	office	O	O	O	O	O	O	O	O	NN1	I-NP	office	NN	t294:NMOD	O
bugged	t296	13	bug	e33	OCCURRENCE	PAST+NONE+POS	O	O	O	O	O	VVD	B-VP	bug	VBD	O	O
and	t297	13	and	O	O	O	O	O	O	O	O	CJC	O	and	CC	t298:CONJ	O
raided	t298	13	raid	e34	OCCURRENCE	PAST+NONE+POS	O	O	O	O	O	VVD	B-VP	raid	VBD	t299:LGS||t302:COORD	O
by	t299	13	by	O	O	O	O	O	O	O	O	PRP	B-PP	by	IN	t301:PMOD	O
the	t300	13	the	O	O	O	O	O	O	O	O	AT0	B-NP	the	DT	O	O
police	t301	13	police	O	O	O	O	O	O	O	O	NN2	I-NP	police	NN	t300:NMOD	O
and	t302	13	and	O	O	O	O	O	O	O	O	CJC	O	and	CC	t303:CONJ	O
met	t303	13	meet	e35	OCCURRENCE	PAST+NONE+POS	O	O	O	O	O	VVD	B-VP	meet	VBD	t304:ADV	O
with	t304	13	with	O	O	O	O	O	O	O	O	PRP	B-PP	with	IN	t307:PMOD	O
onerous	t305	13	onerous	O	O	O	O	O	O	O	O	AJ0	B-NP	onerous	JJ	O	O
back-tax	t306	13	back-tax	O	O	O	O	O	O	O	O	NN1	I-NP	back-tax	NN	O	O
demands	t307	13	demand	e47	OCCURRENCE	PAST+NONE+POS	O	O	O	O	O	NN2	I-NP	demand	NNS	t305:NMOD||t306:NMOD||t308:P||t310:COORD	O
,	t308	13	,	O	O	O	O	O	O	O	O	PUN	O	,	,	O	O
legal	t309	13	legal	O	O	O	O	O	O	O	O	AJ0	B-NP	legal	JJ	O	O
action	t310	13	action	e48	OCCURRENCE	PAST+NONE+POS	O	O	O	O	O	NN1	I-NP	action	NN	t309:NMOD||t311:COORD	O
and	t311	13	and	O	O	O	O	O	O	O	O	CJC	I-NP	and	CC	t313:CONJ	O
visa	t312	13	visa	O	O	O	O	O	O	O	O	NN1	I-NP	visa	NN	O	O
problems	t313	13	problem	e49	OCCURRENCE	PAST+NONE+POS	O	O	O	O	O	NN2	I-NP	problem	NNS	t312:NMOD	O
.	t314	13	.	O	O	O	O	O	O	O	O	PUN	O	.	.	O	O

He	t315	14	he	O	O	O	O	O	O	O	O	PNP	B-NP	he	PRP	O	O
eventually	t316	14	eventually	O	O	O	O	O	O	O	O	AV0	B-ADVP	eventually	RB	O	O
fled	t317	14	flee	e36	OCCURRENCE	PAST+NONE+POS	O	O	O	O	O	VVD	B-VP	flee	VBD	t315:SBJ||t316:TMP||t319:OBJ||t320:TMP||t322:P	mainVb
the	t318	14	the	O	O	O	O	O	O	O	O	AT0	B-NP	the	DT	O	O
country	t319	14	country	O	O	O	O	O	O	O	O	NN1	I-NP	country	NN	t318:NMOD	O
in	t320	14	in	O	O	O	O	O	O	O	O	PRP	B-PP	in	IN	t321:PMOD	O
2008	t321	14	2008	O	O	O	tmx7	DURATION	2008	O	O	CRD	B-NP	2008	CD	O	O
.	t322	14	.	O	O	O	O	O	O	O	O	PUN	O	.	.	O	O

But	t323	15	but	O	O	O	O	O	O	O	O	CJC	O	but	CC	O	O
the	t324	15	the	O	O	O	O	O	O	O	O	AT0	B-NP	the	DT	O	O
tie-up	t325	15	tie-up	e50	OCCURRENCE	NONE+NONE+POS	O	O	O	O	O	NN1	I-NP	tie-up	NN	t324:NMOD||t326:NMOD	O
with	t326	15	with	O	O	O	O	O	O	O	O	PRP	B-PP	with	IN	t327:PMOD	O
Rosneft	t327	15	Rosneft	O	O	O	O	O	O	O	O	NP0	B-NP	rosneft	NNP	O	O
will	t328	15	will	O	O	O	O	O	O	O	O	VM0	B-VP	will	MD	t323:DEP||t325:SBJ||t329:VC||t354:P	mainVb
keep	t329	15	keep	e37	ASPECTUAL	FUTURE+NONE+POS	O	O	O	O	O	VVI	I-VP	keep	VB	t330:OBJ||t331:LOC||t333:P||t334:ADV	mainVb
BP	t330	15	BP	O	O	O	O	O	O	O	O	NP0	B-NP	bp	NNP	O	O
in	t331	15	in	O	O	O	O	O	O	O	O	PRP	B-PP	in	IN	t332:PMOD	O
Russia	t332	15	Russia	O	O	O	O	O	O	O	O	NP0	B-NP	russia	NNP	O	O
,	t333	15	,	O	O	O	O	O	O	O	O	PUN	O	,	,	O	O
allowing	t334	15	allow	e38	I_ACTION	PRESPART+NONE+POS	O	O	O	O	O	VVG	B-VP	allow	VBG	t335:OBJ||t336:OPRD	O
it	t335	15	it	O	O	O	O	O	O	O	O	PNP	B-NP	it	PRP	O	O
to	t336	15	to	O	O	O	O	O	O	O	O	TO0	B-VP	to	TO	t337:IM	O
continue	t337	15	continue	e39	ASPECTUAL	INFINITIVE+NONE+POS	O	O	O	O	O	VVI	I-VP	continue	VB	t338:OPRD	O
to	t338	15	to	O	O	O	O	O	O	O	O	TO0	I-VP	to	TO	t339:IM	O
explore	t339	15	explore	e40	OCCURRENCE	INFINITIVE+NONE+POS	O	O	O	O	O	VVI	I-VP	explore	VB	t340:COORD||t347:OBJ	O
and	t340	15	and	O	O	O	O	O	O	O	O	CJC	I-VP	and	CC	t341:CONJ	O
exploit	t341	15	exploit	O	O	O	O	O	O	O	O	VVI	I-VP	exploit	VB	O	O
the	t342	15	the	O	O	O	O	O	O	O	O	AT0	B-NP	the	DT	O	O
country	t343	15	country	O	O	O	O	O	O	O	O	NN1	I-NP	country	NN	t342:NMOD||t344:SUFFIX	O
's	t344	15	's	O	O	O	O	O	O	O	O	POS	B-NP	's	POS	O	O
vast	t345	15	vast	O	O	O	O	O	O	O	O	AJ0	I-NP	vast	JJ	O	O
energy	t346	15	energy	O	O	O	O	O	O	O	O	NN1	I-NP	energy	NN	O	O
resources	t347	15	resource	O	O	O	O	O	O	O	O	NN2	I-NP	resource	NNS	t343:NMOD||t345:NMOD||t346:NMOD||t348:P||t349:NMOD	O
,	t348	15	,	O	O	O	O	O	O	O	O	PUN	O	,	,	O	O
including	t349	15	include	O	O	O	O	O	O	O	O	PRP	B-PP	include	VBG	t350:PMOD	O
in	t350	15	in	O	O	O	O	O	O	O	O	PRP	B-PP	in	IN	t353:PMOD	O
the	t351	15	the	O	O	O	O	O	O	O	O	AT0	B-NP	the	DT	O	O
Arctic	t352	15	Arctic	O	O	O	O	O	O	O	O	AJ0	I-NP	arctic	JJ	O	O
region	t353	15	region	O	O	O	O	O	O	O	O	NN1	I-NP	region	NN	t351:NMOD||t352:NMOD	O
.	t354	15	.	O	O	O	O	O	O	O	O	PUN	O	.	.	O	O

And	t355	16	and	O	O	O	O	O	O	O	O	CJC	O	and	CC	O	O
Rosneft	t356	16	Rosneft	O	O	O	O	O	O	O	O	NP0	B-NP	rosneft	NNP	O	O
benefits	t357	16	benefit	e42	OCCURRENCE	PRESENT+NONE+POS	O	O	O	O	O	VVZ	B-VP	benefit	NNS	t355:DEP||t356:NMOD||t358:NMOD||t370:P	mainVb
from	t358	16	from	O	O	O	O	O	O	O	O	PRP	B-PP	from	IN	t361:PMOD	O
BP	t359	16	BP	O	O	O	O	O	O	O	O	NP0	B-NP	bp	NNP	t360:SUFFIX	O
's	t360	16	's	O	O	O	O	O	O	O	O	POS	B-NP	's	POS	O	O
expertise	t361	16	expertise	O	O	O	O	O	O	O	O	NN1	I-NP	expertise	NN	t359:NMOD||t362:LOC	O
in	t362	16	in	O	O	O	O	O	O	O	O	PRP	B-PP	in	IN	t363:PMOD	O
exploring	t363	16	explore	O	O	O	O	O	O	O	O	VVG	B-VP	explore	VBG	t364:LOC	O
in	t364	16	in	O	O	O	O	O	O	O	O	PRP	B-PP	in	IN	t369:PMOD	O
difficult	t365	16	difficult	O	O	O	O	O	O	O	O	AJ0	B-NP	difficult	JJ	t366:COORD	O
and	t366	16	and	O	O	O	O	O	O	O	O	CJC	I-NP	and	CC	t368:CONJ	O
potentially	t367	16	potentially	O	O	O	O	O	O	O	O	AV0	I-NP	potentially	RB	O	O
hazardous	t368	16	hazardous	O	O	O	O	O	O	O	O	AJ0	I-NP	hazardous	JJ	t367:AMOD	O
conditions	t369	16	condition	O	O	O	O	O	O	O	O	NN2	I-NP	condition	NNS	t365:NMOD	O
.	t370	16	.	O	O	O	O	O	O	O	O	PUN	O	.	.	O	O
