DCT_1989-11-01	O	O	O	O	O	O	tmx0	DATE	1989-11-01	O	O	NP0	B-NP	dct_1989-11-01	LS	O	O

StatesWest	t1	1	StatesWest	O	O	O+O+O	O	O	O	O	O	NP0	B-NP	stateswest	NNP	O	O
Airlines	t2	1	Airlines	O	O	O+O+O	O	O	O	O	O	NP0	I-NP	airline	NNPS	t1:NAME||t3:P||t4:LOC	O
,	t3	1	,	O	O	O+O+O	O	O	O	O	O	PUN	O	,	,	O	O
Phoenix	t4	1	Phoenix	O	O	O+O+O	O	O	O	O	O	NP0	B-NP	phoenix	NNP	t5:P||t6:APPO||t7:P	O
,	t5	1	,	O	O	O+O+O	O	O	O	O	O	PUN	O	,	,	O	O
Ariz.	t6	1	Ariz.	O	O	O+O+O	O	O	O	O	O	NP0	B-NP	ariz.	NNP	O	O
,	t7	1	,	O	O	O+O+O	O	O	O	O	O	PUN	O	,	,	O	O
said	t8	1	say	e1	REPORTING	PAST+NONE+POS	O	O	O	O	O	VVD	B-VP	say	VBD	t2:SBJ||t10:OBJ||t45:P	mainVb
it	t9	1	it	O	O	O	O	O	O	O	O	PNP	B-NP	it	PRP	O	O
withdrew	t10	1	withdraw	e2	OCCURRENCE	PAST+NONE+POS	O	O	O	O	O	VVD	B-VP	withdraw	VBD	t9:SBJ||t12:OBJ||t17:PRP	O
its	t11	1	its	O	O	O	O	O	O	O	O	DPS	B-NP	its	PRP$	O	O
offer	t12	1	offer	e3	I_ACTION	NONE+NONE+POS	O	O	O	O	O	NN1	I-NP	offer	NN	t11:NMOD||t13:NMOD	O
to	t13	1	to	O	O	O	O	O	O	O	O	TO0	B-VP	to	TO	t14:IM	O
acquire	t14	1	acquire	e5	OCCURRENCE	INFINITIVE+NONE+POS	O	O	O	O	O	VVI	I-VP	acquire	VB	t16:OBJ	O
Mesa	t15	1	Mesa	O	O	O	O	O	O	O	O	NP0	B-NP	mesa	NNP	O	O
Airlines	t16	1	Airlines	O	O	O	O	O	O	O	O	NP0	I-NP	airline	NNPS	t15:NAME	O
because	t17	1	because	O	O	O	O	O	O	O	O	CJS	B-SBAR	because	IN	t24:SUB	O
the	t18	1	the	O	O	O	O	O	O	O	O	AT0	B-NP	the	DT	O	O
Farmington	t19	1	Farmington	O	O	O	O	O	O	O	O	NP0	I-NP	farmington	NNP	O	O
,	t20	1	,	O	O	O	O	O	O	O	O	PUN	O	,	,	O	O
N.M.	t21	1	N.M.	O	O	O	O	O	O	O	O	NP0	B-NP	n.m.	NNP	O	O
,	t22	1	,	O	O	O	O	O	O	O	O	PUN	O	,	,	O	O
carrier	t23	1	carrier	O	O	O	O	O	O	O	O	NN1	B-NP	carrier	NN	t18:NMOD||t19:NMOD||t20:P||t21:NMOD||t22:P	O
did	t24	1	do	O	O	O	O	O	O	O	O	VDD	B-VP	do	VBD	t23:SBJ||t25:ADV||t26:VC	O
n't	t25	1	not	O	O	O	O	O	O	O	O	XX0	I-VP	not	RB	O	O
respond	t26	1	respond	e6	OCCURRENCE	PAST+NONE+NEG	O	O	O	O	O	VVI	I-VP	respond	VB	t27:ADV||t30:TMP	O
to	t27	1	to	O	O	O	O	O	O	O	O	PRP	B-PP	to	TO	t29:PMOD	O
its	t28	1	its	O	O	O	O	O	O	O	O	DPS	B-NP	its	PRP$	O	O
offer	t29	1	offer	e8	OCCURRENCE	NONE+NONE+POS	O	O	O	O	O	NN1	I-NP	offer	NN	t28:NMOD	O
by	t30	1	by	O	O	O	O	O	O	O	O	PRP	B-PP	by	IN	t32:PMOD	O
the	t31	1	the	O	O	O	O	O	O	O	O	AT0	B-NP	the	DT	O	O
close	t32	1	close	e9	OCCURRENCE	NONE+NONE+POS	O	O	O	O	O	NN1	I-NP	close	NN	t31:NMOD||t33:NMOD||t35:TMP||t36:P||t38:APPO	O
of	t33	1	of	O	O	O	O	O	O	O	O	PRF	B-PP	of	IN	t34:PMOD	O
business	t34	1	business	O	O	O	O	O	O	O	O	NN1	B-NP	business	NN	O	O
yesterday	t35	1	yesterday	O	O	O	tmx41	DATE	1989-10-31	O	O	AV0	B-NP	yesterday	NN	O	O
,	t36	1	,	O	O	O	O	O	O	O	O	PUN	O	,	,	O	O
a	t37	1	a	O	O	O	O	O	O	O	O	AT0	B-NP	a	DT	O	O
deadline	t38	1	deadline	O	O	O	O	O	O	O	O	NN1	I-NP	deadline	NN	t37:NMOD||t40:NMOD	O
StatesWest	t39	1	StatesWest	O	O	O	O	O	O	O	O	NN1	I-NP	stateswest	NNP	O	O
had	t40	1	have	O	O	O	O	O	O	O	O	VHD	B-VP	have	VBD	t39:SBJ||t41:VC	O
set	t41	1	set	e11	OCCURRENCE	PAST+PERFECTIVE+POS	O	O	O	O	O	VVN	I-VP	set	VBN	t42:ADV	O
for	t42	1	for	O	O	O	O	O	O	O	O	PRP	B-PP	for	IN	t44:PMOD	O
a	t43	1	a	O	O	O	O	O	O	O	O	AT0	B-NP	a	DT	O	O
response	t44	1	response	O	O	O	O	O	O	O	O	NN1	I-NP	response	NN	t43:NMOD	O
.	t45	1	.	O	O	O	O	O	O	O	O	PUN	O	.	.	O	O

However	t46	2	however	O	O	O	O	O	O	O	O	AV0	B-ADVP	however	RB	O	O
,	t47	2	,	O	O	O	O	O	O	O	O	PUN	O	,	,	O	O
StatesWest	t48	2	StatesWest	O	O	O	O	O	O	O	O	NN1	B-NP	stateswest	NNP	O	O
is	t49	2	be	O	O	O	O	O	O	O	O	VBZ	B-VP	be	VBZ	t46:ADV||t47:P||t48:SBJ||t50:ADV||t51:VC||t58:P	mainVb
n't	t50	2	not	O	O	O	O	O	O	O	O	XX0	I-VP	not	RB	O	mainVb
abandoning	t51	2	abandon	e12	ASPECTUAL	PRESENT+PROGRESSIVE+NEG	O	O	O	O	O	VVG	I-VP	abandon	VBG	t53:OBJ	mainVb
its	t52	2	its	O	O	O	O	O	O	O	O	DPS	B-NP	its	PRP$	O	O
pursuit	t53	2	pursuit	e14	OCCURRENCE	NONE+NONE+POS	O	O	O	O	O	NN1	I-NP	pursuit	NN	t52:NMOD||t54:NMOD	O
of	t54	2	of	O	O	O	O	O	O	O	O	PRF	B-PP	of	IN	t56:PMOD	O
the	t55	2	the	O	O	O	O	O	O	O	O	AT0	B-NP	the	DT	O	O
much-larger	t56	2	much-larger	O	O	O	O	O	O	O	O	NN1	I-NP	much-larger	NN	t55:NMOD||t57:APPO	O
Mesa	t57	2	Mesa	O	O	O	O	O	O	O	O	NP0	I-NP	mesa	NNP	O	O
.	t58	2	.	O	O	O	O	O	O	O	O	PUN	O	.	.	O	O

StatesWest	t59	3	StatesWest	O	O	O	O	O	O	O	O	NN1	B-NP	stateswest	NNP	t60:P||t62:NMOD||t69:P	O
,	t60	3	,	O	O	O	O	O	O	O	O	PUN	O	,	,	O	O
which	t61	3	which	O	O	O	O	O	O	O	O	DTQ	B-NP	which	WDT	O	O
has	t62	3	have	O	O	O	O	O	O	O	O	VHZ	B-VP	have	VBZ	t61:SBJ||t66:OBJ	O
a	t63	3	a	O	O	O	O	O	O	O	O	AT0	B-NP	a	DT	O	O
7.25	t64	3	7.25	O	O	O	O	O	O	O	O	CRD	I-NP	7.25	CD	O	O
%	t65	3	%	O	O	O	O	O	O	O	O	UNC	I-NP	%	NN	t64:NMOD	O
stake	t66	3	stake	O	O	O	O	O	O	O	O	NN1	I-NP	stake	NN	t63:NMOD||t65:NMOD||t67:LOC	O
in	t67	3	in	O	O	O	O	O	O	O	O	PRP	B-PP	in	IN	t68:PMOD	O
Mesa	t68	3	Mesa	O	O	O	O	O	O	O	O	NP0	B-NP	mesa	NNP	O	O
,	t69	3	,	O	O	O	O	O	O	O	O	PUN	O	,	,	O	O
said	t70	3	say	e17	REPORTING	PAST+NONE+POS	O	O	O	O	O	VVD	B-VP	say	VBD	t59:SBJ||t72:OBJ||t86:P	mainVb
it	t71	3	it	O	O	O	O	O	O	O	O	PNP	B-NP	it	PRP	O	O
may	t72	3	may	O	O	O	O	O	O	O	O	VM0	B-VP	may	MD	t71:SBJ||t73:VC	O
purchase	t73	3	purchase	e18	OCCURRENCE	NONE+NONE+POS	O	O	O	O	O	VVI	I-VP	purchase	VB	t76:OBJ||t77:COORD	O
more	t74	3	more	O	O	O	O	O	O	O	O	AV0	B-NP	more	DT	O	O
Mesa	t75	3	Mesa	O	O	O	O	O	O	O	O	NP0	I-NP	mesa	NNP	O	O
stock	t76	3	stock	O	O	O	O	O	O	O	O	NN1	I-NP	stock	NN	t74:NMOD||t75:NMOD	O
or	t77	3	or	O	O	O	O	O	O	O	O	CJC	O	or	CC	t78:CONJ	O
make	t78	3	make	e20	OCCURRENCE	NONE+NONE+POS	O	O	O	O	O	VVB	B-VP	make	VB	t81:OBJ||t83:DTV	O
a	t79	3	a	O	O	O	O	O	O	O	O	AT0	B-NP	a	DT	O	O
tender	t80	3	tender	O	O	O	O	O	O	O	O	AJ0	I-NP	tender	NN	O	O
offer	t81	3	offer	e21	OCCURRENCE	NONE+NONE+POS	O	O	O	O	O	NN1	I-NP	offer	NN	t79:NMOD||t80:NMOD	O
directly	t82	3	directly	O	O	O	O	O	O	O	O	AV0	B-ADVP	directly	RB	O	O
to	t83	3	to	O	O	O	O	O	O	O	O	PRP	B-PP	to	TO	t82:MNR||t85:PMOD	O
Mesa	t84	3	Mesa	O	O	O	O	O	O	O	O	NP0	B-NP	mesa	NNP	O	O
shareholders	t85	3	shareholder	O	O	O	O	O	O	O	O	NN2	I-NP	shareholder	NNS	t84:NMOD	O
.	t86	3	.	O	O	O	O	O	O	O	O	PUN	O	.	.	O	O

StatesWest	t87	4	StatesWest	O	O	O	O	O	O	O	O	NP0	B-NP	stateswest	NNP	O	O
had	t88	4	have	O	O	O	O	O	O	O	O	VHD	B-VP	have	VBD	t87:SBJ||t89:VC||t118:P	mainVb
proposed	t89	4	propose	e22	I_ACTION	PAST+PERFECTIVE+POS	O	O	O	O	O	VVN	I-VP	propose	VBN	t90:OPRD	mainVb
acquiring	t90	4	acquire	e23	OCCURRENCE	NONE+NONE+POS	O	O	O	O	O	VVG	I-VP	acquire	VBG	t91:OBJ||t92:ADV	mainVb
Mesa	t91	4	Mesa	O	O	O	O	O	O	O	O	NP0	B-NP	mesa	NNP	O	O
for	t92	4	for	O	O	O	O	O	O	O	O	PRP	B-PP	for	IN	t93:PMOD	O
$	t93	4	$	O	O	O	O	O	O	O	O	ZZ0	B-NP	$	$	t94:NMOD||t96:ADV||t97:COORD	O
7	t94	4	7	O	O	O	O	O	O	O	O	CRD	I-NP	7	CD	O	O
a	t95	4	a	O	O	O	O	O	O	O	O	AT0	B-NP	a	DT	O	O
share	t96	4	share	O	O	O	O	O	O	O	O	NN1	I-NP	share	NN	t95:NMOD	O
and	t97	4	and	O	O	O	O	O	O	O	O	CJC	O	and	CC	t99:CONJ	O
one	t98	4	one	O	O	O	O	O	O	O	O	CRD	B-NP	one	CD	O	O
share	t99	4	share	O	O	O	O	O	O	O	O	NN1	I-NP	share	NN	t98:NMOD||t100:NMOD	O
of	t100	4	of	O	O	O	O	O	O	O	O	PRF	B-PP	of	IN	t103:PMOD	O
a	t101	4	a	O	O	O	O	O	O	O	O	AT0	B-NP	a	DT	O	O
new	t102	4	new	O	O	O	O	O	O	O	O	AJ0	I-NP	new	JJ	O	O
series	t103	4	series	O	O	O	O	O	O	O	O	NN0	I-NP	series	NN	t101:NMOD||t102:NMOD||t104:NMOD||t112:NMOD	O
of	t104	4	of	O	O	O	O	O	O	O	O	PRF	B-PP	of	IN	t110:PMOD	O
StatesWest	t105	4	StatesWest	O	O	O	O	O	O	O	O	NN1	B-NP	stateswest	NNP	O	O
6	t106	4	6	O	O	O	O	O	O	O	O	CRD	I-NP	6	CD	O	O
%	t107	4	%	O	O	O	O	O	O	O	O	UNC	I-NP	%	NN	t106:NMOD	O
convertible	t108	4	convertible	O	O	O	O	O	O	O	O	AJ0	I-NP	convertible	JJ	O	O
preferred	t109	4	preferred	O	O	O	O	O	O	O	O	AJ0	I-NP	prefer	VBN	O	O
stock	t110	4	stock	O	O	O	O	O	O	O	O	NN1	I-NP	stock	NN	t105:NMOD||t107:NMOD||t108:NMOD||t109:NMOD	O
it	t111	4	it	O	O	O	O	O	O	O	O	PNP	B-NP	it	PRP	O	O
values	t112	4	value	O	O	O	O	O	O	O	O	VVZ	B-VP	value	VBZ	t111:SBJ||t113:ADV	O
at	t113	4	at	O	O	O	O	O	O	O	O	PRP	B-PP	at	IN	t114:PMOD	O
$	t114	4	$	O	O	O	O	O	O	O	O	NN1	B-NP	$	$	t115:NMOD||t117:ADV	O
3	t115	4	3	O	O	O	O	O	O	O	O	CRD	I-NP	3	CD	O	O
a	t116	4	a	O	O	O	O	O	O	O	O	AT0	B-NP	a	DT	O	O
share	t117	4	share	O	O	O	O	O	O	O	O	NN1	I-NP	share	NN	t116:NMOD	O
.	t118	4	.	O	O	O	O	O	O	O	O	PUN	O	.	.	O	O

Earlier	t119	5	earlier	O	O	O	O	O	O	O	O	AV0	B-ADVP	earlier	RBR	O	O
,	t120	5	,	O	O	O	O	O	O	O	O	PUN	O	,	,	O	O
Mesa	t121	5	Mesa	O	O	O	O	O	O	O	O	NP0	B-NP	mesa	NNP	O	O
had	t122	5	have	O	O	O	O	O	O	O	O	VHD	B-VP	have	VBD	t119:TMP||t120:P||t121:SBJ||t123:VC||t137:P	mainVb
rejected	t123	5	reject	e26	I_STATE	PAST+PERFECTIVE+POS	O	O	O	O	O	VVN	I-VP	reject	VBN	t126:OBJ	mainVb
a	t124	5	a	O	O	O	O	O	O	O	O	AT0	B-NP	a	DT	O	O
general	t125	5	general	O	O	O	O	O	O	O	O	AJ0	I-NP	general	JJ	O	O
proposal	t126	5	proposal	e27	I_ACTION	NONE+NONE+POS	O	O	O	O	O	NN1	I-NP	proposal	NN	t124:NMOD||t125:NMOD||t127:NMOD||t129:NMOD	O
from	t127	5	from	O	O	O	O	O	O	O	O	PRP	B-PP	from	IN	t128:PMOD	O
StatesWest	t128	5	StatesWest	O	O	O	O	O	O	O	O	NN1	B-NP	stateswest	NNP	O	O
to	t129	5	to	O	O	O	O	O	O	O	O	PRP	B-PP	to	TO	t130:IM	O
combine	t130	5	combine	e29	OCCURRENCE	INFINITIVE+NONE+POS	O	O	O	O	O	NN1	B-NP	combine	VB	t133:OBJ||t134:MNR	O
the	t131	5	the	O	O	O	O	O	O	O	O	AT0	B-NP	the	DT	O	O
two	t132	5	two	O	O	O	O	O	O	O	O	CRD	I-NP	two	CD	O	O
carriers	t133	5	carrier	O	O	O	O	O	O	O	O	NN2	I-NP	carrier	NNS	t131:NMOD||t132:NMOD	O
in	t134	5	in	O	O	O	O	O	O	O	O	PRP	B-PP	in	IN	t136:PMOD	O
some	t135	5	some	O	O	O	O	O	O	O	O	DT0	B-NP	some	DT	O	O
way	t136	5	way	O	O	O	O	O	O	O	O	NN1	I-NP	way	NN	t135:NMOD	O
.	t137	5	.	O	O	O	O	O	O	O	O	PUN	O	.	.	O	O

StatesWest	t138	6	StatesWest	O	O	O	O	O	O	O	O	NN1	B-NP	stateswest	NNP	O	O
serves	t139	6	serve	O	O	O	O	O	O	O	O	VVZ	B-VP	serve	VBZ	t138:SBJ||t141:OBJ||t148:P	mainVb
10	t140	6	10	O	O	O	O	O	O	O	O	CRD	B-NP	10	CD	O	O
cities	t141	6	city	O	O	O	O	O	O	O	O	NN2	I-NP	city	NNS	t140:NMOD||t142:LOC	O
in	t142	6	in	O	O	O	O	O	O	O	O	PRP	B-PP	in	IN	t143:PMOD	O
California	t143	6	California	O	O	O	O	O	O	O	O	NP0	B-NP	california	NNP	t144:P||t145:COORD	O
,	t144	6	,	O	O	O	O	O	O	O	O	PUN	O	,	,	O	O
Arizona	t145	6	Arizona	O	O	O	O	O	O	O	O	NP0	B-NP	arizona	NNP	t146:COORD	O
and	t146	6	and	O	O	O	O	O	O	O	O	CJC	I-NP	and	CC	t147:CONJ	O
Nevada	t147	6	Nevada	O	O	O	O	O	O	O	O	NP0	I-NP	nevada	NNP	O	O
.	t148	6	.	O	O	O	O	O	O	O	O	PUN	O	.	.	O	O

Mesa	t149	7	Mesa	O	O	O	O	O	O	O	O	NP0	B-NP	mesa	NNP	O	O
flies	t150	7	fly	O	O	O	O	O	O	O	O	VVZ	B-VP	fly	VBZ	t149:SBJ||t151:DIR||t165:P	mainVb
to	t151	7	to	O	O	O	O	O	O	O	O	PRP	B-PP	to	TO	t153:PMOD	O
42	t152	7	42	O	O	O	O	O	O	O	O	CRD	B-NP	42	CD	O	O
cities	t153	7	city	O	O	O	O	O	O	O	O	NN2	I-NP	city	NNS	t152:NMOD||t154:LOC	O
in	t154	7	in	O	O	O	O	O	O	O	O	PRP	B-PP	in	IN	t156:PMOD	O
New	t155	7	New	O	O	O	O	O	O	O	O	NP0	B-NP	new	NNP	O	O
Mexico	t156	7	Mexico	O	O	O	O	O	O	O	O	NP0	I-NP	mexico	NNP	t155:NAME||t157:P||t158:COORD	O
,	t157	7	,	O	O	O	O	O	O	O	O	PUN	O	,	,	O	O
Arizona	t158	7	Arizona	O	O	O	O	O	O	O	O	NP0	B-NP	arizona	NNP	t159:P||t160:COORD	O
,	t159	7	,	O	O	O	O	O	O	O	O	PUN	O	,	,	O	O
Wyoming	t160	7	Wyoming	O	O	O	O	O	O	O	O	NP0	B-NP	wyoming	NNP	t161:P||t162:COORD	O
,	t161	7	,	O	O	O	O	O	O	O	O	PUN	O	,	,	O	O
Colorado	t162	7	Colorado	O	O	O	O	O	O	O	O	NP0	B-NP	colorado	NNP	t163:COORD	O
and	t163	7	and	O	O	O	O	O	O	O	O	CJC	I-NP	and	CC	t164:CONJ	O
Texas	t164	7	Texas	O	O	O	O	O	O	O	O	NP0	I-NP	texas	NNP	O	O
.	t165	7	.	O	O	O	O	O	O	O	O	PUN	O	.	.	O	O
