DCT_1989-10-27	O	O	O	O	O	O	tmx0	DATE	1989-10-27	O	O	NP0	B-NP	dct_1989-10-27	LS	O	O

Norton	t1	1	Norton	O	O	O+O+O	O	O	O	O	O	NP0	B-NP	norton	NNP	t2:POSTHON	O
Co.	t2	1	Co.	O	O	O+O+O	O	O	O	O	O	NP0	I-NP	co.	NNP	O	O
said	t3	1	say	e1	REPORTING	PAST+NONE+POS	O	O	O	O	O	VVD	B-VP	say	VBD	t1:SBJ||t10:OBJ||t34:P	mainVb
net	t4	1	net	O	O	O	O	O	O	O	O	AJ0	B-NP	net	JJ	O	O
income	t5	1	income	O	O	O	O	O	O	O	O	NN1	I-NP	income	NN	t4:NMOD||t6:NMOD	O
for	t6	1	for	O	O	O	O	O	O	O	O	PRP	B-PP	for	IN	t9:PMOD	O
the	t7	1	the	O	O	O	tmx50	DATE	1989-Q3	O	O	AT0	B-NP	the	DT	O	O
third	t8	1	third	O	O	O	tmx50	DATE	1989-Q3	O	O	ORD	I-NP	third	JJ	O	O
quarter	t9	1	quarter	O	O	O	tmx50	DATE	1989-Q3	O	O	NN1	I-NP	quarter	NN	t7:NMOD||t8:NMOD	O
fell	t10	1	fall	e2	OCCURRENCE	PAST+NONE+POS	O	O	O	O	O	VVD	B-VP	fell	VBD	t5:SBJ||t12:EXT||t13:DIR||t23:P||t24:DIR	O
6	t11	1	6	O	O	O	O	O	O	O	O	CRD	B-NP	6	CD	O	O
%	t12	1	%	O	O	O	O	O	O	O	O	UNC	I-NP	%	NN	t11:NMOD	O
to	t13	1	to	O	O	O	O	O	O	O	O	PRP	B-PP	to	TO	t14:PMOD	O
$	t14	1	$	O	O	O	O	O	O	O	O	NN0	B-NP	$	$	t15:DEP||t16:DEP||t17:P||t18:COORD	O
20.6	t15	1	20.6	O	O	O	O	O	O	O	O	CRD	I-NP	20.6	CD	O	O
million	t16	1	million	O	O	O	O	O	O	O	O	CRD	I-NP	million	CD	O	O
,	t17	1	,	O	O	O	O	O	O	O	O	PUN	O	,	,	O	O
or	t18	1	or	O	O	O	O	O	O	O	O	CJC	O	or	CC	t20:CONJ	O
98	t19	1	98	O	O	O	O	O	O	O	O	CRD	B-NP	98	CD	O	O
cents	t20	1	cent	O	O	O	O	O	O	O	O	NN2	I-NP	cent	NNS	t19:NMOD||t22:ADV	O
a	t21	1	a	O	O	O	O	O	O	O	O	AT0	B-NP	a	DT	O	O
share	t22	1	share	O	O	O	O	O	O	O	O	NN1	I-NP	share	NN	t21:NMOD	O
,	t23	1	,	O	O	O	O	O	O	O	O	PUN	O	,	,	O	O
from	t24	1	from	O	O	O	O	O	O	O	O	PRP	B-PP	from	IN	t25:PMOD	O
$	t25	1	$	O	O	O	O	O	O	O	O	CRD	B-NP	$	$	t26:DEP||t27:DEP||t28:P||t29:COORD	O
22	t26	1	22	O	O	O	O	O	O	O	O	CRD	I-NP	22	CD	O	O
million	t27	1	million	O	O	O	O	O	O	O	O	CRD	I-NP	million	CD	O	O
,	t28	1	,	O	O	O	O	O	O	O	O	PUN	O	,	,	O	O
or	t29	1	or	O	O	O	O	O	O	O	O	CJC	O	or	CC	t30:CONJ	O
$	t30	1	$	O	O	O	O	O	O	O	O	CRD	B-NP	$	$	t31:NMOD||t33:ADV	O
1.03	t31	1	1.03	O	O	O	O	O	O	O	O	CRD	I-NP	1.03	CD	O	O
a	t32	1	a	O	O	O	O	O	O	O	O	AT0	B-NP	a	DT	O	O
share	t33	1	share	O	O	O	O	O	O	O	O	NN1	I-NP	share	NN	t32:NMOD	O
.	t34	1	.	O	O	O	O	O	O	O	O	PUN	O	.	.	O	O

Operating	t35	2	operating	O	O	O	O	O	O	O	O	VVG	B-NP	operating	NN	O	O
profit	t36	2	profit	O	O	O	O	O	O	O	O	NN1	I-NP	profit	NN	t35:NMOD||t37:NMOD	O
for	t37	2	for	O	O	O	O	O	O	O	O	PRP	B-PP	for	IN	t46:PMOD	O
the	t38	2	the	O	O	O	O	O	O	O	O	AT0	B-NP	the	DT	O	O
abrasives	t39	2	abrasive	O	O	O	O	O	O	O	O	NN2	I-NP	abrasive	NNS	t40:P||t42:COORD	O
,	t40	2	,	O	O	O	O	O	O	O	O	PUN	O	,	,	O	O
engineering	t41	2	engineering	O	O	O	O	O	O	O	O	VVG	B-VP	engineering	NN	O	O
materials	t42	2	material	O	O	O	O	O	O	O	O	NN2	B-NP	material	NNS	t41:NMOD||t43:COORD	O
and	t43	2	and	O	O	O	O	O	O	O	O	CJC	I-NP	and	CC	t45:CONJ	O
petroleum	t44	2	petroleum	O	O	O	O	O	O	O	O	NN1	I-NP	petroleum	NN	O	O
services	t45	2	service	O	O	O	O	O	O	O	O	NN2	I-NP	services	NNS	t44:NMOD	O
concern	t46	2	concern	O	O	O	O	O	O	O	O	NN1	I-NP	concern	NN	t38:NMOD||t39:NMOD	O
was	t47	2	be	O	O	O	O	O	O	O	O	VBD	B-VP	be	VBD	t36:SBJ||t48:PRD||t58:ADV||t71:P	mainVb
$	t48	2	$	O	O	O	O	O	O	O	O	UNC	B-NP	$	$	t49:DEP||t50:DEP||t51:P||t52:COORD||t57:P	O
19.2	t49	2	19.2	O	O	O	O	O	O	O	O	CRD	I-NP	19.2	CD	O	O
million	t50	2	million	O	O	O	O	O	O	O	O	CRD	I-NP	million	CD	O	O
,	t51	2	,	O	O	O	O	O	O	O	O	PUN	O	,	,	O	O
or	t52	2	or	O	O	O	O	O	O	O	O	CJC	O	or	CC	t54:CONJ	O
91	t53	2	91	O	O	O	O	O	O	O	O	CRD	B-NP	91	CD	O	O
cents	t54	2	cent	O	O	O	O	O	O	O	O	NN2	I-NP	cent	NNS	t53:NMOD||t56:ADV	O
a	t55	2	a	O	O	O	O	O	O	O	O	AT0	B-NP	a	DT	O	O
share	t56	2	share	O	O	O	O	O	O	O	O	NN1	I-NP	share	NN	t55:NMOD	O
,	t57	2	,	O	O	O	O	O	O	O	O	PUN	O	,	,	O	O
up	t58	2	up	O	O	O	O	O	O	O	O	PRP	B-ADVP	up	IN	t60:AMOD||t61:AMOD	O
3	t59	2	3	O	O	O	O	O	O	O	O	CRD	B-NP	3	CD	O	O
%	t60	2	%	O	O	O	O	O	O	O	O	UNC	I-NP	%	NN	t59:NMOD	O
from	t61	2	from	O	O	O	O	O	O	O	O	PRP	B-PP	from	IN	t62:PMOD	O
$	t62	2	$	O	O	O	O	O	O	O	O	CRD	B-NP	$	$	t63:DEP||t64:DEP||t65:P||t66:COORD	O
18.7	t63	2	18.7	O	O	O	O	O	O	O	O	CRD	I-NP	18.7	CD	O	O
million	t64	2	million	O	O	O	O	O	O	O	O	CRD	I-NP	million	CD	O	O
,	t65	2	,	O	O	O	O	O	O	O	O	PUN	O	,	,	O	O
or	t66	2	or	O	O	O	O	O	O	O	O	CJC	O	or	CC	t68:CONJ	O
87	t67	2	87	O	O	O	O	O	O	O	O	CRD	B-NP	87	CD	O	O
cents	t68	2	cent	O	O	O	O	O	O	O	O	NN2	I-NP	cent	NNS	t67:NMOD||t70:ADV	O
a	t69	2	a	O	O	O	O	O	O	O	O	AT0	B-NP	a	DT	O	O
share	t70	2	share	O	O	O	O	O	O	O	O	NN1	I-NP	share	NN	t69:NMOD	O
.	t71	2	.	O	O	O	O	O	O	O	O	PUN	O	.	.	O	O

The	t72	3	the	O	O	O	O	O	O	O	O	AT0	B-NP	the	DT	O	O
company	t73	3	company	O	O	O	O	O	O	O	O	NN1	I-NP	company	NN	t72:NMOD	O
had	t74	3	have	O	O	O	O	O	O	O	O	VHD	B-VP	have	VBD	t73:SBJ||t77:OBJ||t82:P	mainVb
a	t75	3	a	O	O	O	O	O	O	O	O	AT0	B-NP	a	DT	O	O
tax	t76	3	tax	O	O	O	O	O	O	O	O	NN1	I-NP	tax	NN	O	O
credit	t77	3	credit	O	O	O	O	O	O	O	O	NN1	I-NP	credit	NN	t75:NMOD||t76:NMOD||t78:NMOD	O
of	t78	3	of	O	O	O	O	O	O	O	O	PRF	B-PP	of	IN	t79:PMOD	O
$	t79	3	$	O	O	O	O	O	O	O	O	NN0	B-NP	$	$	t80:DEP||t81:DEP	O
1.4	t80	3	1.4	O	O	O	O	O	O	O	O	CRD	I-NP	1.4	CD	O	O
million	t81	3	million	O	O	O	O	O	O	O	O	CRD	I-NP	million	CD	O	O
.	t82	3	.	O	O	O	O	O	O	O	O	PUN	O	.	.	O	O

In	t83	4	in	O	O	O	O	O	O	O	O	PRP	B-PP	in	IN	t86:PMOD	O
the	t84	4	the	O	O	O	tmx53	DATE	1988-Q3	O	O	AT0	B-NP	the	DT	O	O
year-earlier	t85	4	year-earlier	O	O	O	tmx53	DATE	1988-Q3	O	O	AJC	I-NP	year-earlier	JJR	O	O
quarter	t86	4	quarter	O	O	O	tmx53	DATE	1988-Q3	O	O	NN1	I-NP	quarter	NN	t84:NMOD||t85:NMOD	O
,	t87	4	,	O	O	O	O	O	O	O	O	PUN	O	,	,	O	O
the	t88	4	the	O	O	O	O	O	O	O	O	AT0	B-NP	the	DT	O	O
tax	t89	4	tax	O	O	O	O	O	O	O	O	NN1	I-NP	tax	NN	O	O
credit	t90	4	credit	O	O	O	O	O	O	O	O	NN1	I-NP	credit	NN	t88:NMOD||t89:NMOD	O
was	t91	4	be	O	O	O	O	O	O	O	O	VBD	B-VP	be	VBD	t83:TMP||t87:P||t90:SBJ||t92:PRD||t95:P	mainVb
$	t92	4	$	O	O	O	O	O	O	O	O	UNC	B-NP	$	$	t93:DEP||t94:DEP	O
3.3	t93	4	3.3	O	O	O	O	O	O	O	O	CRD	I-NP	3.3	CD	O	O
million	t94	4	million	O	O	O	O	O	O	O	O	CRD	I-NP	million	CD	O	O
.	t95	4	.	O	O	O	O	O	O	O	O	PUN	O	.	.	O	O

Sales	t96	5	sale	O	O	O	O	O	O	O	O	NP0	B-NP	sales	NNS	O	O
rose	t97	5	rise	e7	OCCURRENCE	PAST+NONE+POS	O	O	O	O	O	VVD	B-VP	rise	VBD	t96:SBJ||t99:EXT||t100:DIR||t104:DIR||t108:P	mainVb
8	t98	5	8	O	O	O	O	O	O	O	O	CRD	B-NP	8	CD	O	O
%	t99	5	%	O	O	O	O	O	O	O	O	UNC	I-NP	%	NN	t98:NMOD	O
to	t100	5	to	O	O	O	O	O	O	O	O	PRP	B-PP	to	TO	t101:PMOD	O
$	t101	5	$	O	O	O	O	O	O	O	O	NN0	B-NP	$	$	t102:DEP||t103:DEP	O
368.5	t102	5	368.5	O	O	O	O	O	O	O	O	CRD	I-NP	368.5	CD	O	O
million	t103	5	million	O	O	O	O	O	O	O	O	CRD	I-NP	million	CD	O	O
from	t104	5	from	O	O	O	O	O	O	O	O	PRP	B-PP	from	IN	t105:PMOD	O
$	t105	5	$	O	O	O	O	O	O	O	O	ZZ0	B-NP	$	$	t106:DEP||t107:DEP	O
340.7	t106	5	340.7	O	O	O	O	O	O	O	O	CRD	I-NP	340.7	CD	O	O
million	t107	5	million	O	O	O	O	O	O	O	O	CRD	I-NP	million	CD	O	O
.	t108	5	.	O	O	O	O	O	O	O	O	PUN	O	.	.	O	O

Operating	t109	6	operating	O	O	O	O	O	O	O	O	VVG	B-NP	operating	NN	O	O
profit	t110	6	profit	O	O	O	O	O	O	O	O	NN1	I-NP	profit	NN	t109:NMOD||t111:LOC	O
in	t111	6	in	O	O	O	O	O	O	O	O	PRP	B-PP	in	IN	t116:PMOD	O
the	t112	6	the	O	O	O	O	O	O	O	O	AT0	B-NP	the	DT	O	O
company	t113	6	company	O	O	O	O	O	O	O	O	NN1	I-NP	company	NN	t112:NMOD||t114:SUFFIX	O
's	t114	6	's	O	O	O	O	O	O	O	O	POS	B-NP	's	POS	O	O
abrasives	t115	6	abrasive	O	O	O	O	O	O	O	O	NN2	I-NP	abrasive	NNS	O	O
segment	t116	6	segment	O	O	O	O	O	O	O	O	NN1	I-NP	segment	NN	t113:NMOD||t115:NMOD	O
rose	t117	6	rise	e8	OCCURRENCE	PAST+NONE+POS	O	O	O	O	O	VVD	B-VP	rise	VBD	t110:SBJ||t119:EXT||t120:TMP||t131:P	mainVb
16	t118	6	16	O	O	O	O	O	O	O	O	CRD	B-NP	16	CD	O	O
%	t119	6	%	O	O	O	O	O	O	O	O	UNC	I-NP	%	NN	t118:NMOD	O
while	t120	6	while	O	O	O	O	O	O	O	O	CJS	B-SBAR	while	IN	t128:SUB	O
operating	t121	6	operate	O	O	O	O	O	O	O	O	VVG	B-NP	operating	NN	O	O
profit	t122	6	profit	O	O	O	O	O	O	O	O	NN1	I-NP	profit	NN	t121:NMOD||t123:LOC	O
in	t123	6	in	O	O	O	O	O	O	O	O	PRP	B-PP	in	IN	t127:PMOD	O
the	t124	6	the	O	O	O	O	O	O	O	O	AT0	B-NP	the	DT	O	O
engineering	t125	6	engineering	O	O	O	O	O	O	O	O	NN1	I-NP	engineering	NN	O	O
materials	t126	6	material	O	O	O	O	O	O	O	O	NN2	I-NP	material	NNS	t125:NMOD	O
segment	t127	6	segment	O	O	O	O	O	O	O	O	NN1	I-NP	segment	NN	t124:NMOD||t126:NMOD	O
rose	t128	6	rise	e11	OCCURRENCE	PAST+NONE+POS	O	O	O	O	O	VVD	B-VP	rise	VBD	t122:SBJ||t130:EXT	O
2	t129	6	2	O	O	O	O	O	O	O	O	CRD	B-NP	2	CD	O	O
%	t130	6	%	O	O	O	O	O	O	O	O	UNC	I-NP	%	NN	t129:NMOD	O
.	t131	6	.	O	O	O	O	O	O	O	O	PUN	O	.	.	O	O

However	t132	7	however	O	O	O	O	O	O	O	O	AV0	B-ADVP	however	RB	O	O
,	t133	7	,	O	O	O	O	O	O	O	O	PUN	O	,	,	O	O
the	t134	7	the	O	O	O	O	O	O	O	O	AT0	B-NP	the	DT	O	O
company	t135	7	company	O	O	O	O	O	O	O	O	NN1	I-NP	company	NN	t134:NMOD||t136:SUFFIX	O
's	t136	7	's	O	O	O	O	O	O	O	O	POS	B-NP	's	POS	O	O
petroleum	t137	7	petroleum	O	O	O	O	O	O	O	O	NN1	I-NP	petroleum	NN	O	O
services	t138	7	service	O	O	O	O	O	O	O	O	NN2	I-NP	services	NNS	t137:NMOD	O
segment	t139	7	segment	O	O	O	O	O	O	O	O	NN1	I-NP	segment	NN	t135:NMOD||t138:NMOD	O
,	t140	7	,	O	O	O	O	O	O	O	O	PUN	O	,	,	O	O
while	t141	7	while	O	O	O	O	O	O	O	O	CJS	B-SBAR	while	IN	t142:AMOD	O
profitable	t142	7	profitable	O	O	O	O	O	O	O	O	AJ0	B-ADJP	profitable	JJ	O	O
,	t143	7	,	O	O	O	O	O	O	O	O	PUN	O	,	,	O	O
was	t144	7	be	O	O	O	O	O	O	O	O	VBD	B-VP	be	VBD	t132:ADV||t133:P||t139:SBJ||t140:P||t141:ADV||t143:P||t145:VC||t171:P	mainVb
hurt	t145	7	hurt	e13	OCCURRENCE	PAST+NONE+POS	O	O	O	O	O	VVN	I-VP	hurt	VBN	t146:LGS	mainVb
by	t146	7	by	O	O	O	O	O	O	O	O	PRP	B-PP	by	IN	t149:PMOD	O
high	t147	7	high	O	O	O	O	O	O	O	O	AJ0	B-NP	high	JJ	O	O
financing	t148	7	financing	O	O	O	O	O	O	O	O	NN1	I-NP	financing	NN	O	O
costs	t149	7	cost	O	O	O	O	O	O	O	O	NN2	I-NP	costs	NNS	t147:NMOD||t148:NMOD||t150:APPO	O
associated	t150	7	associate	O	O	O	O	O	O	O	O	VVN	B-VP	associate	VBN	t151:ADV	O
with	t151	7	with	O	O	O	O	O	O	O	O	PRP	B-PP	with	IN	t155:PMOD	O
the	t152	7	the	O	O	O	O	O	O	O	O	AT0	B-NP	the	DT	O	O
company	t153	7	company	O	O	O	O	O	O	O	O	NN1	I-NP	company	NN	t152:NMOD||t154:SUFFIX	O
's	t154	7	's	O	O	O	O	O	O	O	O	VBZ	B-VP	's	POS	O	O
buy-out	t155	7	buy-out	e35	OCCURRENCE	NONE+NONE+POS	O	O	O	O	O	NN1	B-NP	buy-out	NN	t153:NMOD||t156:NMOD	O
of	t156	7	of	O	O	O	O	O	O	O	O	PRF	B-PP	of	IN	t160:PMOD	O
a	t157	7	a	O	O	O	O	O	O	O	O	AT0	B-NP	a	DT	O	O
50	t158	7	50	O	O	O	O	O	O	O	O	CRD	I-NP	50	CD	O	O
%	t159	7	%	O	O	O	O	O	O	O	O	UNC	I-NP	%	NN	t158:NMOD	O
stake	t160	7	stake	O	O	O	O	O	O	O	O	NN1	I-NP	stake	NN	t157:NMOD||t159:NMOD||t161:LOC||t165:NMOD||t170:TMP	O
in	t161	7	in	O	O	O	O	O	O	O	O	PRP	B-PP	in	IN	t163:PMOD	O
Eastman	t162	7	Eastman	O	O	O	O	O	O	O	O	NP0	B-NP	eastman	NNP	O	O
Christensen	t163	7	Christensen	O	O	O	O	O	O	O	O	NP0	I-NP	christensen	NNP	t162:NAME||t164:POSTHON	O
Co.	t164	7	Co.	O	O	O	O	O	O	O	O	NP0	I-NP	co.	NNP	O	O
from	t165	7	from	O	O	O	O	O	O	O	O	PRP	B-PP	from	IN	t167:PMOD	O
Texas	t166	7	Texas	O	O	O	O	O	O	O	O	NP0	B-NP	texas	NNP	O	O
Eastern	t167	7	Eastern	O	O	O	O	O	O	O	O	NP0	I-NP	eastern	NNP	t166:NAME||t168:POSTHON	O
Corp.	t168	7	Corp.	O	O	O	O	O	O	O	O	NP0	B-NP	corp.	NNP	O	O
last	t169	7	last	O	O	O	tmx55	DATE	1989-06	O	O	ORD	B-NP	last	JJ	O	O
June	t170	7	June	O	O	O	tmx55	DATE	1989-06	O	O	NP0	I-NP	june	NNP	t169:NMOD	O
.	t171	7	.	O	O	O	O	O	O	O	O	PUN	O	.	.	O	O

Norton	t172	8	Norton	O	O	O	O	O	O	O	O	NP0	B-NP	norton	NNP	t173:COORD	O
and	t173	8	and	O	O	O	O	O	O	O	O	CJC	I-NP	and	CC	t175:CONJ	O
Texas	t174	8	Texas	O	O	O	O	O	O	O	O	NP0	I-NP	texas	NNP	O	O
Eastern	t175	8	Eastern	O	O	O	O	O	O	O	O	NP0	I-NP	eastern	NNP	t174:NAME	O
had	t176	8	have	O	O	O	O	O	O	O	O	VHD	B-VP	have	VBD	t172:SBJ||t177:DEP||t178:VC||t189:P	mainVb
each	t177	8	each	O	O	O	O	O	O	O	O	DT0	B-NP	each	DT	O	O
held	t178	8	hold	O	O	O	O	O	O	O	O	VVN	B-VP	hold	VBD	t182:OBJ||t185:LOC	O
a	t179	8	a	O	O	O	O	O	O	O	O	AT0	B-NP	a	DT	O	O
50	t180	8	50	O	O	O	O	O	O	O	O	CRD	I-NP	50	CD	O	O
%	t181	8	%	O	O	O	O	O	O	O	O	UNC	I-NP	%	NN	t180:NMOD	O
stake	t182	8	stake	O	O	O	O	O	O	O	O	NN1	I-NP	stake	NN	t179:NMOD||t181:NMOD||t183:NMOD	O
in	t183	8	in	O	O	O	O	O	O	O	O	PRP	B-PP	in	IN	t184:PMOD	O
Eastman	t184	8	Eastman	O	O	O	O	O	O	O	O	NP0	B-NP	eastman	NNP	O	O
in	t185	8	in	O	O	O	O	O	O	O	O	PRP	B-PP	in	IN	t188:PMOD	O
a	t186	8	a	O	O	O	O	O	O	O	O	AT0	B-NP	a	DT	O	O
joint	t187	8	joint	O	O	O	O	O	O	O	O	AJ0	I-NP	joint	JJ	O	O
venture	t188	8	venture	O	O	O	O	O	O	O	O	NN1	I-NP	venture	NN	t186:NMOD||t187:NMOD	O
.	t189	8	.	O	O	O	O	O	O	O	O	PUN	O	.	.	O	O

Norton	t190	9	Norton	O	O	O	O	O	O	O	O	NP0	B-NP	norton	NNP	O	O
announced	t191	9	announce	e21	REPORTING	PAST+NONE+POS	O	O	O	O	O	VVD	B-VP	announce	VBD	t190:SBJ||t192:TMP||t195:OBJ||t209:P	mainVb
earlier	t192	9	earlier	O	O	O	tmx56	DATE	1989-10	O	O	AV0	B-NP	earlier	RBR	t194:AMOD	O
this	t193	9	this	O	O	O	tmx56	DATE	1989-10	O	O	DT0	I-NP	this	DT	O	O
month	t194	9	month	O	O	O	tmx56	DATE	1989-10	O	O	NN1	I-NP	month	NN	t193:NMOD	O
that	t195	9	that	O	O	O	O	O	O	O	O	CJT	B-SBAR	that	IN	t197:SUB	O
it	t196	9	it	O	O	O	O	O	O	O	O	PNP	B-NP	it	PRP	O	O
was	t197	9	be	O	O	O	O	O	O	O	O	VBD	B-VP	be	VBD	t196:SBJ||t198:VC	O
exploring	t198	9	explore	e22	I_ACTION	PAST+PROGRESSIVE+POS	O	O	O	O	O	VVG	I-VP	explore	VBG	t201:OBJ	O
the	t199	9	the	O	O	O	O	O	O	O	O	AT0	B-NP	the	DT	O	O
possible	t200	9	possible	O	O	O	O	O	O	O	O	AJ0	I-NP	possible	JJ	O	O
sale	t201	9	sale	e23	OCCURRENCE	NONE+NONE+POS	O	O	O	O	O	NN1	I-NP	sale	NN	t199:NMOD||t200:NMOD||t202:NMOD	O
of	t202	9	of	O	O	O	O	O	O	O	O	PRF	B-PP	of	IN	t203:PMOD	O
all	t203	9	all	O	O	O	O	O	O	O	O	DT0	B-NP	all	DT	t204:COORD||t206:NMOD	O
or	t204	9	or	O	O	O	O	O	O	O	O	CJC	I-NP	or	CC	t205:CONJ	O
part	t205	9	part	O	O	O	O	O	O	O	O	NN1	I-NP	part	NN	O	O
of	t206	9	of	O	O	O	O	O	O	O	O	PRF	B-PP	of	IN	t208:PMOD	O
Eastman	t207	9	Eastman	O	O	O	O	O	O	O	O	NP0	B-NP	eastman	NNP	O	O
Christensen	t208	9	Christensen	O	O	O	O	O	O	O	O	NP0	I-NP	christensen	NNP	t207:NAME	O
.	t209	9	.	O	O	O	O	O	O	O	O	PUN	O	.	.	O	O

For	t210	10	for	O	O	O	O	O	O	O	O	PRP	B-PP	for	IN	t213:PMOD	O
the	t211	10	the	O	O	O	tmx57	DURATION	P9M	O	O	AT0	B-NP	the	DT	O	O
nine	t212	10	nine	O	O	O	tmx57	DURATION	P9M	O	O	CRD	I-NP	nine	CD	O	O
months	t213	10	month	O	O	O	tmx57	DURATION	P9M	O	O	NN2	I-NP	month	NNS	t211:NMOD||t212:NMOD	O
,	t214	10	,	O	O	O	O	O	O	O	O	PUN	O	,	,	O	O
Norton	t215	10	Norton	O	O	O	O	O	O	O	O	NP0	B-NP	norton	NNP	O	O
had	t216	10	have	O	O	O	O	O	O	O	O	VHD	B-VP	have	VBD	t210:ADV||t214:P||t215:SBJ||t217:OBJ||t237:P	mainVb
net	t217	10	net	O	O	O	O	O	O	O	O	NN1	B-NP	net	NN	t218:NMOD||t228:P||t229:COORD	O
of	t218	10	of	O	O	O	O	O	O	O	O	PRF	B-PP	of	IN	t219:PMOD	O
$	t219	10	$	O	O	O	O	O	O	O	O	NN0	B-NP	$	$	t220:DEP||t221:DEP||t222:P||t223:COORD	O
81.2	t220	10	81.2	O	O	O	O	O	O	O	O	CRD	I-NP	81.2	CD	O	O
million	t221	10	million	O	O	O	O	O	O	O	O	CRD	I-NP	million	CD	O	O
,	t222	10	,	O	O	O	O	O	O	O	O	PUN	O	,	,	O	O
or	t223	10	or	O	O	O	O	O	O	O	O	CJC	O	or	CC	t224:CONJ	O
$	t224	10	$	O	O	O	O	O	O	O	O	CRD	B-NP	$	$	t225:NMOD||t227:ADV	O
3.87	t225	10	3.87	O	O	O	O	O	O	O	O	CRD	I-NP	3.87	CD	O	O
a	t226	10	a	O	O	O	O	O	O	O	O	AT0	B-NP	a	DT	O	O
share	t227	10	share	O	O	O	O	O	O	O	O	NN1	I-NP	share	NN	t226:NMOD	O
,	t228	10	,	O	O	O	O	O	O	O	O	PUN	O	,	,	O	O
and	t229	10	and	O	O	O	O	O	O	O	O	CJC	O	and	CC	t232:CONJ	O
a	t230	10	a	O	O	O	O	O	O	O	O	AT0	B-NP	a	DT	O	O
tax	t231	10	tax	O	O	O	O	O	O	O	O	NN1	I-NP	tax	NN	O	O
credit	t232	10	credit	O	O	O	O	O	O	O	O	NN1	I-NP	credit	NN	t230:NMOD||t231:NMOD||t233:NMOD	O
of	t233	10	of	O	O	O	O	O	O	O	O	PRF	B-PP	of	IN	t234:PMOD	O
$	t234	10	$	O	O	O	O	O	O	O	O	NN0	B-NP	$	$	t235:DEP||t236:DEP	O
4.4	t235	10	4.4	O	O	O	O	O	O	O	O	CRD	I-NP	4.4	CD	O	O
million	t236	10	million	O	O	O	O	O	O	O	O	CRD	I-NP	million	CD	O	O
.	t237	10	.	O	O	O	O	O	O	O	O	PUN	O	.	.	O	O

In	t238	11	in	O	O	O	O	O	O	O	O	PRP	B-PP	in	IN	t241:PMOD	O
the	t239	11	the	O	O	O	tmx60	DURATION	P9M	O	O	AT0	B-NP	the	DT	O	O
year-earlier	t240	11	year-earlier	O	O	O	tmx60	DURATION	P9M	O	O	AJC	I-NP	year-earlier	JJR	O	O
period	t241	11	period	O	O	O	tmx60	DURATION	P9M	O	O	NN1	I-NP	period	NN	t239:NMOD||t240:NMOD	O
,	t242	11	,	O	O	O	O	O	O	O	O	PUN	O	,	,	O	O
the	t243	11	the	O	O	O	O	O	O	O	O	AT0	B-NP	the	DT	O	O
company	t244	11	company	O	O	O	O	O	O	O	O	NN1	I-NP	company	NN	t243:NMOD	O
had	t245	11	have	O	O	O	O	O	O	O	O	VHD	B-VP	have	VBD	t238:TMP||t242:P||t244:SBJ||t246:OBJ||t266:P	mainVb
net	t246	11	net	O	O	O	O	O	O	O	O	NN1	B-NP	net	NN	t247:NMOD||t257:P||t258:COORD	O
of	t247	11	of	O	O	O	O	O	O	O	O	PRF	B-PP	of	IN	t248:PMOD	O
$	t248	11	$	O	O	O	O	O	O	O	O	NN0	B-NP	$	$	t249:DEP||t250:DEP||t251:P||t252:COORD	O
77.2	t249	11	77.2	O	O	O	O	O	O	O	O	CRD	I-NP	77.2	CD	O	O
million	t250	11	million	O	O	O	O	O	O	O	O	CRD	I-NP	million	CD	O	O
,	t251	11	,	O	O	O	O	O	O	O	O	PUN	O	,	,	O	O
or	t252	11	or	O	O	O	O	O	O	O	O	CJC	O	or	CC	t253:CONJ	O
$	t253	11	$	O	O	O	O	O	O	O	O	CRD	B-NP	$	$	t254:NMOD||t256:ADV	O
3.68	t254	11	3.68	O	O	O	O	O	O	O	O	CRD	I-NP	3.68	CD	O	O
a	t255	11	a	O	O	O	O	O	O	O	O	AT0	B-NP	a	DT	O	O
share	t256	11	share	O	O	O	O	O	O	O	O	NN1	I-NP	share	NN	t255:NMOD	O
,	t257	11	,	O	O	O	O	O	O	O	O	PUN	O	,	,	O	O
and	t258	11	and	O	O	O	O	O	O	O	O	CJC	O	and	CC	t261:CONJ	O
a	t259	11	a	O	O	O	O	O	O	O	O	AT0	B-NP	a	DT	O	O
tax	t260	11	tax	O	O	O	O	O	O	O	O	NN1	I-NP	tax	NN	O	O
credit	t261	11	credit	O	O	O	O	O	O	O	O	NN1	I-NP	credit	NN	t259:NMOD||t260:NMOD||t262:NMOD	O
of	t262	11	of	O	O	O	O	O	O	O	O	PRF	B-PP	of	IN	t263:PMOD	O
$	t263	11	$	O	O	O	O	O	O	O	O	NN0	B-NP	$	$	t264:DEP||t265:DEP	O
7.7	t264	11	7.7	O	O	O	O	O	O	O	O	CRD	I-NP	7.7	CD	O	O
million	t265	11	million	O	O	O	O	O	O	O	O	CRD	I-NP	million	CD	O	O
.	t266	11	.	O	O	O	O	O	O	O	O	PUN	O	.	.	O	O

Norton	t267	12	Norton	O	O	O	O	O	O	O	O	NP0	B-NP	norton	NNP	O	O
had	t268	12	have	O	O	O	O	O	O	O	O	VHD	B-VP	have	VBD	t267:SBJ||t270:OBJ||t295:P	mainVb
operating	t269	12	operating	O	O	O	O	O	O	O	O	VVG	I-VP	operating	NN	O	mainVb
profit	t270	12	profit	O	O	O	O	O	O	O	O	NN1	B-NP	profit	NN	t269:NMOD||t271:NMOD||t282:NMOD	O
of	t271	12	of	O	O	O	O	O	O	O	O	PRF	B-PP	of	IN	t272:PMOD	O
$	t272	12	$	O	O	O	O	O	O	O	O	NN0	B-NP	$	$	t273:DEP||t274:DEP||t275:P||t276:COORD||t281:P	O
76.8	t273	12	76.8	O	O	O	O	O	O	O	O	CRD	I-NP	76.8	CD	O	O
million	t274	12	million	O	O	O	O	O	O	O	O	CRD	I-NP	million	CD	O	O
,	t275	12	,	O	O	O	O	O	O	O	O	PUN	O	,	,	O	O
or	t276	12	or	O	O	O	O	O	O	O	O	CJC	O	or	CC	t277:CONJ	O
$	t277	12	$	O	O	O	O	O	O	O	O	CRD	B-NP	$	$	t278:NMOD||t280:ADV	O
3.66	t278	12	3.66	O	O	O	O	O	O	O	O	CRD	I-NP	3.66	CD	O	O
a	t279	12	a	O	O	O	O	O	O	O	O	AT0	B-NP	a	DT	O	O
share	t280	12	share	O	O	O	O	O	O	O	O	NN1	I-NP	share	NN	t279:NMOD	O
,	t281	12	,	O	O	O	O	O	O	O	O	PUN	O	,	,	O	O
up	t282	12	up	O	O	O	O	O	O	O	O	PRP	B-ADVP	up	IN	t284:AMOD||t285:AMOD	O
11	t283	12	11	O	O	O	O	O	O	O	O	CRD	B-NP	11	CD	O	O
%	t284	12	%	O	O	O	O	O	O	O	O	UNC	I-NP	%	NN	t283:NMOD	O
from	t285	12	from	O	O	O	O	O	O	O	O	PRP	B-PP	from	IN	t286:PMOD	O
$	t286	12	$	O	O	O	O	O	O	O	O	CRD	B-NP	$	$	t287:DEP||t288:DEP||t289:P||t290:COORD	O
69.5	t287	12	69.5	O	O	O	O	O	O	O	O	CRD	I-NP	69.5	CD	O	O
million	t288	12	million	O	O	O	O	O	O	O	O	CRD	I-NP	million	CD	O	O
,	t289	12	,	O	O	O	O	O	O	O	O	PUN	O	,	,	O	O
or	t290	12	or	O	O	O	O	O	O	O	O	CJC	O	or	CC	t291:CONJ	O
$	t291	12	$	O	O	O	O	O	O	O	O	CRD	B-NP	$	$	t292:NMOD||t294:ADV	O
3.31	t292	12	3.31	O	O	O	O	O	O	O	O	CRD	I-NP	3.31	CD	O	O
a	t293	12	a	O	O	O	O	O	O	O	O	AT0	B-NP	a	DT	O	O
share	t294	12	share	O	O	O	O	O	O	O	O	NN1	I-NP	share	NN	t293:NMOD	O
.	t295	12	.	O	O	O	O	O	O	O	O	PUN	O	.	.	O	O

Sales	t296	13	sale	O	O	O	O	O	O	O	O	NP0	B-NP	sales	NNS	O	O
rose	t297	13	rise	e29	OCCURRENCE	PAST+NONE+POS	O	O	O	O	O	VVD	B-VP	rise	VBD	t296:SBJ||t299:EXT||t300:DIR||t304:DIR||t308:P	mainVb
8	t298	13	8	O	O	O	O	O	O	O	O	CRD	B-NP	8	CD	O	O
%	t299	13	%	O	O	O	O	O	O	O	O	UNC	I-NP	%	NN	t298:NMOD	O
to	t300	13	to	O	O	O	O	O	O	O	O	PRP	B-PP	to	TO	t301:PMOD	O
$	t301	13	$	O	O	O	O	O	O	O	O	NN0	B-NP	$	$	t302:DEP||t303:DEP	O
1.15	t302	13	1.15	O	O	O	O	O	O	O	O	CRD	I-NP	1.15	CD	O	O
billion	t303	13	billion	O	O	O	O	O	O	O	O	CRD	I-NP	billion	CD	O	O
from	t304	13	from	O	O	O	O	O	O	O	O	PRP	B-PP	from	IN	t305:PMOD	O
$	t305	13	$	O	O	O	O	O	O	O	O	ZZ0	B-NP	$	$	t306:DEP||t307:DEP	O
1.06	t306	13	1.06	O	O	O	O	O	O	O	O	CRD	I-NP	1.06	CD	O	O
billion	t307	13	billion	O	O	O	O	O	O	O	O	CRD	I-NP	billion	CD	O	O
.	t308	13	.	O	O	O	O	O	O	O	O	PUN	O	.	.	O	O
