DCT_1989-11-02	O	O	O	O	O	O	tmx0	DATE	1989-11-02	O	O	NP0	B-NP	dct_1989-11-02	LS	O	O

First	t1	1	First	O	O	O+O+O	O	O	O	O	O	ORD	B-ADVP	first	JJ	t2:NMOD	O
of	t2	1	of	O	O	O+O+O	O	O	O	O	O	PRF	B-PP	of	IN	t4:PMOD	O
America	t3	1	America	O	O	O+O+O	O	O	O	O	O	NP0	B-NP	america	NNP	O	O
Bank	t4	1	Bank	O	O	O+O+O	O	O	O	O	O	NP0	I-NP	bank	NNP	t3:NAME||t5:POSTHON	O
Corp.	t5	1	Corp.	O	O	O+O+O	O	O	O	O	O	NP0	B-NP	corp.	NNP	O	O
said	t6	1	say	e1	REPORTING	PAST+NONE+POS	O	O	O	O	O	VVD	B-VP	say	VBD	t1:SBJ||t8:OBJ||t21:P	mainVb
it	t7	1	it	O	O	O	O	O	O	O	O	PNP	B-NP	it	PRP	O	O
completed	t8	1	complete	e2	ASPECTUAL	PAST+NONE+POS	O	O	O	O	O	VVD	B-VP	complete	VBD	t7:SBJ||t10:OBJ||t16:ADV	O
its	t9	1	its	O	O	O	O	O	O	O	O	DPS	B-NP	its	PRP$	O	O
acquisition	t10	1	acquisition	e3	OCCURRENCE	NONE+NONE+POS	O	O	O	O	O	NN1	I-NP	acquisition	NN	t9:NMOD||t11:NMOD	O
of	t11	1	of	O	O	O	O	O	O	O	O	PRF	B-PP	of	IN	t14:PMOD	O
Midwest	t12	1	Midwest	O	O	O	O	O	O	O	O	NP0	B-NP	midwest	NNP	O	O
Financial	t13	1	Financial	O	O	O	O	O	O	O	O	AJ0	I-NP	financial	NNP	O	O
Group	t14	1	Group	O	O	O	O	O	O	O	O	NN1	I-NP	group	NNP	t12:NAME||t13:NAME||t15:POSTHON	O
Inc.	t15	1	Inc.	O	O	O	O	O	O	O	O	NN1	I-NP	inc.	NNP	O	O
for	t16	1	for	O	O	O	O	O	O	O	O	PRP	B-PP	for	IN	t18:PMOD	O
about	t17	1	about	O	O	O	O	O	O	O	O	AV0	B-NP	about	RB	O	O
$	t18	1	$	O	O	O	O	O	O	O	O	NN0	I-NP	$	$	t17:DEP||t19:DEP||t20:DEP	O
250	t19	1	250	O	O	O	O	O	O	O	O	CRD	I-NP	250	CD	O	O
million	t20	1	million	O	O	O	O	O	O	O	O	CRD	I-NP	million	CD	O	O
.	t21	1	.	O	O	O	O	O	O	O	O	PUN	O	.	.	O	O

First	t22	2	First	O	O	O	O	O	O	O	O	ORD	B-ADVP	first	JJ	t23:AMOD	O
of	t23	2	of	O	O	O	O	O	O	O	O	PRF	B-PP	of	IN	t24:PMOD	O
America	t24	2	America	O	O	O	O	O	O	O	O	NP0	B-NP	america	NNP	t25:P||t28:NMOD	O
,	t25	2	,	O	O	O	O	O	O	O	O	PUN	O	,	,	O	O
which	t26	2	which	O	O	O	O	O	O	O	O	DTQ	B-NP	which	WDT	O	O
now	t27	2	now	O	O	O	tmx41	DATE	PRESENT_REF	O	O	AV0	B-ADVP	now	RB	O	O
has	t28	2	have	e4	STATE	PRESENT+NONE+POS	O	O	O	O	O	VHZ	B-NP	have	VBZ	t26:SBJ||t27:TMP||t30:OBJ	O
45	t29	2	45	O	O	O	O	O	O	O	O	CRD	I-NP	45	CD	O	O
banks	t30	2	bank	O	O	O	O	O	O	O	O	NN2	I-NP	banks	NNS	t29:NMOD||t31:COORD	O
and	t31	2	and	O	O	O	O	O	O	O	O	CJC	O	and	CC	t32:CONJ	O
$	t32	2	$	O	O	O	O	O	O	O	O	CRD	B-NP	$	$	t33:DEP||t34:DEP||t35:NMOD	O
12.5	t33	2	12.5	O	O	O	O	O	O	O	O	CRD	I-NP	12.5	CD	O	O
billion	t34	2	billion	O	O	O	O	O	O	O	O	CRD	I-NP	billion	CD	O	O
in	t35	2	in	O	O	O	O	O	O	O	O	PRP	B-PP	in	IN	t36:PMOD	O
assets	t36	2	asset	O	O	O	O	O	O	O	O	NN2	B-NP	assets	NNS	O	O
,	t37	2	,	O	O	O	O	O	O	O	O	PUN	O	,	,	O	O
announced	t38	2	announce	e5	REPORTING	PAST+NONE+POS	O	O	O	O	O	VVD	B-VP	announce	VBD	t22:ADV||t37:P||t40:OBJ||t53:P	mainVb
an	t39	2	a	O	O	O	O	O	O	O	O	AT0	B-NP	an	DT	O	O
agreement	t40	2	agreement	e6	I_ACTION	NONE+NONE+POS	O	O	O	O	O	NN1	I-NP	agreement	NN	t39:NMOD||t41:NMOD	O
to	t41	2	to	O	O	O	O	O	O	O	O	TO0	B-VP	to	TO	t42:IM	O
acquire	t42	2	acquire	e8	OCCURRENCE	INFINITIVE+NONE+POS	O	O	O	O	O	VVI	I-VP	acquire	VB	t50:OBJ||t51:TMP	O
the	t43	2	the	O	O	O	O	O	O	O	O	AT0	B-NP	the	DT	O	O
Peoria	t44	2	Peoria	O	O	O	O	O	O	O	O	NP0	I-NP	peoria	NNP	O	O
,	t45	2	,	O	O	O	O	O	O	O	O	PUN	O	,	,	O	O
Ill.	t46	2	Ill.	O	O	O	O	O	O	O	O	NP0	B-NP	ill.	NNP	t44:NAME||t45:P||t47:P	O
,	t47	2	,	O	O	O	O	O	O	O	O	PUN	O	,	,	O	O
bank	t48	2	bank	O	O	O	O	O	O	O	O	NN1	B-NP	bank	NN	O	O
holding	t49	2	hold	O	O	O	O	O	O	O	O	VVG	I-NP	hold	VBG	O	O
company	t50	2	company	O	O	O	O	O	O	O	O	NN1	I-NP	company	NN	t43:NMOD||t46:LOC||t48:NMOD||t49:NMOD	O
in	t51	2	in	O	O	O	O	O	O	O	O	PRP	B-PP	in	IN	t52:PMOD	O
January	t52	2	January	O	O	O	tmx67	DATE	1990-01	O	O	NP0	B-NP	january	NNP	O	O
.	t53	2	.	O	O	O	O	O	O	O	O	PUN	O	.	.	O	O

Midwest	t54	3	Midwest	O	O	O	O	O	O	O	O	NP0	B-NP	midwest	NNP	O	O
Financial	t55	3	Financial	O	O	O	O	O	O	O	O	NP0	I-NP	financial	NNP	t54:NAME	O
has	t56	3	have	O	O	O	O	O	O	O	O	VHZ	B-VP	have	VBZ	t55:SBJ||t57:OBJ||t65:P	mainVb
$	t57	3	$	O	O	O	O	O	O	O	O	CRD	B-NP	$	$	t58:DEP||t59:DEP||t60:NMOD||t62:COORD	O
2.3	t58	3	2.3	O	O	O	O	O	O	O	O	CRD	I-NP	2.3	CD	O	O
billion	t59	3	billion	O	O	O	O	O	O	O	O	CRD	I-NP	billion	CD	O	O
in	t60	3	in	O	O	O	O	O	O	O	O	PRP	B-PP	in	IN	t61:PMOD	O
assets	t61	3	asset	O	O	O	O	O	O	O	O	NN2	B-NP	assets	NNS	O	O
and	t62	3	and	O	O	O	O	O	O	O	O	CJC	O	and	CC	t64:CONJ	O
eight	t63	3	eight	O	O	O	O	O	O	O	O	CRD	B-NP	eight	CD	O	O
banks	t64	3	bank	O	O	O	O	O	O	O	O	NN2	I-NP	banks	NNS	t63:NMOD	O
.	t65	3	.	O	O	O	O	O	O	O	O	PUN	O	.	.	O	O

The	t66	4	the	O	O	O	O	O	O	O	O	AT0	B-NP	the	DT	O	O
Midwest	t67	4	Midwest	O	O	O	O	O	O	O	O	NP0	I-NP	midwest	NNP	O	O
Financial	t68	4	Financial	O	O	O	O	O	O	O	O	AJ0	I-NP	financial	NNP	t67:NAME	O
subsidiary	t69	4	subsidiary	O	O	O	O	O	O	O	O	AJ0	I-NP	subsidiary	NN	t68:NMOD	O
banks	t70	4	bank	O	O	O	O	O	O	O	O	NN2	I-NP	banks	NNS	t66:NMOD||t69:NMOD	O
will	t71	4	will	O	O	O	O	O	O	O	O	VM0	B-VP	will	MD	t70:SBJ||t72:VC||t92:P	mainVb
continue	t72	4	continue	e11	ASPECTUAL	FUTURE+NONE+POS	O	O	O	O	O	VVI	I-VP	continue	VB	t73:OPRD||t79:TMP	mainVb
to	t73	4	to	O	O	O	O	O	O	O	O	TO0	I-VP	to	TO	t74:IM	mainVb
operate	t74	4	operate	e13	OCCURRENCE	INFINITIVE+NONE+POS	O	O	O	O	O	VVI	I-VP	operate	VB	t75:LOC	mainVb
under	t75	4	under	O	O	O	O	O	O	O	O	PRP	B-PP	under	IN	t78:PMOD	O
their	t76	4	they	O	O	O	O	O	O	O	O	DPS	B-NP	their	PRP$	O	O
current	t77	4	current	O	O	O	O	O	O	O	O	AJ0	I-NP	current	JJ	O	O
names	t78	4	name	O	O	O	O	O	O	O	O	NN2	I-NP	names	NNS	t76:NMOD||t77:NMOD	O
until	t79	4	until	O	O	O	O	O	O	O	O	CJS	B-PP	until	IN	t81:PMOD	O
early	t80	4	early	O	O	O	tmx75	DATE	1990	O	O	AV0	B-NP	early	JJ	O	O
1990	t81	4	1990	O	O	O	tmx75	DATE	1990	O	O	CRD	I-NP	1990	CD	t80:NMOD||t82:P||t85:NMOD	O
,	t82	4	,	O	O	O	O	O	O	O	O	PUN	O	,	,	O	O
when	t83	4	when	O	O	O	O	O	O	O	O	AVQ	B-ADVP	when	WRB	O	O
each	t84	4	each	O	O	O	O	O	O	O	O	DT0	B-NP	each	DT	O	O
will	t85	4	will	O	O	O	O	O	O	O	O	VM0	B-VP	will	MD	t84:SBJ||t86:VC	O
adopt	t86	4	adopt	e16	OCCURRENCE	FUTURE+NONE+POS	O	O	O	O	O	VVI	I-VP	adopt	VB	t83:TMP||t91:OBJ	O
the	t87	4	the	O	O	O	O	O	O	O	O	AT0	B-NP	the	DT	O	O
First	t88	4	First	O	O	O	O	O	O	O	O	ORD	I-NP	first	NNP	t89:NMOD	O
of	t89	4	of	O	O	O	O	O	O	O	O	PRF	B-PP	of	IN	t90:PMOD	O
America	t90	4	America	O	O	O	O	O	O	O	O	NP0	B-NP	america	NNP	O	O
name	t91	4	name	O	O	O	O	O	O	O	O	NN1	I-NP	name	NN	t87:NMOD||t88:NMOD	O
.	t92	4	.	O	O	O	O	O	O	O	O	PUN	O	.	.	O	O

Kalamazoo	t93	5	Kalamazoo	O	O	O	O	O	O	O	O	NP0	B-NP	kalamazoo	NNP	O	O
,	t94	5	,	O	O	O	O	O	O	O	O	PUN	O	,	,	O	O
Mich.-based	t95	5	mich.-based	O	O	O	O	O	O	O	O	AJ0	B-NP	mich.-base	NNP	O	O
First	t96	5	First	O	O	O	O	O	O	O	O	ORD	I-NP	first	NNP	O	O
of	t97	5	of	O	O	O	O	O	O	O	O	PRF	B-PP	of	IN	O	O
America	t98	5	America	O	O	O	O	O	O	O	O	NP0	B-NP	america	NNP	t95:NAME||t96:NAME||t97:NAME	O
said	t99	5	say	e17	REPORTING	PAST+NONE+POS	O	O	O	O	O	VVD	B-VP	say	VBD	t93:TMP||t94:P||t98:SBJ||t101:OBJ||t114:P	mainVb
it	t100	5	it	O	O	O	O	O	O	O	O	PNP	B-NP	it	PRP	O	O
will	t101	5	will	O	O	O	O	O	O	O	O	VM0	B-VP	will	MD	t100:SBJ||t102:VC	O
eliminate	t102	5	eliminate	e18	OCCURRENCE	FUTURE+NONE+POS	O	O	O	O	O	VVI	I-VP	eliminate	VB	t106:OBJ	O
the	t103	5	the	O	O	O	O	O	O	O	O	AT0	B-NP	the	DT	O	O
13	t104	5	13	O	O	O	O	O	O	O	O	CRD	I-NP	13	CD	O	O
management	t105	5	management	O	O	O	O	O	O	O	O	NN1	I-NP	management	NN	t104:NMOD	O
positions	t106	5	position	O	O	O	O	O	O	O	O	NN2	I-NP	position	NNS	t103:NMOD||t105:NMOD||t107:NMOD	O
of	t107	5	of	O	O	O	O	O	O	O	O	PRF	B-PP	of	IN	t113:PMOD	O
the	t108	5	the	O	O	O	O	O	O	O	O	AT0	B-NP	the	DT	O	O
former	t109	5	former	O	O	O	O	O	O	O	O	DT0	I-NP	former	JJ	O	O
Midwest	t110	5	Midwest	O	O	O	O	O	O	O	O	NP0	I-NP	midwest	NNP	O	O
Financial	t111	5	Financial	O	O	O	O	O	O	O	O	AJ0	I-NP	financial	NNP	t110:NAME	O
parent	t112	5	parent	O	O	O	O	O	O	O	O	NN1	I-NP	parent	NN	O	O
company	t113	5	company	O	O	O	O	O	O	O	O	NN1	I-NP	company	NN	t108:NMOD||t109:NMOD||t111:NMOD||t112:NMOD	O
.	t114	5	.	O	O	O	O	O	O	O	O	PUN	O	.	.	O	O

First	t115	6	First	O	O	O	O	O	O	O	O	ORD	B-ADVP	first	JJ	O	O
of	t116	6	of	O	O	O	O	O	O	O	O	PRF	B-PP	of	IN	O	O
America	t117	6	America	O	O	O	O	O	O	O	O	NP0	B-NP	america	NNP	t115:NAME||t116:NAME	O
said	t118	6	say	e19	REPORTING	PAST+NONE+POS	O	O	O	O	O	VVD	B-VP	say	VBD	t117:SBJ||t123:OBJ||t131:P	mainVb
some	t119	6	some	O	O	O	O	O	O	O	O	DT0	B-NP	some	DT	t120:NMOD	O
of	t120	6	of	O	O	O	O	O	O	O	O	PRF	B-PP	of	IN	t122:PMOD	O
the	t121	6	the	O	O	O	O	O	O	O	O	AT0	B-NP	the	DT	O	O
managers	t122	6	manager	O	O	O	O	O	O	O	O	NN2	I-NP	manager	NNS	t121:NMOD	O
will	t123	6	will	O	O	O	O	O	O	O	O	VM0	B-VP	will	MD	t119:SBJ||t124:VC	O
take	t124	6	take	e20	OCCURRENCE	FUTURE+NONE+POS	O	O	O	O	O	VVI	I-VP	take	VB	t126:OBJ||t127:ADV	O
other	t125	6	other	O	O	O	O	O	O	O	O	AJ0	B-NP	other	JJ	O	O
jobs	t126	6	job	O	O	O	O	O	O	O	O	NN2	I-NP	job	NNS	t125:NMOD	O
with	t127	6	with	O	O	O	O	O	O	O	O	PRP	B-PP	with	IN	t130:PMOD	O
First	t128	6	First	O	O	O	O	O	O	O	O	ORD	B-NP	first	NNP	O	O
of	t129	6	of	O	O	O	O	O	O	O	O	PRF	B-PP	of	IN	O	O
America	t130	6	America	O	O	O	O	O	O	O	O	NP0	B-NP	america	NNP	t128:NAME||t129:NAME	O
.	t131	6	.	O	O	O	O	O	O	O	O	PUN	O	.	.	O	O

But	t132	7	but	O	O	O	O	O	O	O	O	CJC	O	but	CC	O	O
it	t133	7	it	O	O	O	O	O	O	O	O	PNP	B-NP	it	PRP	O	O
said	t134	7	say	e22	REPORTING	PAST+NONE+POS	O	O	O	O	O	VVD	B-VP	say	VBD	t132:DEP||t133:SBJ||t146:OBJ||t173:P	mainVb
that	t135	7	that	O	O	O	O	O	O	O	O	CJT	B-SBAR	that	DT	O	O
severance	t136	7	severance	O	O	O	O	O	O	O	O	NN1	B-NP	severance	NN	O	O
payments	t137	7	payment	e23	OCCURRENCE	NONE+NONE+POS	O	O	O	O	O	NN2	I-NP	payment	NNS	t135:NMOD||t136:NMOD||t138:NMOD	O
to	t138	7	to	O	O	O	O	O	O	O	O	PRP	B-PP	to	TO	t140:PMOD	O
those	t139	7	those	O	O	O	O	O	O	O	O	DT0	B-NP	those	DT	O	O
executives	t140	7	executive	O	O	O	O	O	O	O	O	NN2	I-NP	executive	NNS	t139:NMOD||t142:APPO	O
not	t141	7	not	O	O	O	O	O	O	O	O	XX0	O	not	RB	O	O
staying	t142	7	stay	e24	OCCURRENCE	PRESPART+NONE+NEG	O	O	O	O	O	VVG	B-VP	stay	VBG	t141:ADV||t143:ADV	O
with	t143	7	with	O	O	O	O	O	O	O	O	PRP	B-PP	with	IN	t145:PMOD	O
the	t144	7	the	O	O	O	O	O	O	O	O	AT0	B-NP	the	DT	O	O
company	t145	7	company	O	O	O	O	O	O	O	O	NN1	I-NP	company	NN	t144:NMOD	O
will	t146	7	will	O	O	O	O	O	O	O	O	VM0	B-VP	will	MD	t137:SBJ||t147:VC	O
reduce	t147	7	reduce	e25	OCCURRENCE	FUTURE+NONE+POS	O	O	O	O	O	VVI	I-VP	reduce	VB	t148:OBJ||t156:EXT	O
First	t148	7	First	O	O	O	O	O	O	O	O	ORD	B-ADVP	first	JJ	t149:AMOD	O
of	t149	7	of	O	O	O	O	O	O	O	O	PRF	B-PP	of	IN	t153:PMOD	O
America	t150	7	America	O	O	O	O	O	O	O	O	NP0	B-NP	america	NNP	t151:SUFFIX	O
's	t151	7	's	O	O	O	O	O	O	O	O	POS	B-NP	's	POS	O	O
operating	t152	7	operating	O	O	O	O	O	O	O	O	AJ0	I-NP	operating	NN	O	O
results	t153	7	result	O	O	O	O	O	O	O	O	NN2	I-NP	result	NNS	t150:NMOD||t152:NMOD||t154:NMOD	O
for	t154	7	for	O	O	O	O	O	O	O	O	PRP	B-PP	for	IN	t155:PMOD	O
1989	t155	7	1989	O	O	O	O	O	O	O	O	CRD	B-NP	1989	CD	O	O
by	t156	7	by	O	O	O	O	O	O	O	O	PRP	B-PP	by	IN	t157:PMOD	O
$	t157	7	$	O	O	O	O	O	O	O	O	CRD	B-NP	$	$	t158:DEP||t159:DEP||t160:DEP||t161:DEP||t162:DEP||t163:DEP||t164:P||t165:COORD	O
3	t158	7	3	O	O	O	O	O	O	O	O	CRD	I-NP	3	CD	O	O
million	t159	7	million	O	O	O	O	O	O	O	O	CRD	I-NP	million	CD	O	O
to	t160	7	to	O	O	O	O	O	O	O	O	PRP	B-PP	to	TO	O	O
$	t161	7	$	O	O	O	O	O	O	O	O	NN0	B-NP	$	$	O	O
4	t162	7	4	O	O	O	O	O	O	O	O	CRD	I-NP	4	CD	O	O
million	t163	7	million	O	O	O	O	O	O	O	O	CRD	I-NP	million	CD	O	O
,	t164	7	,	O	O	O	O	O	O	O	O	PUN	O	,	,	O	O
or	t165	7	or	O	O	O	O	O	O	O	O	CJC	O	or	CC	t167:CONJ	O
15	t166	7	15	O	O	O	O	O	O	O	O	CRD	B-NP	15	CD	O	O
cents	t167	7	cent	O	O	O	O	O	O	O	O	NN2	I-NP	cent	NNS	t166:NMOD||t168:DEP||t170:NMOD||t172:ADV	O
to	t168	7	to	O	O	O	O	O	O	O	O	PRP	B-PP	to	TO	O	O
20	t169	7	20	O	O	O	O	O	O	O	O	CRD	B-NP	20	CD	O	O
cents	t170	7	cent	O	O	O	O	O	O	O	O	NN2	I-NP	cent	NNS	t169:NMOD	O
a	t171	7	a	O	O	O	O	O	O	O	O	AT0	B-NP	a	DT	O	O
share	t172	7	share	O	O	O	O	O	O	O	O	NN1	I-NP	share	NN	t171:NMOD	O
.	t173	7	.	O	O	O	O	O	O	O	O	PUN	O	.	.	O	O
