DCT_1989-11-02	O	O	O	O	O	O	tmx0	DATE	1989-11-02	O	O	NN1	B-NP	dct_1989-11-02	LS	O	O

The	t1	1	the	O	O	O+O+O	O	O	O	O	O	AT0	B-NP	the	DT	O	O
White	t2	1	White	O	O	O+O+O	O	O	O	O	O	NP0	I-NP	white	NNP	O	O
House	t3	1	House	O	O	O+O+O	O	O	O	O	O	NN1	I-NP	house	NNP	t1:NMOD||t2:NAME	O
said	t4	1	say	e1	REPORTING	PAST+NONE+POS	O	O	O	O	O	VVD	B-VP	say	VBD	t3:SBJ||t7:OBJ||t38:P	mainVb
President	t5	1	President	O	O	O	O	O	O	O	O	NP0	B-NP	president	NN	O	O
Bush	t6	1	Bush	O	O	O	O	O	O	O	O	NP0	I-NP	bush	NNP	t5:TITLE	O
has	t7	1	have	O	O	O	O	O	O	O	O	VHZ	B-VP	have	VBZ	t6:SBJ||t8:VC	O
approved	t8	1	approve	e2	I_ACTION	PRESENT+PERFECTIVE+POS	O	O	O	O	O	VVN	I-VP	approve	VBN	t10:OBJ	O
duty-free	t9	1	duty-free	O	O	O	O	O	O	O	O	AJ0	B-NP	duty-free	JJ	O	O
treatment	t10	1	treatment	e25	STATE	NONE+NONE+POS	O	O	O	O	O	NN1	I-NP	treatment	NN	t9:NMOD||t11:NMOD	O
for	t11	1	for	O	O	O	O	O	O	O	O	PRP	B-PP	for	IN	t12:PMOD	O
imports	t12	1	import	O	O	O	O	O	O	O	O	NN2	B-NP	import	NNS	t13:NMOD	O
of	t13	1	of	O	O	O	O	O	O	O	O	PRF	B-PP	of	IN	t15:PMOD	O
certain	t14	1	certain	O	O	O	O	O	O	O	O	AJ0	B-NP	certain	JJ	O	O
types	t15	1	type	O	O	O	O	O	O	O	O	NN2	I-NP	type	NNS	t14:NMOD||t16:NMOD||t26:NMOD	O
of	t16	1	of	O	O	O	O	O	O	O	O	PRF	B-PP	of	IN	t17:PMOD	O
watches	t17	1	watch	O	O	O	O	O	O	O	O	NN2	B-NP	watch	NNS	t19:NMOD	O
that	t18	1	that	O	O	O	O	O	O	O	O	CJT	B-NP	that	WDT	O	O
are	t19	1	be	O	O	O	O	O	O	O	O	VBB	B-VP	be	VBP	t18:SBJ||t20:ADV||t21:VC	O
n't	t20	1	not	O	O	O	O	O	O	O	O	XX0	I-VP	not	RB	O	O
produced	t21	1	produce	e3	OCCURRENCE	PRESENT+NONE+NEG	O	O	O	O	O	VVN	I-VP	produce	VBN	t22:LOC	O
in	t22	1	in	O	O	O	O	O	O	O	O	PRP	B-PP	in	IN	t23:PMOD	O
"	t23	1	"	O	O	O	O	O	O	O	O	PUQ	O	"	NNP	O	O
significant	t24	1	significant	O	O	O	O	O	O	O	O	AJ0	B-NP	significant	JJ	O	O
quantities	t25	1	quantity	O	O	O	O	O	O	O	O	NN2	I-NP	quantity	NNS	t24:NMOD	O
"	t26	1	"	O	O	O	O	O	O	O	O	PUQ	O	"	VBP	t25:SBJ||t27:LOC	O
in	t27	1	in	O	O	O	O	O	O	O	O	PRP	B-PP	in	IN	t29:PMOD	O
the	t28	1	the	O	O	O	O	O	O	O	O	AT0	B-NP	the	DT	O	O
U.S.	t29	1	U.S.	O	O	O	O	O	O	O	O	NP0	I-NP	u.s.	NNP	t28:NMOD||t30:P||t33:COORD	O
,	t30	1	,	O	O	O	O	O	O	O	O	PUN	O	,	,	O	O
the	t31	1	the	O	O	O	O	O	O	O	O	AT0	B-NP	the	DT	O	O
Virgin	t32	1	Virgin	O	O	O	O	O	O	O	O	NP0	I-NP	virgin	NNP	O	O
Islands	t33	1	Islands	O	O	O	O	O	O	O	O	NP0	I-NP	island	NNPS	t31:NMOD||t32:NAME||t34:COORD	O
and	t34	1	and	O	O	O	O	O	O	O	O	CJC	O	and	CC	t37:CONJ	O
other	t35	1	other	O	O	O	O	O	O	O	O	AJ0	B-NP	other	JJ	O	O
U.S.	t36	1	U.S.	O	O	O	O	O	O	O	O	NP0	I-NP	u.s.	NNP	O	O
possessions	t37	1	possession	O	O	O	O	O	O	O	O	NN2	I-NP	possession	NNS	t35:NMOD||t36:NMOD	O
.	t38	1	.	O	O	O	O	O	O	O	O	PUN	O	.	.	O	O

The	t39	2	the	O	O	O	O	O	O	O	O	AT0	B-NP	the	DT	O	O
action	t40	2	action	e26	OCCURRENCE	NONE+NONE+POS	O	O	O	O	O	NN1	I-NP	action	NN	t39:NMOD	O
came	t41	2	come	e5	OCCURRENCE	PAST+NONE+POS	O	O	O	O	O	VVD	B-VP	come	VBD	t40:SBJ||t42:ADV||t65:P	mainVb
in	t42	2	in	O	O	O	O	O	O	O	O	PRP	B-PP	in	IN	t43:PMOD	O
response	t43	2	response	O	O	O	O	O	O	O	O	PRP	B-NP	response	NN	t44:NMOD	O
to	t44	2	to	O	O	O	O	O	O	O	O	PRP	B-PP	to	TO	t46:PMOD	O
a	t45	2	a	O	O	O	O	O	O	O	O	AT0	B-NP	a	DT	O	O
petition	t46	2	petition	O	O	O	O	O	O	O	O	NN1	I-NP	petition	NN	t45:NMOD||t47:APPO	O
filed	t47	2	file	e6	OCCURRENCE	PASTPART+NONE+POS	O	O	O	O	O	VVN	B-VP	file	VBN	t48:LGS||t51:ADV	O
by	t48	2	by	O	O	O	O	O	O	O	O	PRP	B-PP	by	IN	t49:PMOD	O
Timex	t49	2	Timex	O	O	O	O	O	O	O	O	NP0	B-NP	timex	NNP	t50:POSTHON	O
Inc.	t50	2	Inc.	O	O	O	O	O	O	O	O	NP0	I-NP	inc.	NNP	O	O
for	t51	2	for	O	O	O	O	O	O	O	O	PRP	B-PP	for	IN	t52:PMOD	O
changes	t52	2	change	O	O	O	O	O	O	O	O	NN2	B-NP	change	NNS	t53:LOC||t60:NMOD	O
in	t53	2	in	O	O	O	O	O	O	O	O	PRP	B-PP	in	IN	t57:PMOD	O
the	t54	2	the	O	O	O	O	O	O	O	O	AT0	B-NP	the	DT	O	O
U.S.	t55	2	U.S.	O	O	O	O	O	O	O	O	NP0	I-NP	u.s.	NNP	O	O
Generalized	t56	2	Generalized	O	O	O	O	O	O	O	O	NP0	I-NP	generalized	NNP	O	O
System	t57	2	System	O	O	O	O	O	O	O	O	NP0	I-NP	system	NNP	t54:NMOD||t55:NAME||t56:NAME||t58:NMOD	O
of	t58	2	of	O	O	O	O	O	O	O	O	PRF	B-PP	of	IN	t59:PMOD	O
Preferences	t59	2	Preferences	O	O	O	O	O	O	O	O	NN2	B-NP	preference	NNPS	O	O
for	t60	2	for	O	O	O	O	O	O	O	O	PRP	B-PP	for	IN	t61:PMOD	O
imports	t61	2	import	O	O	O	O	O	O	O	O	NN2	B-NP	import	NNS	t62:NMOD	O
from	t62	2	from	O	O	O	O	O	O	O	O	PRP	B-PP	from	IN	t64:PMOD	O
developing	t63	2	develop	O	O	O	O	O	O	O	O	AJ0	B-NP	develop	VBG	O	O
nations	t64	2	nation	O	O	O	O	O	O	O	O	NN2	I-NP	nation	NNS	t63:NMOD	O
.	t65	2	.	O	O	O	O	O	O	O	O	PUN	O	.	.	O	O

Previously	t66	3	previously	O	O	O	O	O	O	O	O	AV0	B-ADVP	previously	RB	O	O
,	t67	3	,	O	O	O	O	O	O	O	O	PUN	O	,	,	O	O
watch	t68	3	watch	O	O	O	O	O	O	O	O	NN1	B-NP	watch	NN	O	O
imports	t69	3	import	O	O	O	O	O	O	O	O	NN2	I-NP	import	NNS	t68:NMOD	O
were	t70	3	be	O	O	O	O	O	O	O	O	VBD	B-VP	be	VBD	t66:TMP||t67:P||t69:SBJ||t71:VC||t75:P	mainVb
denied	t71	3	deny	e10	I_ACTION	PAST+NONE+POS	O	O	O	O	O	VVN	I-VP	deny	VBN	t74:OBJ	mainVb
such	t72	3	such	O	O	O	O	O	O	O	O	DT0	B-NP	such	DT	O	O
duty-free	t73	3	duty-free	O	O	O	O	O	O	O	O	AJ0	I-NP	duty-free	JJ	O	O
treatment	t74	3	treatment	e29	STATE	NONE+NONE+POS	O	O	O	O	O	NN1	I-NP	treatment	NN	t72:NMOD||t73:NMOD	O
.	t75	3	.	O	O	O	O	O	O	O	O	PUN	O	.	.	O	O

Timex	t76	4	Timex	O	O	O	O	O	O	O	O	NP0	B-NP	timex	NNP	O	O
had	t77	4	have	O	O	O	O	O	O	O	O	VHD	B-VP	have	VBD	t76:SBJ||t78:VC||t94:P	mainVb
requested	t78	4	request	e11	OCCURRENCE	PAST+PERFECTIVE+POS	O	O	O	O	O	VVN	I-VP	request	VBN	t80:OBJ	mainVb
duty-free	t79	4	duty-free	O	O	O	O	O	O	O	O	AJ0	B-NP	duty-free	JJ	O	O
treatment	t80	4	treatment	O	O	O	O	O	O	O	O	NN1	I-NP	treatment	NN	t79:NMOD||t81:NMOD||t86:P||t87:APPO	O
for	t81	4	for	O	O	O	O	O	O	O	O	PRP	B-PP	for	IN	t83:PMOD	O
many	t82	4	many	O	O	O	O	O	O	O	O	DT0	B-NP	many	DT	O	O
types	t83	4	type	O	O	O	O	O	O	O	O	NN2	I-NP	type	NNS	t82:NMOD||t84:NMOD	O
of	t84	4	of	O	O	O	O	O	O	O	O	PRF	B-PP	of	IN	t85:PMOD	O
watches	t85	4	watch	O	O	O	O	O	O	O	O	NN2	B-NP	watch	NNS	O	O
,	t86	4	,	O	O	O	O	O	O	O	O	PUN	O	,	,	O	O
covered	t87	4	cover	O	O	O	O	O	O	O	O	VVN	B-VP	cover	VBN	t88:LGS	O
by	t88	4	by	O	O	O	O	O	O	O	O	PRP	B-PP	by	IN	t93:PMOD	O
58	t89	4	58	O	O	O	O	O	O	O	O	CRD	B-NP	58	CD	O	O
different	t90	4	different	O	O	O	O	O	O	O	O	AJ0	I-NP	different	JJ	O	O
U.S.	t91	4	U.S.	O	O	O	O	O	O	O	O	NP0	I-NP	u.s.	NNP	O	O
tariff	t92	4	tariff	O	O	O	O	O	O	O	O	NN1	I-NP	tariff	NN	O	O
classifications	t93	4	classification	O	O	O	O	O	O	O	O	NN2	I-NP	classification	NNS	t89:NMOD||t90:NMOD||t91:NMOD||t92:NMOD	O
.	t94	4	.	O	O	O	O	O	O	O	O	PUN	O	.	.	O	O

The	t95	5	the	O	O	O	O	O	O	O	O	AT0	B-NP	the	DT	O	O
White	t96	5	White	O	O	O	O	O	O	O	O	NP0	I-NP	white	NNP	O	O
House	t97	5	House	O	O	O	O	O	O	O	O	NN1	I-NP	house	NNP	t95:NMOD||t96:NAME	O
said	t98	5	say	e13	REPORTING	PAST+NONE+POS	O	O	O	O	O	VVD	B-VP	say	VBD	t97:SBJ||t101:OBJ||t139:P||t140:P	mainVb
Mr.	t99	5	Mr.	O	O	O	O	O	O	O	O	NP0	B-NP	mr.	NNP	O	O
Bush	t100	5	Bush	O	O	O	O	O	O	O	O	NP0	I-NP	bush	NNP	t99:TITLE	O
decided	t101	5	decide	e14	I_ACTION	PAST+NONE+POS	O	O	O	O	O	VVD	B-VP	decide	VBD	t100:SBJ||t102:OPRD||t109:P||t110:COORD	O
to	t102	5	to	O	O	O	O	O	O	O	O	TO0	I-VP	to	TO	t103:IM	O
grant	t103	5	grant	e15	OCCURRENCE	INFINITIVE+NONE+POS	O	O	O	O	O	VVI	I-VP	grant	VB	t105:OBJ	O
duty-free	t104	5	duty-free	O	O	O	O	O	O	O	O	AJ0	B-NP	duty-free	JJ	O	O
status	t105	5	status	O	O	O	O	O	O	O	O	NN1	I-NP	status	NN	t104:NMOD||t106:NMOD	O
for	t106	5	for	O	O	O	O	O	O	O	O	PRP	B-PP	for	IN	t108:PMOD	O
18	t107	5	18	O	O	O	O	O	O	O	O	CRD	B-NP	18	CD	O	O
categories	t108	5	category	O	O	O	O	O	O	O	O	NN2	I-NP	category	NNS	t107:NMOD	O
,	t109	5	,	O	O	O	O	O	O	O	O	PUN	O	,	,	O	O
but	t110	5	but	O	O	O	O	O	O	O	O	CJC	O	but	CC	t111:CONJ	O
turned	t111	5	turn	e16	I_ACTION	PAST+NONE+POS	O	O	O	O	O	VVD	B-VP	turn	VBD	t112:PRT||t114:OBJ||t120:MNR||t121:PRP	O
down	t112	5	down	O	O	O	O	O	O	O	O	AVP	B-PRT	down	RP	O	O
such	t113	5	such	O	O	O	O	O	O	O	O	DT0	B-NP	such	DT	O	O
treatment	t114	5	treatment	e31	STATE	NONE+NONE+POS	O	O	O	O	O	NN1	I-NP	treatment	NN	t113:NMOD||t115:NMOD	O
for	t115	5	for	O	O	O	O	O	O	O	O	PRP	B-PP	for	IN	t117:PMOD	O
other	t116	5	other	O	O	O	O	O	O	O	O	AJ0	B-NP	other	JJ	O	O
types	t117	5	type	O	O	O	O	O	O	O	O	NN2	I-NP	type	NNS	t116:NMOD||t118:NMOD	O
of	t118	5	of	O	O	O	O	O	O	O	O	PRF	B-PP	of	IN	t119:PMOD	O
watches	t119	5	watch	O	O	O	O	O	O	O	O	NN2	B-NP	watch	NNS	O	O
"	t120	5	"	O	O	O	O	O	O	O	O	PUQ	O	"	RBR	O	O
because	t121	5	because	O	O	O	O	O	O	O	O	PRP	B-PP	because	IN	t122:DEP||t124:PMOD	O
of	t122	5	of	O	O	O	O	O	O	O	O	PRP	I-PP	of	IN	O	O
the	t123	5	the	O	O	O	O	O	O	O	O	AT0	B-NP	the	DT	O	O
potential	t124	5	potential	O	O	O	O	O	O	O	O	NN1	I-NP	potential	NN	t123:NMOD||t125:NMOD	O
for	t125	5	for	O	O	O	O	O	O	O	O	PRP	B-PP	for	IN	t128:SUB	O
material	t126	5	material	O	O	O	O	O	O	O	O	NN1	B-NP	material	JJ	O	O
injury	t127	5	injury	O	O	O	O	O	O	O	O	NN1	I-NP	injury	NN	t126:NMOD	O
to	t128	5	to	O	O	O	O	O	O	O	O	TO0	B-VP	to	TO	t127:SBJ||t129:IM	O
watch	t129	5	watch	O	O	O	O	O	O	O	O	VVI	I-VP	watch	VB	t130:OBJ	O
producers	t130	5	producer	O	O	O	O	O	O	O	O	NN2	B-NP	producer	NNS	t131:APPO	O
located	t131	5	locate	O	O	O	O	O	O	O	O	VVN	B-VP	locate	VBN	t132:LOC	O
in	t132	5	in	O	O	O	O	O	O	O	O	PRP	B-PP	in	IN	t134:PMOD	O
the	t133	5	the	O	O	O	O	O	O	O	O	AT0	B-NP	the	DT	O	O
U.S.	t134	5	U.S.	O	O	O	O	O	O	O	O	NP0	I-NP	u.s.	NNP	t133:NMOD||t135:COORD	O
and	t135	5	and	O	O	O	O	O	O	O	O	CJC	O	and	CC	t138:CONJ	O
the	t136	5	the	O	O	O	O	O	O	O	O	AT0	B-NP	the	DT	O	O
Virgin	t137	5	Virgin	O	O	O	O	O	O	O	O	NP0	I-NP	virgin	NNP	O	O
Islands	t138	5	Islands	O	O	O	O	O	O	O	O	NP0	I-NP	island	NNPS	t136:NMOD||t137:NAME	O
.	t139	5	.	O	O	O	O	O	O	O	O	PUN	O	.	.	O	O
"	t140	5	"	O	O	O	O	O	O	O	O	PUQ	O	"	)	O	O

Timex	t141	6	Timex	O	O	O	O	O	O	O	O	NP0	B-NP	timex	NNP	O	O
is	t142	6	be	O	O	O	O	O	O	O	O	VBZ	B-VP	be	VBZ	t141:SBJ||t146:PRD||t170:P	mainVb
a	t143	6	a	O	O	O	O	O	O	O	O	AT0	B-NP	a	DT	O	O
major	t144	6	major	O	O	O	O	O	O	O	O	NN1	I-NP	major	JJ	O	O
U.S.	t145	6	U.S.	O	O	O	O	O	O	O	O	NP0	I-NP	u.s.	NNP	O	O
producer	t146	6	producer	e32	STATE	PRESENT+NONE+POS	O	O	O	O	O	NN1	I-NP	producer	NN	t143:NMOD||t144:NMOD||t145:NMOD||t147:COORD||t149:NMOD	O
and	t147	6	and	O	O	O	O	O	O	O	O	CJC	I-NP	and	CC	t148:CONJ	O
seller	t148	6	seller	e33	STATE	PRESENT+NONE+POS	O	O	O	O	O	NN1	I-NP	seller	NN	O	O
of	t149	6	of	O	O	O	O	O	O	O	O	PRF	B-PP	of	IN	t150:PMOD	O
watches	t150	6	watch	O	O	O	O	O	O	O	O	NN2	B-NP	watch	NNS	t151:P||t152:NMOD	O
,	t151	6	,	O	O	O	O	O	O	O	O	PUN	O	,	,	O	O
including	t152	6	include	O	O	O	O	O	O	O	O	PRP	B-PP	include	VBG	t155:PMOD	O
low-priced	t153	6	low-priced	O	O	O	O	O	O	O	O	AJ0	B-NP	low-price	VBN	O	O
battery-operated	t154	6	battery-operated	O	O	O	O	O	O	O	O	AJ0	I-NP	battery-operate	VBN	O	O
watches	t155	6	watch	O	O	O	O	O	O	O	O	NN2	I-NP	watch	NNS	t153:NMOD||t154:NMOD||t156:APPO||t160:COORD	O
assembled	t156	6	assemble	O	O	O	O	O	O	O	O	VVD	B-VP	assemble	VBN	t157:LOC	O
in	t157	6	in	O	O	O	O	O	O	O	O	PRP	B-PP	in	IN	t159:PMOD	O
the	t158	6	the	O	O	O	O	O	O	O	O	AT0	B-NP	the	DT	O	O
Philippines	t159	6	Philippines	O	O	O	O	O	O	O	O	NN2	I-NP	philippines	NNPS	t158:NMOD	O
and	t160	6	and	O	O	O	O	O	O	O	O	CJC	O	and	CC	t163:CONJ	O
other	t161	6	other	O	O	O	O	O	O	O	O	AJ0	B-NP	other	JJ	O	O
developing	t162	6	develop	O	O	O	O	O	O	O	O	NN1	I-NP	develop	VBG	O	O
nations	t163	6	nation	O	O	O	O	O	O	O	O	NN2	I-NP	nation	NNS	t161:NMOD||t162:NMOD||t164:APPO	O
covered	t164	6	cover	O	O	O	O	O	O	O	O	VVN	B-VP	cover	VBN	t165:LGS	O
by	t165	6	by	O	O	O	O	O	O	O	O	PRP	B-PP	by	IN	t169:PMOD	O
the	t166	6	the	O	O	O	O	O	O	O	O	AT0	B-NP	the	DT	O	O
U.S.	t167	6	U.S.	O	O	O	O	O	O	O	O	NP0	I-NP	u.s.	NNP	O	O
tariff	t168	6	tariff	O	O	O	O	O	O	O	O	NN1	I-NP	tariff	NN	O	O
preferences	t169	6	preference	O	O	O	O	O	O	O	O	NN2	I-NP	preference	NNS	t166:NMOD||t167:NMOD||t168:NMOD	O
.	t170	6	.	O	O	O	O	O	O	O	O	PUN	O	.	.	O	O

U.S.	t171	7	U.S.	O	O	O	O	O	O	O	O	NP0	B-NP	u.s.	NNP	O	O
trade	t172	7	trade	O	O	O	O	O	O	O	O	NN1	I-NP	trade	NN	O	O
officials	t173	7	official	O	O	O	O	O	O	O	O	NN2	I-NP	official	NNS	t171:NMOD||t172:NMOD	O
said	t174	7	say	e22	REPORTING	PAST+NONE+POS	O	O	O	O	O	VVD	B-VP	say	VBD	t173:SBJ||t179:OBJ||t189:P	mainVb
the	t175	7	the	O	O	O	O	O	O	O	O	AT0	B-NP	the	DT	O	O
Philippines	t176	7	Philippines	O	O	O	O	O	O	O	O	NN2	I-NP	philippines	NNP	t175:NMOD||t177:COORD	O
and	t177	7	and	O	O	O	O	O	O	O	O	CJC	O	and	CC	t178:CONJ	O
Thailand	t178	7	Thailand	O	O	O	O	O	O	O	O	NP0	B-NP	thailand	NNP	O	O
would	t179	7	would	O	O	O	O	O	O	O	O	VM0	B-VP	would	MD	t176:SBJ||t180:VC	O
be	t180	7	be	O	O	O	O	O	O	O	O	VBI	I-VP	be	VB	t183:PRD	O
the	t181	7	the	O	O	O	O	O	O	O	O	AT0	B-NP	the	DT	O	O
main	t182	7	main	O	O	O	O	O	O	O	O	AJ0	I-NP	main	JJ	O	O
beneficiaries	t183	7	beneficiary	e123	STATE	NONE+NONE+POS	O	O	O	O	O	NN2	I-NP	beneficiary	NNS	t181:NMOD||t182:NMOD||t184:NMOD	O
of	t184	7	of	O	O	O	O	O	O	O	O	PRF	B-PP	of	IN	t188:PMOD	O
the	t185	7	the	O	O	O	O	O	O	O	O	AT0	B-NP	the	DT	O	O
president	t186	7	president	O	O	O	O	O	O	O	O	NN1	I-NP	president	NN	t185:NMOD||t187:SUFFIX	O
's	t187	7	's	O	O	O	O	O	O	O	O	POS	B-NP	's	POS	O	O
action	t188	7	action	e34	OCCURRENCE	NONE+NONE+POS	O	O	O	O	O	NN1	I-NP	action	NN	t186:NMOD	O
.	t189	7	.	O	O	O	O	O	O	O	O	PUN	O	.	.	O	O

Imports	t190	8	import	O	O	O	O	O	O	O	O	NN2	B-NP	import	NNS	t191:NMOD	O
of	t191	8	of	O	O	O	O	O	O	O	O	PRF	B-PP	of	IN	t193:PMOD	O
the	t192	8	the	O	O	O	O	O	O	O	O	AT0	B-NP	the	DT	O	O
types	t193	8	type	O	O	O	O	O	O	O	O	NN2	I-NP	type	NNS	t192:NMOD||t194:NMOD	O
of	t194	8	of	O	O	O	O	O	O	O	O	PRF	B-PP	of	IN	t195:PMOD	O
watches	t195	8	watch	O	O	O	O	O	O	O	O	NN2	B-NP	watch	NNS	t198:NMOD	O
that	t196	8	that	O	O	O	O	O	O	O	O	CJT	B-NP	that	WDT	O	O
now	t197	8	now	O	O	O	tmx38	DATE	PRESENT_REF	O	O	AV0	B-ADVP	now	RB	O	O
will	t198	8	will	O	O	O	O	O	O	O	O	VM0	B-VP	will	MD	t196:SBJ||t197:TMP||t199:VC	O
be	t199	8	be	O	O	O	O	O	O	O	O	VBI	I-VP	be	VB	t200:PRD	O
eligible	t200	8	eligible	e39	STATE	FUTURE+NONE+POS	O	O	O	O	O	AJ0	B-ADJP	eligible	JJ	t201:AMOD	O
for	t201	8	for	O	O	O	O	O	O	O	O	PRP	B-PP	for	IN	t203:PMOD	O
duty-free	t202	8	duty-free	O	O	O	O	O	O	O	O	AJ0	B-NP	duty-free	JJ	O	O
treatment	t203	8	treatment	O	O	O	O	O	O	O	O	NN1	I-NP	treatment	NN	t202:NMOD	O
totaled	t204	8	total	e23	I_ACTION	PAST+NONE+POS	O	O	O	O	O	VVD	B-VP	total	VBD	t190:SBJ||t206:OBJ||t209:TMP||t227:P||t228:ADV||t238:P	mainVb
about	t205	8	about	O	O	O	O	O	O	O	O	AVP	B-NP	about	IN	O	O
$	t206	8	$	O	O	O	O	O	O	O	O	CRD	I-NP	$	$	t205:DEP||t207:DEP||t208:DEP	O
37.3	t207	8	37.3	O	O	O	O	O	O	O	O	CRD	I-NP	37.3	CD	O	O
million	t208	8	million	O	O	O	O	O	O	O	O	CRD	I-NP	million	CD	O	O
in	t209	8	in	O	O	O	O	O	O	O	O	PRP	B-PP	in	IN	t210:PMOD	O
1988	t210	8	1988	O	O	O	tmx37	DATE	1988	O	O	CRD	B-NP	1988	CD	t211:P||t215:APPO	O
,	t211	8	,	O	O	O	O	O	O	O	O	PUN	O	,	,	O	O
a	t212	8	a	O	O	O	O	O	O	O	O	AT0	B-NP	a	DT	O	O
relatively	t213	8	relatively	O	O	O	O	O	O	O	O	AV0	I-NP	relatively	RB	O	O
small	t214	8	small	O	O	O	O	O	O	O	O	AJ0	I-NP	small	JJ	t213:AMOD	O
share	t215	8	share	O	O	O	O	O	O	O	O	NN1	I-NP	share	NN	t212:NMOD||t214:NMOD||t216:NMOD	O
of	t216	8	of	O	O	O	O	O	O	O	O	PRF	B-PP	of	IN	t218:PMOD	O
the	t217	8	the	O	O	O	O	O	O	O	O	AT0	B-NP	the	DT	O	O
$	t218	8	$	O	O	O	O	O	O	O	O	CRD	I-NP	$	$	t217:NMOD||t219:DEP||t220:DEP||t221:NMOD	O
1.5	t219	8	1.5	O	O	O	O	O	O	O	O	CRD	I-NP	1.5	CD	O	O
billion	t220	8	billion	O	O	O	O	O	O	O	O	CRD	I-NP	billion	CD	O	O
in	t221	8	in	O	O	O	O	O	O	O	O	PRP	B-PP	in	IN	t224:PMOD	O
U.S.	t222	8	U.S.	O	O	O	O	O	O	O	O	NP0	B-NP	u.s.	NNP	O	O
watch	t223	8	watch	O	O	O	O	O	O	O	O	NN1	I-NP	watch	NN	O	O
imports	t224	8	import	O	O	O	O	O	O	O	O	VVZ	B-VP	import	NNS	t222:NMOD||t223:NMOD||t226:NMOD	O
that	t225	8	that	O	O	O	tmx1000	DATE	1988	O	O	DT0	B-NP	that	IN	O	O
year	t226	8	year	O	O	O	tmx1000	DATE	1988	O	O	NN1	I-NP	year	NN	t225:NMOD	O
,	t227	8	,	O	O	O	O	O	O	O	O	PUN	O	,	,	O	O
according	t228	8	accord	e40	REPORTING	PRESPART+NONE+POS	O	O	O	O	O	PRP	B-PP	accord	VBG	t229:PMOD	O
to	t229	8	to	O	O	O	O	O	O	O	O	PRP	B-PP	to	TO	t231:PMOD	O
an	t230	8	a	O	O	O	O	O	O	O	O	AT0	B-NP	an	DT	O	O
aide	t231	8	aide	O	O	O	O	O	O	O	O	NN1	I-NP	aide	NN	t230:NMOD||t232:NMOD	O
to	t232	8	to	O	O	O	O	O	O	O	O	PRP	B-PP	to	TO	t237:PMOD	O
U.S.	t233	8	U.S.	O	O	O	O	O	O	O	O	NP0	B-NP	u.s.	NNP	O	O
Trade	t234	8	Trade	O	O	O	O	O	O	O	O	NN1	I-NP	trade	NNP	O	O
Representative	t235	8	Representative	O	O	O	O	O	O	O	O	NN1	I-NP	representative	NN	t233:NMOD||t234:NMOD	O
Carla	t236	8	Carla	O	O	O	O	O	O	O	O	NP0	I-NP	carla	NNP	O	O
Hills	t237	8	Hills	O	O	O	O	O	O	O	O	NP0	I-NP	hill	NNP	t235:NMOD||t236:NAME	O
.	t238	8	.	O	O	O	O	O	O	O	O	PUN	O	.	.	O	O
