DCT_1998-03-31	O	O	O	O	O	O	tmx0	DATE	1998-03-31	O	O	NN1	B-NP	dct_1998-03-31	LS	O	O

The	t1	1	the	O	O	O+O+O	O	O	O	O	O	AT0	B-NP	the	DT	O	O
US	t2	1	US	O	O	O+O+O	O	O	O	O	O	NP0	I-NP	us	NNP	O	O
government	t3	1	government	O	O	O+O+O	O	O	O	O	O	NN1	I-NP	government	NN	t1:NMOD||t2:NMOD	O
recently	t4	1	recently	O	O	O+O+O	O	O	O	O	O	AV0	B-ADVP	recently	RB	O	O
announced	t5	1	announce	e1	REPORTING	PAST+NONE+POS	O	O	O	O	O	VVN	B-VP	announce	VBD	t3:SBJ||t4:TMP||t7:OBJ||t21:P	mainVb
new	t6	1	new	O	O	O	O	O	O	O	O	AJ0	B-NP	new	JJ	O	O
regulations	t7	1	regulation	O	O	O	O	O	O	O	O	NN2	I-NP	regulation	NNS	t6:NMOD||t8:APPO	O
designed	t8	1	design	e2	I_STATE	PASTPART+NONE+POS	O	O	O	O	O	VVN	B-VP	design	VBN	t9:OPRD	O
to	t9	1	to	O	O	O	O	O	O	O	O	TO0	I-VP	to	TO	t10:IM	O
change	t10	1	change	e3	OCCURRENCE	INFINITIVE+NONE+POS	O	O	O	O	O	VVI	I-VP	change	VB	t12:OBJ	O
the	t11	1	the	O	O	O	O	O	O	O	O	AT0	B-NP	the	DT	O	O
way	t12	1	way	O	O	O	O	O	O	O	O	NN1	I-NP	way	NN	t11:NMOD||t15:NMOD	O
transplant	t13	1	transplant	O	O	O	O	O	O	O	O	NN1	I-NP	transplant	NN	O	O
organs	t14	1	organ	O	O	O	O	O	O	O	O	NN2	I-NP	organs	NNS	t13:NMOD	O
are	t15	1	be	O	O	O	O	O	O	O	O	VBB	B-VP	be	VBP	t14:SBJ||t16:VC	O
made	t16	1	make	O	O	O	O	O	O	O	O	VVN	I-VP	make	VBN	t17:OPRD	O
available	t17	1	available	O	O	O	O	O	O	O	O	AJ0	B-ADJP	available	JJ	t18:AMOD	O
to	t18	1	to	O	O	O	O	O	O	O	O	TO0	B-VP	to	TO	t20:PMOD	O
sick	t19	1	sick	O	O	O	O	O	O	O	O	VVI	I-VP	sick	JJ	O	O
patients	t20	1	patient	O	O	O	O	O	O	O	O	NN2	B-NP	patient	NNS	t19:NMOD	O
.	t21	1	.	O	O	O	O	O	O	O	O	PUN	O	.	.	O	O

Under	t22	2	under	O	O	O	O	O	O	O	O	PRP	B-PP	under	IN	t25:PMOD	O
the	t23	2	the	O	O	O	O	O	O	O	O	AT0	B-NP	the	DT	O	O
new	t24	2	new	O	O	O	O	O	O	O	O	AJ0	I-NP	new	JJ	O	O
guidelines	t25	2	guideline	O	O	O	O	O	O	O	O	NN2	I-NP	guideline	NNS	t23:NMOD||t24:NMOD	O
,	t26	2	,	O	O	O	O	O	O	O	O	PUN	O	,	,	O	O
donor	t27	2	donor	O	O	O	O	O	O	O	O	NN1	B-NP	donor	CC	O	O
organs	t28	2	organ	O	O	O	O	O	O	O	O	NN2	I-NP	organs	NNS	O	O
will	t29	2	will	O	O	O	O	O	O	O	O	VM0	B-VP	will	MD	t22:LOC||t26:P||t27:DEP||t28:SBJ||t30:VC||t45:P	mainVb
be	t30	2	be	O	O	O	O	O	O	O	O	VBI	I-VP	be	VB	t31:VC	mainVb
made	t31	2	make	O	O	O	O	O	O	O	O	VVN	I-VP	make	VBN	t32:OPRD	mainVb
available	t32	2	available	O	O	O	O	O	O	O	O	AJ0	B-ADJP	available	JJ	t33:AMOD	O
to	t33	2	to	O	O	O	O	O	O	O	O	PRP	B-PP	to	TO	t36:PMOD	O
the	t34	2	the	O	O	O	O	O	O	O	O	AT0	B-NP	the	DT	O	O
sickest	t35	2	sickest	O	O	O	O	O	O	O	O	AJS	I-NP	sick	JJS	O	O
people	t36	2	people	O	O	O	O	O	O	O	O	NN0	I-NP	people	NN	t34:NMOD||t35:NMOD||t37:TMP||t38:P||t41:NMOD	O
first	t37	2	first	O	O	O	O	O	O	O	O	ORD	B-ADVP	first	JJ	O	O
,	t38	2	,	O	O	O	O	O	O	O	O	PUN	O	,	,	O	O
wherever	t39	2	wherever	O	O	O	O	O	O	O	O	AVQ	B-ADVP	wherever	WRB	O	O
they	t40	2	they	O	O	O	O	O	O	O	O	PNP	B-NP	they	PRP	O	O
live	t41	2	live	O	O	O	O	O	O	O	O	VVB	B-VP	live	VBP	t39:LOC||t40:SBJ||t42:LOC	O
in	t42	2	in	O	O	O	O	O	O	O	O	PRP	B-PP	in	IN	t44:PMOD	O
the	t43	2	the	O	O	O	O	O	O	O	O	AT0	B-NP	the	DT	O	O
country	t44	2	country	O	O	O	O	O	O	O	O	NN1	I-NP	country	NN	t43:NMOD	O
.	t45	2	.	O	O	O	O	O	O	O	O	PUN	O	.	.	O	O

Currently	t46	3	currently	O	O	O	O	O	O	O	O	AV0	B-ADVP	currently	RB	O	O
,	t47	3	,	O	O	O	O	O	O	O	O	PUN	O	,	,	O	O
transplant	t48	3	transplant	O	O	O	O	O	O	O	O	AJ0	B-NP	transplant	NN	O	O
organs	t49	3	organ	O	O	O	O	O	O	O	O	NN2	I-NP	organs	NNS	t48:NMOD	O
are	t50	3	be	O	O	O	O	O	O	O	O	VBB	B-VP	be	VBP	t46:TMP||t47:P||t49:SBJ||t51:VC||t58:P	mainVb
rationed	t51	3	ration	O	O	O	O	O	O	O	O	VVN	I-VP	ration	VBN	t52:ADV	mainVb
through	t52	3	through	O	O	O	O	O	O	O	O	PRP	B-PP	through	IN	t55:PMOD	O
a	t53	3	a	O	O	O	O	O	O	O	O	AT0	B-NP	a	DT	O	O
regional	t54	3	regional	O	O	O	O	O	O	O	O	AJ0	I-NP	regional	JJ	O	O
system	t55	3	system	O	O	O	O	O	O	O	O	NN1	I-NP	system	NN	t53:NMOD||t54:NMOD||t56:NMOD	O
of	t56	3	of	O	O	O	O	O	O	O	O	PRF	B-PP	of	IN	t57:PMOD	O
distribution	t57	3	distribution	O	O	O	O	O	O	O	O	NN1	B-NP	distribution	NN	O	O
.	t58	3	.	O	O	O	O	O	O	O	O	PUN	O	.	.	O	O

The	t59	4	the	O	O	O	O	O	O	O	O	AT0	B-NP	the	DT	O	O
private	t60	4	private	O	O	O	O	O	O	O	O	AJ0	I-NP	private	JJ	O	O
group	t61	4	group	O	O	O	O	O	O	O	O	NN1	I-NP	group	NN	t59:NMOD||t60:NMOD||t63:NMOD	O
that	t62	4	that	O	O	O	O	O	O	O	O	CJT	B-NP	that	WDT	O	O
runs	t63	4	run	e4	OCCURRENCE	PRESENT+NONE+POS	O	O	O	O	O	VVZ	B-VP	run	VBZ	t62:SBJ||t66:OBJ	O
the	t64	4	the	O	O	O	O	O	O	O	O	AT0	B-NP	the	DT	O	O
current	t65	4	current	O	O	O	O	O	O	O	O	AJ0	I-NP	current	JJ	O	O
system	t66	4	system	O	O	O	O	O	O	O	O	NN1	I-NP	system	NN	t64:NMOD||t65:NMOD||t67:P||t69:APPO||t76:P	O
,	t67	4	,	O	O	O	O	O	O	O	O	PUN	O	,	,	O	O
United	t68	4	United	O	O	O	O	O	O	O	O	NP0	B-NP	united	NNP	O	O
Network	t69	4	Network	O	O	O	O	O	O	O	O	NP0	I-NP	network	NNP	t68:NAME||t70:NMOD||t73:P||t74:COORD	O
for	t70	4	for	O	O	O	O	O	O	O	O	PRP	B-PP	for	IN	t72:PMOD	O
Organ	t71	4	Organ	O	O	O	O	O	O	O	O	NP0	B-NP	organ	NNP	O	O
Sharing	t72	4	share	O	O	O	O	O	O	O	O	NP0	I-NP	sharing	NNP	t71:NAME	O
,	t73	4	,	O	O	O	O	O	O	O	O	PUN	O	,	,	O	O
or	t74	4	or	O	O	O	O	O	O	O	O	CJC	O	or	CC	t75:CONJ	O
UNOS	t75	4	UNOS	O	O	O	O	O	O	O	O	NP0	B-NP	unos	NNP	O	O
,	t76	4	,	O	O	O	O	O	O	O	O	PUN	O	,	,	O	O
objects	t77	4	object	O	O	O	O	O	O	O	O	NN2	B-NP	object	VBZ	t61:SBJ||t78:ADV||t82:P	mainVb
to	t78	4	to	O	O	O	O	O	O	O	O	PRP	B-PP	to	TO	t81:PMOD	O
the	t79	4	the	O	O	O	O	O	O	O	O	AT0	B-NP	the	DT	O	O
new	t80	4	new	O	O	O	O	O	O	O	O	AJ0	I-NP	new	JJ	O	O
regulations	t81	4	regulation	O	O	O	O	O	O	O	O	NN2	I-NP	regulation	NNS	t79:NMOD||t80:NMOD	O
.	t82	4	.	O	O	O	O	O	O	O	O	PUN	O	.	.	O	O

UNOS	t83	5	UNOS	O	O	O	O	O	O	O	O	NP0	B-NP	unos	NNP	O	O
says	t84	5	say	e5	REPORTING	PRESENT+NONE+POS	O	O	O	O	O	VVZ	B-VP	say	VBZ	t83:SBJ||t87:OBJ||t109:P	mainVb
the	t85	5	the	O	O	O	O	O	O	O	O	AT0	B-NP	the	DT	O	O
regulations	t86	5	regulation	O	O	O	O	O	O	O	O	NN2	I-NP	regulation	NNS	t85:NMOD	O
put	t87	5	put	e6	OCCURRENCE	PAST+NONE+POS	O	O	O	O	O	VVB	B-VP	put	VBD	t86:SBJ||t90:OBJ||t91:PUT	O
the	t88	5	the	O	O	O	O	O	O	O	O	AT0	B-NP	the	DT	O	O
federal	t89	5	federal	O	O	O	O	O	O	O	O	AJ0	I-NP	federal	JJ	O	O
government	t90	5	government	O	O	O	O	O	O	O	O	NN1	I-NP	government	NN	t88:NMOD||t89:NMOD	O
in	t91	5	in	O	O	O	O	O	O	O	O	PRP	B-PP	in	IN	t92:PMOD||t98:COORD	O
charge	t92	5	charge	O	O	O	O	O	O	O	O	PRP	B-NP	charge	NN	t93:NMOD||t96:NMOD	O
of	t93	5	of	O	O	O	O	O	O	O	O	PRP	B-PP	of	IN	t94:PMOD	O
deciding	t94	5	decide	e7	OCCURRENCE	PRESPART+NONE+POS	O	O	O	O	O	VVG	B-VP	decide	VBG	O	O
who	t95	5	who	O	O	O	O	O	O	O	O	PNQ	B-NP	who	WP	O	O
gets	t96	5	get	e8	OCCURRENCE	PRESENT+NONE+POS	O	O	O	O	O	VVZ	B-VP	get	VBZ	t95:SBJ||t97:OBJ	O
transplants	t97	5	transplant	O	O	O	O	O	O	O	O	NN2	B-NP	transplant	NNS	O	O
and	t98	5	and	O	O	O	O	O	O	O	O	CJC	O	and	CC	t99:CONJ	O
that	t99	5	that	O	O	O	O	O	O	O	O	CJT	B-SBAR	that	IN	t104:SUB	O
many	t100	5	many	O	O	O	O	O	O	O	O	DT0	B-NP	many	DT	O	O
hospital	t101	5	hospital	O	O	O	O	O	O	O	O	NN1	I-NP	hospital	NN	O	O
transplant	t102	5	transplant	O	O	O	O	O	O	O	O	NN1	I-NP	transplant	NN	O	O
centers	t103	5	center	O	O	O	O	O	O	O	O	NN2	I-NP	center	NNS	t100:NMOD||t101:NMOD||t102:NMOD	O
would	t104	5	would	O	O	O	O	O	O	O	O	VM0	B-VP	would	MD	t103:SBJ||t105:VC	O
be	t105	5	be	O	O	O	O	O	O	O	O	VBI	I-VP	be	VB	t106:VC	O
forced	t106	5	force	e9	OCCURRENCE	NONE+NONE+POS	O	O	O	O	O	VVN	I-VP	force	VBN	t107:OPRD	O
to	t107	5	to	O	O	O	O	O	O	O	O	TO0	I-VP	to	TO	t108:IM	O
close	t108	5	close	e10	OCCURRENCE	INFINITIVE+NONE+POS	O	O	O	O	O	VVI	I-VP	close	VB	O	O
.	t109	5	.	O	O	O	O	O	O	O	O	PUN	O	.	.	O	O

Health	t110	6	Health	O	O	O	O	O	O	O	O	NN1	B-NP	health	NNP	O	O
and	t111	6	and	O	O	O	O	O	O	O	O	CJC	I-NP	and	CC	O	O
Human	t112	6	Human	O	O	O	O	O	O	O	O	AJ0	I-NP	human	NNP	O	O
Services	t113	6	Services	O	O	O	O	O	O	O	O	NN2	I-NP	services	NNP	t110:NAME||t111:NAME||t112:NAME	O
Secretary	t114	6	Secretary	O	O	O	O	O	O	O	O	NN1	I-NP	secretary	NN	t113:NMOD||t118:APPO	O
Do	t115	6	do	O	O	O	O	O	O	O	O	VDB	I-NP	do	NNP	O	O
-	t116	6	-	O	O	O	O	O	O	O	O	PUN	O	-	HYPH	O	O
Donna	t117	6	Donna	O	O	O	O	O	O	O	O	NP0	B-NP	donna	NNP	O	O
Shalala	t118	6	Shalala	O	O	O	O	O	O	O	O	NP0	I-NP	shalala	NNP	t115:NAME||t116:NAME||t117:NAME	O
says	t119	6	say	e11	REPORTING	PRESENT+NONE+POS	O	O	O	O	O	VVZ	B-VP	say	VBZ	t114:SBJ||t126:OBJ||t165:P	mainVb
patients	t120	6	patient	O	O	O	O	O	O	O	O	NN2	B-NP	patient	NNS	t122:NMOD	O
who	t121	6	who	O	O	O	O	O	O	O	O	PNQ	B-NP	who	WP	O	O
need	t122	6	need	e12	I_STATE	PRESENT+NONE+POS	O	O	O	O	O	VVB	B-VP	need	VBP	t121:SBJ||t125:OBJ	O
an	t123	6	a	O	O	O	O	O	O	O	O	AT0	B-NP	an	DT	O	O
organ	t124	6	organ	O	O	O	O	O	O	O	O	NN1	I-NP	organ	NN	O	O
transplant	t125	6	transplant	O	O	O	O	O	O	O	O	NN1	I-NP	transplant	NN	t123:NMOD||t124:NMOD	O
should	t126	6	should	O	O	O	O	O	O	O	O	VM0	B-VP	should	MD	t120:SBJ||t127:ADV||t128:VC||t143:P||t144:COORD	O
not	t127	6	not	O	O	O	O	O	O	O	O	XX0	I-VP	not	RB	O	O
have	t128	6	have	O	O	O	O	O	O	O	O	VHI	I-VP	have	VB	t129:OPRD	O
to	t129	6	to	O	O	O	O	O	O	O	O	TO0	I-VP	to	TO	t130:IM	O
take	t130	6	take	e13	OCCURRENCE	NONE+NONE+NEG	O	O	O	O	O	VVI	I-VP	take	VB	t132:OBJ	O
a	t131	6	a	O	O	O	O	O	O	O	O	AT0	B-NP	a	DT	O	O
chance	t132	6	chance	O	O	O	O	O	O	O	O	NN1	I-NP	chance	NN	t131:NMOD||t133:NMOD	O
that	t133	6	that	O	O	O	O	O	O	O	O	CJT	B-SBAR	that	IN	t136:SUB	O
an	t134	6	a	O	O	O	O	O	O	O	O	AT0	B-NP	an	DT	O	O
organ	t135	6	organ	O	O	O	O	O	O	O	O	NN1	I-NP	organ	NN	t134:NMOD	O
will	t136	6	will	O	O	O	O	O	O	O	O	VM0	B-VP	will	MD	t135:SBJ||t137:VC	O
become	t137	6	become	e14	OCCURRENCE	FUTURE+NONE+POS	O	O	O	O	O	VVI	I-VP	become	VB	t138:PRD||t139:LOC	O
available	t138	6	available	O	O	O	O	O	O	O	O	AJ0	B-ADJP	available	JJ	O	O
in	t139	6	in	O	O	O	O	O	O	O	O	PRP	B-PP	in	IN	t142:PMOD	O
their	t140	6	they	O	O	O	O	O	O	O	O	DPS	B-NP	their	PRP$	O	O
local	t141	6	local	O	O	O	O	O	O	O	O	AJ0	I-NP	local	JJ	O	O
area	t142	6	area	O	O	O	O	O	O	O	O	NN1	I-NP	area	NN	t140:NMOD||t141:NMOD	O
,	t143	6	,	O	O	O	O	O	O	O	O	PUN	O	,	,	O	O
nor	t144	6	nor	O	O	O	O	O	O	O	O	CJC	O	nor	CC	t145:CONJ	O
should	t145	6	should	O	O	O	O	O	O	O	O	VM0	B-VP	should	MD	t146:SBJ||t147:VC	O
patients	t146	6	patient	O	O	O	O	O	O	O	O	NN2	I-VP	patient	NNS	O	O
have	t147	6	have	O	O	O	O	O	O	O	O	VHI	B-NP	have	VB	t148:OPRD	O
to	t148	6	to	O	O	O	O	O	O	O	O	TO0	B-VP	to	TO	t149:IM	O
travel	t149	6	travel	e15	OCCURRENCE	NONE+NONE+NEG	O	O	O	O	O	VVI	I-VP	travel	VB	t150:DIR||t153:MNR||t157:PRP	O
to	t150	6	to	O	O	O	O	O	O	O	O	PRP	B-PP	to	TO	t152:PMOD	O
transplant	t151	6	transplant	O	O	O	O	O	O	O	O	AJ0	B-NP	transplant	NN	O	O
centers	t152	6	center	O	O	O	O	O	O	O	O	NN2	I-NP	center	NNS	t151:NMOD	O
far	t153	6	far	O	O	O	O	O	O	O	O	AV0	B-ADVP	far	RB	t154:AMOD	O
from	t154	6	from	O	O	O	O	O	O	O	O	PRP	B-PP	from	IN	t156:PMOD	O
their	t155	6	they	O	O	O	O	O	O	O	O	DPS	B-NP	their	PRP$	O	O
homes	t156	6	home	O	O	O	O	O	O	O	O	NN2	I-NP	home	NNS	t155:NMOD	O
to	t157	6	to	O	O	O	O	O	O	O	O	TO0	B-VP	to	TO	t158:IM	O
improve	t158	6	improve	e16	OCCURRENCE	INFINITIVE+NONE+POS	O	O	O	O	O	VVI	I-VP	improve	VB	t160:OBJ	O
their	t159	6	they	O	O	O	O	O	O	O	O	DPS	B-NP	their	PRP$	O	O
chances	t160	6	chance	O	O	O	O	O	O	O	O	NN2	I-NP	chance	NNS	t159:NMOD||t161:NMOD	O
of	t161	6	of	O	O	O	O	O	O	O	O	PRF	B-PP	of	IN	t162:PMOD	O
getting	t162	6	get	e17	OCCURRENCE	PRESPART+NONE+POS	O	O	O	O	O	VVG	B-VP	get	VBG	t164:OBJ	O
an	t163	6	a	O	O	O	O	O	O	O	O	AT0	B-NP	an	DT	O	O
organ	t164	6	organ	O	O	O	O	O	O	O	O	NN1	I-NP	organ	NN	t163:NMOD	O
.	t165	6	.	O	O	O	O	O	O	O	O	PUN	O	.	.	O	O

UNOS	t166	7	UNOS	O	O	O	O	O	O	O	O	NP0	B-NP	unos	NNS	O	O
spokeswoman	t167	7	spokeswoman	O	O	O	O	O	O	O	O	NN1	I-NP	spokeswoman	NN	t166:NMOD||t170:APPO	O
Donna	t168	7	Donna	O	O	O	O	O	O	O	O	NP0	I-NP	donna	NNP	O	O
Henry	t169	7	Henry	O	O	O	O	O	O	O	O	NP0	I-NP	henry	NNP	O	O
Wright	t170	7	Wright	O	O	O	O	O	O	O	O	NP0	I-NP	wright	NNP	t168:NAME||t169:NAME	O
says	t171	7	say	e18	REPORTING	PRESENT+NONE+POS	O	O	O	O	O	VVZ	B-VP	say	VBZ	t167:SBJ||t175:OBJ||t193:P	mainVb
the	t172	7	the	O	O	O	O	O	O	O	O	AT0	B-NP	the	DT	O	O
new	t173	7	new	O	O	O	O	O	O	O	O	AJ0	I-NP	new	JJ	O	O
policy	t174	7	policy	O	O	O	O	O	O	O	O	NN1	I-NP	policy	NN	t172:NMOD||t173:NMOD	O
would	t175	7	would	O	O	O	O	O	O	O	O	VM0	B-VP	would	MD	t174:SBJ||t176:ADV||t177:ADV||t178:VC	O
not	t176	7	not	O	O	O	O	O	O	O	O	XX0	I-VP	not	RB	O	O
necessarily	t177	7	necessarily	O	O	O	O	O	O	O	O	AV0	I-VP	necessarily	RB	O	O
be	t178	7	be	O	O	O	O	O	O	O	O	VBI	I-VP	be	VB	t180:PRD||t183:PRP	O
more	t179	7	more	O	O	O	O	O	O	O	O	AV0	B-ADJP	more	RBR	O	O
fair	t180	7	fair	e19	STATE	NONE+NONE+NEG	O	O	O	O	O	AJ0	I-ADJP	fair	JJ	t179:AMOD||t181:COORD	O
or	t181	7	or	O	O	O	O	O	O	O	O	CJC	O	or	CC	t182:CONJ	O
effective	t182	7	effective	e20	STATE	NONE+NONE+NEG	O	O	O	O	O	AJ0	B-ADJP	effective	JJ	O	O
because	t183	7	because	O	O	O	O	O	O	cs21	O	CJS	B-SBAR	because	IN	t185:SUB	O
allowances	t184	7	allowance	O	O	O	O	O	O	cs21	O	NN2	B-NP	allowance	NNS	O	O
are	t185	7	be	O	O	O	O	O	O	cs21	O	VBB	B-VP	be	VBP	t184:SBJ||t186:TMP||t187:VC	O
already	t186	7	already	O	O	O	O	O	O	cs21	O	AV0	I-VP	already	RB	O	O
made	t187	7	make	e22	OCCURRENCE	PRESENT+NONE+POS	O	O	O	cs21	O	VVN	I-VP	make	VBN	t188:ADV	O
for	t188	7	for	O	O	O	O	O	O	cs21	O	PRP	B-PP	for	IN	t192:PMOD	O
the	t189	7	the	O	O	O	O	O	O	cs21	O	AT0	B-NP	the	DT	O	O
most	t190	7	most	O	O	O	O	O	O	cs21	O	AV0	I-NP	most	RBS	O	O
needy	t191	7	needy	O	O	O	O	O	O	cs21	O	AJ0	I-NP	needy	JJ	t190:AMOD	O
patients	t192	7	patient	O	O	O	O	O	O	cs21	O	NN2	I-NP	patient	NNS	t189:NMOD||t191:NMOD	O
.	t193	7	.	O	O	O	O	O	O	cs21	O	PUN	O	.	.	O	O

The	t194	8	the	O	O	O	O	O	O	cs21	O	AT0	B-NP	the	DT	O	O
sickest	t195	8	sickest	O	O	O	O	O	O	cs21	O	AJS	I-NP	sick	JJS	O	O
patients	t196	8	patient	O	O	O	O	O	O	cs21	O	NN2	I-NP	patient	NNS	t194:NMOD||t195:NMOD	O
are	t197	8	be	O	O	O	O	O	O	cs21	O	VBB	B-VP	be	VBP	t196:SBJ||t198:ADV||t199:PRD||t201:P	mainVb
already	t198	8	already	O	O	O	O	O	O	cs21	O	AV0	I-VP	already	RB	O	mainVb
treated	t199	8	treat	e23	OCCURRENCE	PRESENT+NONE+POS	O	O	O	cs21	O	VVN	I-VP	treat	VBN	t200:TMP	mainVb
first	t200	8	first	O	O	O	O	O	O	cs21	O	ORD	B-ADVP	first	JJ	O	O
.	t201	8	.	O	O	O	O	O	O	cs21	O	PUN	O	.	.	O	O

There	t202	9	there	O	O	O	O	O	O	cs21	O	EX0	B-NP	there	EX	O	O
are	t203	9	be	O	O	O	O	O	O	cs21	O	VBB	B-VP	be	VBP	t202:SBJ||t204:ADV||t212:PRD||t219:P	mainVb
not	t204	9	not	O	O	O	O	O	O	cs21	O	XX0	O	not	RB	O	O
huge	t205	9	huge	O	O	O	O	O	O	cs21	O	AJ0	B-NP	huge	JJ	O	O
waiting	t206	9	wait	O	O	O	O	O	O	cs21	O	NN1	I-NP	wait	VBG	t207:OBJ	O
uh	t207	9	uh	O	O	O	O	O	O	cs21	O	AV0	B-ADVP	uh	UH	t216:DEP	O
disparit	t208	9	disparit	O	O	O	O	O	O	cs21	O	AV0	I-ADVP	disparit	VBN	t209:HYPH	O
-	t209	9	-	O	O	O	O	O	O	cs21	O	PUN	O	-	HYPH	O	O
waiting	t210	9	wait	O	O	O	O	O	O	cs21	O	VVG	B-VP	wait	VBG	t208:HMOD	O
time	t211	9	time	O	O	O	O	O	O	cs21	O	NN1	B-NP	time	NN	O	O
disparities	t212	9	disparity	O	O	O	O	O	O	cs21	O	NN2	I-NP	disparity	NNS	t205:NMOD||t206:NMOD||t210:NMOD||t211:NMOD||t213:LOC	O
amongst	t213	9	amongst	O	O	O	O	O	O	cs21	O	PRP	B-PP	amongst	IN	t218:PMOD	O
the	t214	9	the	O	O	O	O	O	O	cs21	O	AT0	B-NP	the	DT	O	O
very	t215	9	very	O	O	O	O	O	O	cs21	O	AJ0	I-NP	very	RB	O	O
uh	t216	9	uh	O	O	O	O	O	O	cs21	O	NN1	I-NP	uh	UH	O	O
sickest	t217	9	sickest	O	O	O	O	O	O	cs21	O	AJS	I-NP	sick	JJS	t215:AMOD	O
patients	t218	9	patient	O	O	O	O	O	O	cs21	O	NN2	I-NP	patient	NNS	t214:NMOD||t217:NMOD	O
.	t219	9	.	O	O	O	O	O	O	cs21	O	PUN	O	.	.	O	O

It	t220	10	it	O	O	O	O	O	O	cs21	O	PNP	B-NP	it	PRP	O	O
's	t221	10	be	O	O	O	O	O	O	cs21	O	VHZ	B-VP	's	VBZ	t220:SBJ||t222:PRD||t238:P	mainVb
between	t222	10	between	O	O	O	O	O	O	cs21	O	AV0	B-NP	between	IN	t226:PMOD	O
two	t223	10	two	O	O	O	tmx24	DURATION	P2D	cs21	O	CRD	I-NP	two	CD	O	O
to	t224	10	to	O	O	O	O	O	O	cs21	O	PRP	B-PP	to	TO	t230:PMOD	O
six	t225	10	six	O	O	O	tmx25	DURATION	P6D	cs21	O	CRD	B-NP	six	CD	t223:DEP||t224:DEP	O
days	t226	10	day	O	O	O	tmx25	DURATION	P6D	cs21	O	NN2	I-NP	days	NNS	t225:NMOD||t227:NMOD	O
for	t227	10	for	O	O	O	O	O	O	cs21	O	PRP	B-PP	for	IN	t229:PMOD	O
every	t228	10	every	O	O	O	O	O	O	cs21	O	AT0	B-NP	every	DT	O	O
one	t229	10	one	O	O	O	O	O	O	cs21	O	CRD	I-NP	one	CD	t228:NMOD||t231:NMOD	O
uh	t230	10	uh	O	O	O	O	O	O	cs21	O	ITJ	I-NP	uh	UH	O	O
of	t231	10	of	O	O	O	O	O	O	cs21	O	PRF	B-PP	of	IN	t234:PMOD	O
the	t232	10	the	O	O	O	O	O	O	cs21	O	AT0	B-NP	the	DT	O	O
sickest	t233	10	sickest	O	O	O	O	O	O	cs21	O	AJS	I-NP	sick	JJS	O	O
patients	t234	10	patient	O	O	O	O	O	O	cs21	O	NN2	I-NP	patient	NNS	t232:NMOD||t233:NMOD||t235:LOC	O
across	t235	10	across	O	O	O	O	O	O	cs21	O	PRP	B-PP	across	IN	t237:PMOD	O
the	t236	10	the	O	O	O	O	O	O	cs21	O	AT0	B-NP	the	DT	O	O
country	t237	10	country	O	O	O	O	O	O	cs21	O	NN1	I-NP	country	NN	t236:NMOD	O
.	t238	10	.	O	O	O	O	O	O	cs21	O	PUN	O	.	.	O	O

um	t239	11	um	O	O	O	O	O	O	cs21	O	ITJ	B-NP	um	NN	O	O
So	t240	11	so	O	O	O	O	O	O	cs21	O	AV0	I-NP	so	IN	t239:TITLE||t242:SUB	O
it	t241	11	it	O	O	O	O	O	O	cs21	O	PNP	B-NP	it	PRP	O	O
's	t242	11	be	O	O	O	O	O	O	cs21	O	VBZ	B-VP	's	VBZ	t241:SBJ||t246:PRD	O
a	t243	11	a	O	O	O	O	O	O	cs21	O	AT0	B-NP	a	DT	t244:HYPH	O
-	t244	11	-	O	O	O	O	O	O	cs21	O	PUN	O	-	HYPH	O	O
it	t245	11	it	O	O	O	O	O	O	cs21	O	PNP	B-NP	it	PRP	O	O
's	t246	11	be	O	O	O	O	O	O	cs21	O	VBZ	B-VP	's	VBZ	t243:DEP||t245:SBJ||t248:PRD||t249:EXTR	O
a	t247	11	a	O	O	O	O	O	O	cs21	O	AT0	B-NP	a	DT	O	O
fallacy	t248	11	fallacy	O	O	O	O	O	O	cs21	O	NN1	I-NP	fallacy	NN	t247:NMOD	O
that	t249	11	that	O	O	O	O	O	O	cs21	O	CJT	B-SBAR	that	IN	t251:SUB	O
they	t250	11	they	O	O	O	O	O	O	cs21	O	PNP	B-NP	they	PRP	O	O
're	t251	11	be	O	O	O	O	O	O	cs21	O	VBB	B-VP	're	VBP	t250:SBJ||t252:VC	O
doing	t252	11	do	e26	OCCURRENCE	PRESENT+PROGRESSIVE+POS	O	O	O	cs21	O	VDG	I-VP	do	VBG	t253:OBJ||t254:PRP	O
this	t253	11	this	O	O	O	O	O	O	cs21	O	DT0	B-NP	this	DT	O	O
because	t254	11	because	O	O	O	O	O	O	cs27	O	CJS	I-NP	because	IN	t255:DEP	O
um	t255	11	um	O	O	O	O	O	O	cs27	O	ITJ	I-NP	um	NN	O	O
the	t256	11	the	O	O	O	O	O	O	cs27	O	AT0	I-NP	the	DT	O	O
sickest	t257	11	sickest	O	O	O	O	O	O	cs27	O	AJS	I-NP	sick	JJS	O	O
patients	t258	11	patient	O	O	O	O	O	O	cs27	O	NN2	I-NP	patient	NNS	t256:NMOD||t257:NMOD	O
are	t259	11	be	O	O	O	O	O	O	cs27	O	VBB	B-VP	be	VBP	t240:ADV||t258:SBJ||t260:ADV||t261:VC||t263:P	mainVb
n't	t260	11	not	O	O	O	O	O	O	cs27	O	XX0	I-VP	not	RB	O	mainVb
being	t261	11	be	O	O	O	O	O	O	cs27	O	VBG	I-VP	be	VBG	t262:VC	mainVb
served	t262	11	serve	e28	OCCURRENCE	PAST+NONE+NEG	O	O	O	cs27	O	VVN	I-VP	serve	VBN	O	mainVb
.	t263	11	.	O	O	O	O	O	O	cs27	O	PUN	O	.	.	O	O

Doctor	t264	12	doctor	O	O	O	O	O	O	cs27	O	NP0	B-NP	doctor	NNP	O	O
James	t265	12	James	O	O	O	O	O	O	cs27	O	NP0	I-NP	james	NNP	O	O
Burdick	t266	12	Burdick	O	O	O	O	O	O	cs27	O	NP0	I-NP	burdick	NNP	t264:NAME||t265:NAME||t267:P||t269:APPO||t288:P	O
,	t267	12	,	O	O	O	O	O	O	cs27	O	PUN	O	,	,	O	O
the	t268	12	the	O	O	O	O	O	O	cs27	O	AT0	B-NP	the	DT	O	O
Professor	t269	12	Professor	O	O	O	O	O	O	cs27	O	NN1	I-NP	professor	NN	t268:NMOD||t270:NMOD||t273:LOC||t283:COORD	O
of	t270	12	of	O	O	O	O	O	O	cs27	O	PRF	B-PP	of	IN	t272:PMOD	O
Transplant	t271	12	Transplant	O	O	O	O	O	O	cs27	O	AJ0	B-NP	transplant	NNP	O	O
Surgery	t272	12	Surgery	O	O	O	O	O	O	cs27	O	NN1	I-NP	surgery	NNP	t271:NAME	O
at	t273	12	at	O	O	O	O	O	O	cs27	O	PRP	B-PP	at	IN	t277:PMOD	O
Johns	t274	12	Johns	O	O	O	O	O	O	cs27	O	NP0	B-NP	johns	NNP	O	O
Hopkins	t275	12	Hopkins	O	O	O	O	O	O	cs27	O	NP0	I-NP	hopkins	NNP	O	O
University	t276	12	University	O	O	O	O	O	O	cs27	O	NN1	I-NP	university	NNP	O	O
Hospital	t277	12	Hospital	O	O	O	O	O	O	cs27	O	NN1	I-NP	hospital	NNP	t274:NAME||t275:NAME||t276:NAME||t278:LOC	O
in	t278	12	in	O	O	O	O	O	O	cs27	O	PRP	B-PP	in	IN	t281:PMOD	O
Baltimore	t279	12	Baltimore	O	O	O	O	O	O	cs27	O	NP0	B-NP	baltimore	NNP	O	O
,	t280	12	,	O	O	O	O	O	O	cs27	O	PUN	O	,	,	O	O
Maryland	t281	12	Maryland	O	O	O	O	O	O	cs27	O	NP0	B-NP	maryland	NNP	t279:NMOD||t280:P||t282:P	O
,	t282	12	,	O	O	O	O	O	O	cs27	O	PUN	O	,	,	O	O
and	t283	12	and	O	O	O	O	O	O	cs27	O	CJC	O	and	CC	t285:CONJ	O
former	t284	12	former	O	O	O	O	O	O	cs27	O	DT0	B-NP	former	JJ	O	O
President	t285	12	President	O	O	O	O	O	O	cs27	O	NN1	I-NP	president	NN	t284:NMOD||t286:NMOD	O
of	t286	12	of	O	O	O	O	O	O	cs27	O	PRF	B-PP	of	IN	t287:PMOD	O
UNOS	t287	12	UNOS	O	O	O	O	O	O	cs27	O	NP0	B-NP	unos	NNP	O	O
,	t288	12	,	O	O	O	O	O	O	cs27	O	PUN	O	,	,	O	O
said	t289	12	say	e29	REPORTING	PAST+NONE+POS	O	O	O	cs27	O	VVD	B-VP	say	VBD	t266:SBJ||t293:OBJ||t302:P	mainVb
the	t290	12	the	O	O	O	O	O	O	cs27	O	AT0	B-NP	the	DT	O	O
current	t291	12	current	O	O	O	O	O	O	cs27	O	AJ0	I-NP	current	JJ	O	O
system	t292	12	system	O	O	O	O	O	O	cs27	O	NN1	I-NP	system	NN	t290:NMOD||t291:NMOD	O
has	t293	12	have	O	O	O	O	O	O	cs27	O	VHZ	B-VP	have	VBZ	t292:SBJ||t294:VC||t298:COORD	O
evolved	t294	12	evolve	e30	OCCURRENCE	PRESENT+PERFECTIVE+POS	O	O	O	cs27	O	VVN	I-VP	evolve	VBN	t295:TMP	O
over	t295	12	over	O	O	O	O	O	O	cs27	O	AV0	B-NP	over	IN	t297:PMOD	O
several	t296	12	several	O	O	O	tmx31	DURATION	PXY	cs27	O	DT0	I-NP	several	DT	O	O
years	t297	12	year	O	O	O	tmx31	DURATION	PXY	cs27	O	NN2	I-NP	years	NNS	t296:NMOD	O
and	t298	12	and	O	O	O	O	O	O	cs27	O	CJC	O	and	CC	t300:CONJ	O
it	t299	12	it	O	O	O	O	O	O	cs27	O	PNP	B-NP	it	PRP	O	O
works	t300	12	work	e32	OCCURRENCE	PRESENT+NONE+POS	O	O	O	cs27	O	VVZ	B-VP	work	VBZ	t299:SBJ||t301:MNR	O
well	t301	12	well	O	O	O	O	O	O	cs27	O	AV0	B-ADVP	well	RB	O	O
.	t302	12	.	O	O	O	O	O	O	cs27	O	PUN	O	.	.	O	O

You	t303	13	you	O	O	O	O	O	O	cs27	O	PNP	B-NP	you	PRP	O	O
may	t304	13	may	O	O	O	O	O	O	cs27	O	VM0	B-VP	may	MD	t303:SBJ||t305:P||t306:TMP||t311:P||t312:VC||t322:P	mainVb
,	t305	13	,	O	O	O	O	O	O	cs27	O	PUN	O	,	,	O	O
in	t306	13	in	O	O	O	O	O	O	cs27	O	PRP	B-PP	in	IN	t308:PMOD	O
a	t307	13	a	O	O	O	tmx33	DATE	FUTURE_REF	cs27	O	AT0	B-NP	a	DT	O	O
year	t308	13	year	O	O	O	tmx33	DATE	FUTURE_REF	cs27	O	NN1	I-NP	year	NN	t307:NMOD||t310:NMOD	O
or	t309	13	or	O	O	O	tmx33	DATE	FUTURE_REF	cs27	O	CJC	I-NP	or	CC	O	O
two	t310	13	two	O	O	O	tmx33	DATE	FUTURE_REF	cs27	O	CRD	I-NP	two	CD	t309:DEP	O
,	t311	13	,	O	O	O	O	O	O	cs27	O	PUN	O	,	,	O	O
save	t312	13	save	e34	OCCURRENCE	PRESENT+NONE+POS	O	O	O	cs27	O	VVB	B-VP	save	VBP	t316:OBJ||t317:ADV	O
a	t313	13	a	O	O	O	O	O	O	cs27	O	AT0	B-NP	a	DT	O	O
few	t314	13	few	O	O	O	O	O	O	cs27	O	DT0	I-NP	few	DT	O	O
more	t315	13	more	O	O	O	O	O	O	cs27	O	DT0	I-NP	more	DT	O	O
lives	t316	13	life	O	O	O	O	O	O	cs27	O	NN2	I-NP	life	NNS	t313:NMOD||t314:NMOD||t315:NMOD	O
if	t317	13	if	O	O	O	O	O	O	cs27	O	CJS	B-SBAR	if	IN	t319:SUB	O
you	t318	13	you	O	O	O	O	O	O	cs27	O	PNP	B-NP	you	PRP	O	O
do	t319	13	do	O	O	O	O	O	O	cs27	O	VDB	B-VP	do	VBP	t318:SBJ||t320:OBJ||t321:TMP	O
sickest	t320	13	sickest	O	O	O	O	O	O	cs27	O	AJS	I-VP	sick	JJS	O	O
first	t321	13	first	O	O	O	O	O	O	cs27	O	ORD	B-ADVP	first	JJ	O	O
.	t322	13	.	O	O	O	O	O	O	cs27	O	PUN	O	.	.	O	O

But	t323	14	but	O	O	O	O	O	O	cs27	O	CJC	O	but	CC	O	O
the	t324	14	the	O	O	O	O	O	O	cs27	O	AT0	B-NP	the	DT	O	O
number	t325	14	number	O	O	O	O	O	O	cs27	O	NN1	I-NP	number	NN	t324:NMOD||t326:NMOD	O
of	t326	14	of	O	O	O	O	O	O	cs27	O	PRF	B-PP	of	IN	t327:PMOD	O
patients	t327	14	patient	O	O	O	O	O	O	cs27	O	NN2	B-NP	patient	NNS	t328:APPO	O
waiting	t328	14	wait	e35	OCCURRENCE	PRESPART+NONE+POS	O	O	O	cs27	O	VVG	B-VP	wait	VBG	t329:TMP	O
then	t329	14	then	O	O	O	O	O	O	cs27	O	AV0	B-ADVP	then	RB	O	O
begins	t330	14	begin	e36	I_ACTION	PRESENT+NONE+POS	O	O	O	cs27	O	VVZ	B-VP	begin	VBZ	t323:DEP||t325:SBJ||t331:OPRD||t363:P	mainVb
to	t331	14	to	O	O	O	O	O	O	cs27	O	TO0	I-VP	to	TO	t332:IM	mainVb
increase	t332	14	increase	e37	OCCURRENCE	INFINITIVE+NONE+POS	O	O	O	cs27	O	VVI	I-VP	increase	VB	t333:P||t334:COORD	mainVb
,	t333	14	,	O	O	O	O	O	O	cs27	O	PUN	O	,	,	O	O
um	t334	14	um	O	O	O	O	O	O	cs27	O	ITJ	B-NP	um	NN	t335:COORD	O
and	t335	14	and	O	O	O	O	O	O	cs27	O	CJC	O	and	CC	t336:P||t340:CONJ	O
,	t336	14	,	O	O	O	O	O	O	cs27	O	PUN	O	,	,	O	O
in	t337	14	in	O	O	O	O	O	O	cs27	O	PRP	B-PP	in	IN	t338:PMOD	O
fact	t338	14	fact	O	O	O	O	O	O	cs27	O	NN1	B-NP	fact	NN	O	O
,	t339	14	,	O	O	O	O	O	O	cs27	O	PUN	O	,	,	O	O
um	t340	14	um	O	O	O	O	O	O	cs27	O	ITJ	B-VP	um	VBP	t337:ADV||t339:P||t341:TMP||t346:OBJ	O
over	t341	14	over	O	O	O	O	O	O	cs27	O	PRP	B-PP	over	IN	t343:PMOD	O
the	t342	14	the	O	O	O	tmx38	DURATION	PXY	cs27	O	AT0	B-NP	the	DT	O	O
years	t343	14	year	O	O	O	tmx38	DURATION	PXY	cs27	O	NN2	I-NP	years	NNS	t342:NMOD||t352:NMOD	O
many	t344	14	many	O	O	O	O	O	O	cs27	O	DT0	B-NP	many	DT	O	O
more	t345	14	more	O	O	O	O	O	O	cs27	O	DT0	I-NP	more	DT	O	O
patients	t346	14	patient	O	O	O	O	O	O	cs27	O	NN2	I-NP	patient	NNS	t344:NMOD||t345:NMOD||t348:NMOD	O
who	t347	14	who	O	O	O	O	O	O	cs27	O	PNQ	B-NP	who	WP	O	O
are	t348	14	be	O	O	O	O	O	O	cs27	O	VBB	B-VP	be	VBP	t347:SBJ||t349:VC	O
about	t349	14	about	O	O	O	O	O	O	cs27	O	PRP	B-PP	about	IN	t350:OPRD	O
to	t350	14	to	O	O	O	O	O	O	cs27	O	TO0	B-VP	to	TO	t351:IM	O
die	t351	14	die	O	O	O	O	O	O	cs27	O	VVI	I-VP	die	VB	t361:OBJ	O
of	t352	14	of	O	O	O	O	O	O	cs27	O	PRF	B-PP	of	IN	t353:PMOD	O
liver	t353	14	liver	O	O	O	O	O	O	cs27	O	NN1	B-NP	liver	NN	O	O
tra	t354	14	tra	O	O	O	O	O	O	cs27	O	NN1	I-NP	tra	NN	t355:HYPH	O
-	t355	14	-	O	O	O	O	O	O	cs27	O	PUN	O	-	HYPH	O	O
uh	t356	14	uh	O	O	O	O	O	O	cs27	O	ITJ	B-VP	uh	NN	t354:HMOD||t357:NMOD	O
without	t357	14	without	O	O	O	O	O	O	cs27	O	PRP	B-PP	without	IN	t360:PMOD	O
a	t358	14	a	O	O	O	O	O	O	cs27	O	AT0	B-NP	a	DT	O	O
liver	t359	14	liver	O	O	O	O	O	O	cs27	O	NN1	I-NP	liver	NN	O	O
transplant	t360	14	transplant	O	O	O	O	O	O	cs27	O	NN1	I-NP	transplant	NN	t358:NMOD||t359:NMOD	O
would	t361	14	would	O	O	O	O	O	O	cs27	O	VM0	B-VP	would	MD	t356:SBJ||t362:VC	O
accumulate	t362	14	accumulate	e39	OCCURRENCE	NONE+NONE+POS	O	O	O	cs27	O	VVI	I-VP	accumulate	VB	O	O
.	t363	14	.	O	O	O	O	O	O	cs27	O	PUN	O	.	.	O	O

If	t364	15	if	O	O	O	O	O	O	cs27	O	CJS	B-SBAR	if	IN	t366:SUB	O
you	t365	15	you	O	O	O	O	O	O	cs27	O	PNP	B-NP	you	PRP	O	O
do	t366	15	do	e40	OCCURRENCE	PRESENT+NONE+POS	O	O	O	cs27	O	VDB	B-VP	do	VBP	t365:SBJ||t370:OBJ	O
the	t367	15	the	O	O	O	O	O	O	cs27	O	AT0	B-NP	the	DT	O	O
uh	t368	15	uh	O	O	O	O	O	O	cs27	O	NN1	I-NP	uh	UH	O	O
alternative	t369	15	alternative	O	O	O	O	O	O	cs27	O	AJ0	I-NP	alternative	JJ	O	O
extreme	t370	15	extreme	O	O	O	O	O	O	cs27	O	NN1	I-NP	extreme	NN	t367:NMOD||t368:NMOD||t369:NMOD	O
,	t371	15	,	O	O	O	O	O	O	cs27	O	PUN	O	,	,	O	O
you	t372	15	you	O	O	O	O	O	O	cs27	O	PNP	B-NP	you	PRP	O	O
do	t373	15	do	O	O	O	O	O	O	cs27	O	VDB	B-VP	do	VBP	t364:ADV||t371:P||t372:SBJ||t374:ADV||t375:VC||t388:P	mainVb
n't	t374	15	not	O	O	O	O	O	O	cs27	O	XX0	I-VP	not	RB	O	mainVb
save	t375	15	save	e41	OCCURRENCE	PRESENT+NONE+NEG	O	O	O	cs27	O	VVI	I-VP	save	VB	t378:OBJ||t379:TMP||t383:P||t384:MNR	mainVb
as	t376	15	as	O	O	O	O	O	O	cs27	O	AV0	B-NP	as	IN	O	O
many	t377	15	many	O	O	O	O	O	O	cs27	O	DT0	I-NP	many	DT	t376:AMOD	O
lives	t378	15	life	O	O	O	O	O	O	cs27	O	NN2	I-NP	live	NNS	t377:NMOD	O
in	t379	15	in	O	O	O	O	O	O	cs27	O	PRP	B-PP	in	IN	t382:PMOD	O
the	t380	15	the	O	O	O	tmx42	DURATION	PXY	cs27	O	AT0	B-NP	the	DT	O	O
early	t381	15	early	O	O	O	tmx42	DURATION	PXY	cs27	O	AJ0	I-NP	early	JJ	O	O
years	t382	15	year	O	O	O	tmx42	DURATION	PXY	cs27	O	NN2	I-NP	years	NNS	t380:NMOD||t381:NMOD	O
,	t383	15	,	O	O	O	O	O	O	cs27	O	PUN	O	,	,	O	O
by	t384	15	by	O	O	O	O	O	O	cs27	O	PRP	B-PP	by	IN	t387:PMOD	O
a	t385	15	a	O	O	O	O	O	O	cs27	O	AT0	B-NP	a	DT	O	O
small	t386	15	small	O	O	O	O	O	O	cs27	O	AJ0	I-NP	small	JJ	O	O
fraction	t387	15	fraction	O	O	O	O	O	O	cs27	O	NN1	I-NP	fraction	NN	t385:NMOD||t386:NMOD	O
.	t388	15	.	O	O	O	O	O	O	cs27	O	PUN	O	.	.	O	O

Our	t389	16	we	O	O	O	O	O	O	cs27	O	DPS	B-NP	our	PRP$	O	O
system	t390	16	system	O	O	O	O	O	O	cs27	O	NN1	I-NP	system	NN	t389:NMOD	O
is	t391	16	be	e43	STATE	PRESENT+NONE+POS	O	O	O	cs27	O	VBZ	B-VP	be	VBZ	t390:SBJ||t392:VC||t393:P||t395:COORD||t400:P	mainVb
balanced	t392	16	balanced	O	O	O	O	O	O	cs27	O	VVN	I-VP	balance	VBN	O	mainVb
,	t393	16	,	O	O	O	O	O	O	cs27	O	PUN	O	,	,	O	O
it	t394	16	it	O	O	O	O	O	O	cs27	O	PNP	B-NP	it	PRP	O	O
's	t395	16	be	O	O	O	O	O	O	cs27	O	VBZ	B-VP	's	VBZ	t394:SBJ||t397:PRD	O
right	t396	16	right	O	O	O	O	O	O	cs27	O	AV0	B-ADVP	right	RB	O	O
in	t397	16	in	O	O	O	O	O	O	cs27	O	PRP	B-PP	in	IN	t396:PMOD||t399:PMOD	O
the	t398	16	the	O	O	O	O	O	O	cs27	O	AT0	B-NP	the	DT	O	O
middle	t399	16	middle	O	O	O	O	O	O	cs27	O	NN1	I-NP	middle	NN	t398:NMOD	O
.	t400	16	.	O	O	O	O	O	O	cs27	O	PUN	O	.	.	O	O

And	t401	17	and	O	O	O	O	O	O	cs27	O	CJC	O	and	CC	O	O
,	t402	17	,	O	O	O	O	O	O	cs27	O	PUN	O	,	,	O	O
therefore	t403	17	therefore	O	O	O	O	O	O	cs27	O	AV0	B-ADVP	therefore	RB	O	O
,	t404	17	,	O	O	O	O	O	O	cs27	O	PUN	O	,	,	O	O
it	t405	17	it	O	O	O	O	O	O	cs27	O	PNP	B-NP	it	PRP	O	O
works	t406	17	work	e44	STATE	PRESENT+NONE+POS	O	O	O	cs27	O	VVZ	B-VP	work	VBZ	t401:DEP||t402:P||t403:ADV||t404:P||t405:SBJ||t407:MNR||t409:P	mainVb
very	t407	17	very	O	O	O	O	O	O	cs27	O	AV0	B-ADVP	very	RB	t408:AMOD	O
well	t408	17	well	O	O	O	O	O	O	cs27	O	AV0	I-ADVP	well	RB	O	O
.	t409	17	.	O	O	O	O	O	O	cs27	O	PUN	O	.	.	O	O

Nationwide	t410	18	Nationwide	O	O	O	O	O	O	cs27	O	NP0	B-NP	nationwide	RB	O	O
,	t411	18	,	O	O	O	O	O	O	cs27	O	PUN	O	,	,	O	O
there	t412	18	there	O	O	O	O	O	O	cs27	O	EX0	B-NP	there	EX	O	O
are	t413	18	be	O	O	O	O	O	O	cs27	O	VBB	B-VP	be	VBP	t410:ADV||t411:P||t412:SBJ||t414:PRD||t424:COORD||t433:P	mainVb
about	t414	18	about	O	O	O	O	O	O	cs27	O	AV0	B-NP	about	IN	t417:PMOD	O
ten	t415	18	ten	O	O	O	O	O	O	cs27	O	CRD	I-NP	ten	JJ	O	O
thousand	t416	18	thousand	O	O	O	O	O	O	cs27	O	CRD	I-NP	thousand	CD	O	O
patients	t417	18	patient	O	O	O	O	O	O	cs27	O	NN2	I-NP	patient	NNS	t415:NMOD||t416:NMOD||t418:APPO	O
waiting	t418	18	wait	e45	OCCURRENCE	PRESPART+NONE+POS	O	O	O	cs27	O	VVG	B-VP	wait	VBG	t419:ADV||t423:TMP	O
for	t419	18	for	O	O	O	O	O	O	cs27	O	PRP	B-PP	for	IN	t421:PMOD	O
liver	t420	18	liver	O	O	O	O	O	O	cs27	O	NN1	B-NP	liver	NN	O	O
transplants	t421	18	transplant	O	O	O	O	O	O	cs27	O	NN2	I-NP	transplant	NNS	t420:NMOD	O
each	t422	18	each	O	O	O	tmx46	SET	P1Y	cs27	O	DT0	B-NP	each	DT	O	O
year	t423	18	year	O	O	O	tmx46	SET	P1Y	cs27	O	NN1	I-NP	year	NN	t422:NMOD	O
and	t424	18	and	O	O	O	O	O	O	cs27	O	CJC	O	and	CC	t429:CONJ	O
only	t425	18	only	O	O	O	O	O	O	cs27	O	AV0	B-NP	only	RB	t426:DEP||t427:DEP	O
four	t426	18	four	O	O	O	O	O	O	cs27	O	CRD	I-NP	four	CD	O	O
thousand	t427	18	thousand	O	O	O	O	O	O	cs27	O	CRD	I-NP	thousand	CD	O	O
organs	t428	18	organ	O	O	O	O	O	O	cs27	O	NN2	I-NP	organs	NNS	t425:NMOD	O
become	t429	18	become	e47	OCCURRENCE	PRESENT+NONE+POS	O	O	O	cs27	O	VVB	B-VP	become	VBP	t428:SBJ||t430:PRD	O
available	t430	18	available	O	O	O	O	O	O	cs27	O	AJ0	B-ADJP	available	JJ	t431:AMOD	O
for	t431	18	for	O	O	O	O	O	O	cs27	O	PRP	B-PP	for	IN	t432:PMOD	O
transplants	t432	18	transplant	e48	OCCURRENCE	NONE+NONE+POS	O	O	O	cs27	O	NN2	B-NP	transplant	NNS	O	O
.	t433	18	.	O	O	O	O	O	O	cs27	O	PUN	O	.	.	O	O

Secretary	t434	19	Secretary	O	O	O	O	O	O	cs27	O	NN1	B-NP	secretary	NN	t435:APPO	O
Shalala	t435	19	Shalala	O	O	O	O	O	O	cs27	O	NN1	I-NP	shalala	NNP	O	O
says	t436	19	say	e49	REPORTING	PRESENT+NONE+POS	O	O	O	cs27	O	VVZ	B-VP	say	VBZ	t434:SBJ||t437:OBJ||t440:TMP||t441:P||t442:COORD||t461:P	mainVb
UNOS	t437	19	UNOS	O	O	O	O	O	O	cs27	O	NP0	B-NP	unos	NNP	O	O
five	t438	19	five	O	O	O	tmx50	DATE	1997-10	cs27	O	CRD	B-NP	five	CD	O	O
months	t439	19	month	O	O	O	tmx50	DATE	1997-10	cs27	O	NN2	I-NP	month	NNS	t438:NMOD	O
ago	t440	19	ago	O	O	O	tmx50	DATE	1997-10	cs27	O	AV0	B-ADVP	ago	RB	t439:AMOD	O
,	t441	19	,	O	O	O	O	O	O	cs27	O	PUN	O	,	,	O	O
or	t442	19	or	O	O	O	O	O	O	cs27	O	CJC	O	or	CC	t443:CONJ	O
gave	t443	19	give	e51	OCCURRENCE	PAST+NONE+POS	O	O	O	cs27	O	VVD	B-VP	give	VBD	t444:OBJ||t446:OBJ	O
them	t444	19	they	O	O	O	O	O	O	cs27	O	PNP	B-NP	them	PRP	O	O
five	t445	19	five	O	O	O	tmx52	DURATION	P5M	cs27	O	CRD	B-NP	five	CD	O	O
months	t446	19	month	O	O	O	tmx52	DURATION	P5M	cs27	O	NN2	I-NP	month	NNS	t445:NMOD||t447:NMOD	O
to	t447	19	to	O	O	O	O	O	O	cs27	O	TO0	B-VP	to	TO	t448:IM	O
develop	t448	19	develop	e53	OCCURRENCE	INFINITIVE+NONE+POS	O	O	O	cs27	O	VVI	I-VP	develop	VB	t451:OBJ	O
a	t449	19	a	O	O	O	O	O	O	cs27	O	AT0	B-NP	a	DT	O	O
new	t450	19	new	O	O	O	O	O	O	cs27	O	AJ0	I-NP	new	JJ	O	O
plan	t451	19	plan	e54	I_STATE	NONE+NONE+POS	O	O	O	cs27	O	NN1	I-NP	plan	NN	t449:NMOD||t450:NMOD||t452:NMOD	O
to	t452	19	to	O	O	O	O	O	O	cs27	O	TO0	B-VP	to	TO	t453:IM	O
distribute	t453	19	distribute	e55	OCCURRENCE	INFINITIVE+NONE+POS	O	O	O	cs27	O	VVI	I-VP	distribute	VB	t454:OBJ	O
livers	t454	19	liver	O	O	O	O	O	O	cs27	O	NN2	B-NP	liver	NNS	t456:NMOD	O
which	t455	19	which	O	O	O	O	O	O	cs27	O	DTQ	B-NP	which	WDT	O	O
are	t456	19	be	O	O	O	O	O	O	cs27	O	VBB	B-VP	be	VBP	t455:SBJ||t457:LOC-PRD	O
in	t457	19	in	O	O	O	O	O	O	cs27	O	PRP	B-PP	in	IN	t460:PMOD	O
the	t458	19	the	O	O	O	O	O	O	cs27	O	AT0	B-NP	the	DT	O	O
shortest	t459	19	shortest	O	O	O	O	O	O	cs27	O	AJS	I-NP	short	JJS	O	O
supply	t460	19	supply	O	O	O	O	O	O	cs27	O	NN1	I-NP	supply	NN	t458:NMOD||t459:NMOD	O
.	t461	19	.	O	O	O	O	O	O	cs27	O	PUN	O	.	.	O	O

This	t462	20	this	O	O	O	O	O	O	cs27	O	DT0	B-NP	this	DT	O	O
is	t463	20	be	O	O	O	O	O	O	cs27	O	VBZ	B-VP	be	VBZ	t462:SBJ||t465:PRD||t466:P	mainVb
VOA	t464	20	VOA	O	O	O	O	O	O	cs27	O	NP0	B-NP	voa	NNP	O	O
Today	t465	20	Today	O	O	O	O	O	O	cs27	O	AV0	B-ADVP	today	NNP	t464:NAME	O
.	t466	20	.	O	O	O	O	O	O	cs27	O	PUN	O	.	.	O	O
