DCT_1998-03-03	O	O	O	O	O	O	tmx0	DATE	1998-03-03	O	O	NP0	B-NP	dct_1998-03-03	JJ	O	O

While	t1	1	while	O	O	O+O+O	O	O	O	O	O	CJS	B-SBAR	while	IN	t7:SUB	O
the	t2	1	the	O	O	O+O+O	O	O	O	O	O	AT0	B-NP	the	DT	O	O
expansion	t3	1	expansion	e1	OCCURRENCE	NONE+NONE+POS	O	O	O	O	O	NN1	I-NP	expansion	NN	t2:NMOD||t4:NMOD	O
of	t4	1	of	O	O	O	O	O	O	O	O	PRF	B-PP	of	IN	t6:PMOD	O
the	t5	1	the	O	O	O	O	O	O	O	O	AT0	B-NP	the	DT	O	O
Internet	t6	1	internet	O	O	O	O	O	O	O	O	NN1	I-NP	internet	NNP	t5:NMOD	O
has	t7	1	have	O	O	O	O	O	O	O	O	VHZ	B-VP	have	VBZ	t3:SBJ||t8:VC	O
been	t8	1	be	O	O	O	O	O	O	O	O	VBN	I-VP	be	VBN	t10:PRD	O
a	t9	1	a	O	O	O	O	O	O	O	O	AT0	B-NP	a	DT	O	O
blessing	t10	1	blessing	e2	OCCURRENCE	NONE+NONE+POS	O	O	O	O	O	NN1	I-NP	blessing	NN	t9:NMOD||t11:NMOD	O
for	t11	1	for	O	O	O	O	O	O	O	O	PRP	B-PP	for	IN	t12:PMOD	O
researchers	t12	1	researcher	O	O	O	O	O	O	O	O	NN2	B-NP	researcher	NNS	t13:P||t14:COORD	O
,	t13	1	,	O	O	O	O	O	O	O	O	PUN	O	,	,	O	O
students	t14	1	student	O	O	O	O	O	O	O	O	NN2	B-NP	student	NNS	t15:COORD	O
and	t15	1	and	O	O	O	O	O	O	O	O	CJC	O	and	CC	t19:CONJ	O
the	t16	1	the	O	O	O	O	O	O	O	O	AT0	B-NP	the	DT	O	O
just	t17	1	just	O	O	O	O	O	O	O	O	AJ0	I-NP	just	RB	O	O
plain	t18	1	plain	O	O	O	O	O	O	O	O	AJ0	I-NP	plain	JJ	t17:AMOD	O
curious	t19	1	curious	O	O	O	O	O	O	O	O	AJ0	I-NP	curious	JJ	t16:NMOD||t18:AMOD	O
,	t20	1	,	O	O	O	O	O	O	O	O	PUN	O	,	,	O	O
the	t21	1	the	O	O	O	O	O	O	O	O	AT0	B-NP	the	DT	O	O
new	t22	1	new	O	O	O	O	O	O	O	O	AJ0	I-NP	new	JJ	O	O
opportunities	t23	1	opportunity	O	O	O	O	O	O	O	O	NN2	I-NP	opportunity	NNS	t21:NMOD||t22:NMOD||t24:APPO	O
mentioned	t24	1	mention	e3	REPORTING	PASTPART+NONE+POS	O	O	O	O	O	VVN	B-VP	mention	VBN	t25:LGS	O
by	t25	1	by	O	O	O	O	O	O	O	O	PRP	B-PP	by	IN	t27:PMOD	O
Mr.	t26	1	Mr.	O	O	O	O	O	O	O	O	NP0	B-NP	mr.	NNP	O	O
Gates	t27	1	Gates	O	O	O	O	O	O	O	O	NP0	I-NP	gates	NNP	t26:TITLE	O
are	t28	1	be	O	O	O	O	O	O	O	O	VBB	B-VP	be	VBP	t1:ADV||t20:P||t23:SBJ||t29:ADV||t30:VC||t37:P	mainVb
also	t29	1	also	O	O	O	O	O	O	O	O	AV0	I-VP	also	RB	O	mainVb
being	t30	1	be	O	O	O	O	O	O	O	O	VBG	I-VP	be	VBG	t31:VC	mainVb
used	t31	1	use	e4	OCCURRENCE	PRESENT+PROGRESSIVE+POS	O	O	O	O	O	VVN	I-VP	use	VBN	t32:LGS	mainVb
by	t32	1	by	O	O	O	O	O	O	O	O	PRP	B-PP	by	IN	t36:PMOD	O
some	t33	1	some	O	O	O	O	O	O	O	O	DT0	B-NP	some	DT	O	O
rather	t34	1	rather	O	O	O	O	O	O	O	O	AV0	I-NP	rather	RB	O	O
unsavory	t35	1	unsavory	O	O	O	O	O	O	O	O	AJ0	I-NP	unsavory	JJ	t34:AMOD	O
characters	t36	1	character	O	O	O	O	O	O	O	O	NN2	I-NP	character	NNS	t33:NMOD||t35:NMOD	O
.	t37	1	.	O	O	O	O	O	O	O	O	PUN	O	.	.	O	O

A	t38	2	a	O	O	O	O	O	O	O	O	AT0	B-NP	a	DT	O	O
new	t39	2	new	O	O	O	O	O	O	O	O	AJ0	I-NP	new	JJ	O	O
report	t40	2	report	O	O	O	O	O	O	O	O	NN1	I-NP	report	NN	t38:NMOD||t39:NMOD	O
says	t41	2	say	e5	REPORTING	PRESENT+NONE+POS	O	O	O	O	O	VVZ	B-VP	say	VBZ	t40:SBJ||t43:OBJ||t62:P	mainVb
there	t42	2	there	O	O	O	O	O	O	O	O	EX0	B-NP	there	EX	O	O
has	t43	2	have	O	O	O	O	O	O	O	O	VHZ	I-NP	have	VBZ	t42:SBJ||t44:VC	O
been	t44	2	be	O	O	O	O	O	O	O	O	VBN	I-NP	be	VBN	t47:PRD	O
a	t45	2	a	O	O	O	O	O	O	O	O	AT0	B-NP	a	DT	O	O
dramatic	t46	2	dramatic	O	O	O	O	O	O	O	O	AJ0	I-NP	dramatic	JJ	O	O
rise	t47	2	rise	e6	OCCURRENCE	PRESENT+PERFECTIVE+POS	O	O	O	O	O	NN1	I-NP	rise	NN	t45:NMOD||t46:NMOD||t48:LOC	O
in	t48	2	in	O	O	O	O	O	O	O	O	PRP	B-PP	in	IN	t50:PMOD	O
the	t49	2	the	O	O	O	O	O	O	O	O	AT0	B-NP	the	DT	O	O
growth	t50	2	growth	e7	OCCURRENCE	NONE+NONE+POS	O	O	O	O	O	NN1	I-NP	growth	NN	t49:NMOD||t51:NMOD||t58:TMP	O
of	t51	2	of	O	O	O	O	O	O	O	O	PRF	B-PP	of	IN	t53:PMOD	O
hate	t52	2	hate	O	O	O	O	O	O	O	O	NN1	B-NP	hate	NN	O	O
groups	t53	2	group	O	O	O	O	O	O	O	O	NN2	I-NP	group	NNS	t52:NMOD||t54:LOC	O
in	t54	2	in	O	O	O	O	O	O	O	O	PRP	B-PP	in	IN	t57:PMOD	O
the	t55	2	the	O	O	O	O	O	O	O	O	AT0	B-NP	the	DT	O	O
United	t56	2	United	O	O	O	O	O	O	O	O	NP0	I-NP	united	NNP	O	O
States	t57	2	States	O	O	O	O	O	O	O	O	NP0	I-NP	state	NNPS	t55:NMOD||t56:NAME	O
over	t58	2	over	O	O	O	O	O	O	O	O	PRP	B-PP	over	IN	t61:PMOD	O
the	t59	2	the	O	O	O	tmx8	DATE	1997	O	O	AT0	B-NP	the	DT	O	O
past	t60	2	past	O	O	O	tmx8	DATE	1997	O	O	AJ0	I-NP	past	JJ	O	O
year	t61	2	year	O	O	O	tmx8	DATE	1997	O	O	NN1	I-NP	year	NN	t59:NMOD||t60:NMOD	O
.	t62	2	.	O	O	O	O	O	O	O	O	PUN	O	.	.	O	O

And	t63	3	and	O	O	O	O	O	O	O	O	CJC	O	and	CC	O	O
many	t64	3	many	O	O	O	O	O	O	O	O	DT0	B-NP	many	DT	t65:NMOD	O
of	t65	3	of	O	O	O	O	O	O	O	O	PRF	B-PP	of	IN	t66:PMOD	O
them	t66	3	they	O	O	O	O	O	O	O	O	PNP	B-NP	them	PRP	O	O
are	t67	3	be	O	O	O	O	O	O	O	O	VBB	B-VP	be	VBP	t63:DEP||t64:SBJ||t68:VC||t78:P	mainVb
using	t68	3	use	e9	OCCURRENCE	PRESENT+PROGRESSIVE+POS	O	O	O	O	O	VVG	I-VP	use	VBG	t70:OBJ||t71:OPRD	mainVb
the	t69	3	the	O	O	O	O	O	O	O	O	AT0	B-NP	the	DT	O	O
Internet	t70	3	internet	O	O	O	O	O	O	O	O	NN1	I-NP	internet	NN	t69:NMOD	O
to	t71	3	to	O	O	O	O	O	O	O	O	TO0	B-VP	to	TO	t72:IM	O
spread	t72	3	spread	e10	OCCURRENCE	INFINITIVE+NONE+POS	O	O	O	O	O	VVI	I-VP	spread	VB	t74:OBJ	O
their	t73	3	they	O	O	O	O	O	O	O	O	DPS	B-NP	their	PRP$	O	O
messages	t74	3	message	O	O	O	O	O	O	O	O	NN2	I-NP	message	NNS	t73:NMOD||t75:NMOD	O
of	t75	3	of	O	O	O	O	O	O	O	O	PRF	B-PP	of	IN	t77:PMOD	O
racial	t76	3	racial	O	O	O	O	O	O	O	O	AJ0	B-NP	racial	JJ	O	O
superiority	t77	3	superiority	O	O	O	O	O	O	O	O	NN1	I-NP	superiority	NN	t76:NMOD	O
.	t78	3	.	O	O	O	O	O	O	O	O	PUN	O	.	.	O	O

VOA	t79	4	VOA	O	O	O	O	O	O	O	O	NP0	B-NP	voa	NNP	t80:SUFFIX	O
's	t80	4	's	O	O	O	O	O	O	O	O	POS	B-NP	's	POS	O	O
Jim	t81	4	Jim	O	O	O	O	O	O	O	O	NP0	I-NP	jim	NNP	O	O
Teple	t82	4	Teple	O	O	O	O	O	O	O	O	NP0	I-NP	teple	NNP	t79:NMOD||t81:NAME	O
has	t83	4	have	O	O	O	O	O	O	O	O	VHZ	B-VP	have	VBZ	t82:SBJ||t84:OBJ||t90:P	mainVb
details	t84	4	detail	O	O	O	O	O	O	O	O	NN2	B-NP	details	NNS	t85:NMOD	O
from	t85	4	from	O	O	O	O	O	O	O	O	PRP	B-PP	from	IN	t89:PMOD	O
our	t86	4	we	O	O	O	O	O	O	O	O	DPS	B-NP	our	PRP$	O	O
southeast	t87	4	southeast	O	O	O	O	O	O	O	O	NN1	I-NP	southeast	NN	O	O
news	t88	4	news	O	O	O	O	O	O	O	O	NN1	I-NP	news	NN	O	O
bureau	t89	4	bureau	O	O	O	O	O	O	O	O	NN1	I-NP	bureau	NN	t86:NMOD||t87:NMOD||t88:NMOD	O
.	t90	4	.	O	O	O	O	O	O	O	O	PUN	O	.	.	O	O

The	t91	5	the	O	O	O	O	O	O	O	O	AT0	B-NP	the	DT	O	O
Southern	t92	5	Southern	O	O	O	O	O	O	O	O	AJ0	I-NP	southern	NNP	O	O
Poverty	t93	5	Poverty	O	O	O	O	O	O	O	O	NN1	I-NP	poverty	NNP	t92:NAME	O
Law	t94	5	Law	O	O	O	O	O	O	O	O	NN1	I-NP	law	NNP	O	O
Center	t95	5	Center	O	O	O	O	O	O	O	O	NN1	I-NP	center	NNP	t91:NMOD||t93:NAME||t94:NAME||t96:P||t101:APPO||t107:P	O
,	t96	5	,	O	O	O	O	O	O	O	O	PUN	O	,	,	O	O
a	t97	5	a	O	O	O	O	O	O	O	O	AT0	B-NP	a	DT	O	O
civil	t98	5	civil	O	O	O	O	O	O	O	O	AJ0	I-NP	civil	JJ	O	O
rights	t99	5	rights	O	O	O	O	O	O	O	O	NN2	I-NP	right	NNS	t98:NMOD	O
monitoring	t100	5	monitoring	O	O	O	O	O	O	O	O	VVG	B-VP	monitor	VBG	t99:NMOD	O
group	t101	5	group	O	O	O	O	O	O	O	O	NN1	B-NP	group	NN	t97:NMOD||t100:NMOD||t102:APPO	O
based	t102	5	base	O	O	O	O	O	O	O	O	VVN	B-VP	base	VBN	t103:LOC	O
in	t103	5	in	O	O	O	O	O	O	O	O	PRP	B-PP	in	IN	t106:PMOD	O
Montgomery	t104	5	Montgomery	O	O	O	O	O	O	O	O	NP0	B-NP	montgomery	NNP	O	O
,	t105	5	,	O	O	O	O	O	O	O	O	PUN	O	,	,	O	O
Alabama	t106	5	Alabama	O	O	O	O	O	O	O	O	NP0	B-NP	alabama	NNP	t104:NMOD||t105:P	O
,	t107	5	,	O	O	O	O	O	O	O	O	PUN	O	,	,	O	O
has	t108	5	have	O	O	O	O	O	O	O	O	VHZ	B-VP	have	VBZ	t95:SBJ||t109:TMP||t110:VC||t118:P	mainVb
long	t109	5	long	O	O	O	O	O	O	O	O	AV0	I-VP	long	RB	O	mainVb
monitored	t110	5	monitor	e11	OCCURRENCE	PRESENT+PERFECTIVE+POS	O	O	O	O	O	VVN	I-VP	monitor	VBN	t112:OBJ	mainVb
such	t111	5	such	O	O	O	O	O	O	O	O	DT0	B-NP	such	DT	O	O
groups	t112	5	group	O	O	O	O	O	O	O	O	NN2	I-NP	group	NNS	t111:NMOD||t113:NMOD	O
as	t113	5	as	O	O	O	O	O	O	O	O	CJS	B-PP	as	IN	t117:PMOD	O
the	t114	5	the	O	O	O	O	O	O	O	O	AT0	B-NP	the	DT	O	O
Ku	t115	5	Ku	O	O	O	O	O	O	O	O	NP0	I-NP	ku	NNP	O	O
Klux	t116	5	Klux	O	O	O	O	O	O	O	O	NP0	I-NP	klux	NNP	O	O
Klan	t117	5	Klan	O	O	O	O	O	O	O	O	NP0	I-NP	klan	NNP	t114:NMOD||t115:NAME||t116:NAME	O
.	t118	5	.	O	O	O	O	O	O	O	O	PUN	O	.	.	O	O

More	t119	6	more	O	O	O	tmx12	DATE	PAST_REF	O	O	AV0	B-ADVP	more	RBR	O	O
recently	t120	6	recently	O	O	O	tmx12	DATE	PAST_REF	O	O	AV0	I-ADVP	recently	RB	t119:AMOD	O
it	t121	6	it	O	O	O	O	O	O	O	O	PNP	B-NP	it	PRP	O	O
has	t122	6	have	O	O	O	O	O	O	O	O	VHZ	B-VP	have	VBZ	t120:TMP||t121:SBJ||t123:VC||t142:P	mainVb
followed	t123	6	follow	e13	I_ACTION	PRESENT+PERFECTIVE+POS	O	O	O	O	O	VVN	I-VP	follow	VBN	t125:OBJ	mainVb
the	t124	6	the	O	O	O	O	O	O	O	O	AT0	B-NP	the	DT	O	O
growth	t125	6	growth	e14	OCCURRENCE	NONE+NONE+POS	O	O	O	O	O	NN1	I-NP	growth	NN	t124:NMOD||t126:NMOD	O
of	t126	6	of	O	O	O	O	O	O	O	O	PRF	B-PP	of	IN	t129:PMOD	O
the	t127	6	the	O	O	O	O	O	O	O	O	AT0	B-NP	the	DT	O	O
militia	t128	6	militia	O	O	O	O	O	O	O	O	NN0	I-NP	militia	NN	O	O
movement	t129	6	movement	O	O	O	O	O	O	O	O	NN1	I-NP	movement	NN	t127:NMOD||t128:NMOD||t130:COORD	O
and	t130	6	and	O	O	O	O	O	O	O	O	CJC	I-NP	and	CC	t132:CONJ	O
church	t131	6	church	O	O	O	O	O	O	O	O	NN1	I-NP	church	NN	O	O
groups	t132	6	group	O	O	O	O	O	O	O	O	NN2	I-NP	group	NNS	t131:NMOD||t134:NMOD	O
that	t133	6	that	O	O	O	O	O	O	O	O	CJT	B-NP	that	WDT	O	O
preach	t134	6	preach	O	O	O	O	O	O	O	O	VVB	B-VP	preach	VBP	t133:SBJ||t136:OBJ	O
a	t135	6	a	O	O	O	O	O	O	O	O	AT0	B-NP	a	DT	O	O
message	t136	6	message	O	O	O	O	O	O	O	O	NN1	I-NP	message	NN	t135:NMOD||t137:NMOD	O
of	t137	6	of	O	O	O	O	O	O	O	O	PRF	B-PP	of	IN	t139:PMOD	O
white	t138	6	white	O	O	O	O	O	O	O	O	AJ0	B-NP	white	JJ	O	O
supremacy	t139	6	supremacy	O	O	O	O	O	O	O	O	NN1	I-NP	supremacy	NN	t138:NMOD||t140:COORD	O
and	t140	6	and	O	O	O	O	O	O	O	O	CJC	I-NP	and	CC	t141:CONJ	O
anti-semitism	t141	6	anti-semitism	O	O	O	O	O	O	O	O	NN1	I-NP	anti-semitism	NN	O	O
.	t142	6	.	O	O	O	O	O	O	O	O	PUN	O	.	.	O	O

The	t143	7	the	O	O	O	O	O	O	O	O	AT0	B-NP	the	DT	O	O
new	t144	7	new	O	O	O	O	O	O	O	O	AJ0	I-NP	new	JJ	O	O
study	t145	7	study	O	O	O	O	O	O	O	O	NN1	I-NP	study	NN	t143:NMOD||t144:NMOD||t146:APPO	O
written	t146	7	write	O	O	O	O	O	O	O	O	VVN	B-VP	write	VBN	t147:LGS	O
by	t147	7	by	O	O	O	O	O	O	O	O	PRP	B-PP	by	IN	t149:PMOD	O
Mark	t148	7	Mark	O	O	O	O	O	O	O	O	NP0	B-NP	mark	NNP	O	O
Potach	t149	7	Potach	O	O	O	O	O	O	O	O	NP0	I-NP	potach	NNP	t148:NAME||t150:P||t152:NMOD||t161:P	O
,	t150	7	,	O	O	O	O	O	O	O	O	PUN	O	,	,	O	O
who	t151	7	who	O	O	O	O	O	O	O	O	PNQ	B-NP	who	WP	O	O
edits	t152	7	edit	O	O	O	O	O	O	O	O	VVZ	B-VP	edit	VBZ	t151:SBJ||t160:OBJ	O
the	t153	7	the	O	O	O	O	O	O	O	O	AT0	B-NP	the	DT	O	O
Southern	t154	7	Southern	O	O	O	O	O	O	O	O	AJ0	I-NP	southern	NNP	O	O
Poverty	t155	7	Poverty	O	O	O	O	O	O	O	O	NN1	I-NP	poverty	NNP	t154:NAME	O
Law	t156	7	Law	O	O	O	O	O	O	O	O	NN1	I-NP	law	NNP	O	O
Center	t157	7	Center	O	O	O	O	O	O	O	O	NN1	I-NP	center	NNP	t153:NMOD||t155:NAME||t156:NAME||t158:SUFFIX	O
's	t158	7	's	O	O	O	O	O	O	O	O	POS	B-NP	's	POS	O	O
Intelligence	t159	7	Intelligence	O	O	O	O	O	O	O	O	NN1	I-NP	intelligence	NNP	O	O
Report	t160	7	Report	O	O	O	O	O	O	O	O	NN1	I-NP	report	NNP	t157:NMOD||t159:NAME	O
,	t161	7	,	O	O	O	O	O	O	O	O	PUN	O	,	,	O	O
warns	t162	7	warn	e15	I_ACTION	PRESENT+NONE+POS	O	O	O	O	O	VVZ	B-VP	warn	VBZ	t145:SBJ||t163:OBJ||t176:P	mainVb
that	t163	7	that	O	O	O	O	O	O	O	O	CJT	B-SBAR	that	IN	t166:SUB	O
such	t164	7	such	O	O	O	O	O	O	O	O	DT0	B-NP	such	DT	O	O
groups	t165	7	group	O	O	O	O	O	O	O	O	NN2	I-NP	group	NNS	t164:NMOD	O
grew	t166	7	grow	e16	OCCURRENCE	PAST+NONE+POS	O	O	O	O	O	VVD	B-VP	grow	VBD	t165:SBJ||t167:MNR||t169:TMP||t170:P||t172:MNR	O
rapidly	t167	7	rapidly	O	O	O	O	O	O	O	O	AV0	B-NP	rapidly	RB	O	O
last	t168	7	last	O	O	O	tmx17	DATE	1997	O	O	ORD	I-NP	last	JJ	O	O
year	t169	7	year	O	O	O	tmx17	DATE	1997	O	O	NN1	I-NP	year	NN	t168:NMOD	O
,	t170	7	,	O	O	O	O	O	O	O	O	PUN	O	,	,	O	O
mostly	t171	7	mostly	O	O	O	O	O	O	O	O	AV0	B-ADVP	mostly	RB	O	O
by	t172	7	by	O	O	O	O	O	O	O	O	PRP	B-PP	by	IN	t171:PMOD||t173:PMOD	O
recruiting	t173	7	recruit	e18	OCCURRENCE	PRESPART+NONE+POS	O	O	O	O	O	VVG	B-VP	recruit	VBG	t175:OBJ	O
younger	t174	7	younger	O	O	O	O	O	O	O	O	AJC	B-NP	younger	JJR	O	O
members	t175	7	member	O	O	O	O	O	O	O	O	NN2	I-NP	member	NNS	t174:NMOD	O
.	t176	7	.	O	O	O	O	O	O	O	O	PUN	O	.	.	O	O

Mr.	t177	8	Mr.	O	O	O	O	O	O	O	O	NP0	B-NP	mr.	NNP	O	O
Potach	t178	8	Potach	O	O	O	O	O	O	O	O	NP0	I-NP	potach	NNP	t177:TITLE	O
says	t179	8	say	e19	REPORTING	PRESENT+NONE+POS	O	O	O	O	O	VVZ	B-VP	say	VBZ	t178:SBJ||t182:OBJ||t196:P	mainVb
the	t180	8	the	O	O	O	O	O	O	O	O	AT0	B-NP	the	DT	O	O
growth	t181	8	growth	e20	OCCURRENCE	NONE+NONE+POS	O	O	O	O	O	NN1	I-NP	growth	NN	t180:NMOD	O
is	t182	8	be	O	O	O	O	O	O	O	O	VBZ	B-VP	be	VBZ	t181:SBJ||t183:PRD||t184:TMP	O
surprising	t183	8	surprising	e21	STATE	PRESENT+NONE+POS	O	O	O	O	O	AJ0	B-ADJP	surprising	JJ	O	O
since	t184	8	since	O	O	O	O	O	O	cs22	O	PRP	B-PP	since	IN	t190:SUB	O
membership	t185	8	membership	O	O	O	O	O	O	cs22	O	NN1	B-NP	membership	NN	t186:LOC	O
in	t186	8	in	O	O	O	O	O	O	cs22	O	PRP	B-PP	in	IN	t188:PMOD	O
hate	t187	8	hate	O	O	O	O	O	O	cs22	O	NN1	B-NP	hate	NN	O	O
groups	t188	8	group	O	O	O	O	O	O	cs22	O	NN2	I-NP	group	NNS	t187:NMOD	O
usually	t189	8	usually	O	O	O	O	O	O	cs22	O	AV0	B-ADVP	usually	RB	O	O
declines	t190	8	decline	e23	OCCURRENCE	PRESENT+NONE+POS	O	O	O	cs22	O	VVZ	B-VP	decline	VBZ	t185:SBJ||t189:TMP||t191:TMP	O
during	t191	8	during	O	O	O	O	O	O	cs22	O	PRP	B-PP	during	IN	t192:PMOD	O
periods	t192	8	period	O	O	O	O	O	O	cs22	O	NN2	B-NP	period	NNS	t193:NMOD	O
of	t193	8	of	O	O	O	O	O	O	cs22	O	PRF	B-PP	of	IN	t195:PMOD	O
economic	t194	8	economic	O	O	O	O	O	O	cs22	O	AJ0	B-NP	economic	JJ	O	O
prosperity	t195	8	prosperity	O	O	O	O	O	O	cs22	O	NN1	I-NP	prosperity	NN	t194:NMOD	O
.	t196	8	.	O	O	O	O	O	O	cs22	O	PUN	O	.	.	O	O

We	t197	9	we	O	O	O	O	O	O	cs22	O	PNP	B-NP	we	PRP	O	O
in	t198	9	in	O	O	O	O	O	O	cs22	O	PRP	B-PP	in	IN	t199:PMOD	O
fact	t199	9	fact	O	O	O	O	O	O	cs22	O	NN1	B-NP	fact	NN	O	O
have	t200	9	have	O	O	O	O	O	O	cs22	O	VHB	B-VP	have	VBP	t197:SBJ||t198:ADV||t201:VC||t209:P||t211:COORD||t225:P	mainVb
seen	t201	9	see	e24	PERCEPTION	PRESENT+PERFECTIVE+POS	O	O	O	cs22	O	VVN	I-VP	see	VBN	t204:OBJ||t205:OPRD	mainVb
hate	t202	9	hate	O	O	O	O	O	O	cs22	O	NN1	B-NP	hate	NN	O	O
group	t203	9	group	O	O	O	O	O	O	cs22	O	NN1	I-NP	group	NN	O	O
numbers	t204	9	number	O	O	O	O	O	O	cs22	O	NN2	I-NP	numbers	NNS	t202:NMOD||t203:NMOD	O
dropping	t205	9	drop	e25	OCCURRENCE	PRESPART+NONE+POS	O	O	O	cs22	O	VVG	B-VP	drop	VBG	t206:DIR	O
through	t206	9	through	O	O	O	O	O	O	cs22	O	PRP	B-PP	through	IN	t208:PMOD	O
the	t207	9	the	O	O	O	tmx26	DATE	199	cs22	O	AT0	B-NP	the	DT	O	O
nineties	t208	9	ninety	O	O	O	tmx26	DATE	199	cs22	O	CRD	I-NP	ninety	NNS	t207:NMOD	O
,	t209	9	,	O	O	O	O	O	O	cs22	O	PUN	O	,	,	O	O
uh	t210	9	uh	O	O	O	O	O	O	cs22	O	ITJ	B-NP	uh	UH	t217:DEP	O
but	t211	9	but	O	O	O	O	O	O	cs22	O	CJC	O	but	CC	t210:CONJ||t215:CONJ	O
this	t212	9	this	O	O	O	tmx27	DATE	1998	cs22	O	DT0	B-NP	this	DT	O	O
year	t213	9	year	O	O	O	tmx27	DATE	1998	cs22	O	NN1	I-NP	year	NN	t212:NMOD	O
they	t214	9	they	O	O	O	O	O	O	cs22	O	PNP	B-NP	they	PRP	O	O
jumped	t215	9	jump	e28	OCCURRENCE	PAST+NONE+POS	O	O	O	cs22	O	VVD	B-VP	jump	VBD	t213:TMP||t214:SBJ||t216:PRT||t219:ADV	O
up	t216	9	up	O	O	O	O	O	O	cs22	O	AVP	B-PRT	up	RP	O	O
uh	t217	9	uh	O	O	O	O	O	O	cs22	O	AV0	B-NP	uh	UH	O	O
twenty	t218	9	twenty	O	O	O	O	O	O	cs22	O	CRD	I-NP	twenty	CD	O	O
percent	t219	9	percent	O	O	O	O	O	O	cs22	O	NN0	I-NP	percent	NN	t218:NMOD||t220:P||t224:APPO	O
,	t220	9	,	O	O	O	O	O	O	cs22	O	PUN	O	,	,	O	O
quite	t221	9	quite	O	O	O	O	O	O	cs22	O	AV0	B-ADVP	quite	PDT	O	O
a	t222	9	a	O	O	O	O	O	O	cs22	O	AT0	B-NP	a	DT	O	O
dramatic	t223	9	dramatic	O	O	O	O	O	O	cs22	O	AJ0	I-NP	dramatic	JJ	O	O
rise	t224	9	rise	e29	OCCURRENCE	NONE+NONE+POS	O	O	O	cs22	O	NN1	I-NP	rise	NN	t221:NMOD||t222:NMOD||t223:NMOD	O
.	t225	9	.	O	O	O	O	O	O	cs22	O	PUN	O	.	.	O	O

Mark	t226	10	Mark	O	O	O	O	O	O	cs22	O	NP0	B-NP	mark	NNP	O	O
Potach	t227	10	Potach	O	O	O	O	O	O	cs22	O	NP0	I-NP	potach	NNP	t226:NAME	O
says	t228	10	say	e30	REPORTING	PRESENT+NONE+POS	O	O	O	cs22	O	VVZ	B-VP	say	VBZ	t227:SBJ||t234:OBJ||t261:P	mainVb
over	t229	10	over	O	O	O	O	O	O	cs22	O	AV0	B-NP	over	IN	O	O
four	t230	10	four	O	O	O	O	O	O	cs22	O	CRD	I-NP	four	CD	O	O
hundred	t231	10	hundred	O	O	O	O	O	O	cs22	O	CRD	I-NP	hundred	CD	t229:DEP||t230:DEP	O
hate	t232	10	hate	O	O	O	O	O	O	cs22	O	NN1	I-NP	hate	NN	O	O
groups	t233	10	group	O	O	O	O	O	O	cs22	O	NN2	I-NP	group	NNS	t231:NMOD||t232:NMOD	O
have	t234	10	have	O	O	O	O	O	O	cs22	O	VHB	B-VP	have	VBP	t233:SBJ||t235:VC||t237:COORD	O
been	t235	10	be	O	O	O	O	O	O	cs22	O	VBN	I-VP	be	VBN	t236:VC	O
identified	t236	10	identify	e31	OCCURRENCE	PRESENT+PERFECTIVE+POS	O	O	O	cs22	O	VVN	I-VP	identify	VBN	O	O
and	t237	10	and	O	O	O	O	O	O	cs22	O	CJC	O	and	CC	t239:CONJ	O
many	t238	10	many	O	O	O	O	O	O	cs22	O	DT0	B-NP	many	DT	O	O
are	t239	10	be	O	O	O	O	O	O	cs22	O	VBB	B-VP	be	VBP	t238:SBJ||t240:VC	O
becoming	t240	10	become	e32	I_STATE	PRESENT+PROGRESSIVE+POS	O	O	O	cs22	O	VVG	I-VP	become	VBG	t242:PRD	O
increasingly	t241	10	increasingly	O	O	O	O	O	O	cs22	O	AV0	B-ADJP	increasingly	RB	O	O
successful	t242	10	successful	e33	I_STATE	NONE+NONE+POS	O	O	O	cs22	O	AJ0	I-ADJP	successful	JJ	t241:AMOD||t243:AMOD	O
at	t243	10	at	O	O	O	O	O	O	cs22	O	PRP	B-PP	at	IN	t244:PMOD	O
recruiting	t244	10	recruit	O	O	O	O	O	O	cs22	O	VVG	B-VP	recruit	VBG	t246:OBJ||t247:ADV	O
younger	t245	10	younger	O	O	O	O	O	O	cs22	O	AJC	B-NP	younger	JJR	O	O
members	t246	10	member	O	O	O	O	O	O	cs22	O	NN2	I-NP	member	NNS	t245:NMOD	O
through	t247	10	through	O	O	O	O	O	O	cs22	O	PRP	B-PP	through	IN	t249:PMOD	O
the	t248	10	the	O	O	O	O	O	O	cs22	O	AT0	B-NP	the	DT	O	O
use	t249	10	use	e34	OCCURRENCE	NONE+NONE+POS	O	O	O	cs22	O	NN1	I-NP	use	NN	t248:NMOD||t250:NMOD||t254:COORD	O
of	t250	10	of	O	O	O	O	O	O	cs22	O	PRF	B-PP	of	IN	t253:PMOD	O
Internet	t251	10	internet	O	O	O	O	O	O	cs22	O	NP0	B-NP	internet	NNP	O	O
web	t252	10	web	O	O	O	O	O	O	cs22	O	NN1	I-NP	web	NNP	t251:NAME	O
pages	t253	10	page	O	O	O	O	O	O	cs22	O	NN2	I-NP	page	NNS	t252:NMOD	O
and	t254	10	and	O	O	O	O	O	O	cs22	O	CJC	O	and	CC	t256:CONJ	O
the	t255	10	the	O	O	O	O	O	O	cs22	O	AT0	B-NP	the	DT	O	O
promotion	t256	10	promotion	O	O	O	O	O	O	cs22	O	NN1	I-NP	promotion	NN	t255:NMOD||t257:NMOD	O
of	t257	10	of	O	O	O	O	O	O	cs22	O	PRF	B-PP	of	IN	t260:PMOD	O
racist	t258	10	racist	O	O	O	O	O	O	cs22	O	AJ0	B-NP	racist	NN	O	O
rock	t259	10	rock	O	O	O	O	O	O	cs22	O	NN1	I-NP	rock	NN	O	O
music	t260	10	music	O	O	O	O	O	O	cs22	O	NN1	I-NP	music	NN	t258:NMOD||t259:NMOD	O
.	t261	10	.	O	O	O	O	O	O	cs22	O	PUN	O	.	.	O	O

The	t262	11	the	O	O	O	O	O	O	cs22	O	AT0	B-NP	the	DT	O	O
Internet	t263	11	internet	O	O	O	O	O	O	cs22	O	NN1	I-NP	internet	NNP	t262:NMOD	O
has	t264	11	have	O	O	O	O	O	O	cs22	O	VHZ	I-NP	have	VBZ	t263:SBJ||t265:ADV||t266:VC||t305:P	mainVb
certainly	t265	11	certainly	O	O	O	O	O	O	cs22	O	AV0	B-ADJP	certainly	RB	O	O
helped	t266	11	help	e35	I_STATE	PRESENT+PERFECTIVE+POS	O	O	O	cs22	O	VVN	I-ADJP	help	VBN	t269:OBJ||t270:OBJ||t284:P||t298:ADV	O
uh	t267	11	uh	O	O	O	O	O	O	cs22	O	AV0	B-NP	uh	UH	t287:DEP	O
hate	t268	11	hate	O	O	O	O	O	O	cs22	O	AJ0	I-NP	hate	NN	O	O
mongers	t269	11	monger	O	O	O	O	O	O	cs22	O	NN2	I-NP	monger	NNS	t268:NMOD	O
to	t270	11	to	O	O	O	O	O	O	cs22	O	TO0	B-VP	to	TO	t271:IM||t272:COORD	O
organize	t271	11	organize	e36	OCCURRENCE	INFINITIVE+NONE+POS	O	O	O	cs22	O	VVI	I-VP	organize	VB	O	O
and	t272	11	and	O	O	O	O	O	O	cs22	O	CJC	O	and	CC	t273:CONJ||t274:GAP-OBJ	O
uh	t273	11	uh	O	O	O	O	O	O	cs22	O	ITJ	B-NP	uh	UH	O	O
to	t274	11	to	O	O	O	O	O	O	cs22	O	TO0	B-VP	to	TO	t275:IM	O
feel	t275	11	feel	e37	STATE	INFINITIVE+NONE+POS	O	O	O	cs22	O	VVI	I-VP	feel	VB	t276:OBJ	O
that	t276	11	that	O	O	O	O	O	O	cs22	O	CJT	B-SBAR	that	IN	t278:SUB	O
they	t277	11	they	O	O	O	O	O	O	cs22	O	PNP	B-NP	they	PRP	O	O
are	t278	11	be	O	O	O	O	O	O	cs22	O	VBB	B-VP	be	VBP	t267:DEP||t277:SBJ||t279:PRD	O
part	t279	11	part	O	O	O	O	O	O	cs22	O	NN1	B-NP	part	NN	t280:NMOD	O
of	t280	11	of	O	O	O	O	O	O	cs22	O	PRF	B-PP	of	IN	t283:PMOD	O
a	t281	11	a	O	O	O	O	O	O	cs22	O	AT0	B-NP	a	DT	O	O
larger	t282	11	larger	O	O	O	O	O	O	cs22	O	AJC	I-NP	larger	JJR	O	O
community	t283	11	community	O	O	O	O	O	O	cs22	O	NN1	I-NP	community	NN	t281:NMOD||t282:NMOD	O
,	t284	11	,	O	O	O	O	O	O	cs22	O	PUN	O	,	,	O	O
even	t285	11	even	O	O	O	O	O	O	cs22	O	CJS	B-SBAR	even	RB	O	O
if	t286	11	if	O	O	O	O	O	O	cs22	O	CJS	I-SBAR	if	IN	t285:DEP||t289:SUB	O
uh	t287	11	uh	O	O	O	O	O	O	cs22	O	AV0	B-ADVP	uh	UH	O	O
they	t288	11	they	O	O	O	O	O	O	cs22	O	PNP	B-NP	they	PRP	O	O
are	t289	11	be	O	O	O	O	O	O	cs22	O	VBB	B-VP	be	VBP	t288:SBJ||t290:ADV||t291:VOC	O
essentially	t290	11	essentially	O	O	O	O	O	O	cs22	O	AV0	B-ADVP	essentially	RB	O	O
uh	t291	11	uh	O	O	O	O	O	O	cs22	O	ITJ	B-ADJP	uh	UH	O	O
,	t292	11	,	O	O	O	O	O	O	cs22	O	PUN	O	,	,	O	O
you	t293	11	you	O	O	O	O	O	O	cs22	O	PNP	B-NP	you	PRP	O	O
know	t294	11	know	O	O	O	O	O	O	cs22	O	VVB	B-VP	know	VBP	t286:ADV||t292:P||t293:SBJ||t295:P	O
,	t295	11	,	O	O	O	O	O	O	cs22	O	PUN	O	,	,	O	O
angry	t296	11	angry	O	O	O	O	O	O	cs22	O	AJ0	B-NP	angry	JJ	O	O
people	t297	11	people	O	O	O	O	O	O	cs22	O	NN0	I-NP	people	NN	t296:NMOD	O
sitting	t298	11	sit	O	O	O	O	O	O	cs22	O	VVG	B-VP	sit	VBG	t294:LOC||t297:SBJ||t299:LOC	O
in	t299	11	in	O	O	O	O	O	O	cs22	O	PRP	B-PP	in	IN	t301:PMOD	O
their	t300	11	they	O	O	O	O	O	O	cs22	O	DPS	B-NP	their	PRP$	O	O
bedrooms	t301	11	bedroom	O	O	O	O	O	O	cs22	O	NN2	I-NP	bedroom	NNS	t300:NMOD||t304:NMOD	O
uh	t302	11	uh	O	O	O	O	O	O	cs22	O	AV0	B-ADVP	uh	UH	O	O
all	t303	11	all	O	O	O	O	O	O	cs22	O	AV0	I-ADVP	all	DT	O	O
alone	t304	11	alone	O	O	O	O	O	O	cs22	O	AJ0	I-ADVP	alone	RB	t302:DEP||t303:AMOD	O
.	t305	11	.	O	O	O	O	O	O	cs22	O	PUN	O	.	.	O	O

Uh	t306	12	uh	O	O	O	O	O	O	cs22	O	ITJ	B-INTJ	uh	UH	t317:DEP	O
,	t307	12	,	O	O	O	O	O	O	cs22	O	PUN	O	,	,	O	O
in	t308	12	in	O	O	O	O	O	O	cs22	O	PRP	B-PP	in	IN	t309:PMOD	O
addition	t309	12	addition	O	O	O	O	O	O	cs22	O	NN1	B-NP	addition	NN	O	O
,	t310	12	,	O	O	O	O	O	O	cs22	O	PUN	O	,	,	O	O
white	t311	12	white	O	O	O	O	O	O	cs22	O	AJ0	B-NP	white	JJ	O	O
power	t312	12	power	O	O	O	O	O	O	cs22	O	NN1	I-NP	power	NN	O	O
racist	t313	12	racist	O	O	O	O	O	O	cs22	O	AJ0	I-NP	racist	NN	t312:NMOD	O
music	t314	12	music	O	O	O	O	O	O	cs22	O	NN1	I-NP	music	NN	t311:NMOD||t313:NMOD	O
has	t315	12	have	O	O	O	O	O	O	cs22	O	VHZ	B-VP	have	VBZ	t306:DEP||t307:P||t308:ADV||t310:P||t314:SBJ||t316:VC||t323:P	mainVb
become	t316	12	become	e38	I_STATE	PRESENT+PERFECTIVE+POS	O	O	O	cs22	O	VVN	I-VP	become	VBN	t319:PRD||t320:LOC	mainVb
uh	t317	12	uh	O	O	O	O	O	O	cs22	O	AV0	B-ADVP	uh	UH	O	O
quite	t318	12	quite	O	O	O	O	O	O	cs22	O	AV0	I-ADVP	quite	RB	O	O
popular	t319	12	popular	O	O	O	O	O	O	cs22	O	AJ0	B-ADJP	popular	JJ	t318:AMOD	O
in	t320	12	in	O	O	O	O	O	O	cs22	O	PRP	B-PP	in	IN	t322:PMOD	O
certain	t321	12	certain	O	O	O	O	O	O	cs22	O	AJ0	B-NP	certain	JJ	O	O
sectors	t322	12	sector	O	O	O	O	O	O	cs22	O	NN2	I-NP	sector	NNS	t321:NMOD	O
.	t323	12	.	O	O	O	O	O	O	cs22	O	PUN	O	.	.	O	O

Uh	t324	13	uh	O	O	O	O	O	O	cs22	O	ITJ	B-INTJ	uh	UH	t336:DEP||t341:DEP	O
,	t325	13	,	O	O	O	O	O	O	cs22	O	PUN	O	,	,	O	O
there	t326	13	there	O	O	O	O	O	O	cs22	O	EX0	B-NP	there	EX	O	O
are	t327	13	be	O	O	O	O	O	O	cs22	O	VBB	B-VP	be	VBP	t324:DEP||t325:P||t326:SBJ||t328:PRD||t343:P	mainVb
over	t328	13	over	O	O	O	O	O	O	cs22	O	AV0	B-NP	over	IN	t331:PMOD	O
fifty	t329	13	fifty	O	O	O	O	O	O	cs22	O	CRD	I-NP	fifty	JJ	O	O
thousand	t330	13	thousand	O	O	O	O	O	O	cs22	O	CRD	I-NP	thousand	CD	O	O
CDs	t331	13	cd	O	O	O	O	O	O	cs22	O	NP0	I-NP	cd	NNS	t329:NMOD||t330:NMOD||t333:ADV||t334:APPO	O
a	t332	13	a	O	O	O	tmx39	SET	P1Y	cs22	O	AT0	B-NP	a	DT	O	O
year	t333	13	year	O	O	O	tmx39	SET	P1Y	cs22	O	NN1	I-NP	year	NN	t332:NMOD	O
sold	t334	13	sell	e40	OCCURRENCE	PAST+NONE+POS	O	O	O	cs22	O	VVD	B-VP	sell	VBN	t335:ADV	O
with	t335	13	with	O	O	O	O	O	O	cs22	O	PRP	B-PP	with	IN	t337:PMOD	O
uh	t336	13	uh	O	O	O	O	O	O	cs22	O	PRP	B-NP	uh	UH	O	O
lyrics	t337	13	lyric	O	O	O	O	O	O	cs22	O	NN2	I-NP	lyric	NNS	t339:NMOD	O
that	t338	13	that	O	O	O	O	O	O	cs22	O	CJT	B-NP	that	WDT	O	O
are	t339	13	be	O	O	O	O	O	O	cs22	O	VBB	B-VP	be	VBP	t338:SBJ||t342:PRD	O
quite	t340	13	quite	O	O	O	O	O	O	cs22	O	AV0	B-ADJP	quite	RB	O	O
uh	t341	13	uh	O	O	O	O	O	O	cs22	O	AV0	I-ADJP	uh	UH	O	O
unbelievable	t342	13	unbelievable	O	O	O	O	O	O	cs22	O	AJ0	I-ADJP	unbelievable	JJ	t340:AMOD	O
.	t343	13	.	O	O	O	O	O	O	cs22	O	PUN	O	.	.	O	O

Many	t344	14	many	O	O	O	O	O	O	cs22	O	DT0	B-NP	many	DT	t345:NMOD	O
of	t345	14	of	O	O	O	O	O	O	cs22	O	PRF	B-PP	of	IN	t348:PMOD	O
these	t346	14	these	O	O	O	O	O	O	cs22	O	DT0	B-NP	these	DT	O	O
new	t347	14	new	O	O	O	O	O	O	cs22	O	AJ0	I-NP	new	JJ	O	O
members	t348	14	member	O	O	O	O	O	O	cs22	O	NN2	I-NP	member	NNS	t346:NMOD||t347:NMOD	O
are	t349	14	be	O	O	O	O	O	O	cs22	O	VBB	B-VP	be	VBP	t344:SBJ||t350:VC||t374:P	mainVb
joining	t350	14	join	e41	OCCURRENCE	PRESENT+PROGRESSIVE+POS	O	O	O	cs22	O	VVG	I-VP	join	VBG	t351:OBJ	mainVb
chapters	t351	14	chapter	O	O	O	O	O	O	cs22	O	NN2	B-NP	chapter	NNS	t352:NMOD	O
of	t352	14	of	O	O	O	O	O	O	cs22	O	PRF	B-PP	of	IN	t358:PMOD	O
the	t353	14	the	O	O	O	O	O	O	cs22	O	AT0	B-NP	the	DT	O	O
so	t354	14	so	O	O	O	O	O	O	cs22	O	AV0	I-NP	so	RB	O	O
called	t355	14	call	O	O	O	O	O	O	cs22	O	AJ0	I-NP	call	VBN	t354:AMOD	O
Christian	t356	14	Christian	O	O	O	O	O	O	cs22	O	AJ0	I-NP	christian	NNP	O	O
Identity	t357	14	Identity	O	O	O	O	O	O	cs22	O	NN1	I-NP	identity	NNP	O	O
Movement	t358	14	Movement	O	O	O	O	O	O	cs22	O	NN1	I-NP	movement	NNP	t353:NMOD||t355:NMOD||t356:NAME||t357:NAME||t360:NMOD	O
which	t359	14	which	O	O	O	O	O	O	cs22	O	DTQ	B-NP	which	WDT	O	O
cites	t360	14	cite	O	O	O	O	O	O	cs22	O	VVZ	B-VP	cite	VBZ	t359:SBJ||t362:OBJ||t363:ADV	O
Biblical	t361	14	biblical	O	O	O	O	O	O	cs22	O	AJ0	B-NP	biblical	JJ	O	O
scripture	t362	14	scripture	O	O	O	O	O	O	cs22	O	NN1	I-NP	scripture	NN	t361:NMOD	O
as	t363	14	as	O	O	O	O	O	O	cs22	O	PRP	B-PP	as	IN	t365:PMOD	O
a	t364	14	a	O	O	O	O	O	O	cs22	O	AT0	B-NP	a	DT	O	O
foundation	t365	14	foundation	O	O	O	O	O	O	cs22	O	NN1	I-NP	foundation	NN	t364:NMOD||t366:NMOD	O
for	t366	14	for	O	O	O	O	O	O	cs22	O	PRP	B-PP	for	IN	t368:PMOD	O
a	t367	14	a	O	O	O	O	O	O	cs22	O	AT0	B-NP	a	DT	O	O
belief	t368	14	belief	O	O	O	O	O	O	cs22	O	NN1	I-NP	belief	NN	t367:NMOD||t369:NMOD	O
in	t369	14	in	O	O	O	O	O	O	cs22	O	PRP	B-PP	in	IN	t371:PMOD	O
white	t370	14	white	O	O	O	O	O	O	cs22	O	AJ0	B-NP	white	JJ	O	O
supremacy	t371	14	supremacy	O	O	O	O	O	O	cs22	O	NN1	I-NP	supremacy	NN	t370:NMOD||t372:COORD	O
and	t372	14	and	O	O	O	O	O	O	cs22	O	CJC	I-NP	and	CC	t373:CONJ	O
anti-semitism	t373	14	anti-semitism	O	O	O	O	O	O	cs22	O	NN1	I-NP	anti-semitism	NN	O	O
.	t374	14	.	O	O	O	O	O	O	cs22	O	PUN	O	.	.	O	O

Mark	t375	15	Mark	O	O	O	O	O	O	cs22	O	NP0	B-NP	mark	NNP	O	O
Potach	t376	15	Potach	O	O	O	O	O	O	cs22	O	NP0	I-NP	potach	NNP	t375:NAME	O
says	t377	15	say	e42	REPORTING	PRESENT+NONE+POS	O	O	O	cs22	O	VVZ	B-VP	say	VBZ	t376:SBJ||t380:OBJ||t387:P	mainVb
such	t378	15	such	O	O	O	O	O	O	cs22	O	DT0	B-NP	such	DT	O	O
members	t379	15	member	O	O	O	O	O	O	cs22	O	NN2	I-NP	member	NNS	t378:NMOD	O
are	t380	15	be	O	O	O	O	O	O	cs22	O	VBB	B-VP	be	VBP	t379:SBJ||t381:ADV||t383:VC	O
also	t381	15	also	O	O	O	O	O	O	cs22	O	AV0	I-VP	also	RB	O	O
intensely	t382	15	intensely	O	O	O	O	O	O	cs22	O	AV0	I-VP	intensely	RB	O	O
attracted	t383	15	attract	e43	OCCURRENCE	PRESENT+NONE+POS	O	O	O	cs22	O	VVN	I-VP	attract	VBN	t382:MNR||t384:ADV	O
to	t384	15	to	O	O	O	O	O	O	cs22	O	PRP	B-PP	to	TO	t386:PMOD	O
apocalyptical	t385	15	apocalyptical	O	O	O	O	O	O	cs22	O	AJ0	B-NP	apocalyptical	JJ	O	O
fantasies	t386	15	fantasy	O	O	O	O	O	O	cs22	O	NN2	I-NP	fantasy	NNS	t385:NMOD	O
.	t387	15	.	O	O	O	O	O	O	cs22	O	PUN	O	.	.	O	O

The	t388	16	the	O	O	O	O	O	O	cs22	O	AT0	B-NP	the	DT	O	O
approach	t389	16	approach	e44	I_STATE	NONE+NONE+POS	O	O	O	cs22	O	NN1	I-NP	approach	NN	t388:NMOD||t390:NMOD	O
of	t390	16	of	O	O	O	O	O	O	cs22	O	PRF	B-PP	of	IN	t394:PMOD	O
the	t391	16	the	O	O	O	tmx45	DATE	2000	cs22	O	AT0	B-NP	the	DT	O	O
year	t392	16	year	O	O	O	tmx45	DATE	2000	cs22	O	NN1	I-NP	year	NN	O	O
two	t393	16	two	O	O	O	tmx45	DATE	2000	cs22	O	CRD	B-NP	two	CD	O	O
thousand	t394	16	thousand	O	O	O	tmx45	DATE	2000	cs22	O	CRD	I-NP	thousand	CD	t391:NMOD||t392:NMOD||t393:NMOD	O
has	t395	16	have	O	O	O	O	O	O	cs22	O	VHZ	I-NP	have	VBZ	t389:SBJ||t396:OBJ||t406:P	mainVb
many	t396	16	many	O	O	O	O	O	O	cs22	O	DT0	I-NP	many	DT	t397:NMOD	O
of	t397	16	of	O	O	O	O	O	O	cs22	O	PRF	B-PP	of	IN	t399:PMOD	O
these	t398	16	these	O	O	O	O	O	O	cs22	O	DT0	B-NP	these	DT	O	O
groups	t399	16	group	O	O	O	O	O	O	cs22	O	NN2	I-NP	group	NNS	t398:NMOD||t400:LOC	O
in	t400	16	in	O	O	O	O	O	O	cs22	O	PRP	B-PP	in	IN	t402:PMOD	O
a	t401	16	a	O	O	O	O	O	O	cs22	O	AT0	B-NP	a	DT	O	O
kind	t402	16	kind	O	O	O	O	O	O	cs22	O	NN1	I-NP	kind	NN	t401:NMOD||t403:NMOD	O
of	t403	16	of	O	O	O	O	O	O	cs22	O	PRF	B-PP	of	IN	t405:PMOD	O
millennial	t404	16	millennial	O	O	O	O	O	O	cs22	O	AJ0	B-NP	millennial	JJ	O	O
frenzy	t405	16	frenzy	O	O	O	O	O	O	cs22	O	NN1	I-NP	frenzy	NN	t404:NMOD	O
.	t406	16	.	O	O	O	O	O	O	cs22	O	PUN	O	.	.	O	O

Uh	t407	17	uh	O	O	O	O	O	O	cs22	O	ITJ	B-INTJ	uh	UH	O	O
,	t408	17	,	O	O	O	O	O	O	cs22	O	PUN	O	,	,	O	O
uh	t409	17	uh	O	O	O	O	O	O	cs22	O	ITJ	B-VP	uh	UH	O	O
a	t410	17	a	O	O	O	O	O	O	cs22	O	AT0	B-NP	a	DT	t411:HYPH	O
-	t411	17	-	O	O	O	O	O	O	cs22	O	PUN	O	-	HYPH	O	O
they	t412	17	they	O	O	O	O	O	O	cs22	O	PNP	B-NP	they	PRP	O	O
believe	t413	17	believe	e46	I_STATE	PRESENT+NONE+POS	O	O	O	cs22	O	VVB	B-VP	believe	VBP	t408:P||t409:VOC||t412:SBJ||t414:P||t415:COORD||t451:P	mainVb
,	t414	17	,	O	O	O	O	O	O	cs22	O	PUN	O	,	,	O	O
or	t415	17	or	O	O	O	O	O	O	cs22	O	CJC	O	or	CC	t421:CONJ	O
at	t416	17	at	O	O	O	O	O	O	cs22	O	AV0	B-ADVP	at	IN	t417:AMOD	O
least	t417	17	least	O	O	O	O	O	O	cs22	O	AV0	I-ADVP	least	JJS	O	O
many	t418	17	many	O	O	O	O	O	O	cs22	O	DT0	B-NP	many	DT	t410:HMOD||t419:NMOD	O
of	t419	17	of	O	O	O	O	O	O	cs22	O	PRF	B-PP	of	IN	t420:PMOD	O
them	t420	17	they	O	O	O	O	O	O	cs22	O	PNP	B-NP	them	PRP	O	O
believe	t421	17	believe	e47	I_STATE	PRESENT+NONE+POS	O	O	O	cs22	O	VVB	B-VP	believe	VBP	t416:ADV||t418:SBJ||t422:P||t423:DEP||t424:OBJ||t435:OBJ	O
,	t422	17	,	O	O	O	O	O	O	cs22	O	PUN	O	,	,	O	O
uh	t423	17	uh	O	O	O	O	O	O	cs22	O	ITJ	B-VP	uh	UH	O	O
that	t424	17	that	O	O	O	O	O	O	cs22	O	CJT	B-SBAR	that	IN	t426:SUB	O
they	t425	17	they	O	O	O	O	O	O	cs22	O	PNP	B-NP	they	PRP	O	O
are	t426	17	be	O	O	O	O	O	O	cs22	O	VBB	B-VP	be	VBP	t407:DEP||t425:SBJ||t427:VC	O
approaching	t427	17	approach	e48	I_STATE	PRESENT+PROGRESSIVE+POS	O	O	O	cs22	O	VVG	I-VP	approach	VBG	t429:OBJ	O
the	t428	17	the	O	O	O	O	O	O	cs22	O	AT0	B-NP	the	DT	O	O
Battle	t429	17	battle	O	O	O	O	O	O	cs22	O	NN1	I-NP	battle	NNP	t428:NMOD||t430:NMOD	O
of	t430	17	of	O	O	O	O	O	O	cs22	O	PRF	B-PP	of	IN	t431:PMOD	O
Armageddon	t431	17	Armageddon	O	O	O	O	O	O	cs22	O	NP0	B-NP	armageddon	NNP	O	O
in	t432	17	in	O	O	O	O	O	O	cs22	O	PRP	B-PP	in	IN	t433:PMOD	O
which	t433	17	which	O	O	O	O	O	O	cs22	O	DTQ	B-NP	which	WDT	O	O
they	t434	17	they	O	O	O	O	O	O	cs22	O	PNP	B-NP	they	PRP	O	O
will	t435	17	will	O	O	O	O	O	O	cs22	O	VM0	B-VP	will	MD	t434:SBJ||t436:VC	O
be	t436	17	be	O	O	O	O	O	O	cs22	O	VBI	I-VP	be	VB	t437:VC	O
pitted	t437	17	pit	O	O	O	O	O	O	cs22	O	VVN	I-VP	pit	VBN	t432:LOC||t438:ADV	O
against	t438	17	against	O	O	O	O	O	O	cs22	O	PRP	B-PP	against	IN	t441:PMOD	O
the	t439	17	the	O	O	O	O	O	O	cs22	O	AT0	B-NP	the	DT	O	O
uh	t440	17	uh	O	O	O	O	O	O	cs22	O	NN1	I-NP	uh	JJ	O	O
kind	t441	17	kind	O	O	O	O	O	O	cs22	O	NN1	I-NP	kind	NN	t439:NMOD||t440:NMOD||t442:NMOD	O
of	t442	17	of	O	O	O	O	O	O	cs22	O	PRF	B-PP	of	IN	t444:PMOD	O
Satanic	t443	17	satanic	O	O	O	O	O	O	cs22	O	AJ0	B-NP	satanic	NNP	O	O
forces	t444	17	force	O	O	O	O	O	O	cs22	O	NN2	I-NP	force	NNS	t443:NMOD||t445:APPO	O
trying	t445	17	try	e49	I_ACTION	PRESPART+NONE+POS	O	O	O	cs22	O	VVG	B-VP	try	VBG	t446:OPRD	O
to	t446	17	to	O	O	O	O	O	O	cs22	O	TO0	I-VP	to	TO	t447:IM	O
take	t447	17	take	e50	OCCURRENCE	INFINITIVE+NONE+POS	O	O	O	cs22	O	VVI	I-VP	take	VB	t448:PRT||t450:OBJ	O
over	t448	17	over	O	O	O	O	O	O	cs22	O	AVP	B-PP	over	RP	O	O
the	t449	17	the	O	O	O	O	O	O	cs22	O	AT0	B-NP	the	DT	O	O
world	t450	17	world	O	O	O	O	O	O	cs22	O	NN1	I-NP	world	NN	t449:NMOD	O
.	t451	17	.	O	O	O	O	O	O	cs22	O	PUN	O	.	.	O	O

Mr.	t452	18	Mr.	O	O	O	O	O	O	cs22	O	NP0	B-NP	mr.	NNP	O	O
Potach	t453	18	Potach	O	O	O	O	O	O	cs22	O	NP0	I-NP	potach	NNP	t452:TITLE	O
notes	t454	18	note	e51	REPORTING	PRESENT+NONE+POS	O	O	O	cs22	O	VVZ	B-VP	note	VBZ	t453:SBJ||t465:OBJ||t484:P	mainVb
older	t455	18	older	O	O	O	O	O	O	cs22	O	AJC	B-ADJP	older	JJR	O	O
,	t456	18	,	O	O	O	O	O	O	cs22	O	PUN	O	,	,	O	O
more	t457	18	more	O	O	O	O	O	O	cs22	O	AV0	B-NP	more	RBR	O	O
traditional	t458	18	traditional	O	O	O	O	O	O	cs22	O	AJ0	I-NP	traditional	JJ	t457:AMOD	O
groups	t459	18	group	O	O	O	O	O	O	cs22	O	NN2	I-NP	group	NNS	t458:NMOD||t460:NMOD	O
like	t460	18	like	O	O	O	O	O	O	cs22	O	PRP	B-PP	like	IN	t464:PMOD	O
the	t461	18	the	O	O	O	O	O	O	cs22	O	AT0	B-NP	the	DT	O	O
Ku	t462	18	Ku	O	O	O	O	O	O	cs22	O	NP0	I-NP	ku	NNP	O	O
Klux	t463	18	Klux	O	O	O	O	O	O	cs22	O	NP0	I-NP	klux	NNP	O	O
Klan	t464	18	Klan	O	O	O	O	O	O	cs22	O	NP0	I-NP	klan	NNP	t461:NMOD||t462:NAME||t463:NAME	O
are	t465	18	be	O	O	O	O	O	O	cs22	O	VBB	B-VP	be	VBP	t455:ADV||t456:P||t459:SBJ||t466:ADV||t467:VC	O
also	t466	18	also	O	O	O	O	O	O	cs22	O	AV0	I-VP	also	RB	O	O
opening	t467	18	open	e52	OCCURRENCE	PRESENT+NONE+POS	O	O	O	cs22	O	VVG	I-VP	open	VBG	t469:OBJ	O
new	t468	18	new	O	O	O	O	O	O	cs22	O	AJ0	B-NP	new	JJ	O	O
chapters	t469	18	chapter	O	O	O	O	O	O	cs22	O	NN2	I-NP	chapter	NNS	t468:NMOD||t470:P||t471:COORD	O
,	t470	18	,	O	O	O	O	O	O	cs22	O	PUN	O	,	,	O	O
thanks	t471	18	thanks	O	O	O	O	O	O	cs53	O	NN2	B-NP	thanks	NNS	t472:LOC||t474:AMOD	O
in	t472	18	in	O	O	O	O	O	O	cs53	O	AV0	B-ADVP	in	IN	t473:PMOD	O
part	t473	18	part	O	O	O	O	O	O	cs53	O	AV0	I-ADVP	part	NN	O	O
to	t474	18	to	O	O	O	O	O	O	cs53	O	PRP	B-PP	to	TO	t476:PMOD	O
their	t475	18	they	O	O	O	O	O	O	cs53	O	DPS	B-NP	their	PRP$	O	O
ability	t476	18	ability	e54	I_STATE	NONE+NONE+POS	O	O	O	cs53	O	NN1	I-NP	ability	NN	t475:NMOD||t477:NMOD	O
to	t477	18	to	O	O	O	O	O	O	cs53	O	TO0	B-VP	to	TO	t478:IM	O
use	t478	18	use	e55	OCCURRENCE	INFINITIVE+NONE+POS	O	O	O	cs53	O	VVI	I-VP	use	VB	t480:OBJ	O
new	t479	18	new	O	O	O	O	O	O	cs53	O	AJ0	B-NP	new	JJ	O	O
technologies	t480	18	technology	O	O	O	O	O	O	cs53	O	NN2	I-NP	technology	NNS	t479:NMOD||t481:NMOD	O
like	t481	18	like	O	O	O	O	O	O	cs53	O	PRP	B-PP	like	IN	t483:PMOD	O
the	t482	18	the	O	O	O	O	O	O	cs53	O	AT0	B-NP	the	DT	O	O
Internet	t483	18	internet	O	O	O	O	O	O	cs53	O	NN1	I-NP	internet	NNP	t482:NMOD	O
.	t484	18	.	O	O	O	O	O	O	cs53	O	PUN	O	.	.	O	O

The	t485	19	the	O	O	O	O	O	O	cs53	O	AT0	B-NP	the	DT	O	O
Federal	t486	19	Federal	O	O	O	O	O	O	cs53	O	AJ0	I-NP	federal	NNP	O	O
Bureau	t487	19	Bureau	O	O	O	O	O	O	cs53	O	NN1	I-NP	bureau	NNP	O	O
of	t488	19	of	O	O	O	O	O	O	cs53	O	PRF	B-PP	of	IN	O	O
Investigation	t489	19	Investigation	O	O	O	O	O	O	cs53	O	NN1	B-NP	investigation	NNP	t485:NAME||t486:NAME||t487:NAME||t488:NAME	O
says	t490	19	say	e56	REPORTING	PRESENT+NONE+POS	O	O	O	cs53	O	VVZ	B-VP	say	VBZ	t489:SBJ||t492:OBJ||t504:P	mainVb
it	t491	19	it	O	O	O	O	O	O	cs53	O	PNP	B-NP	it	PRP	O	O
received	t492	19	receive	e57	OCCURRENCE	PAST+NONE+POS	O	O	O	cs53	O	VVD	B-VP	receive	VBD	t491:SBJ||t497:OBJ||t503:TMP	O
more	t493	19	more	O	O	O	O	O	O	cs53	O	DT0	B-NP	more	RBR	O	O
than	t494	19	than	O	O	O	O	O	O	cs53	O	CJS	I-NP	than	IN	O	O
eight	t495	19	eight	O	O	O	O	O	O	cs53	O	CRD	I-NP	eight	CD	O	O
thousand	t496	19	thousand	O	O	O	O	O	O	cs53	O	CRD	I-NP	thousand	CD	t493:DEP||t494:DEP||t495:NMOD	O
reports	t497	19	report	e58	REPORTING	NONE+NONE+POS	O	O	O	cs53	O	NN2	I-NP	report	NNS	t496:NMOD||t498:NMOD	O
of	t498	19	of	O	O	O	O	O	O	cs53	O	PRF	B-PP	of	IN	t501:PMOD	O
hate	t499	19	hate	O	O	O	O	O	O	cs53	O	NN1	B-NP	hate	NN	O	O
group	t500	19	group	O	O	O	O	O	O	cs53	O	NN1	I-NP	group	NN	t499:NMOD	O
crimes	t501	19	crime	e59	OCCURRENCE	NONE+NONE+POS	O	O	O	cs53	O	NN2	I-NP	crime	NNS	t500:NMOD	O
last	t502	19	last	O	O	O	tmx60	DATE	1997	cs53	O	ORD	B-NP	last	JJ	O	O
year	t503	19	year	O	O	O	tmx60	DATE	1997	cs53	O	NN1	I-NP	year	NN	t502:NMOD	O
.	t504	19	.	O	O	O	O	O	O	cs53	O	PUN	O	.	.	O	O

Law	t505	20	law	O	O	O	O	O	O	cs53	O	NP0	B-NP	law	NN	O	O
enforcement	t506	20	enforcement	O	O	O	O	O	O	cs53	O	NN1	I-NP	enforcement	NN	t505:NMOD	O
authorities	t507	20	authority	O	O	O	O	O	O	cs53	O	NN2	I-NP	authorities	NNS	t506:NMOD	O
say	t508	20	say	e61	REPORTING	PRESENT+NONE+POS	O	O	O	cs53	O	VVB	B-VP	say	VBP	t507:SBJ||t511:OBJ||t533:P	mainVb
such	t509	20	such	O	O	O	O	O	O	cs53	O	DT0	B-NP	such	DT	O	O
reports	t510	20	report	O	O	O	O	O	O	cs53	O	NN2	I-NP	report	NNS	t509:NMOD	O
are	t511	20	be	O	O	O	O	O	O	cs53	O	VBB	B-VP	be	VBP	t510:SBJ||t512:PRD	O
likely	t512	20	likely	O	O	O	O	O	O	cs53	O	AJ0	B-ADJP	likely	JJ	t513:AMOD	O
to	t513	20	to	O	O	O	O	O	O	cs53	O	TO0	B-VP	to	TO	t514:IM	O
increase	t514	20	increase	e62	OCCURRENCE	INFINITIVE+NONE+POS	O	O	O	cs53	O	VVI	I-VP	increase	VB	t515:TMP	O
as	t515	20	as	O	O	O	O	O	O	cs63	O	PRP	B-PP	as	IN	t518:SUB	O
police	t516	20	police	O	O	O	O	O	O	cs63	O	NN2	B-NP	police	NN	O	O
departments	t517	20	department	O	O	O	O	O	O	cs63	O	NN2	I-NP	department	NNS	t516:NMOD	O
are	t518	20	be	O	O	O	O	O	O	cs63	O	VBB	B-VP	be	VBP	t517:SBJ||t519:TMP||t520:VC	O
now	t519	20	now	O	O	O	tmx64	DATE	PRESENT_REF	cs63	O	AV0	I-VP	now	RB	O	O
beginning	t520	20	begin	e65	ASPECTUAL	PRESENT+PROGRESSIVE+POS	O	O	O	cs63	O	VVG	I-VP	begin	VBG	t521:OPRD	O
to	t521	20	to	O	O	O	O	O	O	cs63	O	PRP	B-PP	to	TO	t524:IM	O
more	t522	20	more	O	O	O	O	O	O	cs63	O	AV0	B-NP	more	RBR	O	O
accurately	t523	20	accurately	O	O	O	O	O	O	cs63	O	AV0	I-NP	accurately	RB	t522:AMOD	O
report	t524	20	report	e66	REPORTING	NONE+NONE+POS	O	O	O	cs63	O	AJ0	I-NP	report	VB	t523:MNR||t526:OBJ	O
hate	t525	20	hate	O	O	O	O	O	O	cs63	O	NN1	I-NP	hate	NN	O	O
crimes	t526	20	crime	e67	OCCURRENCE	NONE+NONE+POS	O	O	O	cs63	O	NN2	I-NP	crime	NNS	t525:NMOD||t527:NMOD	O
than	t527	20	than	O	O	O	O	O	O	cs63	O	CJS	B-SBAR	than	IN	t529:SUB	O
they	t528	20	they	O	O	O	O	O	O	cs63	O	PNP	B-NP	they	PRP	O	O
have	t529	20	have	e68	REPORTING	PRESENT+PERFECTIVE+POS	O	O	O	cs63	O	VHB	B-VP	have	VBP	t528:SBJ||t530:TMP	O
in	t530	20	in	O	O	O	O	O	O	cs63	O	PRP	B-PP	in	IN	t532:PMOD	O
the	t531	20	the	O	O	O	tmx69	DATE	PAST_REF	cs63	O	AT0	B-NP	the	DT	O	O
past	t532	20	past	O	O	O	tmx69	DATE	PAST_REF	cs63	O	NN1	I-NP	past	NN	t531:NMOD	O
.	t533	20	.	O	O	O	O	O	O	cs63	O	PUN	O	.	.	O	O

Jim	t534	21	Jim	O	O	O	O	O	O	cs63	O	NP0	B-NP	jim	NNP	O	O
Teple	t535	21	Teple	O	O	O	O	O	O	cs63	O	NP0	I-NP	teple	NNP	t534:NAME||t536:P||t540:LOC||t541:P	mainVb
,	t536	21	,	O	O	O	O	O	O	cs63	O	PUN	O	,	,	O	O
VOA	t537	21	VOA	O	O	O	O	O	O	cs63	O	NP0	B-NP	voa	NNP	O	O
News	t538	21	News	O	O	O	O	O	O	cs63	O	NN1	I-NP	news	NNP	t537:NAME	O
,	t539	21	,	O	O	O	O	O	O	cs63	O	PUN	O	,	,	O	O
Miami	t540	21	Miami	O	O	O	O	O	O	cs63	O	NP0	B-NP	miami	NNP	t538:NMOD||t539:P	O
.	t541	21	.	O	O	O	O	O	O	cs63	O	PUN	O	.	.	O	O
