DCT_1989-10-26	O	O	O	O	O	O	tmx0	DATE	1989-10-26	O	O	NP0	B-NP	dct_1989-10-26	LS	O	O

Columbia	t1	1	Columbia	O	O	O+O+O	O	O	O	O	O	NP0	B-NP	columbia	NNP	O	O
Savings	t2	1	Savings	O	O	O+O+O	O	O	O	O	O	NP0	I-NP	savings	NNP	O	O
amp	t3	1	amp	O	O	O+O+O	O	O	O	O	O	NN1	I-NP	amp	NNP	O	O
Loan	t4	1	Loan	O	O	O+O+O	O	O	O	O	O	NP0	I-NP	loan	NNP	O	O
Association	t5	1	Association	O	O	O+O+O	O	O	O	O	O	NN1	I-NP	association	NNP	t1:NAME||t2:NAME||t3:NAME||t4:NAME	O
,	t6	1	,	O	O	O+O+O	O	O	O	O	O	PUN	O	,	,	O	O
reeling	t7	1	reel	e1	OCCURRENCE	PRESPART+NONE+POS	O	O	O	O	O	VVG	B-VP	reel	VBG	t8:ADV	O
from	t8	1	from	O	O	O	O	O	O	cs2	O	PRP	B-PP	from	IN	t9:PMOD||t10:OJB	O
thrift-accounting	t9	1	thrift-accounting	O	O	O	O	O	O	cs2	O	VVG	B-VP	thrift-account	VBG	t10:OBJ	O
changes	t10	1	change	e3	OCCURRENCE	NONE+NONE+POS	O	O	O	cs2	O	NN2	B-NP	change	NNS	t11:APPO||t14:COORD	O
mandated	t11	1	mandate	e4	OCCURRENCE	PASTPART+NONE+POS	O	O	O	cs2	O	VVN	B-VP	mandate	VBN	t12:LGS	O
by	t12	1	by	O	O	O	O	O	O	cs2	O	PRP	B-PP	by	IN	t13:PMOD	O
Congress	t13	1	Congress	O	O	O	O	O	O	cs2	O	NN1	B-NP	congress	NNP	O	O
and	t14	1	and	O	O	O	O	O	O	cs2	O	CJC	O	and	CC	t17:CONJ	O
the	t15	1	the	O	O	O	O	O	O	cs2	O	AT0	B-NP	the	DT	O	O
recent	t16	1	recent	O	O	O	O	O	O	cs2	O	AJ0	I-NP	recent	JJ	O	O
collapse	t17	1	collapse	e5	OCCURRENCE	NONE+NONE+POS	O	O	O	cs2	O	NN1	I-NP	collapse	NN	t15:NMOD||t16:NMOD||t18:NMOD	O
of	t18	1	of	O	O	O	O	O	O	cs2	O	PRF	B-PP	of	IN	t21:PMOD	O
the	t19	1	the	O	O	O	O	O	O	cs2	O	AT0	B-NP	the	DT	O	O
junk-bond	t20	1	junk-bond	O	O	O	O	O	O	cs2	O	NN1	I-NP	junk-bond	NN	O	O
market	t21	1	market	O	O	O	O	O	O	cs2	O	NN1	I-NP	market	NN	t19:NMOD||t20:NMOD	O
,	t22	1	,	O	O	O	O	O	O	cs2	O	PUN	O	,	,	O	O
announced	t23	1	announce	e6	REPORTING	PAST+NONE+POS	O	O	O	cs2	O	VVD	B-VP	announce	VBD	t5:SBJ||t6:P||t7:ADV||t22:P||t25:OBJ||t40:P	mainVb
a	t24	1	a	O	O	O	O	O	O	cs2	O	AT0	B-NP	a	DT	O	O
loss	t25	1	loss	e7	OCCURRENCE	NONE+NONE+POS	O	O	O	cs2	O	NN1	I-NP	loss	NN	t24:NMOD||t26:NMOD||t30:NMOD	O
for	t26	1	for	O	O	O	O	O	O	cs2	O	PRP	B-PP	for	IN	t29:PMOD	O
the	t27	1	the	O	O	O	tmx8	DATE	1989-Q3	cs2	O	AT0	B-NP	the	DT	O	O
third	t28	1	third	O	O	O	tmx8	DATE	1989-Q3	cs2	O	ORD	I-NP	third	JJ	O	O
quarter	t29	1	quarter	O	O	O	tmx8	DATE	1989-Q3	cs2	O	NN1	I-NP	quarter	NN	t27:NMOD||t28:NMOD	O
of	t30	1	of	O	O	O	O	O	O	cs2	O	PRF	B-PP	of	IN	t31:PMOD	O
$	t31	1	$	O	O	O	O	O	O	cs2	O	NN0	B-NP	$	$	t32:DEP||t33:DEP||t34:P||t35:COORD	O
226.3	t32	1	226.3	O	O	O	O	O	O	cs2	O	CRD	I-NP	226.3	CD	O	O
million	t33	1	million	O	O	O	O	O	O	cs2	O	CRD	I-NP	million	CD	O	O
,	t34	1	,	O	O	O	O	O	O	cs2	O	PUN	O	,	,	O	O
or	t35	1	or	O	O	O	O	O	O	cs2	O	CJC	O	or	CC	t36:CONJ	O
$	t36	1	$	O	O	O	O	O	O	cs2	O	CRD	B-NP	$	$	t37:NMOD||t39:ADV	O
11.57	t37	1	11.57	O	O	O	O	O	O	cs2	O	CRD	I-NP	11.57	CD	O	O
a	t38	1	a	O	O	O	O	O	O	cs2	O	AT0	B-NP	a	DT	O	O
share	t39	1	share	O	O	O	O	O	O	cs2	O	NN1	I-NP	share	NN	t38:NMOD	O
.	t40	1	.	O	O	O	O	O	O	cs2	O	PUN	O	.	.	O	O

For	t41	2	for	O	O	O	O	O	O	cs2	O	PRP	B-PP	for	IN	t43:PMOD	O
the	t42	2	the	O	O	O	tmx9	DATE	1988-Q3	cs2	O	AT0	B-NP	the	DT	O	O
quarter	t43	2	quarter	O	O	O	tmx9	DATE	1988-Q3	cs2	O	NN1	I-NP	quarter	NN	t42:NMOD||t46:TMP	O
a	t44	2	a	O	O	O	tmx9	DATE	1988-Q3	cs2	O	AT0	B-NP	a	DT	O	O
year	t45	2	year	O	O	O	tmx9	DATE	1988-Q3	cs2	O	NN1	I-NP	year	NN	t44:NMOD	O
ago	t46	2	ago	O	O	O	tmx9	DATE	1988-Q3	cs2	O	AV0	B-ADVP	ago	RB	t45:AMOD	O
,	t47	2	,	O	O	O	O	O	O	cs2	O	PUN	O	,	,	O	O
Columbia	t48	2	Columbia	O	O	O	O	O	O	cs2	O	NP0	B-NP	columbia	NNP	O	O
reported	t49	2	report	e10	REPORTING	PAST+NONE+POS	O	O	O	cs2	O	VVD	B-VP	report	VBD	t41:TMP||t47:P||t48:SBJ||t50:OBJ||t61:P	mainVb
earnings	t50	2	earnings	O	O	O	O	O	O	cs2	O	NN2	B-NP	earnings	NNS	t51:NMOD	O
of	t51	2	of	O	O	O	O	O	O	cs2	O	PRF	B-PP	of	IN	t52:PMOD	O
$	t52	2	$	O	O	O	O	O	O	cs2	O	NN0	B-NP	$	$	t53:DEP||t54:DEP||t55:P||t56:COORD	O
16.3	t53	2	16.3	O	O	O	O	O	O	cs2	O	CRD	I-NP	16.3	CD	O	O
million	t54	2	million	O	O	O	O	O	O	cs2	O	CRD	I-NP	million	CD	O	O
,	t55	2	,	O	O	O	O	O	O	cs2	O	PUN	O	,	,	O	O
or	t56	2	or	O	O	O	O	O	O	cs2	O	CJC	O	or	CC	t58:CONJ	O
37	t57	2	37	O	O	O	O	O	O	cs2	O	CRD	B-NP	37	CD	O	O
cents	t58	2	cent	O	O	O	O	O	O	cs2	O	NN2	I-NP	cent	NNS	t57:NMOD||t60:ADV	O
a	t59	2	a	O	O	O	O	O	O	cs2	O	AT0	B-NP	a	DT	O	O
share	t60	2	share	O	O	O	O	O	O	cs2	O	NN1	I-NP	share	NN	t59:NMOD	O
.	t61	2	.	O	O	O	O	O	O	cs2	O	PUN	O	.	.	O	O

Total	t62	3	total	O	O	O	O	O	O	cs2	O	AJ0	B-NP	total	JJ	O	O
assets	t63	3	asset	O	O	O	O	O	O	cs2	O	NN2	I-NP	assets	NNS	t62:NMOD	O
increased	t64	3	increase	e11	OCCURRENCE	PAST+NONE+POS	O	O	O	cs2	O	VVN	B-VP	increase	VBD	t63:SBJ||t65:DIR||t69:TMP||t73:DIR||t80:P	mainVb
to	t65	3	to	O	O	O	O	O	O	cs2	O	PRP	B-PP	to	TO	t66:PMOD	O
$	t66	3	$	O	O	O	O	O	O	cs2	O	NN0	B-NP	$	$	t67:DEP||t68:DEP	O
12.7	t67	3	12.7	O	O	O	O	O	O	cs2	O	CRD	I-NP	12.7	CD	O	O
billion	t68	3	billion	O	O	O	O	O	O	cs2	O	CRD	I-NP	billion	CD	O	O
in	t69	3	in	O	O	O	O	O	O	cs2	O	PRP	B-PP	in	IN	t72:PMOD	O
the	t70	3	the	O	O	O	tmx12	DATE	1989-QX	cs2	O	AT0	B-NP	the	DT	O	O
latest	t71	3	latest	O	O	O	tmx12	DATE	1989-QX	cs2	O	AJS	I-NP	latest	JJS	O	O
quarter	t72	3	quarter	O	O	O	tmx12	DATE	1989-QX	cs2	O	NN1	I-NP	quarter	NN	t70:NMOD||t71:NMOD	O
from	t73	3	from	O	O	O	O	O	O	cs2	O	PRP	B-PP	from	IN	t74:PMOD||t79:TMP	O
$	t74	3	$	O	O	O	O	O	O	cs2	O	ZZ0	B-NP	$	$	t75:DEP||t76:DEP	O
12.4	t75	3	12.4	O	O	O	O	O	O	cs2	O	CRD	I-NP	12.4	CD	O	O
billion	t76	3	billion	O	O	O	O	O	O	cs2	O	CRD	I-NP	billion	CD	O	O
a	t77	3	a	O	O	O	tmx13	DATE	1988-QX	cs2	O	AT0	B-NP	a	DT	O	O
year	t78	3	year	O	O	O	tmx13	DATE	1988-QX	cs2	O	NN1	I-NP	year	NN	t77:NMOD	O
earlier	t79	3	earlier	O	O	O	tmx13	DATE	1988-QX	cs2	O	AV0	B-ADVP	earlier	RBR	t78:AMOD	O
.	t80	3	.	O	O	O	O	O	O	cs2	O	PUN	O	.	.	O	O

The	t81	4	the	O	O	O	O	O	O	cs2	O	AT0	B-NP	the	DT	O	O
loss	t82	4	loss	e14	OCCURRENCE	NONE+NONE+POS	O	O	O	cs2	O	NN1	I-NP	loss	NN	t81:NMOD	O
stems	t83	4	stem	e15	OCCURRENCE	PRESENT+NONE+POS	O	O	O	cs2	O	NN2	I-NP	stem	VBZ	t82:SBJ||t84:ADV||t121:P	mainVb
from	t84	4	from	O	O	O	O	O	O	cs2	O	PRP	B-PP	from	IN	t85:PMOD||t86:DEP||t87:DEP||t89:NMOD	O
$	t85	4	$	O	O	O	O	O	O	cs2	O	CRD	B-NP	$	$	t86:DEP||t87:DEP||t88:NMOD	O
357.5	t86	4	357.5	O	O	O	O	O	O	cs2	O	CRD	I-NP	357.5	CD	O	O
million	t87	4	million	O	O	O	O	O	O	cs2	O	CRD	I-NP	million	CD	O	O
of	t88	4	of	O	O	O	O	O	O	cs2	O	PRF	B-PP	of	IN	t89:PMOD	O
write-downs	t89	4	write-downs	e16	OCCURRENCE	NONE+NONE+POS	O	O	O	cs2	O	NN2	B-NP	write-down	NNS	t90:NMOD	O
on	t90	4	on	O	O	O	O	O	O	cs2	O	PRP	B-PP	on	IN	t99:PMOD	O
Columbia	t91	4	Columbia	O	O	O	O	O	O	cs2	O	NP0	B-NP	columbia	NNP	t92:SUFFIX	O
's	t92	4	's	O	O	O	O	O	O	cs2	O	POS	B-NP	's	POS	O	O
$	t93	4	$	O	O	O	O	O	O	cs2	O	NN1	I-NP	$	$	t94:DEP||t95:DEP	O
4.4	t94	4	4.4	O	O	O	O	O	O	cs2	O	CRD	I-NP	4.4	CD	O	O
billion	t95	4	billion	O	O	O	O	O	O	cs2	O	CRD	I-NP	billion	CD	O	O
high-yield	t96	4	high-yield	O	O	O	O	O	O	cs2	O	AJ0	I-NP	high-yield	NN	O	O
investment	t97	4	investment	O	O	O	O	O	O	cs2	O	NN1	I-NP	investment	NN	t96:NMOD	O
securities	t98	4	security	O	O	O	O	O	O	cs2	O	NN2	I-NP	security	NNS	t97:NMOD	O
portfolio	t99	4	portfolio	O	O	O	O	O	O	cs2	O	NN1	I-NP	portfolio	NN	t91:NMOD||t93:NMOD||t98:NMOD||t100:P||t102:NMOD	O
,	t100	4	,	O	O	O	O	O	O	cs2	O	PUN	O	,	,	O	O
which	t101	4	which	O	O	O	O	O	O	cs2	O	DTQ	B-NP	which	WDT	O	O
includes	t102	4	include	O	O	O	O	O	O	cs2	O	VVZ	B-VP	include	VBZ	t101:SBJ||t104:OBJ	O
about	t103	4	about	O	O	O	O	O	O	cs2	O	AV0	B-NP	about	IN	O	O
$	t104	4	$	O	O	O	O	O	O	cs2	O	CRD	I-NP	$	$	t103:DEP||t105:DEP||t106:DEP||t107:NMOD||t110:P||t111:COORD	O
3.7	t105	4	3.7	O	O	O	O	O	O	cs2	O	CRD	I-NP	3.7	CD	O	O
billion	t106	4	billion	O	O	O	O	O	O	cs2	O	CRD	I-NP	billion	CD	O	O
of	t107	4	of	O	O	O	O	O	O	cs2	O	PRF	B-PP	of	IN	t109:PMOD	O
junk	t108	4	junk	O	O	O	O	O	O	cs2	O	NN1	B-NP	junk	NN	O	O
bonds	t109	4	bond	O	O	O	O	O	O	cs2	O	NN2	I-NP	bond	NNS	t108:NMOD	O
,	t110	4	,	O	O	O	O	O	O	cs2	O	PUN	O	,	,	O	O
$	t111	4	$	O	O	O	O	O	O	cs2	O	NN1	B-NP	$	$	t112:DEP||t113:DEP||t114:NMOD||t117:P||t118:COORD	O
400	t112	4	400	O	O	O	O	O	O	cs2	O	CRD	I-NP	400	CD	O	O
million	t113	4	million	O	O	O	O	O	O	cs2	O	CRD	I-NP	million	CD	O	O
of	t114	4	of	O	O	O	O	O	O	cs2	O	PRF	B-PP	of	IN	t116:PMOD	O
preferred	t115	4	preferred	O	O	O	O	O	O	cs2	O	AJ0	B-NP	prefer	VBN	O	O
stock	t116	4	stock	O	O	O	O	O	O	cs2	O	NN1	I-NP	stock	NN	t115:NMOD	O
,	t117	4	,	O	O	O	O	O	O	cs2	O	PUN	O	,	,	O	O
and	t118	4	and	O	O	O	O	O	O	cs2	O	CJC	O	and	CC	t120:CONJ	O
Treasury	t119	4	Treasury	O	O	O	O	O	O	cs2	O	NN1	B-NP	treasury	NNP	O	O
securities	t120	4	security	O	O	O	O	O	O	cs2	O	NN2	I-NP	security	NNS	t119:NMOD	O
.	t121	4	.	O	O	O	O	O	O	cs2	O	PUN	O	.	.	O	O

Columbia	t122	5	Columbia	O	O	O	O	O	O	cs2	O	NP0	B-NP	columbia	NNP	O	O
owes	t123	5	owe	e17	OCCURRENCE	PRESENT+NONE+POS	O	O	O	cs2	O	VVZ	B-VP	owe	VBZ	t122:SBJ||t126:OBJ||t130:ADV||t141:P	mainVb
its	t124	5	its	O	O	O	O	O	O	cs2	O	DPS	B-NP	its	PRP$	O	O
spectacular	t125	5	spectacular	O	O	O	O	O	O	cs2	O	AJ0	I-NP	spectacular	JJ	O	O
growth	t126	5	growth	e18	OCCURRENCE	NONE+NONE+POS	O	O	O	cs2	O	NN1	I-NP	growth	NN	t124:NMOD||t125:NMOD||t127:TMP	O
in	t127	5	in	O	O	O	O	O	O	cs2	O	PRP	B-PP	in	IN	t129:PMOD	O
recent	t128	5	recent	O	O	O	tmx19	DATE	PAST_REF	cs2	O	AJ0	B-NP	recent	JJ	O	O
years	t129	5	year	O	O	O	tmx19	DATE	PAST_REF	cs2	O	NN2	I-NP	years	NNS	t128:NMOD	O
to	t130	5	to	O	O	O	O	O	O	cs2	O	PRP	B-PP	to	TO	t133:PMOD	O
its	t131	5	its	O	O	O	O	O	O	cs2	O	DPS	B-NP	its	PRP$	O	O
junk-bond	t132	5	junk-bond	O	O	O	O	O	O	cs2	O	NN1	I-NP	junk-bond	NN	O	O
portfolio	t133	5	portfolio	O	O	O	O	O	O	cs2	O	NN1	I-NP	portfolio	NN	t131:NMOD||t132:NMOD||t134:P||t136:APPO	O
,	t134	5	,	O	O	O	O	O	O	cs2	O	PUN	O	,	,	O	O
the	t135	5	the	O	O	O	O	O	O	cs2	O	AT0	B-NP	the	DT	O	O
largest	t136	5	largest	O	O	O	O	O	O	cs2	O	AJS	I-NP	large	JJS	t135:NMOD||t137:NMOD	O
of	t137	5	of	O	O	O	O	O	O	cs2	O	PRF	B-PP	of	IN	t140:PMOD	O
any	t138	5	any	O	O	O	O	O	O	cs2	O	DT0	B-NP	any	DT	O	O
U.S.	t139	5	U.S.	O	O	O	O	O	O	cs2	O	NP0	I-NP	u.s.	NNP	O	O
thrift	t140	5	thrift	O	O	O	O	O	O	cs2	O	NN1	I-NP	thrift	NN	t138:NMOD||t139:NMOD	O
.	t141	5	.	O	O	O	O	O	O	cs2	O	PUN	O	.	.	O	O

Much	t142	6	much	O	O	O	O	O	O	cs2	O	DT0	B-NP	much	JJ	t143:NMOD	O
of	t143	6	of	O	O	O	O	O	O	cs2	O	PRF	B-PP	of	IN	t147:PMOD	O
Columbia	t144	6	Columbia	O	O	O	O	O	O	cs2	O	NP0	B-NP	columbia	NNP	t145:SUFFIX	O
's	t145	6	's	O	O	O	O	O	O	cs2	O	POS	B-NP	's	POS	O	O
junk-bond	t146	6	junk-bond	O	O	O	O	O	O	cs2	O	NN1	I-NP	junk-bond	NN	O	O
trading	t147	6	trading	e20	OCCURRENCE	NONE+NONE+POS	O	O	O	cs2	O	NN1	I-NP	trading	NN	t144:NMOD||t146:NMOD	O
has	t148	6	have	O	O	O	O	O	O	cs2	O	VHZ	B-VP	have	VBZ	t142:SBJ||t149:VC||t165:P	mainVb
been	t149	6	be	O	O	O	O	O	O	cs2	O	VBN	I-VP	be	VBN	t150:VC	mainVb
done	t150	6	do	e21	OCCURRENCE	PRESENT+PERFECTIVE+POS	O	O	O	cs2	O	VDN	B-ADJP	do	VBN	t151:MNR	O
through	t151	6	through	O	O	O	O	O	O	cs2	O	PRP	B-PP	through	IN	t154:PMOD	O
the	t152	6	the	O	O	O	O	O	O	cs2	O	AT0	B-NP	the	DT	O	O
high-yield	t153	6	high-yield	O	O	O	O	O	O	cs2	O	NN1	I-NP	high-yield	NN	O	O
department	t154	6	department	O	O	O	O	O	O	cs2	O	NN1	I-NP	department	NN	t152:NMOD||t153:NMOD||t155:NMOD	O
of	t155	6	of	O	O	O	O	O	O	cs2	O	PRF	B-PP	of	IN	t159:PMOD	O
its	t156	6	its	O	O	O	O	O	O	cs2	O	DPS	B-NP	its	PRP$	O	O
Beverly	t157	6	Beverly	O	O	O	O	O	O	cs2	O	NP0	I-NP	beverly	NNP	O	O
Hills	t158	6	Hills	O	O	O	O	O	O	cs2	O	NP0	I-NP	hill	NNPS	t157:NAME	O
neighbor	t159	6	neighbor	O	O	O	O	O	O	cs2	O	NN1	I-NP	neighbor	NN	t156:NMOD||t158:NMOD||t160:P||t163:APPO	O
,	t160	6	,	O	O	O	O	O	O	cs2	O	PUN	O	,	,	O	O
Drexel	t161	6	Drexel	O	O	O	O	O	O	cs2	O	NP0	B-NP	drexel	NNP	O	O
Burnham	t162	6	Burnham	O	O	O	O	O	O	cs2	O	NP0	I-NP	burnham	NNP	O	O
Lambert	t163	6	Lambert	O	O	O	O	O	O	cs2	O	NP0	I-NP	lambert	NNP	t161:NAME||t162:NAME||t164:POSTHON	O
Inc.	t164	6	Inc.	O	O	O	O	O	O	cs2	O	NP0	I-NP	inc.	NNP	O	O
.	t165	6	.	O	O	O	O	O	O	cs2	O	PUN	O	.	.	O	O

For	t166	7	for	O	O	O	O	O	O	cs2	O	PRP	B-PP	for	IN	t169:PMOD	O
the	t167	7	the	O	O	O	tmx22	DURATION	P9M	cs2	O	AT0	B-NP	the	DT	O	O
nine	t168	7	nine	O	O	O	tmx22	DURATION	P9M	cs2	O	CRD	I-NP	nine	CD	O	O
months	t169	7	month	O	O	O	tmx22	DURATION	P9M	cs2	O	NN2	I-NP	month	NNS	t167:NMOD||t168:NMOD	O
,	t170	7	,	O	O	O	O	O	O	cs2	O	PUN	O	,	,	O	O
losses	t171	7	loss	O	O	O	O	O	O	cs2	O	NN2	B-NP	losses	NNS	O	O
totaled	t172	7	total	e23	OCCURRENCE	PAST+NONE+POS	O	O	O	cs2	O	VVD	B-VP	total	VBD	t166:ADV||t170:P||t171:SBJ||t173:OBJ||t182:P||t183:ADV||t201:P	mainVb
$	t173	7	$	O	O	O	O	O	O	cs2	O	NN0	B-NP	$	$	t174:DEP||t175:DEP||t176:P||t177:COORD	O
212	t174	7	212	O	O	O	O	O	O	cs2	O	CRD	I-NP	212	CD	O	O
million	t175	7	million	O	O	O	O	O	O	cs2	O	CRD	I-NP	million	CD	O	O
,	t176	7	,	O	O	O	O	O	O	cs2	O	PUN	O	,	,	O	O
or	t177	7	or	O	O	O	O	O	O	cs2	O	CJC	O	or	CC	t178:CONJ	O
$	t178	7	$	O	O	O	O	O	O	cs2	O	CRD	B-NP	$	$	t179:NMOD||t181:ADV	O
10.83	t179	7	10.83	O	O	O	O	O	O	cs2	O	CRD	I-NP	10.83	CD	O	O
a	t180	7	a	O	O	O	O	O	O	cs2	O	AT0	B-NP	a	DT	O	O
share	t181	7	share	O	O	O	O	O	O	cs2	O	NN1	I-NP	share	NN	t180:NMOD	O
,	t182	7	,	O	O	O	O	O	O	cs2	O	PUN	O	,	,	O	O
compared	t183	7	compare	O	O	O	O	O	O	cs2	O	VVN	B-PP	compare	VBN	t184:PMOD	O
with	t184	7	with	O	O	O	O	O	O	cs2	O	PRP	B-PP	with	IN	t186:PMOD	O
net	t185	7	net	O	O	O	O	O	O	cs2	O	AJ0	B-NP	net	JJ	O	O
income	t186	7	income	O	O	O	O	O	O	cs2	O	NN1	I-NP	income	NN	t185:NMOD||t187:NMOD||t200:TMP	O
of	t187	7	of	O	O	O	O	O	O	cs2	O	PRF	B-PP	of	IN	t188:PMOD	O
$	t188	7	$	O	O	O	O	O	O	cs2	O	NN0	B-NP	$	$	t189:DEP||t190:DEP||t191:P||t192:COORD||t197:P	O
48.7	t189	7	48.7	O	O	O	O	O	O	cs2	O	CRD	I-NP	48.7	CD	O	O
million	t190	7	million	O	O	O	O	O	O	cs2	O	CRD	I-NP	million	CD	O	O
,	t191	7	,	O	O	O	O	O	O	cs2	O	PUN	O	,	,	O	O
or	t192	7	or	O	O	O	O	O	O	cs2	O	CJC	O	or	CC	t193:CONJ	O
$	t193	7	$	O	O	O	O	O	O	cs2	O	CRD	B-NP	$	$	t194:NMOD||t196:ADV	O
1.11	t194	7	1.11	O	O	O	O	O	O	cs2	O	CRD	I-NP	1.11	CD	O	O
a	t195	7	a	O	O	O	O	O	O	cs2	O	AT0	B-NP	a	DT	O	O
share	t196	7	share	O	O	O	O	O	O	cs2	O	NN1	I-NP	share	NN	t195:NMOD	O
,	t197	7	,	O	O	O	O	O	O	cs2	O	PUN	O	,	,	O	O
a	t198	7	a	O	O	O	tmx24	DATE	1988	cs2	O	AT0	B-NP	a	DT	O	O
year	t199	7	year	O	O	O	tmx24	DATE	1988	cs2	O	NN1	I-NP	year	NN	t198:NMOD	O
earlier	t200	7	earlier	O	O	O	tmx24	DATE	1988	cs2	O	AV0	B-ADVP	earlier	RBR	t199:AMOD	O
.	t201	7	.	O	O	O	O	O	O	cs2	O	PUN	O	.	.	O	O

The	t202	8	the	O	O	O	O	O	O	cs2	O	AT0	B-NP	the	DT	O	O
results	t203	8	result	O	O	O	O	O	O	cs2	O	NN2	I-NP	result	NNS	t202:NMOD	O
include	t204	8	include	O	O	O	O	O	O	cs2	O	VVB	B-VP	include	VBP	t203:SBJ||t209:OBJ||t226:P	mainVb
a	t205	8	a	O	O	O	O	O	O	cs2	O	AT0	B-NP	a	DT	O	O
$	t206	8	$	O	O	O	O	O	O	cs2	O	CRD	I-NP	$	$	t207:DEP||t208:DEP	O
130.2	t207	8	130.2	O	O	O	O	O	O	cs2	O	CRD	I-NP	130.2	CD	O	O
million	t208	8	million	O	O	O	O	O	O	cs2	O	CRD	I-NP	million	CD	O	O
write-down	t209	8	write-down	O	O	O	O	O	O	cs2	O	NN1	I-NP	write-down	NN	t205:NMOD||t206:NMOD||t210:NMOD||t217:NMOD	O
of	t210	8	of	O	O	O	O	O	O	cs2	O	PRF	B-PP	of	IN	t212:PMOD	O
the	t211	8	the	O	O	O	O	O	O	cs2	O	AT0	B-NP	the	DT	O	O
securities	t212	8	security	O	O	O	O	O	O	cs2	O	NN2	I-NP	security	NNS	t211:NMOD||t213:LOC	O
in	t213	8	in	O	O	O	O	O	O	cs2	O	PRP	B-PP	in	IN	t216:PMOD	O
the	t214	8	the	O	O	O	O	O	O	cs2	O	AT0	B-NP	the	DT	O	O
high-yield	t215	8	high-yield	O	O	O	O	O	O	cs2	O	NN1	I-NP	high-yield	NN	O	O
portfolio	t216	8	portfolio	O	O	O	O	O	O	cs2	O	NN1	I-NP	portfolio	NN	t214:NMOD||t215:NMOD	O
to	t217	8	to	O	O	O	O	O	O	cs2	O	PRP	B-PP	to	TO	t219:PMOD	O
the	t218	8	the	O	O	O	O	O	O	cs2	O	AT0	B-NP	the	DT	O	O
lower	t219	8	lower	O	O	O	O	O	O	cs2	O	AJC	I-NP	low	JJR	t218:NMOD||t220:NMOD	O
of	t220	8	of	O	O	O	O	O	O	cs2	O	PRF	B-PP	of	IN	t222:PMOD	O
their	t221	8	they	O	O	O	O	O	O	cs2	O	DPS	B-NP	their	PRP$	O	O
cost	t222	8	cost	O	O	O	O	O	O	cs2	O	NN1	I-NP	cost	NN	t221:NMOD||t223:COORD	O
or	t223	8	or	O	O	O	O	O	O	cs2	O	CJC	I-NP	or	CC	t225:CONJ	O
market	t224	8	market	O	O	O	O	O	O	cs2	O	NN1	I-NP	market	NN	O	O
value	t225	8	value	O	O	O	O	O	O	cs2	O	NN1	I-NP	value	NN	t224:NMOD	O
.	t226	8	.	O	O	O	O	O	O	cs2	O	PUN	O	.	.	O	O

Columbia	t227	9	Columbia	O	O	O	O	O	O	cs2	O	NP0	B-NP	columbia	NNP	O	O
also	t228	9	also	O	O	O	O	O	O	cs2	O	AV0	B-ADVP	also	RB	O	O
added	t229	9	add	e25	OCCURRENCE	PAST+NONE+POS	O	O	O	cs2	O	VVD	B-VP	add	VBD	t227:SBJ||t228:ADV||t230:OBJ||t233:ADV||t240:P||t241:ADV||t258:TMP||t262:P	mainVb
$	t230	9	$	O	O	O	O	O	O	cs2	O	NN0	B-NP	$	$	t231:DEP||t232:DEP	O
227.3	t231	9	227.3	O	O	O	O	O	O	cs2	O	CRD	I-NP	227.3	CD	O	O
million	t232	9	million	O	O	O	O	O	O	cs2	O	CRD	I-NP	million	CD	O	O
to	t233	9	to	O	O	O	O	O	O	cs2	O	PRP	B-PP	to	TO	t234:PMOD	O
reserves	t234	9	reserve	O	O	O	O	O	O	cs2	O	NN2	B-NP	reserves	NNS	t235:NMOD	O
for	t235	9	for	O	O	O	O	O	O	cs2	O	PRP	B-PP	for	IN	t236:PMOD	O
losses	t236	9	loss	e26	OCCURRENCE	NONE+NONE+POS	O	O	O	cs2	O	NN2	B-NP	losses	NNS	t237:NMOD	O
on	t237	9	on	O	O	O	O	O	O	cs2	O	PRP	B-PP	on	IN	t239:PMOD	O
the	t238	9	the	O	O	O	O	O	O	cs2	O	AT0	B-NP	the	DT	O	O
portfolio	t239	9	portfolio	O	O	O	O	O	O	cs2	O	NN1	I-NP	portfolio	NN	t238:NMOD	O
,	t240	9	,	O	O	O	O	O	O	cs2	O	PUN	O	,	,	O	O
increasing	t241	9	increase	e27	OCCURRENCE	PRESPART+NONE+POS	O	O	O	cs2	O	VVG	B-VP	increase	VBG	t243:OBJ||t244:DIR	O
general	t242	9	general	O	O	O	O	O	O	cs2	O	AJ0	B-NP	general	JJ	O	O
reserves	t243	9	reserve	O	O	O	O	O	O	cs2	O	NN2	I-NP	reserves	NNS	t242:NMOD	O
to	t244	9	to	O	O	O	O	O	O	cs2	O	PRP	B-PP	to	TO	t245:PMOD	O
$	t245	9	$	O	O	O	O	O	O	cs2	O	NN0	B-NP	$	$	t246:DEP||t247:DEP||t248:P||t249:COORD||t257:P	O
300	t246	9	300	O	O	O	O	O	O	cs2	O	CRD	B-NP	300	CD	O	O
million	t247	9	million	O	O	O	O	O	O	cs2	O	CRD	I-NP	million	CD	O	O
,	t248	9	,	O	O	O	O	O	O	cs2	O	PUN	O	,	,	O	O
or	t249	9	or	O	O	O	O	O	O	cs2	O	CJC	O	or	CC	t252:CONJ	O
about	t250	9	about	O	O	O	O	O	O	cs2	O	AV0	B-NP	about	IN	t251:DEP	O
6.7	t251	9	6.7	O	O	O	O	O	O	cs2	O	CRD	I-NP	6.7	CD	O	O
%	t252	9	%	O	O	O	O	O	O	cs2	O	NN0	I-NP	%	NN	t250:NMOD||t253:NMOD	O
of	t253	9	of	O	O	O	O	O	O	cs2	O	PRF	B-PP	of	IN	t256:PMOD	O
the	t254	9	the	O	O	O	O	O	O	cs2	O	AT0	B-NP	the	DT	O	O
total	t255	9	total	O	O	O	O	O	O	cs2	O	AJ0	I-NP	total	NN	O	O
portfolio	t256	9	portfolio	O	O	O	O	O	O	cs2	O	NN1	I-NP	portfolio	NN	t254:NMOD||t255:NMOD	O
,	t257	9	,	O	O	O	O	O	O	cs2	O	PUN	O	,	,	O	O
as	t258	9	as	O	O	O	O	O	O	cs2	O	PRP	B-PP	as	IN	t259:PMOD	O
of	t259	9	of	O	O	O	O	O	O	cs2	O	PRP	B-PP	of	IN	t261:PMOD	O
Sept.	t260	9	Sept.	O	O	O	tmx28	DATE	1989-09-30	cs2	O	NP0	B-NP	sept.	NNP	O	O
30	t261	9	30	O	O	O	tmx28	DATE	1989-09-30	cs2	O	CRD	I-NP	30	CD	t260:NMOD	O
.	t262	9	.	O	O	O	O	O	O	cs2	O	PUN	O	.	.	O	O

On	t263	10	on	O	O	O	O	O	O	cs2	O	PRP	B-PP	on	IN	t265:PMOD	O
June	t264	10	June	O	O	O	tmx29	DATE	1989-06-30	cs2	O	NP0	B-NP	june	NNP	O	O
30	t265	10	30	O	O	O	tmx29	DATE	1989-06-30	cs2	O	CRD	I-NP	30	CD	t264:NMOD	O
,	t266	10	,	O	O	O	O	O	O	cs2	O	PUN	O	,	,	O	O
loss	t267	10	loss	O	O	O	O	O	O	cs2	O	NN1	B-NP	loss	NN	O	O
reserves	t268	10	reserve	O	O	O	O	O	O	cs2	O	VVZ	B-VP	reserves	NNS	t267:NMOD	O
stood	t269	10	stand	e30	OCCURRENCE	PAST+NONE+POS	O	O	O	cs2	O	VVD	I-VP	stand	VBD	t263:TMP||t266:P||t268:SBJ||t270:ADV||t274:P	mainVb
at	t270	10	at	O	O	O	O	O	O	cs2	O	PRP	B-PP	at	IN	t271:PMOD	O
$	t271	10	$	O	O	O	O	O	O	cs2	O	NN1	B-NP	$	$	t272:DEP||t273:DEP	O
108.3	t272	10	108.3	O	O	O	O	O	O	cs2	O	CRD	I-NP	108.3	CD	O	O
million	t273	10	million	O	O	O	O	O	O	cs2	O	CRD	I-NP	million	CD	O	O
.	t274	10	.	O	O	O	O	O	O	cs2	O	PUN	O	.	.	O	O

Thrift	t275	11	thrift	O	O	O	O	O	O	cs2	O	NP0	B-NP	thrift	NN	O	O
officials	t276	11	official	O	O	O	O	O	O	cs2	O	NN2	I-NP	official	NNS	t275:NMOD	O
said	t277	11	say	e31	REPORTING	PAST+NONE+POS	O	O	O	cs2	O	VVD	B-VP	say	VBD	t276:SBJ||t283:OBJ||t297:P	mainVb
the	t278	11	the	O	O	O	O	O	O	cs2	O	AT0	B-NP	the	DT	O	O
$	t279	11	$	O	O	O	O	O	O	cs2	O	CRD	I-NP	$	$	t280:DEP||t281:DEP	O
300	t280	11	300	O	O	O	O	O	O	cs2	O	CRD	B-NP	300	CD	O	O
million	t281	11	million	O	O	O	O	O	O	cs2	O	CRD	I-NP	million	CD	O	O
reserve	t282	11	reserve	O	O	O	O	O	O	cs2	O	NN1	I-NP	reserve	NN	t278:NMOD||t279:NMOD	O
will	t283	11	will	O	O	O	O	O	O	cs2	O	VM0	B-VP	will	MD	t282:SBJ||t284:VC||t287:COORD	O
be	t284	11	be	O	O	O	O	O	O	cs2	O	VBI	I-VP	be	VB	t285:VC	O
adjusted	t285	11	adjust	e32	OCCURRENCE	FUTURE+NONE+POS	O	O	O	cs2	O	VVN	I-VP	adjust	VBN	t286:TMP	O
quarterly	t286	11	quarterly	O	O	O	O	O	O	cs2	O	AV0	B-ADVP	quarterly	RB	O	O
and	t287	11	and	O	O	O	O	O	O	cs2	O	CJC	O	and	CC	t288:CONJ	O
will	t288	11	will	O	O	O	O	O	O	cs2	O	VM0	B-VP	will	MD	t289:VC	O
reflect	t289	11	reflect	e33	OCCURRENCE	FUTURE+NONE+POS	O	O	O	cs2	O	VVI	I-VP	reflect	VB	t291:OBJ	O
the	t290	11	the	O	O	O	O	O	O	cs2	O	AT0	B-NP	the	DT	O	O
rate	t291	11	rate	O	O	O	O	O	O	cs2	O	NN1	I-NP	rate	NN	t290:NMOD||t292:NMOD||t294:COORD	O
of	t292	11	of	O	O	O	O	O	O	cs2	O	PRF	B-PP	of	IN	t293:PMOD	O
dispositions	t293	11	disposition	O	O	O	O	O	O	cs2	O	NN2	B-NP	disposition	NNS	O	O
and	t294	11	and	O	O	O	O	O	O	cs2	O	CJC	I-NP	and	CC	t296:CONJ	O
market	t295	11	market	O	O	O	O	O	O	cs2	O	NN1	I-NP	market	NN	O	O
conditions	t296	11	condition	O	O	O	O	O	O	cs2	O	NN2	I-NP	condition	NNS	t295:NMOD	O
.	t297	11	.	O	O	O	O	O	O	cs2	O	PUN	O	.	.	O	O

The	t298	12	the	O	O	O	O	O	O	cs2	O	AT0	B-NP	the	DT	O	O
adjustments	t299	12	adjustment	O	O	O	O	O	O	cs2	O	NN2	I-NP	adjustment	NNS	t298:NMOD	O
result	t300	12	result	e34	OCCURRENCE	PRESENT+NONE+POS	O	O	O	cs2	O	VVB	B-VP	result	VBP	t299:SBJ||t301:ADV||t320:P	mainVb
from	t301	12	from	O	O	O	O	O	O	cs2	O	PRP	B-PP	from	IN	t307:PMOD	O
the	t302	12	the	O	O	O	O	O	O	cs2	O	AT0	B-NP	the	DT	O	O
recently	t303	12	recently	O	O	O	O	O	O	cs2	O	AV0	I-NP	recently	RB	O	O
passed	t304	12	pass	e35	OCCURRENCE	NONE+NONE+POS	O	O	O	cs2	O	AJ0	I-NP	pass	VBN	t303:AMOD	O
thrift-industry	t305	12	thrift-industry	O	O	O	O	O	O	cs2	O	NN1	I-NP	thrift-industry	NN	O	O
bailout	t306	12	bailout	O	O	O	O	O	O	cs2	O	NN1	I-NP	bailout	NN	t305:NMOD	O
legislation	t307	12	legislation	O	O	O	O	O	O	cs2	O	NN1	I-NP	legislation	NN	t302:NMOD||t304:NMOD||t306:NMOD||t308:P||t310:NMOD	O
,	t308	12	,	O	O	O	O	O	O	cs2	O	PUN	O	,	,	O	O
which	t309	12	which	O	O	O	O	O	O	cs2	O	DTQ	B-NP	which	WDT	O	O
requires	t310	12	require	e36	OCCURRENCE	PRESENT+NONE+POS	O	O	O	cs2	O	VVZ	B-VP	require	VBZ	t309:SBJ||t311:OBJ||t312:OPRD	O
thrifts	t311	12	thrift	O	O	O	O	O	O	cs2	O	NN2	B-NP	thrift	NNS	O	O
to	t312	12	to	O	O	O	O	O	O	cs2	O	TO0	B-VP	to	TO	t313:IM	O
divest	t313	12	divest	e37	OCCURRENCE	INFINITIVE+NONE+POS	O	O	O	cs2	O	VVI	I-VP	divest	VB	t317:OBJ||t318:TMP	O
all	t314	12	all	O	O	O	O	O	O	cs2	O	DT0	B-NP	all	DT	O	O
high-yield	t315	12	high-yield	O	O	O	O	O	O	cs2	O	AJ0	I-NP	high-yield	NN	O	O
bond	t316	12	bond	O	O	O	O	O	O	cs2	O	NN1	I-NP	bond	NN	t315:NMOD	O
investments	t317	12	investment	O	O	O	O	O	O	cs2	O	NN2	I-NP	investment	NNS	t314:NMOD||t316:NMOD	O
by	t318	12	by	O	O	O	O	O	O	cs2	O	PRP	B-PP	by	IN	t319:PMOD	O
1994	t319	12	1994	O	O	O	tmx38	DATE	1994	cs2	O	CRD	B-NP	1994	CD	O	O
.	t320	12	.	O	O	O	O	O	O	cs2	O	PUN	O	.	.	O	O

Previously	t321	13	previously	O	O	O	O	O	O	cs2	O	AV0	B-ADVP	previously	RB	O	O
,	t322	13	,	O	O	O	O	O	O	cs2	O	PUN	O	,	,	O	O
Columbia	t323	13	Columbia	O	O	O	O	O	O	cs2	O	NP0	B-NP	columbia	NNP	O	O
did	t324	13	do	O	O	O	O	O	O	cs2	O	VDD	B-VP	do	VBD	t321:TMP||t322:P||t323:SBJ||t325:ADV||t326:VC||t351:P	mainVb
n't	t325	13	not	O	O	O	O	O	O	cs2	O	XX0	I-VP	not	RB	O	mainVb
have	t326	13	have	O	O	O	O	O	O	cs2	O	VHI	I-VP	have	VB	t327:OPRD||t342:P||t343:TMP	mainVb
to	t327	13	to	O	O	O	O	O	O	cs2	O	TO0	I-VP	to	TO	t328:IM	mainVb
adjust	t328	13	adjust	e39	OCCURRENCE	PAST+NONE+NEG	O	O	O	cs2	O	VVI	I-VP	adjust	VB	t331:OBJ||t336:PRP	mainVb
the	t329	13	the	O	O	O	O	O	O	cs2	O	AT0	B-NP	the	DT	O	O
book	t330	13	book	O	O	O	O	O	O	cs2	O	NN1	I-NP	book	NN	O	O
value	t331	13	value	O	O	O	O	O	O	cs2	O	NN1	I-NP	value	NN	t329:NMOD||t330:NMOD||t332:NMOD	O
of	t332	13	of	O	O	O	O	O	O	cs2	O	PRF	B-PP	of	IN	t335:PMOD	O
its	t333	13	its	O	O	O	O	O	O	cs2	O	DPS	B-NP	its	PRP$	O	O
junk-bond	t334	13	junk-bond	O	O	O	O	O	O	cs2	O	NN1	I-NP	junk-bond	NN	O	O
holdings	t335	13	holding	O	O	O	O	O	O	cs2	O	NN2	I-NP	holding	NNS	t333:NMOD||t334:NMOD	O
to	t336	13	to	O	O	O	O	O	O	cs2	O	TO0	B-VP	to	TO	t337:IM	O
reflect	t337	13	reflect	e40	OCCURRENCE	INFINITIVE+NONE+POS	O	O	O	cs2	O	VVI	I-VP	reflect	VB	t338:OBJ	O
declines	t338	13	decline	e41	OCCURRENCE	NONE+NONE+POS	O	O	O	cs2	O	NN2	B-NP	decline	NNS	t339:LOC	O
in	t339	13	in	O	O	O	O	O	O	cs2	O	PRP	B-PP	in	IN	t341:PMOD	O
market	t340	13	market	O	O	O	O	O	O	cs2	O	NN1	B-NP	market	NN	O	O
prices	t341	13	price	O	O	O	O	O	O	cs2	O	NN2	I-NP	price	NNS	t340:NMOD	O
,	t342	13	,	O	O	O	O	O	O	cs2	O	PUN	O	,	,	O	O
because	t343	13	because	O	O	O	O	O	O	cs42	O	CJS	B-SBAR	because	IN	t345:SUB	O
it	t344	13	it	O	O	O	O	O	O	cs42	O	PNP	B-NP	it	PRP	O	O
held	t345	13	hold	e43	OCCURRENCE	PAST+NONE+POS	O	O	O	cs42	O	VVD	B-VP	hold	VBD	t344:SBJ||t347:OBJ||t348:ADV	O
the	t346	13	the	O	O	O	O	O	O	cs42	O	AT0	B-NP	the	DT	O	O
bonds	t347	13	bond	O	O	O	O	O	O	cs42	O	NN2	I-NP	bond	NNS	t346:NMOD	O
as	t348	13	as	O	O	O	O	O	O	cs42	O	PRP	B-PP	as	IN	t350:PMOD	O
long-term	t349	13	long-term	O	O	O	O	O	O	cs42	O	AJ0	B-NP	long-term	JJ	O	O
investments	t350	13	investment	O	O	O	O	O	O	cs42	O	NN2	I-NP	investment	NNS	t349:NMOD	O
.	t351	13	.	O	O	O	O	O	O	cs42	O	PUN	O	.	.	O	O

Because	t352	14	because	O	O	O	O	O	O	cs44	O	CJS	B-SBAR	because	IN	t355:SUB||t356:OJB	O
Columbia	t353	14	Columbia	O	O	O	O	O	O	cs44	O	NP0	B-NP	columbia	NNP	O	O
now	t354	14	now	O	O	O	tmx45	DATE	PRESENT_REF	cs44	O	AV0	B-ADVP	now	RB	O	O
must	t355	14	must	O	O	O	O	O	O	cs44	O	VM0	B-VP	must	MD	t353:SBJ||t354:TMP||t356:VC	O
sell	t356	14	sell	e46	OCCURRENCE	NONE+NONE+POS	O	O	O	cs44	O	VVI	I-VP	sell	VB	t358:OBJ||t359:TMP	O
the	t357	14	the	O	O	O	O	O	O	cs44	O	AT0	B-NP	the	DT	O	O
bonds	t358	14	bond	O	O	O	O	O	O	cs44	O	NN2	I-NP	bond	NNS	t357:NMOD	O
within	t359	14	within	O	O	O	O	O	O	cs44	O	PRP	B-PP	within	IN	t361:PMOD	O
five	t360	14	five	O	O	O	tmx47	DURATION	P5Y	cs44	O	CRD	B-NP	five	CD	O	O
years	t361	14	year	O	O	O	tmx47	DURATION	P5Y	cs44	O	NN2	I-NP	years	NNS	t360:NMOD	O
,	t362	14	,	O	O	O	O	O	O	cs44	O	PUN	O	,	,	O	O
accounting	t363	14	account	O	O	O	O	O	O	cs44	O	VVG	B-VP	accounting	NN	O	O
rules	t364	14	rule	O	O	O	O	O	O	cs44	O	NN2	B-NP	rule	NNS	t363:NMOD	O
require	t365	14	require	e48	OCCURRENCE	PRESENT+NONE+POS	O	O	O	cs44	O	VVB	B-VP	require	VBP	t352:PRP||t362:P||t364:SBJ||t367:OBJ||t368:OPRD||t380:P	mainVb
the	t366	14	the	O	O	O	O	O	O	cs44	O	AT0	B-NP	the	DT	O	O
thrift	t367	14	thrift	O	O	O	O	O	O	cs44	O	NN1	I-NP	thrift	NN	t366:NMOD	O
to	t368	14	to	O	O	O	O	O	O	cs44	O	TO0	B-VP	to	TO	t369:IM	O
value	t369	14	value	e49	OCCURRENCE	INFINITIVE+NONE+POS	O	O	O	cs44	O	VVI	I-VP	value	VB	t371:OBJ||t372:ADV	O
the	t370	14	the	O	O	O	O	O	O	cs44	O	AT0	B-NP	the	DT	O	O
bonds	t371	14	bond	O	O	O	O	O	O	cs44	O	NN2	I-NP	bond	NNS	t370:NMOD	O
at	t372	14	at	O	O	O	O	O	O	cs44	O	PRP	B-PP	at	IN	t374:PMOD	O
the	t373	14	the	O	O	O	O	O	O	cs44	O	AT0	B-NP	the	DT	O	O
lower	t374	14	lower	O	O	O	O	O	O	cs44	O	AJC	I-NP	low	JJR	t373:NMOD||t375:NMOD	O
of	t375	14	of	O	O	O	O	O	O	cs44	O	PRF	B-PP	of	IN	t379:PMOD	O
cost	t376	14	cost	O	O	O	O	O	O	cs44	O	NN1	B-NP	cost	NN	t377:COORD	O
or	t377	14	or	O	O	O	O	O	O	cs44	O	CJC	I-NP	or	CC	t378:CONJ	O
market	t378	14	market	O	O	O	O	O	O	cs44	O	NN1	I-NP	market	NN	O	O
prices	t379	14	price	O	O	O	O	O	O	cs44	O	NN2	I-NP	price	NNS	t376:NMOD	O
.	t380	14	.	O	O	O	O	O	O	cs44	O	PUN	O	.	.	O	O

For	t381	15	for	O	O	O	O	O	O	cs44	O	PRP	B-PP	for	IN	t384:PMOD	O
its	t382	15	its	O	O	O	O	O	O	cs44	O	DPS	B-NP	its	PRP$	O	O
future	t383	15	future	O	O	O	O	O	O	cs44	O	AJ0	I-NP	future	NN	O	O
strategy	t384	15	strategy	O	O	O	O	O	O	cs44	O	NN1	I-NP	strategy	NN	t382:NMOD||t383:NMOD	O
,	t385	15	,	O	O	O	O	O	O	cs44	O	PUN	O	,	,	O	O
Columbia	t386	15	Columbia	O	O	O	O	O	O	cs44	O	NP0	B-NP	columbia	NNP	O	O
officials	t387	15	official	O	O	O	O	O	O	cs44	O	NN2	I-NP	official	NNS	t386:NMOD	O
said	t388	15	say	e50	REPORTING	PAST+NONE+POS	O	O	O	cs44	O	VVD	B-VP	say	VBD	t381:ADV||t385:P||t387:SBJ||t391:OBJ||t411:P	mainVb
the	t389	15	the	O	O	O	O	O	O	cs44	O	AT0	B-NP	the	DT	O	O
thrift	t390	15	thrift	O	O	O	O	O	O	cs44	O	NN1	I-NP	thrift	NN	t389:NMOD	O
may	t391	15	may	O	O	O	O	O	O	cs44	O	VM0	B-VP	may	MD	t390:SBJ||t392:VC	O
branch	t392	15	branch	e51	OCCURRENCE	FUTURE+NONE+POS	O	O	O	cs44	O	VVI	I-VP	branch	VB	t393:PRT||t394:ADV	O
out	t393	15	out	O	O	O	O	O	O	cs44	O	AVP	B-PRT	out	RP	O	O
into	t394	15	into	O	O	O	O	O	O	cs44	O	PRP	B-PP	into	IN	t396:PMOD	O
commercial	t395	15	commercial	O	O	O	O	O	O	cs44	O	AJ0	B-NP	commercial	JJ	O	O
lending	t396	15	lending	O	O	O	O	O	O	cs44	O	NN1	I-NP	lending	NN	t395:NMOD||t397:COORD	O
or	t397	15	or	O	O	O	O	O	O	cs44	O	CJC	O	or	CC	t398:CONJ	O
managing	t398	15	manage	O	O	O	O	O	O	cs44	O	VVG	B-VP	manage	VBG	t400:OBJ||t401:P||t402:COORD	O
outside	t399	15	outside	O	O	O	O	O	O	cs44	O	AJ0	B-NP	outside	JJ	O	O
investments	t400	15	investment	O	O	O	O	O	O	cs44	O	NN2	I-NP	investment	NNS	t399:NMOD	O
,	t401	15	,	O	O	O	O	O	O	cs44	O	PUN	O	,	,	O	O
as	t402	15	as	O	O	O	O	O	O	cs44	O	PRP	B-CONJP	as	RB	t403:DEP||t404:DEP||t405:CONJ	O
well	t403	15	well	O	O	O	O	O	O	cs44	O	PRP	I-CONJP	well	RB	O	O
as	t404	15	as	O	O	O	O	O	O	cs44	O	PRP	I-CONJP	as	IN	O	O
beefing	t405	15	beef	e52	OCCURRENCE	FUTURE+NONE+POS	O	O	O	cs44	O	VVG	B-VP	beef	VBG	t406:PRT||t410:OBJ	O
up	t406	15	up	O	O	O	O	O	O	cs44	O	AVP	B-PRT	up	RP	O	O
more	t407	15	more	O	O	O	O	O	O	cs44	O	AV0	B-NP	more	RBR	O	O
traditional	t408	15	traditional	O	O	O	O	O	O	cs44	O	AJ0	I-NP	traditional	JJ	t407:AMOD	O
thrift	t409	15	thrift	O	O	O	O	O	O	cs44	O	AJ0	I-NP	thrift	NN	O	O
activities	t410	15	activity	O	O	O	O	O	O	cs44	O	NN2	I-NP	activity	NNS	t408:NMOD||t409:NMOD	O
.	t411	15	.	O	O	O	O	O	O	cs44	O	PUN	O	.	.	O	O

The	t412	16	the	O	O	O	O	O	O	cs44	O	AT0	B-NP	the	DT	O	O
quarterly	t413	16	quarterly	O	O	O	O	O	O	cs44	O	AJ0	I-NP	quarterly	JJ	O	O
results	t414	16	result	O	O	O	O	O	O	cs44	O	NN2	I-NP	result	NNS	t412:NMOD||t413:NMOD	O
also	t415	16	also	O	O	O	O	O	O	cs44	O	AV0	B-ADVP	also	RB	O	O
reflected	t416	16	reflect	e53	OCCURRENCE	PAST+NONE+POS	O	O	O	cs44	O	VVN	B-VP	reflect	VBD	t414:SBJ||t415:ADV||t417:OBJ||t429:P	mainVb
$	t417	16	$	O	O	O	O	O	O	cs44	O	NN0	B-NP	$	$	t418:DEP||t419:DEP||t420:NMOD	O
21.4	t418	16	21.4	O	O	O	O	O	O	cs44	O	CRD	I-NP	21.4	CD	O	O
million	t419	16	million	O	O	O	O	O	O	cs44	O	CRD	I-NP	million	CD	O	O
in	t420	16	in	O	O	O	O	O	O	cs44	O	PRP	B-PP	in	IN	t422:PMOD	O
non-recurring	t421	16	non-recurring	O	O	O	O	O	O	cs44	O	AJ0	B-NP	non-recurring	JJ	O	O
losses	t422	16	loss	O	O	O	O	O	O	cs44	O	NN2	I-NP	losses	NNS	t421:NMOD||t423:NMOD	O
from	t423	16	from	O	O	O	O	O	O	cs44	O	PRP	B-PP	from	IN	t426:PMOD	O
commercial	t424	16	commercial	O	O	O	O	O	O	cs44	O	AJ0	B-NP	commercial	JJ	O	O
real-estate	t425	16	real-estate	O	O	O	O	O	O	cs44	O	NN1	I-NP	real-estate	NN	t424:NMOD	O
activities	t426	16	activity	O	O	O	O	O	O	cs44	O	NN2	I-NP	activity	NNS	t425:NMOD||t427:LOC	O
in	t427	16	in	O	O	O	O	O	O	cs44	O	PRP	B-PP	in	IN	t428:PMOD	O
California	t428	16	California	O	O	O	O	O	O	cs44	O	NP0	B-NP	california	NNP	O	O
.	t429	16	.	O	O	O	O	O	O	cs44	O	PUN	O	.	.	O	O

Thomas	t430	17	Thomas	O	O	O	O	O	O	cs44	O	NP0	B-NP	thomas	NNP	O	O
Spiegel	t431	17	Spiegel	O	O	O	O	O	O	cs44	O	NP0	I-NP	spiegel	NNP	t430:NAME	O
,	t432	17	,	O	O	O	O	O	O	cs44	O	PUN	O	,	,	O	O
Columbia	t433	17	Columbia	O	O	O	O	O	O	cs44	O	NP0	B-NP	columbia	NNP	t434:SUFFIX	O
's	t434	17	's	O	O	O	O	O	O	cs44	O	POS	B-NP	's	POS	O	O
chairman	t435	17	chairman	O	O	O	O	O	O	cs44	O	NN1	I-NP	chairman	NN	t431:NMOD||t432:P||t433:NMOD||t436:P	O
,	t436	17	,	O	O	O	O	O	O	cs44	O	PUN	O	,	,	O	O
said	t437	17	say	e54	REPORTING	PAST+NONE+POS	O	O	O	cs44	O	VVD	B-VP	say	VBD	t435:SBJ||t438:LOC||t441:OBJ||t455:P	mainVb
in	t438	17	in	O	O	O	O	O	O	cs44	O	PRP	B-PP	in	IN	t440:PMOD	O
a	t439	17	a	O	O	O	O	O	O	cs44	O	AT0	B-NP	a	DT	O	O
statement	t440	17	statement	O	O	O	O	O	O	cs44	O	NN1	I-NP	statement	NN	t439:NMOD	O
that	t441	17	that	O	O	O	O	O	O	cs44	O	CJT	B-SBAR	that	IN	t444:SUB	O
the	t442	17	the	O	O	O	O	O	O	cs44	O	AT0	B-NP	the	DT	O	O
thrift	t443	17	thrift	O	O	O	O	O	O	cs44	O	NN1	I-NP	thrift	NN	t442:NMOD	O
was	t444	17	be	O	O	O	O	O	O	cs44	O	VBD	B-VP	be	VBD	t443:SBJ||t446:PRD	O
"	t445	17	"	O	O	O	O	O	O	cs44	O	PUQ	I-VP	"	NNP	O	O
disappointed	t446	17	disappointed	e55	OCCURRENCE	PAST+NONE+POS	O	O	O	cs44	O	AJ0	I-VP	disappointed	VBD	t445:SBJ||t447:ADV||t448:LGS	O
"	t447	17	"	O	O	O	O	O	O	cs44	O	PUQ	O	"	RP	O	O
by	t448	17	by	O	O	O	O	O	O	cs44	O	PRP	B-PP	by	IN	t450:PMOD	O
the	t449	17	the	O	O	O	O	O	O	cs44	O	AT0	B-NP	the	DT	O	O
effects	t450	17	effect	O	O	O	O	O	O	cs44	O	NN2	I-NP	effects	NNS	t449:NMOD||t451:NMOD	O
of	t451	17	of	O	O	O	O	O	O	cs44	O	PRF	B-PP	of	IN	t454:PMOD	O
the	t452	17	the	O	O	O	O	O	O	cs44	O	AT0	B-NP	the	DT	O	O
accounting	t453	17	accounting	O	O	O	O	O	O	cs44	O	AJ0	I-NP	accounting	NN	O	O
changes	t454	17	change	e56	OCCURRENCE	NONE+NONE+POS	O	O	O	cs44	O	NN2	I-NP	change	NNS	t452:NMOD||t453:NMOD	O
.	t455	17	.	O	O	O	O	O	O	cs44	O	PUN	O	.	.	O	O

But	t456	18	but	O	O	O	O	O	O	cs44	O	CJC	O	but	CC	O	O
he	t457	18	he	O	O	O	O	O	O	cs44	O	PNP	B-NP	he	PRP	O	O
said	t458	18	say	e57	REPORTING	PAST+NONE+POS	O	O	O	cs44	O	VVD	B-VP	say	VBD	t456:DEP||t457:SBJ||t460:OBJ||t485:P	mainVb
Columbia	t459	18	Columbia	O	O	O	O	O	O	cs44	O	NP0	B-NP	columbia	NNP	O	O
remains	t460	18	remain	e58	STATE	PRESENT+NONE+POS	O	O	O	cs44	O	VVZ	B-VP	remain	VBZ	t459:SBJ||t462:PRD||t472:P||t473:COORD	O
"	t461	18	"	O	O	O	O	O	O	cs44	O	PUQ	B-NP	"	CD	O	O
one	t462	18	one	O	O	O	O	O	O	cs44	O	CRD	I-NP	one	CD	t461:NMOD||t463:NMOD	O
of	t463	18	of	O	O	O	O	O	O	cs44	O	PRF	B-PP	of	IN	t468:PMOD	O
the	t464	18	the	O	O	O	O	O	O	cs44	O	AT0	B-NP	the	DT	O	O
most	t465	18	most	O	O	O	O	O	O	cs44	O	AV0	I-NP	most	RBS	O	O
strongly	t466	18	strongly	O	O	O	O	O	O	cs44	O	AV0	I-NP	strongly	RB	t465:AMOD||t467:AMOD	O
capitalized	t467	18	capitalized	O	O	O	O	O	O	cs44	O	VVD	I-NP	capitalize	VBN	O	O
thrifts	t468	18	thrift	O	O	O	O	O	O	cs44	O	NN2	I-NP	thrift	NNS	t464:NMOD||t466:NMOD||t469:LOC	O
in	t469	18	in	O	O	O	O	O	O	cs44	O	PRP	B-PP	in	IN	t471:PMOD	O
the	t470	18	the	O	O	O	O	O	O	cs44	O	AT0	B-NP	the	DT	O	O
industry	t471	18	industry	O	O	O	O	O	O	cs44	O	NN1	I-NP	industry	NN	t470:NMOD	O
,	t472	18	,	O	O	O	O	O	O	cs44	O	PUN	O	,	,	O	O
"	t473	18	"	O	O	O	O	O	O	cs44	O	PUQ	O	"	CC	t474:ADV	O
based	t474	18	base	O	O	O	O	O	O	cs44	O	VVN	B-VP	base	VBN	t475:PMOD	O
on	t475	18	on	O	O	O	O	O	O	cs44	O	PRP	B-PP	on	IN	t478:PMOD	O
the	t476	18	the	O	O	O	O	O	O	cs44	O	AT0	B-NP	the	DT	O	O
economic	t477	18	economic	O	O	O	O	O	O	cs44	O	AJ0	I-NP	economic	JJ	O	O
value	t478	18	value	O	O	O	O	O	O	cs44	O	NN1	I-NP	value	NN	t476:NMOD||t477:NMOD||t479:NMOD	O
of	t479	18	of	O	O	O	O	O	O	cs44	O	PRF	B-PP	of	IN	t481:PMOD	O
its	t480	18	its	O	O	O	O	O	O	cs44	O	DPS	B-NP	its	PRP$	O	O
assets	t481	18	asset	O	O	O	O	O	O	cs44	O	NN2	I-NP	assets	NNS	t480:NMOD||t482:COORD	O
and	t482	18	and	O	O	O	O	O	O	cs44	O	CJC	O	and	CC	t484:CONJ	O
tangible	t483	18	tangible	O	O	O	O	O	O	cs44	O	AJ0	B-NP	tangible	JJ	O	O
capital	t484	18	capital	O	O	O	O	O	O	cs44	O	NN1	I-NP	capital	NN	t483:NMOD	O
.	t485	18	.	O	O	O	O	O	O	cs44	O	PUN	O	.	.	O	O

Columbia	t486	19	Columbia	O	O	O	O	O	O	cs44	O	NP0	B-NP	columbia	NNP	O	O
announced	t487	19	announce	e59	REPORTING	PAST+NONE+POS	O	O	O	cs44	O	VVD	B-VP	announce	VBD	t486:SBJ||t489:OBJ||t490:TMP||t497:P	mainVb
the	t488	19	the	O	O	O	O	O	O	cs44	O	AT0	B-NP	the	DT	O	O
results	t489	19	result	O	O	O	O	O	O	cs44	O	NN2	I-NP	result	NNS	t488:NMOD	O
after	t490	19	after	O	O	O	O	O	O	cs44	O	PRP	B-PP	after	IN	t492:PMOD	O
the	t491	19	the	O	O	O	O	O	O	cs44	O	AT0	B-NP	the	DT	O	O
close	t492	19	close	e60	OCCURRENCE	NONE+NONE+POS	O	O	O	cs44	O	NN1	I-NP	close	NN	t491:NMOD||t493:NMOD	O
of	t493	19	of	O	O	O	O	O	O	cs44	O	PRF	B-PP	of	IN	t496:PMOD	O
the	t494	19	the	O	O	O	O	O	O	cs44	O	AT0	B-NP	the	DT	O	O
stock	t495	19	stock	O	O	O	O	O	O	cs44	O	NN1	I-NP	stock	NN	O	O
market	t496	19	market	O	O	O	O	O	O	cs44	O	NN1	I-NP	market	NN	t494:NMOD||t495:NMOD	O
.	t497	19	.	O	O	O	O	O	O	cs44	O	PUN	O	.	.	O	O

Its	t498	20	its	O	O	O	O	O	O	cs44	O	DPS	B-NP	its	PRP$	O	O
shares	t499	20	share	O	O	O	O	O	O	cs44	O	NN2	I-NP	share	NNS	t498:NMOD	O
closed	t500	20	close	e61	OCCURRENCE	PAST+NONE+POS	O	O	O	cs44	O	VVN	B-VP	close	VBD	t499:SBJ||t501:ADV||t505:LOC||t512:P||t513:ADV||t516:P	mainVb
at	t501	20	at	O	O	O	O	O	O	cs44	O	PRP	B-PP	at	IN	t502:PMOD	O
$	t502	20	$	O	O	O	O	O	O	cs44	O	NN0	B-NP	$	$	t503:NMOD||t504:ADV	O
5.125	t503	20	5.125	O	O	O	O	O	O	cs44	O	CRD	I-NP	5.125	CD	O	O
each	t504	20	each	O	O	O	O	O	O	cs44	O	DT0	B-NP	each	DT	O	O
in	t505	20	in	O	O	O	O	O	O	cs44	O	PRP	B-PP	in	IN	t511:PMOD	O
composite	t506	20	composite	O	O	O	O	O	O	cs44	O	AJ0	B-NP	composite	JJ	O	O
New	t507	20	New	O	O	O	O	O	O	cs44	O	NP0	I-NP	new	NNP	O	O
York	t508	20	York	O	O	O	O	O	O	cs44	O	NP0	I-NP	york	NNP	t507:NAME	O
Stock	t509	20	Stock	O	O	O	O	O	O	cs44	O	NP0	I-NP	stock	NNP	O	O
Exchange	t510	20	Exchange	O	O	O	O	O	O	cs44	O	NN1	I-NP	exchange	NNP	t508:NAME||t509:NAME	O
trading	t511	20	trading	O	O	O	O	O	O	cs44	O	NN1	I-NP	trading	NN	t506:NMOD||t510:NMOD	O
,	t512	20	,	O	O	O	O	O	O	cs44	O	PUN	O	,	,	O	O
down	t513	20	down	O	O	O	O	O	O	cs44	O	PRP	B-ADVP	down	IN	t515:AMOD	O
37.5	t514	20	37.5	O	O	O	O	O	O	cs44	O	CRD	B-NP	37.5	CD	O	O
cents	t515	20	cent	O	O	O	O	O	O	cs44	O	NN2	I-NP	cent	NNS	t514:NMOD	O
.	t516	20	.	O	O	O	O	O	O	cs44	O	PUN	O	.	.	O	O

The	t517	21	the	O	O	O	O	O	O	cs44	O	AT0	B-NP	the	DT	O	O
price	t518	21	price	O	O	O	O	O	O	cs44	O	NN1	I-NP	price	NN	t517:NMOD||t519:NMOD	O
of	t519	21	of	O	O	O	O	O	O	cs44	O	PRF	B-PP	of	IN	t521:PMOD	O
Columbia	t520	21	Columbia	O	O	O	O	O	O	cs44	O	NP0	B-NP	columbia	NNP	O	O
shares	t521	21	share	O	O	O	O	O	O	cs44	O	VVZ	I-NP	share	NNS	t520:NMOD	O
has	t522	21	have	O	O	O	O	O	O	cs44	O	VHZ	B-VP	have	VBZ	t518:SBJ||t523:VC||t554:P	mainVb
been	t523	21	be	O	O	O	O	O	O	cs44	O	VBN	I-VP	be	VBN	t524:VC	mainVb
cut	t524	21	cut	e62	OCCURRENCE	PRESENT+PERFECTIVE+POS	O	O	O	cs44	O	VVN	I-VP	cut	VBN	t526:ADV||t528:TMP||t538:P||t539:TMP	mainVb
nearly	t525	21	nearly	O	O	O	O	O	O	cs44	O	AV0	B-ADVP	nearly	RB	O	O
in	t526	21	in	O	O	O	O	O	O	cs44	O	PRP	B-PP	in	IN	t525:PMOD||t527:PMOD	O
half	t527	21	half	O	O	O	O	O	O	cs44	O	DT0	B-NP	half	CD	O	O
since	t528	21	since	O	O	O	O	O	O	cs44	O	PRP	B-PP	since	IN	t529:PMOD	O
August	t529	21	August	O	O	O	tmx63	DATE	1989-08	cs44	O	NP0	B-NP	august	NNP	t530:P||t533:NMOD	O
,	t530	21	,	O	O	O	O	O	O	cs44	O	PUN	O	,	,	O	O
when	t531	21	when	O	O	O	O	O	O	cs44	O	AVQ	B-ADVP	when	WRB	O	O
they	t532	21	they	O	O	O	O	O	O	cs44	O	PNP	B-NP	they	PRP	O	O
traded	t533	21	trade	e64	OCCURRENCE	PAST+NONE+POS	O	O	O	cs44	O	VVD	B-VP	trade	VBD	t531:TMP||t532:SBJ||t534:ADV	O
at	t534	21	at	O	O	O	O	O	O	cs44	O	PRP	B-PP	at	IN	t536:PMOD	O
about	t535	21	about	O	O	O	O	O	O	cs44	O	AV0	B-NP	about	IN	O	O
$	t536	21	$	O	O	O	O	O	O	cs44	O	NN0	I-NP	$	$	t535:DEP||t537:NMOD	O
10	t537	21	10	O	O	O	O	O	O	cs44	O	CRD	I-NP	10	CD	O	O
,	t538	21	,	O	O	O	O	O	O	cs44	O	PUN	O	,	,	O	O
as	t539	21	as	O	O	O	O	O	O	cs65	O	AV0	B-ADVP	as	IN	t542:SUB	O
investors	t540	21	investor	O	O	O	O	O	O	cs65	O	AV0	I-ADVP	investor	NNS	O	O
apparently	t541	21	apparently	O	O	O	O	O	O	cs65	O	AV0	B-ADVP	apparently	RB	O	O
realized	t542	21	realize	e66	OCCURRENCE	PAST+NONE+POS	O	O	O	cs65	O	VVD	B-VP	realize	VBD	t540:SBJ||t541:ADV||t543:OBJ	O
that	t543	21	that	O	O	O	O	O	O	cs65	O	CJT	B-SBAR	that	IN	t546:SUB	O
the	t544	21	the	O	O	O	O	O	O	cs65	O	AT0	B-NP	the	DT	O	O
thrift	t545	21	thrift	O	O	O	O	O	O	cs65	O	NN1	I-NP	thrift	NN	t544:NMOD	O
would	t546	21	would	O	O	O	O	O	O	cs65	O	VM0	B-VP	would	MD	t545:SBJ||t547:VC	O
be	t547	21	be	O	O	O	O	O	O	cs65	O	VBI	I-VP	be	VB	t548:VC	O
forced	t548	21	force	e67	OCCURRENCE	NONE+PERFECTIVE+POS	O	O	O	cs65	O	VVN	I-VP	force	VBN	t549:OPRD	O
to	t549	21	to	O	O	O	O	O	O	cs65	O	TO0	I-VP	to	TO	t550:IM	O
take	t550	21	take	e68	OCCURRENCE	INFINITIVE+NONE+POS	O	O	O	cs65	O	VVI	I-VP	take	VB	t553:OBJ	O
a	t551	21	a	O	O	O	O	O	O	cs65	O	AT0	B-NP	a	DT	O	O
big	t552	21	big	O	O	O	O	O	O	cs65	O	AJ0	I-NP	big	JJ	O	O
write-down	t553	21	write-down	O	O	O	O	O	O	cs65	O	NN1	I-NP	write-down	NN	t551:NMOD||t552:NMOD	O
.	t554	21	.	O	O	O	O	O	O	cs65	O	PUN	O	.	.	O	O

The	t555	22	the	O	O	O	O	O	O	cs65	O	AT0	B-NP	the	DT	O	O
stock	t556	22	stock	O	O	O	O	O	O	cs65	O	NN1	I-NP	stock	NN	t555:NMOD||t557:SUFFIX	O
's	t557	22	's	O	O	O	O	O	O	cs65	O	POS	B-NP	's	POS	O	O
decline	t558	22	decline	e69	OCCURRENCE	NONE+NONE+POS	O	O	O	cs65	O	NN1	I-NP	decline	NN	t556:NMOD	O
accelerated	t559	22	accelerate	e70	OCCURRENCE	PAST+NONE+POS	O	O	O	cs65	O	VVD	B-VP	accelerate	VBD	t558:SBJ||t560:TMP||t565:P||t566:ADV||t577:P	mainVb
in	t560	22	in	O	O	O	O	O	O	cs65	O	PRP	B-PP	in	IN	t564:PMOD	O
the	t561	22	the	O	O	O	tmx71	DURATION	P2W	cs65	O	AT0	B-NP	the	DT	O	O
past	t562	22	past	O	O	O	tmx71	DURATION	P2W	cs65	O	AJ0	I-NP	past	JJ	O	O
two	t563	22	two	O	O	O	tmx71	DURATION	P2W	cs65	O	CRD	I-NP	two	CD	O	O
weeks	t564	22	week	O	O	O	tmx71	DURATION	P2W	cs65	O	NN2	I-NP	week	NNS	t561:NMOD||t562:NMOD||t563:NMOD	O
,	t565	22	,	O	O	O	O	O	O	cs65	O	PUN	O	,	,	O	O
from	t566	22	from	O	O	O	O	O	O	cs65	O	PRP	B-PP	from	IN	t568:PMOD	O
a	t567	22	a	O	O	O	O	O	O	cs65	O	AT0	B-NP	a	DT	O	O
price	t568	22	price	O	O	O	O	O	O	cs65	O	NN1	I-NP	price	NN	t567:NMOD||t569:NMOD||t574:TMP	O
of	t569	22	of	O	O	O	O	O	O	cs65	O	PRF	B-PP	of	IN	t570:PMOD	O
$	t570	22	$	O	O	O	O	O	O	cs65	O	NN0	B-NP	$	$	t571:NMOD||t573:ADV	O
8	t571	22	8	O	O	O	O	O	O	cs65	O	CRD	I-NP	8	CD	O	O
a	t572	22	a	O	O	O	O	O	O	cs65	O	AT0	B-NP	a	DT	O	O
share	t573	22	share	O	O	O	O	O	O	cs65	O	NN1	I-NP	share	NN	t572:NMOD	O
on	t574	22	on	O	O	O	O	O	O	cs65	O	PRP	B-PP	on	IN	t576:PMOD	O
Oct.	t575	22	Oct.	O	O	O	tmx72	DATE	1989-10-09	cs65	O	NP0	B-NP	oct.	NNP	O	O
9	t576	22	9	O	O	O	tmx72	DATE	1989-10-09	cs65	O	CRD	I-NP	9	CD	t575:NMOD	O
.	t577	22	.	O	O	O	O	O	O	cs65	O	PUN	O	.	.	O	O

Columbia	t578	23	Columbia	O	O	O	O	O	O	cs65	O	NP0	B-NP	columbia	NNP	O	O
officials	t579	23	official	O	O	O	O	O	O	cs65	O	NN2	I-NP	official	NNS	t578:NMOD	O
said	t580	23	say	e73	REPORTING	PAST+NONE+POS	O	O	O	cs65	O	VVD	B-VP	say	VBD	t579:SBJ||t582:OBJ||t623:P	mainVb
they	t581	23	they	O	O	O	O	O	O	cs65	O	PNP	B-NP	they	PRP	O	O
do	t582	23	do	O	O	O	O	O	O	cs65	O	VDB	B-VP	do	VBP	t581:SBJ||t583:ADV||t584:VC	O
n't	t583	23	not	O	O	O	O	O	O	cs65	O	XX0	I-VP	not	RB	O	O
know	t584	23	know	e74	OCCURRENCE	PRESENT+NONE+NEG	O	O	O	cs65	O	VVI	I-VP	know	VB	t588:OBJ||t596:P||t597:PRP	O
how	t585	23	how	O	O	O	O	O	O	cs65	O	AVQ	B-ADVP	how	WRB	t586:AMOD	O
quickly	t586	23	quickly	O	O	O	O	O	O	cs65	O	AV0	I-ADVP	quickly	RB	O	O
they	t587	23	they	O	O	O	O	O	O	cs65	O	PNP	B-NP	they	PRP	O	O
will	t588	23	will	O	O	O	O	O	O	cs65	O	VM0	B-VP	will	MD	t587:SBJ||t589:VC	O
dispose	t589	23	dispose	e75	OCCURRENCE	FUTURE+NONE+POS	O	O	O	cs65	O	VVI	I-VP	dispose	VB	t585:MNR||t590:ADV	O
of	t590	23	of	O	O	O	O	O	O	cs65	O	PRF	B-PP	of	IN	t595:PMOD	O
the	t591	23	the	O	O	O	O	O	O	cs65	O	AT0	B-NP	the	DT	O	O
thrift	t592	23	thrift	O	O	O	O	O	O	cs65	O	NN1	I-NP	thrift	NN	t591:NMOD||t593:SUFFIX	O
's	t593	23	's	O	O	O	O	O	O	cs65	O	POS	B-NP	's	POS	O	O
junk	t594	23	junk	O	O	O	O	O	O	cs65	O	NN1	I-NP	junk	NN	O	O
bonds	t595	23	bond	O	O	O	O	O	O	cs65	O	NN2	I-NP	bond	NNS	t592:NMOD||t594:NMOD	O
,	t596	23	,	O	O	O	O	O	O	cs65	O	PUN	O	,	,	O	O
because	t597	23	because	O	O	O	O	O	O	cs76	O	CJS	B-SBAR	because	IN	t618:SUB	O
federal	t598	23	federal	O	O	O	O	O	O	cs76	O	AJ0	B-NP	federal	JJ	O	O
regulations	t599	23	regulation	O	O	O	O	O	O	cs76	O	NN2	I-NP	regulation	NNS	t598:NMOD||t600:P||t602:NMOD||t617:P	O
,	t600	23	,	O	O	O	O	O	O	cs76	O	PUN	O	,	,	O	O
such	t601	23	such	O	O	O	O	O	O	cs76	O	PRP	B-PP	such	JJ	O	O
as	t602	23	as	O	O	O	O	O	O	cs76	O	PRP	I-PP	as	IN	t601:DEP||t603:PMOD	O
those	t603	23	those	O	O	O	O	O	O	cs76	O	DT0	B-NP	those	DT	t605:NMOD	O
that	t604	23	that	O	O	O	O	O	O	cs76	O	CJT	B-NP	that	WDT	O	O
would	t605	23	would	O	O	O	O	O	O	cs76	O	VM0	B-VP	would	MD	t604:SBJ||t606:VC	O
allow	t606	23	allow	e77	OCCURRENCE	NONE+NONE+POS	O	O	O	cs76	O	VVI	I-VP	allow	VB	t607:OBJ||t608:OPRD	O
thrifts	t607	23	thrift	O	O	O	O	O	O	cs76	O	NN2	B-NP	thrift	NNS	O	O
to	t608	23	to	O	O	O	O	O	O	cs76	O	TO0	B-VP	to	TO	t609:IM	O
continue	t609	23	continue	e78	ASPECTUAL	INFINITIVE+NONE+POS	O	O	O	cs76	O	VVI	I-VP	continue	VB	t610:OPRD	O
holding	t610	23	hold	e79	OCCURRENCE	PRESPART+NONE+POS	O	O	O	cs76	O	VVG	I-VP	hold	VBG	t612:OBJ||t613:LOC	O
the	t611	23	the	O	O	O	O	O	O	cs76	O	AT0	B-NP	the	DT	O	O
bonds	t612	23	bond	O	O	O	O	O	O	cs76	O	NN2	I-NP	bond	NNS	t611:NMOD	O
in	t613	23	in	O	O	O	O	O	O	cs76	O	PRP	B-PP	in	IN	t616:PMOD	O
separately	t614	23	separately	O	O	O	O	O	O	cs76	O	AV0	B-NP	separately	RB	O	O
capitalized	t615	23	capitalized	O	O	O	O	O	O	cs76	O	AJ0	I-NP	capitalize	VBN	t614:AMOD	O
subsidiaries	t616	23	subsidiary	O	O	O	O	O	O	cs76	O	NN2	I-NP	subsidiary	NNS	t615:NMOD	O
,	t617	23	,	O	O	O	O	O	O	cs76	O	PUN	O	,	,	O	O
have	t618	23	have	O	O	O	O	O	O	cs76	O	VHB	B-VP	have	VBP	t599:SBJ||t619:ADV||t620:TMP||t621:VC	O
n't	t619	23	not	O	O	O	O	O	O	cs76	O	XX0	I-VP	not	RB	O	O
yet	t620	23	yet	O	O	O	O	O	O	cs76	O	AV0	I-VP	yet	RB	O	O
been	t621	23	be	O	O	O	O	O	O	cs76	O	VBN	I-VP	be	VBN	t622:VC	O
completed	t622	23	complete	e80	ASPECTUAL	PRESENT+PERFECTIVE+NEG	O	O	O	cs76	O	VVN	I-VP	complete	VBN	O	O
.	t623	23	.	O	O	O	O	O	O	cs76	O	PUN	O	.	.	O	O

Columbia	t624	24	Columbia	O	O	O	O	O	O	cs76	O	NP0	B-NP	columbia	NNP	O	O
officials	t625	24	official	O	O	O	O	O	O	cs76	O	NN2	I-NP	official	NNS	t624:NMOD	O
also	t626	24	also	O	O	O	O	O	O	cs76	O	AV0	B-ADVP	also	RB	O	O
said	t627	24	say	e81	REPORTING	PAST+NONE+POS	O	O	O	cs76	O	VVD	B-VP	say	VBD	t625:SBJ||t626:ADV||t630:OBJ||t658:P	mainVb
the	t628	24	the	O	O	O	O	O	O	cs76	O	AT0	B-NP	the	DT	O	O
thrift	t629	24	thrift	O	O	O	O	O	O	cs76	O	NN1	I-NP	thrift	NN	t628:NMOD	O
should	t630	24	should	O	O	O	O	O	O	cs76	O	VM0	B-VP	should	MD	t629:SBJ||t631:ADV||t632:VC	O
n't	t631	24	not	O	O	O	O	O	O	cs76	O	XX0	I-VP	not	RB	O	O
face	t632	24	face	e82	OCCURRENCE	NONE+NONE+NEG	O	O	O	cs76	O	VVI	I-VP	face	VB	t633:OBJ||t634:ADV||t638:P||t639:ADV	O
problems	t633	24	problem	O	O	O	O	O	O	cs76	O	NN2	B-NP	problem	NNS	O	O
meeting	t634	24	meet	O	O	O	O	O	O	cs76	O	VVG	B-VP	meet	VBG	t637:OBJ	O
regulatory	t635	24	regulatory	O	O	O	O	O	O	cs76	O	AJ0	B-NP	regulatory	JJ	O	O
capital	t636	24	capital	O	O	O	O	O	O	cs76	O	NN1	I-NP	capital	NN	t635:NMOD	O
requirements	t637	24	requirement	O	O	O	O	O	O	cs76	O	NN2	I-NP	requirement	NNS	t636:NMOD	O
,	t638	24	,	O	O	O	O	O	O	cs76	O	PUN	O	,	,	O	O
despite	t639	24	despite	O	O	O	O	O	O	cs76	O	PRP	B-PP	despite	IN	t642:PMOD	O
the	t640	24	the	O	O	O	O	O	O	cs76	O	AT0	B-NP	the	DT	O	O
large	t641	24	large	O	O	O	O	O	O	cs76	O	AJ0	I-NP	large	JJ	O	O
reserves	t642	24	reserve	O	O	O	O	O	O	cs76	O	NN2	I-NP	reserves	NNS	t640:NMOD||t641:NMOD||t643:COORD	O
and	t643	24	and	O	O	O	O	O	O	cs76	O	CJC	I-NP	and	CC	t644:CONJ	O
write-downs	t644	24	write-downs	O	O	O	O	O	O	cs76	O	NN2	I-NP	write-down	NNS	t645:COORD	O
and	t645	24	and	O	O	O	O	O	O	cs76	O	CJC	O	and	CC	t648:CONJ	O
stiffer	t646	24	stiffer	O	O	O	O	O	O	cs76	O	VVB	B-VP	stiff	JJR	O	O
regulatory	t647	24	regulatory	O	O	O	O	O	O	cs76	O	AJ0	B-NP	regulatory	JJ	O	O
requirements	t648	24	requirement	O	O	O	O	O	O	cs76	O	NN2	I-NP	requirement	NNS	t646:NMOD||t647:NMOD||t650:NMOD	O
that	t649	24	that	O	O	O	O	O	O	cs76	O	CJT	B-NP	that	WDT	O	O
should	t650	24	should	O	O	O	O	O	O	cs76	O	VM0	B-VP	should	MD	t649:SBJ||t651:VC	O
be	t651	24	be	O	O	O	O	O	O	cs76	O	VBI	I-VP	be	VB	t652:PRD||t654:TMP	O
in	t652	24	in	O	O	O	O	O	O	cs76	O	PRP	B-PP	in	IN	t653:PMOD	O
place	t653	24	place	O	O	O	O	O	O	cs76	O	NN1	B-NP	place	NN	O	O
by	t654	24	by	O	O	O	O	O	O	cs76	O	PRP	B-PP	by	IN	t657:PMOD	O
year	t655	24	year	O	O	O	tmx83	DATE	1989	cs76	O	NN1	B-NP	year	NN	t656:SUFFIX	O
's	t656	24	's	O	O	O	tmx83	DATE	1989	cs76	O	POS	B-NP	's	POS	O	O
end	t657	24	end	O	O	O	tmx83	DATE	1989	cs76	O	NN1	I-NP	end	NN	t655:NMOD	O
.	t658	24	.	O	O	O	O	O	O	cs76	O	PUN	O	.	.	O	O

Its	t659	25	its	O	O	O	O	O	O	cs76	O	DPS	B-NP	its	PRP$	O	O
ratio	t660	25	ratio	O	O	O	O	O	O	cs76	O	NN1	I-NP	ratio	NN	t659:NMOD||t661:NMOD||t664:NMOD||t667:TMP	O
of	t661	25	of	O	O	O	O	O	O	cs76	O	PRF	B-PP	of	IN	t663:PMOD	O
tangible	t662	25	tangible	O	O	O	O	O	O	cs76	O	AJ0	B-NP	tangible	JJ	O	O
equity	t663	25	equity	O	O	O	O	O	O	cs76	O	NN1	I-NP	equity	NN	t662:NMOD	O
to	t664	25	to	O	O	O	O	O	O	cs76	O	PRP	B-PP	to	TO	t666:PMOD	O
total	t665	25	total	O	O	O	O	O	O	cs76	O	AJ0	B-NP	total	JJ	O	O
assets	t666	25	asset	O	O	O	O	O	O	cs76	O	NN2	I-NP	assets	NNS	t665:NMOD	O
as	t667	25	as	O	O	O	O	O	O	cs76	O	PRP	B-PP	as	IN	t668:PMOD	O
of	t668	25	of	O	O	O	O	O	O	cs76	O	PRP	B-PP	of	IN	t670:PMOD	O
Sept.	t669	25	Sept.	O	O	O	tmx84	DATE	1989-09-30	cs76	O	NP0	B-NP	sept.	NNP	O	O
30	t670	25	30	O	O	O	tmx84	DATE	1989-09-30	cs76	O	CRD	I-NP	30	CD	t669:NMOD	O
was	t671	25	be	O	O	O	O	O	O	cs76	O	VBD	B-VP	be	VBD	t660:SBJ||t673:PRD||t674:P||t675:COORD||t682:P	mainVb
3.6	t672	25	3.6	O	O	O	O	O	O	cs76	O	CRD	B-NP	3.6	CD	O	O
%	t673	25	%	O	O	O	O	O	O	cs76	O	UNC	I-NP	%	NN	t672:NMOD	O
,	t674	25	,	O	O	O	O	O	O	cs76	O	PUN	O	,	,	O	O
and	t675	25	and	O	O	O	O	O	O	cs76	O	CJC	O	and	CC	t678:CONJ	O
total	t676	25	total	O	O	O	O	O	O	cs76	O	AJ0	B-NP	total	JJ	O	O
equity	t677	25	equity	O	O	O	O	O	O	cs76	O	NN1	I-NP	equity	NN	t676:NMOD	O
was	t678	25	be	O	O	O	O	O	O	cs76	O	VBD	B-VP	be	VBD	t677:SBJ||t679:PRD	O
$	t679	25	$	O	O	O	O	O	O	cs76	O	UNC	B-NP	$	$	t680:DEP||t681:DEP	O
457.9	t680	25	457.9	O	O	O	O	O	O	cs76	O	CRD	I-NP	457.9	CD	O	O
million	t681	25	million	O	O	O	O	O	O	cs76	O	CRD	I-NP	million	CD	O	O
.	t682	25	.	O	O	O	O	O	O	cs76	O	PUN	O	.	.	O	O

The	t683	26	the	O	O	O	O	O	O	cs76	O	AT0	B-NP	the	DT	O	O
thrift	t684	26	thrift	O	O	O	O	O	O	cs76	O	NN1	I-NP	thrift	NN	t683:NMOD	O
emphasized	t685	26	emphasize	e85	REPORTING	PAST+NONE+POS	O	O	O	cs76	O	VVD	B-VP	emphasize	VBD	t684:SBJ||t686:OBJ||t714:P	mainVb
that	t686	26	that	O	O	O	O	O	O	cs76	O	CJT	B-SBAR	that	IN	t688:SUB	O
it	t687	26	it	O	O	O	O	O	O	cs76	O	PNP	B-NP	it	PRP	O	O
has	t688	26	have	e86	STATE	PRESENT+NONE+POS	O	O	O	cs76	O	VHZ	B-VP	have	VBZ	t687:SBJ||t691:OBJ	O
a	t689	26	a	O	O	O	O	O	O	cs76	O	AT0	B-NP	a	DT	O	O
large	t690	26	large	O	O	O	O	O	O	cs76	O	AJ0	I-NP	large	JJ	O	O
portfolio	t691	26	portfolio	O	O	O	O	O	O	cs76	O	NN1	I-NP	portfolio	NN	t689:NMOD||t690:NMOD||t692:NMOD||t704:P||t706:NMOD	O
of	t692	26	of	O	O	O	O	O	O	cs76	O	PRF	B-PP	of	IN	t694:PMOD	O
equity	t693	26	equity	O	O	O	O	O	O	cs76	O	NN1	B-NP	equity	NN	O	O
securities	t694	26	security	O	O	O	O	O	O	cs76	O	NN2	I-NP	security	NNS	t693:NMOD||t695:APPO	O
issued	t695	26	issue	e87	OCCURRENCE	PASTPART+NONE+POS	O	O	O	cs76	O	VVD	B-VP	issue	VBN	t696:MNR	O
in	t696	26	in	O	O	O	O	O	O	cs76	O	PRP	B-PP	in	IN	t697:PMOD	O
connection	t697	26	connection	O	O	O	O	O	O	cs76	O	PRP	B-NP	connection	NN	t698:NMOD	O
with	t698	26	with	O	O	O	O	O	O	cs76	O	PRP	B-PP	with	IN	t700:PMOD	O
corporate	t699	26	corporate	O	O	O	O	O	O	cs76	O	AJ0	B-NP	corporate	JJ	O	O
restructurings	t700	26	restructuring	O	O	O	O	O	O	cs76	O	NN2	I-NP	restructurings	NNS	t699:NMOD||t701:COORD	O
and	t701	26	and	O	O	O	O	O	O	cs76	O	CJC	O	and	CC	t703:CONJ	O
leveraged	t702	26	leveraged	O	O	O	O	O	O	cs76	O	AJ0	B-NP	leveraged	JJ	O	O
buy-outs	t703	26	buy-out	e88	OCCURRENCE	NONE+NONE+POS	O	O	O	cs76	O	NN2	I-NP	buy-out	NNS	t702:NMOD	O
,	t704	26	,	O	O	O	O	O	O	cs76	O	PUN	O	,	,	O	O
which	t705	26	which	O	O	O	O	O	O	cs76	O	DTQ	B-NP	which	WDT	O	O
has	t706	26	have	e89	STATE	PRESENT+NONE+POS	O	O	O	cs76	O	VHZ	B-VP	have	VBZ	t705:SBJ||t709:OBJ	O
a	t707	26	a	O	O	O	O	O	O	cs76	O	AT0	B-NP	a	DT	O	O
book	t708	26	book	O	O	O	O	O	O	cs76	O	NN1	I-NP	book	NN	O	O
value	t709	26	value	O	O	O	O	O	O	cs76	O	NN1	I-NP	value	NN	t707:NMOD||t708:NMOD||t710:NMOD	O
of	t710	26	of	O	O	O	O	O	O	cs76	O	PRF	B-PP	of	IN	t711:PMOD	O
$	t711	26	$	O	O	O	O	O	O	cs76	O	NN0	B-NP	$	$	t712:DEP||t713:DEP	O
90	t712	26	90	O	O	O	O	O	O	cs76	O	CRD	B-ADJP	90	CD	O	O
million	t713	26	million	O	O	O	O	O	O	cs76	O	CRD	I-ADJP	million	CD	O	O
.	t714	26	.	O	O	O	O	O	O	cs76	O	PUN	O	.	.	O	O

Although	t715	27	although	O	O	O	O	O	O	cs76	O	CJS	B-SBAR	although	IN	t724:SUB	O
many	t716	27	many	O	O	O	O	O	O	cs76	O	DT0	B-NP	many	DT	t717:NMOD	O
of	t717	27	of	O	O	O	O	O	O	cs76	O	PRF	B-PP	of	IN	t719:PMOD	O
the	t718	27	the	O	O	O	O	O	O	cs76	O	AT0	B-NP	the	DT	O	O
transactions	t719	27	transaction	O	O	O	O	O	O	cs76	O	NN2	I-NP	transactions	NNS	t718:NMOD||t720:APPO	O
related	t720	27	relate	O	O	O	O	O	O	cs76	O	VVD	B-VP	relate	VBN	t721:AMOD	O
to	t721	27	to	O	O	O	O	O	O	cs76	O	PRP	B-PP	to	TO	t723:PMOD	O
those	t722	27	those	O	O	O	O	O	O	cs76	O	DT0	B-NP	those	DT	O	O
securities	t723	27	security	O	O	O	O	O	O	cs76	O	NN2	I-NP	security	NNS	t722:NMOD	O
have	t724	27	have	O	O	O	O	O	O	cs76	O	VHB	B-VP	have	VBP	t716:SBJ||t725:ADV||t726:VC	O
n't	t725	27	not	O	O	O	O	O	O	cs76	O	XX0	I-VP	not	RB	O	O
been	t726	27	be	O	O	O	O	O	O	cs76	O	VBN	I-VP	be	VBN	t727:VC	O
completed	t727	27	complete	e90	OCCURRENCE	PRESENT+PERFECTIVE+NEG	O	O	O	cs76	O	VVN	I-VP	complete	VBN	O	O
,	t728	27	,	O	O	O	O	O	O	cs76	O	PUN	O	,	,	O	O
Columbia	t729	27	Columbia	O	O	O	O	O	O	cs76	O	NP0	B-NP	columbia	NNP	O	O
said	t730	27	say	e91	REPORTING	PAST+NONE+POS	O	O	O	cs76	O	VVD	B-VP	say	VBD	t715:ADV||t728:P||t729:SBJ||t740:OBJ||t750:P	mainVb
the	t731	27	the	O	O	O	O	O	O	cs76	O	AT0	B-NP	the	DT	O	O
ultimate	t732	27	ultimate	O	O	O	O	O	O	cs76	O	AJ0	I-NP	ultimate	JJ	O	O
gain	t733	27	gain	O	O	O	O	O	O	cs76	O	NN1	I-NP	gain	NN	t731:NMOD||t732:NMOD||t734:NMOD	O
on	t734	27	on	O	O	O	O	O	O	cs76	O	PRP	B-PP	on	IN	t736:PMOD	O
the	t735	27	the	O	O	O	O	O	O	cs76	O	AT0	B-NP	the	DT	O	O
sale	t736	27	sale	e92	OCCURRENCE	NONE+NONE+POS	O	O	O	cs76	O	NN1	I-NP	sale	NN	t735:NMOD||t737:NMOD	O
of	t737	27	of	O	O	O	O	O	O	cs76	O	PRF	B-PP	of	IN	t739:PMOD	O
those	t738	27	those	O	O	O	O	O	O	cs76	O	DT0	B-NP	those	DT	O	O
assets	t739	27	asset	O	O	O	O	O	O	cs76	O	NN2	I-NP	assets	NNS	t738:NMOD	O
will	t740	27	will	O	O	O	O	O	O	cs76	O	VM0	B-VP	will	MD	t733:SBJ||t741:VC	O
range	t741	27	range	e93	STATE	FUTURE+NONE+POS	O	O	O	cs76	O	VVI	I-VP	range	VB	t742:ADV	O
from	t742	27	from	O	O	O	O	O	O	cs76	O	PRP	B-PP	from	IN	t743:PMOD||t746:PMOD	O
$	t743	27	$	O	O	O	O	O	O	cs76	O	ZZ0	B-NP	$	$	t744:DEP||t745:DEP	O
200	t744	27	200	O	O	O	O	O	O	cs76	O	CRD	I-NP	200	CD	O	O
million	t745	27	million	O	O	O	O	O	O	cs76	O	CRD	I-NP	million	CD	O	O
to	t746	27	to	O	O	O	O	O	O	cs76	O	PRP	B-PP	to	TO	t747:PMOD	O
$	t747	27	$	O	O	O	O	O	O	cs76	O	NN0	B-NP	$	$	t748:DEP||t749:DEP	O
300	t748	27	300	O	O	O	O	O	O	cs76	O	CRD	B-NP	300	CD	O	O
million	t749	27	million	O	O	O	O	O	O	cs76	O	CRD	I-NP	million	CD	O	O
.	t750	27	.	O	O	O	O	O	O	cs76	O	PUN	O	.	.	O	O

Columbia	t751	28	Columbia	O	O	O	O	O	O	cs76	O	NP0	B-NP	columbia	NNP	O	O
also	t752	28	also	O	O	O	O	O	O	cs76	O	AV0	B-ADVP	also	RB	O	O
has	t753	28	have	e94	STATE	PRESENT+NONE+POS	O	O	O	cs76	O	VHZ	B-VP	have	VBZ	t751:SBJ||t752:ADV||t755:OBJ||t768:P	mainVb
unrealized	t754	28	unrealized	O	O	O	O	O	O	cs76	O	AJ0	B-NP	unrealized	JJ	O	O
gains	t755	28	gain	O	O	O	O	O	O	cs76	O	NN2	I-NP	gain	NNS	t754:NMOD||t756:LOC||t762:NMOD	O
in	t756	28	in	O	O	O	O	O	O	cs76	O	PRP	B-PP	in	IN	t761:PMOD	O
its	t757	28	its	O	O	O	O	O	O	cs76	O	DPS	B-NP	its	PRP$	O	O
public	t758	28	public	O	O	O	O	O	O	cs76	O	AJ0	I-NP	public	JJ	O	O
equity	t759	28	equity	O	O	O	O	O	O	cs76	O	NN1	I-NP	equity	NN	t758:NMOD	O
securities	t760	28	security	O	O	O	O	O	O	cs76	O	NN2	I-NP	security	NNS	t759:NMOD	O
portfolio	t761	28	portfolio	O	O	O	O	O	O	cs76	O	NN1	I-NP	portfolio	NN	t757:NMOD||t760:NMOD	O
of	t762	28	of	O	O	O	O	O	O	cs76	O	PRF	B-PP	of	IN	t765:PMOD	O
more	t763	28	more	O	O	O	O	O	O	cs76	O	AV0	B-NP	more	RBR	O	O
than	t764	28	than	O	O	O	O	O	O	cs76	O	AV0	I-NP	than	IN	O	O
$	t765	28	$	O	O	O	O	O	O	cs76	O	NN0	I-NP	$	$	t763:DEP||t764:DEP||t766:DEP||t767:DEP	O
70	t766	28	70	O	O	O	O	O	O	cs76	O	CRD	I-NP	70	CD	O	O
million	t767	28	million	O	O	O	O	O	O	cs76	O	CRD	I-NP	million	CD	O	O
.	t768	28	.	O	O	O	O	O	O	cs76	O	PUN	O	.	.	O	O

David	t769	29	David	O	O	O	O	O	O	cs76	O	NP0	B-NP	david	NNP	O	O
B.	t770	29	B.	O	O	O	O	O	O	cs76	O	NP0	I-NP	b.	NNP	O	O
Hilder	t771	29	Hilder	O	O	O	O	O	O	cs76	O	NP0	I-NP	hilder	NNP	t769:NAME||t770:NAME||t772:LOC	O
in	t772	29	in	O	O	O	O	O	O	cs76	O	PRP	B-PP	in	IN	t774:PMOD	O
New	t773	29	New	O	O	O	O	O	O	cs76	O	NP0	B-NP	new	NNP	O	O
York	t774	29	York	O	O	O	O	O	O	cs76	O	NP0	I-NP	york	NNP	t773:NAME	O
contributed	t775	29	contribute	e95	OCCURRENCE	PAST+NONE+POS	O	O	O	cs76	O	VVD	B-VP	contribute	VBD	t771:SBJ||t776:ADV||t779:P	mainVb
to	t776	29	to	O	O	O	O	O	O	cs76	O	PRP	B-PP	to	TO	t778:PMOD	O
this	t777	29	this	O	O	O	O	O	O	cs76	O	DT0	B-NP	this	DT	O	O
article	t778	29	article	O	O	O	O	O	O	cs76	O	NN1	I-NP	article	NN	t777:NMOD	O
.	t779	29	.	O	O	O	O	O	O	cs76	O	PUN	O	.	.	O	O
