DCT_1989-10-26	O	O	O	O	O	O	tmx0	DATE	1989-10-26	O	O	NP0	B-NP	dct_1989-10-26	LS	O	O

Lawrence	t1	1	Lawrence	O	O	O+O+O	O	O	O	O	O	NP0	B-NP	lawrence	NNP	O	O
Insurance	t2	1	Insurance	O	O	O+O+O	O	O	O	O	O	NN1	I-NP	insurance	NNP	O	O
Group	t3	1	Group	O	O	O+O+O	O	O	O	O	O	NN1	I-NP	group	NNP	t1:NAME||t2:NAME||t4:POSTHON	O
Inc.	t4	1	Inc.	O	O	O+O+O	O	O	O	O	O	NN1	I-NP	inc.	NNP	O	O
said	t5	1	say	e1	REPORTING	PAST+NONE+POS	O	O	O	O	O	VVD	B-VP	say	VBD	t3:SBJ||t7:OBJ||t31:P	mainVb
it	t6	1	it	O	O	O	O	O	O	O	O	PNP	B-NP	it	PRP	O	O
acquired	t7	1	acquire	e2	OCCURRENCE	PAST+NONE+POS	O	O	O	O	O	VVD	B-VP	acquire	VBD	t6:SBJ||t10:OBJ||t21:ADV||t27:ADV	O
United	t8	1	United	O	O	O	O	O	O	O	O	NP0	B-NP	united	NNP	O	O
Republic	t9	1	Republic	O	O	O	O	O	O	O	O	NN1	I-NP	republic	NNP	O	O
Reinsurance	t10	1	Reinsurance	O	O	O	O	O	O	O	O	NN1	I-NP	reinsurance	NNP	t8:NAME||t9:NAME||t11:POSTHON||t12:P||t19:APPO||t20:P	O
Co.	t11	1	Co.	O	O	O	O	O	O	O	O	NN1	I-NP	co.	NNP	O	O
,	t12	1	,	O	O	O	O	O	O	O	O	PUN	O	,	,	O	O
a	t13	1	a	O	O	O	O	O	O	O	O	AT0	B-NP	a	DT	O	O
Houston	t14	1	Houston	O	O	O	O	O	O	O	O	NP0	I-NP	houston	NNP	O	O
property	t15	1	property	O	O	O	O	O	O	O	O	NN1	I-NP	property	NN	t16:COORD	O
and	t16	1	and	O	O	O	O	O	O	O	O	CJC	I-NP	and	CC	t17:CONJ	O
casualty	t17	1	casualty	O	O	O	O	O	O	O	O	NN1	I-NP	casualty	NN	O	O
reinsurance	t18	1	reinsurance	O	O	O	O	O	O	O	O	NN1	I-NP	reinsurance	NN	t15:NMOD	O
company	t19	1	company	O	O	O	O	O	O	O	O	NN1	I-NP	company	NN	t13:NMOD||t14:NMOD||t18:NMOD	O
,	t20	1	,	O	O	O	O	O	O	O	O	PUN	O	,	,	O	O
from	t21	1	from	O	O	O	O	O	O	O	O	PRP	B-PP	from	IN	t26:PMOD	O
United	t22	1	United	O	O	O	O	O	O	O	O	NP0	B-NP	united	NNP	O	O
Savings	t23	1	Savings	O	O	O	O	O	O	O	O	NP0	I-NP	savings	NNP	O	O
Association	t24	1	Association	O	O	O	O	O	O	O	O	NN1	I-NP	association	NNP	O	O
of	t25	1	of	O	O	O	O	O	O	O	O	PRF	B-PP	of	IN	O	O
Texas	t26	1	Texas	O	O	O	O	O	O	O	O	NP0	B-NP	texas	NNP	t22:NAME||t23:NAME||t24:NAME||t25:NAME	O
for	t27	1	for	O	O	O	O	O	O	O	O	PRP	B-PP	for	IN	t28:PMOD	O
$	t28	1	$	O	O	O	O	O	O	O	O	ZZ0	B-NP	$	$	t29:DEP||t30:DEP	O
28	t29	1	28	O	O	O	O	O	O	O	O	CRD	I-NP	28	CD	O	O
million	t30	1	million	O	O	O	O	O	O	O	O	CRD	I-NP	million	CD	O	O
.	t31	1	.	O	O	O	O	O	O	O	O	PUN	O	.	.	O	O

Lawrence	t32	2	Lawrence	O	O	O	O	O	O	O	O	NP0	B-NP	lawrence	NNP	O	O
Insurance	t33	2	Insurance	O	O	O	O	O	O	O	O	NN1	I-NP	insurance	NNP	t32:NAME	O
also	t34	2	also	O	O	O	O	O	O	O	O	AV0	B-ADVP	also	RB	O	O
sold	t35	2	sell	e3	OCCURRENCE	PAST+NONE+POS	O	O	O	O	O	VVD	B-VP	sell	VBD	t33:SBJ||t34:ADV||t37:OBJ||t41:ADV||t45:DTV||t52:P	mainVb
3.2	t36	2	3.2	O	O	O	O	O	O	O	O	CRD	B-NP	3.2	CD	O	O
million	t37	2	million	O	O	O	O	O	O	O	O	CRD	I-NP	million	CD	t36:DEP||t38:NMOD	O
of	t38	2	of	O	O	O	O	O	O	O	O	PRF	B-PP	of	IN	t40:PMOD	O
its	t39	2	its	O	O	O	O	O	O	O	O	DPS	B-NP	its	PRP$	O	O
shares	t40	2	share	O	O	O	O	O	O	O	O	NN2	I-NP	share	NNS	t39:NMOD	O
for	t41	2	for	O	O	O	O	O	O	O	O	PRP	B-PP	for	IN	t42:PMOD	O
$	t42	2	$	O	O	O	O	O	O	O	O	CRD	B-NP	$	$	t43:NMOD||t44:ADV	O
7.125	t43	2	7.125	O	O	O	O	O	O	O	O	CRD	I-NP	7.125	CD	O	O
each	t44	2	each	O	O	O	O	O	O	O	O	DT0	B-NP	each	DT	O	O
to	t45	2	to	O	O	O	O	O	O	O	O	PRP	B-PP	to	TO	t47:PMOD	O
its	t46	2	its	O	O	O	O	O	O	O	O	DPS	B-NP	its	PRP$	O	O
parent	t47	2	parent	O	O	O	O	O	O	O	O	NN1	I-NP	parent	NN	t46:NMOD||t48:P||t50:APPO	O
,	t48	2	,	O	O	O	O	O	O	O	O	PUN	O	,	,	O	O
Lawrence	t49	2	Lawrence	O	O	O	O	O	O	O	O	NP0	B-NP	lawrence	NNP	O	O
Group	t50	2	Group	O	O	O	O	O	O	O	O	NN1	I-NP	group	NNP	t49:NAME||t51:POSTHON	O
Inc.	t51	2	Inc.	O	O	O	O	O	O	O	O	NN1	I-NP	inc.	NNP	O	O
.	t52	2	.	O	O	O	O	O	O	O	O	PUN	O	.	.	O	O

Lawrence	t53	3	Lawrence	O	O	O	O	O	O	O	O	NP0	B-NP	lawrence	NNP	O	O
Insurance	t54	3	Insurance	O	O	O	O	O	O	O	O	NN1	I-NP	insurance	NNP	t53:NAME||t55:P||t56:APPO	O
,	t55	3	,	O	O	O	O	O	O	O	O	PUN	O	,	,	O	O
based	t56	3	base	O	O	O	O	O	O	O	O	VVN	B-VP	base	VBN	t57:LOC	O
in	t57	3	in	O	O	O	O	O	O	O	O	PRP	B-PP	in	IN	t60:PMOD	O
Albany	t58	3	Albany	O	O	O	O	O	O	O	O	NP0	B-NP	albany	NNP	O	O
,	t59	3	,	O	O	O	O	O	O	O	O	PUN	O	,	,	O	O
N.Y.	t60	3	N.Y.	O	O	O	O	O	O	O	O	NP0	B-NP	n.y.	NNP	t58:NMOD||t59:P||t61:P	O
,	t61	3	,	O	O	O	O	O	O	O	O	PUN	O	,	,	O	O
plans	t62	3	plan	e4	I_STATE	PRESENT+NONE+POS	O	O	O	O	O	NN2	B-VP	plan	VBZ	t54:SBJ||t63:OPRD||t79:P	mainVb
to	t63	3	to	O	O	O	O	O	O	O	O	TO0	I-VP	to	TO	t64:IM	mainVb
use	t64	3	use	e5	OCCURRENCE	INFINITIVE+NONE+POS	O	O	O	O	O	VVI	I-VP	use	VB	t66:OBJ||t71:OPRD	mainVb
the	t65	3	the	O	O	O	O	O	O	O	O	AT0	B-NP	the	DT	O	O
$	t66	3	$	O	O	O	O	O	O	O	O	CRD	I-NP	$	$	t65:NMOD||t67:DEP||t68:DEP||t69:NMOD	O
22.5	t67	3	22.5	O	O	O	O	O	O	O	O	CRD	I-NP	22.5	CD	O	O
million	t68	3	million	O	O	O	O	O	O	O	O	CRD	I-NP	million	CD	O	O
in	t69	3	in	O	O	O	O	O	O	O	O	PRP	B-PP	in	IN	t70:PMOD	O
proceeds	t70	3	proceeds	O	O	O	O	O	O	O	O	NN2	B-NP	proceeds	NNS	O	O
to	t71	3	to	O	O	O	O	O	O	O	O	TO0	B-VP	to	TO	t72:IM	O
help	t72	3	help	e6	I_ACTION	INFINITIVE+NONE+POS	O	O	O	O	O	VVI	I-VP	help	VB	t73:OPRD	O
finance	t73	3	finance	e7	OCCURRENCE	NONE+NONE+POS	O	O	O	O	O	VVI	I-VP	finance	VB	t75:OBJ	O
the	t74	3	the	O	O	O	O	O	O	O	O	AT0	B-NP	the	DT	O	O
acquisition	t75	3	acquisition	e8	OCCURRENCE	NONE+NONE+POS	O	O	O	O	O	NN1	I-NP	acquisition	NN	t74:NMOD||t76:NMOD	O
of	t76	3	of	O	O	O	O	O	O	O	O	PRF	B-PP	of	IN	t78:PMOD	O
United	t77	3	United	O	O	O	O	O	O	O	O	AJ0	B-NP	united	NNP	O	O
Republic	t78	3	Republic	O	O	O	O	O	O	O	O	NN1	I-NP	republic	NNP	t77:NAME	O
.	t79	3	.	O	O	O	O	O	O	O	O	PUN	O	.	.	O	O

By	t80	4	by	O	O	O	O	O	O	O	O	PRP	B-PP	by	IN	t81:PMOD	O
acquiring	t81	4	acquire	e9	OCCURRENCE	NONE+NONE+POS	O	O	O	O	O	VVG	B-VP	acquire	VBG	t83:OBJ	O
the	t82	4	the	O	O	O	O	O	O	O	O	AT0	B-NP	the	DT	O	O
shares	t83	4	share	O	O	O	O	O	O	O	O	NN2	I-NP	share	NNS	t82:NMOD	O
,	t84	4	,	O	O	O	O	O	O	O	O	PUN	O	,	,	O	O
Lawrence	t85	4	Lawrence	O	O	O	O	O	O	O	O	NP0	B-NP	lawrence	NNP	O	O
Group	t86	4	Group	O	O	O	O	O	O	O	O	NP0	I-NP	group	NNP	t85:NAME	O
increased	t87	4	increase	e10	OCCURRENCE	PAST+NONE+POS	O	O	O	O	O	VVD	B-VP	increase	VBD	t80:MNR||t84:P||t86:SBJ||t89:OBJ||t93:DIR||t96:DIR||t99:P	mainVb
its	t88	4	its	O	O	O	O	O	O	O	O	DPS	B-NP	its	PRP$	O	O
stake	t89	4	stake	O	O	O	O	O	O	O	O	NN1	I-NP	stake	NN	t88:NMOD||t90:LOC	O
in	t90	4	in	O	O	O	O	O	O	O	O	PRP	B-PP	in	IN	t92:PMOD	O
Lawrence	t91	4	Lawrence	O	O	O	O	O	O	O	O	NP0	B-NP	lawrence	NNP	O	O
Insurance	t92	4	Insurance	O	O	O	O	O	O	O	O	NN1	I-NP	insurance	NNP	t91:NAME	O
to	t93	4	to	O	O	O	O	O	O	O	O	PRP	B-PP	to	TO	t95:PMOD	O
93.2	t94	4	93.2	O	O	O	O	O	O	O	O	CRD	B-NP	93.2	CD	O	O
%	t95	4	%	O	O	O	O	O	O	O	O	UNC	I-NP	%	NN	t94:NMOD	O
from	t96	4	from	O	O	O	O	O	O	O	O	PRP	B-PP	from	IN	t98:PMOD	O
91.2	t97	4	91.2	O	O	O	O	O	O	O	O	CRD	B-NP	91.2	CD	O	O
%	t98	4	%	O	O	O	O	O	O	O	O	UNC	I-NP	%	NN	t97:NMOD	O
.	t99	4	.	O	O	O	O	O	O	O	O	PUN	O	.	.	O	O

Lawrence	t100	5	Lawrence	O	O	O	O	O	O	O	O	NP0	B-NP	lawrence	NNP	O	O
Insurance	t101	5	Insurance	O	O	O	O	O	O	O	O	NN1	I-NP	insurance	NNP	t100:NAME	O
underwrites	t102	5	underwrite	e11	OCCURRENCE	PRESENT+NONE+POS	O	O	O	O	O	VVZ	B-VP	underwrite	VBZ	t101:SBJ||t103:ADV||t105:OBJ	O
mostly	t103	5	mostly	O	O	O	O	O	O	O	O	AV0	B-ADJP	mostly	RB	O	O
primary	t104	5	primary	O	O	O	O	O	O	O	O	AJ0	I-ADJP	primary	JJ	O	O
insurance	t105	5	insurance	O	O	O	O	O	O	O	O	NN1	B-NP	insurance	NN	t104:NMOD	O
,	t106	5	,	O	O	O	O	O	O	O	O	PUN	O	,	,	O	O
a	t107	5	a	O	O	O	O	O	O	O	O	AT0	B-NP	a	DT	O	O
company	t108	5	company	O	O	O	O	O	O	O	O	NN1	I-NP	company	NN	O	O
spokesman	t109	5	spokesman	O	O	O	O	O	O	O	O	NN1	I-NP	spokesman	NN	t107:NMOD||t108:NMOD	O
said	t110	5	say	e12	REPORTING	PAST+NONE+POS	O	O	O	O	O	VVD	B-VP	say	VBD	t102:OBJ||t106:P||t109:SBJ||t111:P	mainVb
.	t111	5	.	O	O	O	O	O	O	O	O	PUN	O	.	.	O	O

A	t112	6	a	O	O	O	O	O	O	O	O	AT0	B-NP	a	DT	O	O
reinsurance	t113	6	reinsurance	O	O	O	O	O	O	O	O	NN1	I-NP	reinsurance	NN	O	O
company	t114	6	company	O	O	O	O	O	O	O	O	NN1	I-NP	company	NN	t112:NMOD||t113:NMOD	O
effectively	t115	6	effectively	O	O	O	O	O	O	O	O	AV0	B-ADVP	effectively	RB	O	O
insures	t116	6	insure	O	O	O	O	O	O	O	O	VVZ	B-VP	insure	VBZ	t114:SBJ||t115:ADV||t118:OBJ||t129:P	mainVb
insurance	t117	6	insurance	O	O	O	O	O	O	O	O	NN1	B-NP	insurance	NN	O	O
companies	t118	6	company	O	O	O	O	O	O	O	O	NN2	I-NP	company	NNS	t117:NMOD||t120:NMOD	O
that	t119	6	that	O	O	O	O	O	O	O	O	CJT	B-NP	that	WDT	O	O
wish	t120	6	wish	O	O	O	O	O	O	O	O	VVB	B-VP	wish	VBP	t119:SBJ||t121:OPRD	O
to	t121	6	to	O	O	O	O	O	O	O	O	TO0	I-VP	to	TO	t122:IM	O
spread	t122	6	spread	O	O	O	O	O	O	O	O	VVI	I-VP	spread	VB	t124:OBJ	O
the	t123	6	the	O	O	O	O	O	O	O	O	AT0	B-NP	the	DT	O	O
risk	t124	6	risk	O	O	O	O	O	O	O	O	NN1	I-NP	risk	NN	t123:NMOD||t125:NMOD	O
of	t125	6	of	O	O	O	O	O	O	O	O	PRF	B-PP	of	IN	t128:PMOD	O
a	t126	6	a	O	O	O	O	O	O	O	O	AT0	B-NP	a	DT	O	O
particular	t127	6	particular	O	O	O	O	O	O	O	O	AJ0	I-NP	particular	JJ	O	O
policy	t128	6	policy	O	O	O	O	O	O	O	O	NN1	I-NP	policy	NN	t126:NMOD||t127:NMOD	O
.	t129	6	.	O	O	O	O	O	O	O	O	PUN	O	.	.	O	O

Lawrence	t130	7	Lawrence	O	O	O	O	O	O	O	O	NP0	B-NP	lawrence	NNP	O	O
Group	t131	7	Group	O	O	O	O	O	O	O	O	NN1	I-NP	group	NNP	t130:NAME	O
also	t132	7	also	O	O	O	O	O	O	O	O	AV0	B-ADVP	also	RB	O	O
owns	t133	7	own	e13	OCCURRENCE	PRESENT+NONE+POS	O	O	O	O	O	VVZ	B-VP	own	VBZ	t131:SBJ||t132:ADV||t135:OBJ||t147:P	mainVb
Lawrence	t134	7	Lawrence	O	O	O	O	O	O	O	O	NP0	B-NP	lawrence	NNP	O	O
Agency	t135	7	Agency	O	O	O	O	O	O	O	O	NP0	I-NP	agency	NNP	t134:NAME||t136:POSTHON||t137:P||t140:LOC||t141:P||t144:APPO	O
Corp.	t136	7	Corp.	O	O	O	O	O	O	O	O	NP0	B-NP	corp.	NNP	O	O
,	t137	7	,	O	O	O	O	O	O	O	O	PUN	O	,	,	O	O
Schenectady	t138	7	Schenectady	O	O	O	O	O	O	O	O	NP0	B-NP	schenectady	NNP	O	O
,	t139	7	,	O	O	O	O	O	O	O	O	PUN	O	,	,	O	O
N.Y.	t140	7	N.Y.	O	O	O	O	O	O	O	O	NP0	B-NP	n.y.	NNP	t138:NMOD||t139:P	O
,	t141	7	,	O	O	O	O	O	O	O	O	PUN	O	,	,	O	O
an	t142	7	a	O	O	O	O	O	O	O	O	AT0	B-NP	an	DT	O	O
insurance	t143	7	insurance	O	O	O	O	O	O	O	O	NN1	I-NP	insurance	NN	O	O
agency	t144	7	agency	O	O	O	O	O	O	O	O	NN1	I-NP	agency	NN	t142:NMOD||t143:NMOD||t145:COORD	O
and	t145	7	and	O	O	O	O	O	O	O	O	CJC	I-NP	and	CC	t146:CONJ	O
brokerage	t146	7	brokerage	O	O	O	O	O	O	O	O	NN1	I-NP	brokerage	NN	O	O
.	t147	7	.	O	O	O	O	O	O	O	O	PUN	O	.	.	O	O
