DCT_1989-11-02	O	O	O	O	O	O	tmx0	DATE	1989-11-02	O	O	NP0	B-NP	dct_1989-11-02	LS	O	O

Intelogic	t1	1	Intelogic	O	O	O+O+O	O	O	O	O	O	AJ0	B-NP	intelogic	NNP	O	O
Trace	t2	1	Trace	O	O	O+O+O	O	O	O	O	O	NN1	I-NP	trace	NNP	t1:NAME||t3:POSTHON||t4:P||t8:LOC||t9:P	O
Inc.	t3	1	Inc.	O	O	O+O+O	O	O	O	O	O	NN1	I-NP	inc.	NNP	O	O
,	t4	1	,	O	O	O+O+O	O	O	O	O	O	PUN	O	,	,	O	O
San	t5	1	San	O	O	O+O+O	O	O	O	O	O	NP0	B-NP	san	NNP	O	O
Antonio	t6	1	Antonio	O	O	O+O+O	O	O	O	O	O	NP0	I-NP	antonio	NNP	t5:NAME	O
,	t7	1	,	O	O	O+O+O	O	O	O	O	O	PUN	O	,	,	O	O
Texas	t8	1	Texas	O	O	O+O+O	O	O	O	O	O	NP0	B-NP	texas	NNP	t6:NMOD||t7:P	O
,	t9	1	,	O	O	O+O+O	O	O	O	O	O	PUN	O	,	,	O	O
said	t10	1	say	e1	REPORTING	PAST+NONE+POS	O	O	O	O	O	VVD	B-VP	say	VBD	t2:SBJ||t12:OBJ||t40:P	mainVb
it	t11	1	it	O	O	O	O	O	O	O	O	PNP	B-NP	it	PRP	O	O
bought	t12	1	buy	e2	OCCURRENCE	PAST+NONE+POS	O	O	O	O	O	VVD	B-VP	buy	VBD	t11:SBJ||t15:OBJ||t26:ADV	O
2.7	t13	1	2.7	O	O	O	O	O	O	O	O	CRD	B-NP	2.7	CD	O	O
million	t14	1	million	O	O	O	O	O	O	O	O	CRD	I-NP	million	CD	t13:DEP	O
shares	t15	1	share	O	O	O	O	O	O	O	O	NN2	I-NP	share	NNS	t14:NMOD||t16:P||t17:COORD	O
,	t16	1	,	O	O	O	O	O	O	O	O	PUN	O	,	,	O	O
or	t17	1	or	O	O	O	O	O	O	O	O	CJC	O	or	CC	t20:CONJ	O
about	t18	1	about	O	O	O	O	O	O	O	O	AV0	B-NP	about	IN	O	O
18	t19	1	18	O	O	O	O	O	O	O	O	CRD	I-NP	18	CD	t18:DEP	O
%	t20	1	%	O	O	O	O	O	O	O	O	UNC	I-NP	%	NN	t19:NMOD||t21:P||t22:NMOD	O
,	t21	1	,	O	O	O	O	O	O	O	O	PUN	O	,	,	O	O
of	t22	1	of	O	O	O	O	O	O	O	O	PRF	B-PP	of	IN	t25:PMOD	O
its	t23	1	its	O	O	O	O	O	O	O	O	DPS	B-NP	its	PRP$	O	O
common	t24	1	common	O	O	O	O	O	O	O	O	AJ0	I-NP	common	JJ	O	O
stock	t25	1	stock	O	O	O	O	O	O	O	O	NN1	I-NP	stock	NN	t23:NMOD||t24:NMOD	O
from	t26	1	from	O	O	O	O	O	O	O	O	PRP	B-PP	from	IN	t29:PMOD	O
an	t27	1	a	O	O	O	O	O	O	O	O	AT0	B-NP	an	DT	O	O
unaffiliated	t28	1	unaffiliated	O	O	O	O	O	O	O	O	AJ0	I-NP	unaffiliated	JJ	O	O
shareholder	t29	1	shareholder	O	O	O	O	O	O	O	O	NN1	I-NP	shareholder	NN	t27:NMOD||t28:NMOD||t30:NMOD	O
for	t30	1	for	O	O	O	O	O	O	O	O	PRP	B-PP	for	IN	t31:PMOD	O
$	t31	1	$	O	O	O	O	O	O	O	O	ZZ0	B-NP	$	$	t32:NMOD||t34:ADV||t35:P||t36:COORD	O
3.625	t32	1	3.625	O	O	O	O	O	O	O	O	CRD	I-NP	3.625	CD	O	O
a	t33	1	a	O	O	O	O	O	O	O	O	AT0	B-NP	a	DT	O	O
share	t34	1	share	O	O	O	O	O	O	O	O	NN1	I-NP	share	NN	t33:NMOD	O
,	t35	1	,	O	O	O	O	O	O	O	O	PUN	O	,	,	O	O
or	t36	1	or	O	O	O	O	O	O	O	O	CJC	O	or	CC	t37:CONJ	O
$	t37	1	$	O	O	O	O	O	O	O	O	CRD	B-NP	$	$	t38:DEP||t39:DEP	O
9.9	t38	1	9.9	O	O	O	O	O	O	O	O	CRD	I-NP	9.9	CD	O	O
million	t39	1	million	O	O	O	O	O	O	O	O	CRD	I-NP	million	CD	O	O
.	t40	1	.	O	O	O	O	O	O	O	O	PUN	O	.	.	O	O

The	t41	2	the	O	O	O	O	O	O	O	O	AT0	B-NP	the	DT	O	O
move	t42	2	move	e3	OCCURRENCE	NONE+NONE+POS	O	O	O	O	O	NN1	I-NP	move	NN	t41:NMOD	O
boosts	t43	2	boost	e4	OCCURRENCE	PRESENT+NONE+POS	O	O	O	O	O	NN2	I-NP	boost	VBZ	t42:SBJ||t49:OBJ||t50:DIR||t53:DIR||t56:COORD||t70:P	mainVb
Intelogic	t44	2	Intelogic	O	O	O	O	O	O	O	O	AJ0	I-NP	intelogic	NNP	O	O
Chairman	t45	2	Chairman	O	O	O	O	O	O	O	O	NN1	I-NP	chairman	NN	t44:NMOD||t47:APPO||t48:SUFFIX	O
Asher	t46	2	Asher	O	O	O	O	O	O	O	O	NP0	I-NP	asher	NNP	O	O
Edelman	t47	2	Edelman	O	O	O	O	O	O	O	O	NP0	I-NP	edelman	NNP	t46:NAME	O
's	t48	2	's	O	O	O	O	O	O	O	O	POS	B-NP	's	POS	O	O
stake	t49	2	stake	O	O	O	O	O	O	O	O	NN1	I-NP	stake	NN	t45:NMOD	O
to	t50	2	to	O	O	O	O	O	O	O	O	PRP	B-PP	to	TO	t52:PMOD	O
20	t51	2	20	O	O	O	O	O	O	O	O	CRD	B-NP	20	CD	O	O
%	t52	2	%	O	O	O	O	O	O	O	O	UNC	I-NP	%	NN	t51:NMOD	O
from	t53	2	from	O	O	O	O	O	O	O	O	PRP	B-PP	from	IN	t55:PMOD	O
16.2	t54	2	16.2	O	O	O	O	O	O	O	O	CRD	B-NP	16.2	CD	O	O
%	t55	2	%	O	O	O	O	O	O	O	O	UNC	I-NP	%	NN	t54:NMOD	O
and	t56	2	and	O	O	O	O	O	O	O	O	CJC	O	and	CC	t57:CONJ	O
may	t57	2	may	O	O	O	O	O	O	O	O	VM0	B-VP	may	MD	t58:VC	O
help	t58	2	help	e5	I_ACTION	NONE+NONE+POS	O	O	O	O	O	VVI	I-VP	help	VB	t59:VC	O
prevent	t59	2	prevent	e6	I_ACTION	INFINITIVE+NONE+POS	O	O	O	O	O	VVI	I-VP	prevent	VB	t61:OBJ||t62:ADV	O
Martin	t60	2	Martin	O	O	O	O	O	O	O	O	NP0	B-NP	martin	NNP	O	O
Ackerman	t61	2	Ackerman	O	O	O	O	O	O	O	O	NP0	I-NP	ackerman	NNP	t60:NAME	O
from	t62	2	from	O	O	O	O	O	O	O	O	PRP	B-PP	from	IN	t63:PMOD	O
making	t63	2	make	e7	OCCURRENCE	PRESPART+NONE+POS	O	O	O	O	O	VVG	B-VP	make	VBG	t65:OBJ||t66:LOC	O
a	t64	2	a	O	O	O	O	O	O	O	O	AT0	B-NP	a	DT	O	O
run	t65	2	run	e8	OCCURRENCE	NONE+NONE+POS	O	O	O	O	O	NN1	I-NP	run	NN	t64:NMOD	O
at	t66	2	at	O	O	O	O	O	O	O	O	PRP	B-PP	at	IN	t69:PMOD	O
the	t67	2	the	O	O	O	O	O	O	O	O	AT0	B-NP	the	DT	O	O
computer-services	t68	2	computer-service	O	O	O	O	O	O	O	O	NN2	I-NP	computer-services	NNS	O	O
concern	t69	2	concern	O	O	O	O	O	O	O	O	NN1	I-NP	concern	NN	t67:NMOD||t68:NMOD	O
.	t70	2	.	O	O	O	O	O	O	O	O	PUN	O	.	.	O	O

Mr.	t71	3	Mr.	O	O	O	O	O	O	O	O	NP0	B-NP	mr.	NNP	O	O
Ackerman	t72	3	Ackerman	O	O	O	O	O	O	O	O	NP0	I-NP	ackerman	NNP	t71:TITLE	O
already	t73	3	already	O	O	O	O	O	O	O	O	AV0	B-ADVP	already	RB	O	O
is	t74	3	be	O	O	O	O	O	O	O	O	VBZ	B-VP	be	VBZ	t72:SBJ||t73:TMP||t75:VC||t89:P	mainVb
seeking	t75	3	seek	e9	I_ACTION	PRESENT+PROGRESSIVE+POS	O	O	O	O	O	VVG	I-VP	seek	VBG	t76:OPRD	mainVb
to	t76	3	to	O	O	O	O	O	O	O	O	TO0	I-VP	to	TO	t77:IM	mainVb
oust	t77	3	oust	e10	OCCURRENCE	INFINITIVE+NONE+POS	O	O	O	O	O	VVI	I-VP	oust	VB	t79:OBJ||t80:ADV	mainVb
Mr.	t78	3	Mr.	O	O	O	O	O	O	O	O	NP0	B-NP	mr.	NNP	O	O
Edelman	t79	3	Edelman	O	O	O	O	O	O	O	O	NP0	I-NP	edelman	NNP	t78:TITLE	O
as	t80	3	as	O	O	O	O	O	O	O	O	PRP	B-PP	as	IN	t81:PMOD	O
chairman	t81	3	chairman	O	O	O	O	O	O	O	O	NN1	B-NP	chairman	NN	t82:NMOD	O
of	t82	3	of	O	O	O	O	O	O	O	O	PRF	B-PP	of	IN	t83:PMOD	O
Datapoint	t83	3	Datapoint	O	O	O	O	O	O	O	O	NP0	B-NP	datapoint	NNP	t84:POSTHON||t85:P||t88:APPO	O
Corp.	t84	3	Corp.	O	O	O	O	O	O	O	O	NP0	B-NP	corp.	NNP	O	O
,	t85	3	,	O	O	O	O	O	O	O	O	PUN	O	,	,	O	O
an	t86	3	a	O	O	O	O	O	O	O	O	AT0	B-NP	an	DT	O	O
Intelogic	t87	3	Intelogic	O	O	O	O	O	O	O	O	AJ0	I-NP	intelogic	NNP	O	O
affiliate	t88	3	affiliate	O	O	O	O	O	O	O	O	NN1	I-NP	affiliate	NN	t86:NMOD||t87:NMOD	O
.	t89	3	.	O	O	O	O	O	O	O	O	PUN	O	.	.	O	O

The	t90	4	the	O	O	O	O	O	O	O	O	AT0	B-NP	the	DT	O	O
action	t91	4	action	e11	OCCURRENCE	NONE+NONE+POS	O	O	O	O	O	NN1	I-NP	action	NN	t90:NMOD	O
followed	t92	4	follow	e12	OCCURRENCE	PAST+NONE+POS	O	O	O	O	O	VVN	B-VP	follow	VBD	t91:SBJ||t93:EXT||t123:P	mainVb
by	t93	4	by	O	O	O	O	O	O	O	O	PRP	B-PP	by	IN	t95:PMOD	O
one	t94	4	one	O	O	O	tmx13	DURATION	P1D	O	O	CRD	B-NP	one	CD	O	O
day	t95	4	day	O	O	O	tmx13	DURATION	P1D	O	O	NN1	I-NP	day	NN	t94:NMOD||t98:OBJ	O
an	t96	4	a	O	O	O	O	O	O	O	O	AT0	B-NP	an	DT	O	O
Intelogic	t97	4	Intelogic	O	O	O	O	O	O	O	O	AJ0	I-NP	intelogic	NNP	O	O
announcement	t98	4	announcement	e14	REPORTING	NONE+NONE+POS	O	O	O	O	O	NN1	I-NP	announcement	NN	t96:NMOD||t97:NMOD||t99:NMOD	O
that	t99	4	that	O	O	O	O	O	O	O	O	CJT	B-SBAR	that	IN	t101:SUB	O
it	t100	4	it	O	O	O	O	O	O	O	O	PNP	B-NP	it	PRP	O	O
will	t101	4	will	O	O	O	O	O	O	O	O	VM0	B-VP	will	MD	t100:SBJ||t102:VC	O
retain	t102	4	retain	e15	OCCURRENCE	FUTURE+NONE+POS	O	O	O	O	O	VVI	I-VP	retain	VB	t105:OBJ	O
an	t103	4	a	O	O	O	O	O	O	O	O	AT0	B-NP	an	DT	O	O
investment	t104	4	investment	O	O	O	O	O	O	O	O	NN1	I-NP	investment	NN	O	O
banker	t105	4	banker	O	O	O	O	O	O	O	O	NN1	I-NP	banker	NN	t103:NMOD||t104:NMOD||t106:NMOD	O
to	t106	4	to	O	O	O	O	O	O	O	O	TO0	B-VP	to	TO	t107:IM	O
explore	t107	4	explore	e16	OCCURRENCE	INFINITIVE+NONE+POS	O	O	O	O	O	VVI	I-VP	explore	VB	t108:OBJ	O
alternatives	t108	4	alternative	O	O	O	O	O	O	O	O	NN2	B-NP	alternative	NNS	t109:P||t110:NMOD||t114:P||t115:P||t116:NMOD	O
"	t109	4	"	O	O	O	O	O	O	O	O	PUQ	O	"	:	O	O
to	t110	4	to	O	O	O	O	O	O	O	O	TO0	B-VP	to	TO	t111:IM	O
maximize	t111	4	maximize	e17	OCCURRENCE	INFINITIVE+NONE+POS	O	O	O	O	O	VVI	I-VP	maximize	VB	t113:OBJ	O
shareholder	t112	4	shareholder	O	O	O	O	O	O	O	O	AJC	B-NP	shareholder	NN	O	O
value	t113	4	value	O	O	O	O	O	O	O	O	NN1	I-NP	value	NN	t112:NMOD	O
,	t114	4	,	O	O	O	O	O	O	O	O	PUN	O	,	,	O	O
"	t115	4	"	O	O	O	O	O	O	O	O	PUQ	O	"	:	O	O
including	t116	4	include	O	O	O	O	O	O	O	O	PRP	B-PP	include	VBG	t119:PMOD	O
the	t117	4	the	O	O	O	O	O	O	O	O	AT0	B-NP	the	DT	O	O
possible	t118	4	possible	O	O	O	O	O	O	O	O	AJ0	I-NP	possible	JJ	O	O
sale	t119	4	sale	e18	OCCURRENCE	NONE+NONE+POS	O	O	O	O	O	NN1	I-NP	sale	NN	t117:NMOD||t118:NMOD||t120:NMOD	O
of	t120	4	of	O	O	O	O	O	O	O	O	PRF	B-PP	of	IN	t122:PMOD	O
the	t121	4	the	O	O	O	O	O	O	O	O	AT0	B-NP	the	DT	O	O
company	t122	4	company	O	O	O	O	O	O	O	O	NN1	I-NP	company	NN	t121:NMOD	O
.	t123	4	.	O	O	O	O	O	O	O	O	PUN	O	.	.	O	O

In	t124	5	in	O	O	O	O	O	O	O	O	PRP	B-PP	in	IN	t130:PMOD	O
New	t125	5	New	O	O	O	O	O	O	O	O	NP0	B-NP	new	NNP	O	O
York	t126	5	York	O	O	O	O	O	O	O	O	NP0	I-NP	york	NNP	t125:NAME	O
Stock	t127	5	Stock	O	O	O	O	O	O	O	O	NP0	I-NP	stock	NNP	O	O
Exchange	t128	5	Exchange	O	O	O	O	O	O	O	O	NP0	I-NP	exchange	NNP	t126:NAME||t127:NAME	O
composite	t129	5	composite	O	O	O	O	O	O	O	O	AJ0	I-NP	composite	JJ	O	O
trading	t130	5	trading	O	O	O	O	O	O	O	O	NN1	I-NP	trading	NN	t128:NMOD||t129:NMOD	O
yesterday	t131	5	yesterday	O	O	O	tmx19	DATE	1989-11-01	O	O	AV0	B-NP	yesterday	NN	O	O
,	t132	5	,	O	O	O	O	O	O	O	O	PUN	O	,	,	O	O
Intelogic	t133	5	Intelogic	O	O	O	O	O	O	O	O	AJ0	B-NP	intelogic	NNP	O	O
shares	t134	5	share	O	O	O	O	O	O	O	O	NN2	I-NP	share	NNS	t133:NMOD	O
rose	t135	5	rise	e20	OCCURRENCE	PAST+NONE+POS	O	O	O	O	O	VVD	B-VP	rise	VBD	t124:LOC||t131:TMP||t132:P||t134:SBJ||t137:EXT||t138:OPRD||t143:P	mainVb
37.5	t136	5	37.5	O	O	O	O	O	O	O	O	CRD	B-NP	37.5	CD	O	O
cents	t137	5	cent	O	O	O	O	O	O	O	O	NN2	I-NP	cent	NNS	t136:NMOD	O
to	t138	5	to	O	O	O	O	O	O	O	O	TO0	B-VP	to	TO	t139:IM	O
close	t139	5	close	e21	OCCURRENCE	INFINITIVE+NONE+POS	O	O	O	O	O	VVI	I-VP	close	VB	t140:ADV	O
at	t140	5	at	O	O	O	O	O	O	O	O	PRP	B-PP	at	IN	t141:PMOD	O
$	t141	5	$	O	O	O	O	O	O	O	O	NN0	B-NP	$	$	t142:NMOD	O
2.75	t142	5	2.75	O	O	O	O	O	O	O	O	CRD	I-NP	2.75	CD	O	O
.	t143	5	.	O	O	O	O	O	O	O	O	PUN	O	.	.	O	O

Mr.	t144	6	Mr.	O	O	O	O	O	O	O	O	NP0	B-NP	mr.	NNP	O	O
Edelman	t145	6	Edelman	O	O	O	O	O	O	O	O	NP0	I-NP	edelman	NNP	t144:TITLE	O
declined	t146	6	decline	e22	REPORTING	PAST+NONE+POS	O	O	O	O	O	VVD	B-VP	decline	VBD	t145:SBJ||t147:OPRD||t154:P||t155:ADV||t171:P||t172:P	mainVb
to	t147	6	to	O	O	O	O	O	O	O	O	TO0	I-VP	to	TO	t148:IM	mainVb
specify	t148	6	specify	e23	REPORTING	INFINITIVE+NONE+POS	O	O	O	O	O	VVI	I-VP	specify	VB	t150:OBJ	mainVb
what	t149	6	what	O	O	O	O	O	O	O	O	DTQ	B-NP	what	WP	O	O
prompted	t150	6	prompt	e24	OCCURRENCE	PAST+NONE+POS	O	O	O	O	O	VVD	B-VP	prompt	VBD	t149:SBJ||t153:OBJ	O
the	t151	6	the	O	O	O	O	O	O	O	O	AT0	B-NP	the	DT	O	O
recent	t152	6	recent	O	O	O	O	O	O	O	O	AJ0	I-NP	recent	JJ	O	O
moves	t153	6	move	e25	OCCURRENCE	NONE+NONE+POS	O	O	O	O	O	NN2	I-NP	move	NNS	t151:NMOD||t152:NMOD	O
,	t154	6	,	O	O	O	O	O	O	O	O	PUN	O	,	,	O	O
saying	t155	6	say	e26	REPORTING	PRESPART+NONE+POS	O	O	O	O	O	VVG	B-VP	say	VBG	t157:OBJ	O
they	t156	6	they	O	O	O	O	O	O	O	O	PNP	B-NP	they	PRP	O	O
are	t157	6	be	O	O	O	O	O	O	O	O	VBB	B-VP	be	VBP	t156:SBJ||t158:VC	O
meant	t158	6	mean	e27	I_ACTION	PRESENT+NONE+POS	O	O	O	O	O	VVN	I-VP	mean	VBN	t160:OPRD	O
only	t159	6	only	O	O	O	O	O	O	O	O	AV0	B-ADVP	only	RB	O	O
to	t160	6	to	O	O	O	O	O	O	O	O	TO0	B-VP	to	TO	t159:ADV||t161:IM	O
benefit	t161	6	benefit	e28	OCCURRENCE	INFINITIVE+NONE+POS	O	O	O	O	O	VVI	I-VP	benefit	VB	t162:OBJ||t167:TMP	O
shareholders	t162	6	shareholder	O	O	O	O	O	O	O	O	NN2	B-NP	shareholder	NNS	O	O
when	t163	6	when	O	O	O	O	O	O	O	O	CJS	B-ADVP	when	WRB	O	O
"	t164	6	"	O	O	O	O	O	O	O	O	PUQ	B-VP	"	:	O	O
the	t165	6	the	O	O	O	O	O	O	O	O	AT0	B-NP	the	DT	O	O
company	t166	6	company	O	O	O	O	O	O	O	O	NN1	I-NP	company	NN	t165:NMOD	O
is	t167	6	be	O	O	O	O	O	O	O	O	VBZ	B-VP	be	VBZ	t163:TMP||t164:P||t166:SBJ||t168:PRD	O
on	t168	6	on	e29	STATE	PRESENT+NONE+POS	O	O	O	O	O	PRP	B-PP	on	IN	t170:PMOD	O
a	t169	6	a	O	O	O	O	O	O	O	O	AT0	B-NP	a	DT	O	O
roll	t170	6	roll	O	O	O	O	O	O	O	O	NN1	I-NP	roll	NN	t169:NMOD	O
.	t171	6	.	O	O	O	O	O	O	O	O	PUN	O	.	.	O	O
"	t172	6	"	O	O	O	O	O	O	O	O	PUQ	O	"	''	O	O

He	t173	7	he	O	O	O	O	O	O	O	O	PNP	B-NP	he	PRP	O	O
added	t174	7	add	e30	REPORTING	PAST+NONE+POS	O	O	O	O	O	VVD	B-VP	add	VBD	t173:SBJ||t175:P||t176:P||t178:OBJ||t198:P	mainVb
,	t175	7	,	O	O	O	O	O	O	O	O	PUN	O	,	,	O	O
"	t176	7	"	O	O	O	O	O	O	O	O	PUQ	O	"	``	O	O
This	t177	7	this	O	O	O	O	O	O	O	O	DT0	B-NP	this	DT	O	O
has	t178	7	have	e31	OCCURRENCE	PRESENT+NONE+POS	O	O	O	O	O	VHZ	I-NP	have	VBZ	t177:SBJ||t179:OBJ||t185:COORD	O
nothing	t179	7	nothing	O	O	O	O	O	O	O	O	PNI	I-NP	nothing	NN	t180:NMOD	O
to	t180	7	to	O	O	O	O	O	O	O	O	TO0	B-VP	to	TO	t181:IM	O
do	t181	7	do	O	O	O	O	O	O	O	O	VDI	I-VP	do	VB	t182:ADV	O
with	t182	7	with	O	O	O	O	O	O	O	O	PRP	B-PP	with	IN	t184:PMOD	O
Marty	t183	7	Marty	O	O	O	O	O	O	O	O	NP0	B-NP	marty	NNP	O	O
Ackerman	t184	7	Ackerman	O	O	O	O	O	O	O	O	NP0	I-NP	ackerman	NNP	t183:NAME	O
and	t185	7	and	O	O	O	O	O	O	O	O	CJC	O	and	CC	t187:CONJ	O
it	t186	7	it	O	O	O	O	O	O	O	O	PNP	B-NP	it	PRP	O	O
is	t187	7	be	O	O	O	O	O	O	O	O	VBZ	B-VP	be	VBZ	t186:SBJ||t188:ADV||t189:VC	O
not	t188	7	not	O	O	O	O	O	O	O	O	XX0	I-VP	not	RB	O	O
designed	t189	7	design	e32	I_ACTION	PRESENT+NONE+NEG	O	O	O	O	O	VVN	I-VP	design	VBN	t190:P||t191:ADV||t192:P||t193:OBJ	O
,	t190	7	,	O	O	O	O	O	O	O	O	PUN	O	,	,	O	O
particularly	t191	7	particularly	O	O	O	O	O	O	O	O	AV0	B-ADVP	particularly	RB	O	O
,	t192	7	,	O	O	O	O	O	O	O	O	PUN	O	,	,	O	O
to	t193	7	to	O	O	O	O	O	O	O	O	TO0	B-VP	to	TO	t194:IM	O
take	t194	7	take	e33	OCCURRENCE	INFINITIVE+NONE+POS	O	O	O	O	O	VVI	I-VP	take	VB	t196:OBJ||t197:OPRD	O
the	t195	7	the	O	O	O	O	O	O	O	O	AT0	B-NP	the	DT	O	O
company	t196	7	company	O	O	O	O	O	O	O	O	NN1	I-NP	company	NN	t195:NMOD	O
private	t197	7	private	O	O	O	O	O	O	O	O	NN1	I-NP	private	JJ	t199:OBJ	O
.	t198	7	.	O	O	O	O	O	O	O	O	PUN	O	.	.	O	O
"	t199	7	"	O	O	O	O	O	O	O	O	PUQ	O	"	NN	O	O

But	t200	8	but	O	O	O	O	O	O	O	O	CJC	O	but	CC	O	O
Mr.	t201	8	Mr.	O	O	O	O	O	O	O	O	NP0	B-NP	mr.	NNP	O	O
Ackerman	t202	8	Ackerman	O	O	O	O	O	O	O	O	NP0	I-NP	ackerman	NNP	t201:TITLE	O
said	t203	8	say	e34	REPORTING	PAST+NONE+POS	O	O	O	O	O	VVD	B-VP	say	VBD	t200:DEP||t202:SBJ||t213:OBJ||t220:P	mainVb
the	t204	8	the	O	O	O	O	O	O	O	O	AT0	B-NP	the	DT	O	O
buy-back	t205	8	buy-back	e35	OCCURRENCE	NONE+NONE+POS	O	O	O	O	O	NN1	I-NP	buy-back	NN	t204:NMOD||t206:P||t207:COORD||t212:P	O
,	t206	8	,	O	O	O	O	O	O	O	O	PUN	O	,	,	O	O
and	t207	8	and	O	O	O	O	O	O	O	O	CJC	O	and	CC	t210:CONJ	O
the	t208	8	the	O	O	O	O	O	O	O	O	AT0	B-NP	the	DT	O	O
above-market	t209	8	above-market	O	O	O	O	O	O	O	O	AJ0	I-NP	above-market	JJ	O	O
price	t210	8	price	O	O	O	O	O	O	O	O	NN1	I-NP	price	NN	t208:NMOD||t209:NMOD||t211:APPO	O
paid	t211	8	pay	e36	OCCURRENCE	PAST+NONE+POS	O	O	O	O	O	VVD	B-VP	pay	VBN	O	O
,	t212	8	,	O	O	O	O	O	O	O	O	PUN	O	,	,	O	O
prove	t213	8	prove	e37	I_ACTION	PRESENT+NONE+POS	O	O	O	O	O	VVB	B-VP	prove	VBP	t205:SBJ||t214:OBJ	O
that	t214	8	that	O	O	O	O	O	O	O	O	CJT	B-SBAR	that	IN	t217:SUB	O
Mr.	t215	8	Mr.	O	O	O	O	O	O	O	O	NP0	B-NP	mr.	NNP	O	O
Edelman	t216	8	Edelman	O	O	O	O	O	O	O	O	NP0	I-NP	edelman	NNP	t215:TITLE	O
is	t217	8	be	O	O	O	O	O	O	O	O	VBZ	B-VP	be	VBZ	t216:SBJ||t218:VC	O
running	t218	8	run	e38	I_STATE	PRESENT+PROGRESSIVE+POS	O	O	O	O	O	VVG	I-VP	run	VBG	t219:OPRD	O
scared	t219	8	scared	O	O	O	O	O	O	O	O	AJ0	B-ADJP	scare	VBN	O	O
.	t220	8	.	O	O	O	O	O	O	O	O	PUN	O	.	.	O	O
