DCT_1989-10-30	O	O	O	O	O	O	tmx0	DATE	1989-10-30	O	O	NP0	B-NP	dct_1989-10-30	LS	O	O

Shoney	t1	1	Shoney	O	O	O+O+O	O	O	O	O	O	NP0	B-NP	shoney	NNP	t2:NMOD||t3:POSTHON	O
's	t2	1	's	O	O	O+O+O	O	O	O	O	O	POS	B-NP	's	POS	O	O
Inc.	t3	1	Inc.	O	O	O+O+O	O	O	O	O	O	NN1	I-NP	inc.	NNP	O	O
said	t4	1	say	e1	REPORTING	PAST+NONE+POS	O	O	O	O	O	VVD	B-VP	say	VBD	t1:SBJ||t6:OBJ||t27:P	mainVb
it	t5	1	it	O	O	O	O	O	O	O	O	PNP	B-NP	it	PRP	O	O
will	t6	1	will	O	O	O	O	O	O	O	O	VM0	B-VP	will	MD	t5:SBJ||t7:VC	O
report	t7	1	report	e2	REPORTING	FUTURE+NONE+POS	O	O	O	O	O	VVI	I-VP	report	VB	t9:OBJ||t21:ADV	O
a	t8	1	a	O	O	O	O	O	O	O	O	AT0	B-NP	a	DT	O	O
write-off	t9	1	write-off	O	O	O	O	O	O	O	O	NN1	I-NP	write-off	NN	t8:NMOD||t10:NMOD	O
of	t10	1	of	O	O	O	O	O	O	O	O	PRF	B-PP	of	IN	t11:PMOD	O
$	t11	1	$	O	O	O	O	O	O	O	O	NN0	B-NP	$	$	t12:DEP||t13:DEP||t14:P||t15:COORD||t20:P	O
2.5	t12	1	2.5	O	O	O	O	O	O	O	O	CRD	I-NP	2.5	CD	O	O
million	t13	1	million	O	O	O	O	O	O	O	O	CRD	I-NP	million	CD	O	O
,	t14	1	,	O	O	O	O	O	O	O	O	PUN	O	,	,	O	O
or	t15	1	or	O	O	O	O	O	O	O	O	CJC	O	or	CC	t17:CONJ	O
seven	t16	1	seven	O	O	O	O	O	O	O	O	CRD	B-NP	seven	CD	O	O
cents	t17	1	cent	O	O	O	O	O	O	O	O	NN2	I-NP	cent	NNS	t16:NMOD||t19:ADV	O
a	t18	1	a	O	O	O	O	O	O	O	O	AT0	B-NP	a	DT	O	O
share	t19	1	share	O	O	O	O	O	O	O	O	NN1	I-NP	share	NN	t18:NMOD	O
,	t20	1	,	O	O	O	O	O	O	O	O	PUN	O	,	,	O	O
for	t21	1	for	O	O	O	O	O	O	O	O	PRP	B-PP	for	IN	t25:SUB	O
its	t22	1	its	O	O	O	O	O	O	O	O	DPS	B-NP	its	PRP$	O	O
fourth	t23	1	fourth	O	O	O	tmx3	DATE	1989-Q4	O	O	ORD	I-NP	fourth	JJ	O	O
quarter	t24	1	quarter	O	O	O	tmx3	DATE	1989-Q4	O	O	NN1	I-NP	quarter	NN	t22:NMOD||t23:NMOD	O
ended	t25	1	end	O	O	O	O	O	O	O	O	VVD	B-VP	end	VBD	t24:SBJ||t26:TMP	O
yesterday	t26	1	yesterday	O	O	O	tmx4	DATE	1989-10-29	O	O	AV0	B-NP	yesterday	NN	O	O
.	t27	1	.	O	O	O	O	O	O	O	O	PUN	O	.	.	O	O

The	t28	2	the	O	O	O	O	O	O	O	O	AT0	B-NP	the	DT	O	O
restaurant	t29	2	restaurant	O	O	O	O	O	O	O	O	NN1	I-NP	restaurant	NN	O	O
operator	t30	2	operator	O	O	O	O	O	O	O	O	NN1	I-NP	operator	NN	t28:NMOD||t29:NMOD	O
cited	t31	2	cite	e5	REPORTING	PAST+NONE+POS	O	O	O	O	O	VVD	B-VP	cite	VBD	t30:SBJ||t33:OBJ||t51:P	mainVb
transaction	t32	2	transaction	O	O	O	O	O	O	O	O	NN1	B-NP	transaction	NN	O	O
costs	t33	2	cost	O	O	O	O	O	O	O	O	NN2	I-NP	costs	NNS	t32:NMOD||t34:NMOD||t38:NMOD	O
from	t34	2	from	O	O	O	O	O	O	O	O	PRP	B-PP	from	IN	t37:PMOD	O
its	t35	2	its	O	O	O	O	O	O	O	O	DPS	B-NP	its	PRP$	O	O
1988	t36	2	1988	O	O	O	tmx6	DATE	1988	O	O	CRD	I-NP	1988	CD	O	O
recapitalization	t37	2	recapitalization	e7	OCCURRENCE	NONE+NONE+POS	O	O	O	O	O	NN1	I-NP	recapitalization	NN	t35:NMOD||t36:NMOD	O
as	t38	2	as	O	O	O	O	O	O	cs8	O	PRP	B-PP	as	IN	t40:PMOD	O
a	t39	2	a	O	O	O	O	O	O	cs8	O	AT0	B-NP	a	DT	O	O
result	t40	2	result	O	O	O	O	O	O	cs8	O	NN1	I-NP	result	NN	t39:NMOD||t41:NMOD	O
of	t41	2	of	O	O	O	O	O	O	cs8	O	PRF	B-PP	of	IN	t46:PMOD	O
a	t42	2	a	O	O	O	O	O	O	cs8	O	AT0	B-NP	a	DT	O	O
$	t43	2	$	O	O	O	O	O	O	cs8	O	CRD	I-NP	$	$	t44:DEP||t45:DEP	O
160	t44	2	160	O	O	O	O	O	O	cs8	O	CRD	I-NP	160	CD	O	O
million	t45	2	million	O	O	O	O	O	O	cs8	O	CRD	I-NP	million	CD	O	O
restructuring	t46	2	restructuring	e9	OCCURRENCE	NONE+NONE+POS	O	O	O	cs8	O	VVG	I-NP	restructuring	NN	t42:NMOD||t43:NMOD||t47:NMOD	O
of	t47	2	of	O	O	O	O	O	O	cs8	O	PRF	B-PP	of	IN	t50:PMOD	O
its	t48	2	its	O	O	O	O	O	O	cs8	O	DPS	B-NP	its	PRP$	O	O
bank	t49	2	bank	O	O	O	O	O	O	cs8	O	NN1	I-NP	bank	NN	O	O
debt	t50	2	debt	O	O	O	O	O	O	cs8	O	NN1	I-NP	debt	NN	t48:NMOD||t49:NMOD	O
.	t51	2	.	O	O	O	O	O	O	cs8	O	PUN	O	.	.	O	O

The	t52	3	the	O	O	O	O	O	O	cs8	O	AT0	B-NP	the	DT	O	O
write-off	t53	3	write-off	O	O	O	O	O	O	cs8	O	NN1	I-NP	write-off	NN	t52:NMOD	O
will	t54	3	will	O	O	O	O	O	O	cs8	O	VM0	B-VP	will	MD	t53:SBJ||t55:VC||t68:P	mainVb
be	t55	3	be	O	O	O	O	O	O	cs8	O	VBI	I-VP	be	VB	t56:VC	mainVb
reported	t56	3	report	e10	REPORTING	FUTURE+PERFECTIVE+POS	O	O	O	cs8	O	VVN	I-VP	report	VBN	t57:ADV||t61:LOC	mainVb
as	t57	3	as	O	O	O	O	O	O	cs8	O	PRP	B-PP	as	IN	t60:PMOD	O
an	t58	3	a	O	O	O	O	O	O	cs8	O	AT0	B-NP	an	DT	O	O
extraordinary	t59	3	extraordinary	O	O	O	O	O	O	cs8	O	AJ0	I-NP	extraordinary	JJ	O	O
item	t60	3	item	O	O	O	O	O	O	cs8	O	NN1	I-NP	item	NN	t58:NMOD||t59:NMOD	O
in	t61	3	in	O	O	O	O	O	O	cs8	O	PRP	B-PP	in	IN	t67:PMOD	O
the	t62	3	the	O	O	O	O	O	O	cs8	O	AT0	B-NP	the	DT	O	O
company	t63	3	company	O	O	O	O	O	O	cs8	O	NN1	I-NP	company	NN	t62:NMOD||t64:SUFFIX	O
's	t64	3	's	O	O	O	O	O	O	cs8	O	POS	B-NP	's	POS	O	O
1989	t65	3	1989	O	O	O	tmx11	DATE	1989	cs8	O	CRD	I-NP	1989	CD	O	O
operating	t66	3	operating	O	O	O	O	O	O	cs8	O	AJ0	I-NP	operating	NN	O	O
results	t67	3	result	e12	STATE	NONE+NONE+POS	O	O	O	cs8	O	NN2	I-NP	result	NNS	t63:NMOD||t65:NMOD||t66:NMOD	O
.	t68	3	.	O	O	O	O	O	O	cs8	O	PUN	O	.	.	O	O

In	t69	4	in	O	O	O	O	O	O	cs8	O	PRP	B-PP	in	IN	t70:PMOD	O
addition	t70	4	addition	O	O	O	O	O	O	cs8	O	NN1	B-NP	addition	NN	O	O
,	t71	4	,	O	O	O	O	O	O	cs8	O	PUN	O	,	,	O	O
the	t72	4	the	O	O	O	O	O	O	cs8	O	AT0	B-NP	the	DT	O	O
effective	t73	4	effective	O	O	O	O	O	O	cs8	O	AJ0	I-NP	effective	JJ	O	O
interest	t74	4	interest	O	O	O	O	O	O	cs8	O	NN1	I-NP	interest	NN	O	O
rate	t75	4	rate	O	O	O	O	O	O	cs8	O	NN1	I-NP	rate	NN	t72:NMOD||t73:NMOD||t74:NMOD||t76:NMOD	O
on	t76	4	on	O	O	O	O	O	O	cs8	O	PRP	B-PP	on	IN	t78:PMOD	O
the	t77	4	the	O	O	O	O	O	O	cs8	O	AT0	B-NP	the	DT	O	O
$	t78	4	$	O	O	O	O	O	O	cs8	O	CRD	I-NP	$	$	t77:NMOD||t79:DEP||t80:DEP||t81:NMOD	O
410	t79	4	410	O	O	O	O	O	O	cs8	O	CRD	I-NP	410	CD	O	O
million	t80	4	million	O	O	O	O	O	O	cs8	O	CRD	I-NP	million	CD	O	O
of	t81	4	of	O	O	O	O	O	O	cs8	O	PRF	B-PP	of	IN	t85:PMOD	O
total	t82	4	total	O	O	O	O	O	O	cs8	O	AJ0	B-NP	total	JJ	O	O
remaining	t83	4	remain	O	O	O	O	O	O	cs8	O	AJ0	I-NP	remain	VBG	O	O
bank	t84	4	bank	O	O	O	O	O	O	cs8	O	NN1	I-NP	bank	NN	O	O
debt	t85	4	debt	O	O	O	O	O	O	cs8	O	NN1	I-NP	debt	NN	t82:NMOD||t83:NMOD||t84:NMOD||t86:TMP	O
after	t86	4	after	O	O	O	O	O	O	cs8	O	PRP	B-PP	after	IN	t88:PMOD	O
the	t87	4	the	O	O	O	O	O	O	cs8	O	AT0	B-NP	the	DT	O	O
restructuring	t88	4	restructuring	e13	OCCURRENCE	NONE+NONE+POS	O	O	O	cs8	O	NN1	I-NP	restructuring	NN	t87:NMOD	O
is	t89	4	be	O	O	O	O	O	O	cs8	O	VBZ	B-VP	be	VBZ	t69:ADV||t71:P||t75:SBJ||t91:PRD||t92:P	mainVb
10.66	t90	4	10.66	O	O	O	O	O	O	cs8	O	CRD	B-NP	10.66	CD	O	O
%	t91	4	%	O	O	O	O	O	O	cs8	O	UNC	I-NP	%	NN	t90:NMOD	O
.	t92	4	.	O	O	O	O	O	O	cs8	O	PUN	O	.	.	O	O

The	t93	5	the	O	O	O	O	O	O	cs14	O	AT0	B-NP	the	DT	O	O
combined	t94	5	combined	O	O	O	O	O	O	cs14	O	AJ0	I-NP	combine	VBN	O	O
effect	t95	5	effect	O	O	O	O	O	O	cs14	O	NN1	I-NP	effect	NN	t93:NMOD||t94:NMOD||t96:NMOD	O
of	t96	5	of	O	O	O	O	O	O	cs14	O	PRF	B-PP	of	IN	t98:PMOD	O
these	t97	5	these	O	O	O	O	O	O	cs14	O	DT0	B-NP	these	DT	O	O
changes	t98	5	change	e15	OCCURRENCE	NONE+NONE+POS	O	O	O	cs14	O	NN2	I-NP	change	NNS	t97:NMOD	O
is	t99	5	be	O	O	O	O	O	O	cs14	O	VBZ	B-VP	be	VBZ	t95:SBJ||t100:VC||t120:P	mainVb
expected	t100	5	expect	e16	I_STATE	PRESENT+PERFECTIVE+POS	O	O	O	cs14	O	VVN	I-VP	expect	VBN	t101:OPRD	mainVb
to	t101	5	to	O	O	O	O	O	O	cs14	O	TO0	I-VP	to	TO	t102:IM	mainVb
save	t102	5	save	e17	OCCURRENCE	INFINITIVE+NONE+POS	O	O	O	cs14	O	VVI	I-VP	save	VB	t104:OBJ||t106:OBJ||t113:TMP||t114:P||t117:PRN	mainVb
the	t103	5	the	O	O	O	O	O	O	cs14	O	AT0	B-NP	the	DT	O	O
company	t104	5	company	O	O	O	O	O	O	cs14	O	NN1	I-NP	company	NN	t103:NMOD	O
about	t105	5	about	O	O	O	O	O	O	cs14	O	PRP	B-NP	about	IN	O	O
$	t106	5	$	O	O	O	O	O	O	cs14	O	CRD	I-NP	$	$	t105:DEP||t107:DEP||t108:DEP||t109:NMOD	O
4	t107	5	4	O	O	O	O	O	O	cs14	O	CRD	I-NP	4	CD	O	O
million	t108	5	million	O	O	O	O	O	O	cs14	O	CRD	I-NP	million	CD	O	O
in	t109	5	in	O	O	O	O	O	O	cs14	O	PRP	B-PP	in	IN	t111:PMOD	O
interest	t110	5	interest	O	O	O	O	O	O	cs14	O	NN1	B-NP	interest	NN	O	O
expenses	t111	5	expense	O	O	O	O	O	O	cs14	O	NN2	I-NP	expense	NNS	t110:NMOD	O
next	t112	5	next	O	O	O	tmx18	DATE	1990	cs14	O	ORD	B-NP	next	IN	O	O
year	t113	5	year	O	O	O	tmx18	DATE	1990	cs14	O	NN1	I-NP	year	NN	t112:NMOD	O
,	t114	5	,	O	O	O	O	O	O	cs14	O	PUN	O	,	,	O	O
or	t115	5	or	O	O	O	O	O	O	cs14	O	CJC	O	or	CC	O	O
six	t116	5	six	O	O	O	O	O	O	cs14	O	CRD	B-NP	six	CD	O	O
cents	t117	5	cent	O	O	O	O	O	O	cs14	O	NN2	I-NP	cent	NNS	t115:DEP||t116:NMOD||t119:ADV	O
a	t118	5	a	O	O	O	O	O	O	cs14	O	AT0	B-NP	a	DT	O	O
share	t119	5	share	O	O	O	O	O	O	cs14	O	NN1	I-NP	share	NN	t118:NMOD	O
.	t120	5	.	O	O	O	O	O	O	cs14	O	PUN	O	.	.	O	O

Shoney	t121	6	Shoney	O	O	O	O	O	O	cs14	O	NP0	B-NP	shoney	NNP	t122:SUFFIX	O
's	t122	6	's	O	O	O	O	O	O	cs14	O	VBZ	B-VP	's	POS	O	O
said	t123	6	say	e19	REPORTING	PAST+NONE+POS	O	O	O	cs14	O	VVN	I-VP	say	VBD	t121:SBJ||t127:OBJ||t151:P	mainVb
the	t124	6	the	O	O	O	O	O	O	cs14	O	AT0	B-NP	the	DT	O	O
latest	t125	6	latest	O	O	O	O	O	O	cs14	O	AJS	I-NP	latest	JJS	O	O
restructuring	t126	6	restructuring	e20	OCCURRENCE	NONE+NONE+POS	O	O	O	cs14	O	NN1	I-NP	restructuring	NN	t124:NMOD||t125:NMOD	O
affected	t127	6	affect	O	O	O	O	O	O	cs14	O	VVN	B-VP	affect	VBD	t126:SBJ||t129:OBJ	O
bank	t128	6	bank	O	O	O	O	O	O	cs14	O	NN1	B-NP	bank	NN	O	O
indebtedness	t129	6	indebtedness	e21	STATE	NONE+NONE+POS	O	O	O	cs14	O	NN1	I-NP	indebtedness	NN	t128:NMOD||t131:NMOD	O
that	t130	6	that	O	O	O	O	O	O	cs14	O	CJT	B-NP	that	WDT	O	O
was	t131	6	be	O	O	O	O	O	O	cs14	O	VBD	B-VP	be	VBD	t130:SBJ||t132:VC	O
incurred	t132	6	incur	e22	OCCURRENCE	PAST+NONE+POS	O	O	O	cs14	O	VVN	I-VP	incur	VBN	t133:PRP	O
to	t133	6	to	O	O	O	O	O	O	cs14	O	PRP	B-PP	to	TO	t134:IM	O
finance	t134	6	finance	e23	OCCURRENCE	INFINITIVE+NONE+POS	O	O	O	cs14	O	NN1	B-NP	finance	VB	t135:OBJ	O
$	t135	6	$	O	O	O	O	O	O	cs14	O	CRD	B-NP	$	$	t136:DEP||t137:DEP||t138:NMOD	O
585	t136	6	585	O	O	O	O	O	O	cs14	O	CRD	I-NP	585	CD	O	O
million	t137	6	million	O	O	O	O	O	O	cs14	O	CRD	I-NP	million	CD	O	O
of	t138	6	of	O	O	O	O	O	O	cs14	O	PRF	B-PP	of	IN	t145:PMOD	O
the	t139	6	the	O	O	O	O	O	O	cs14	O	AT0	B-NP	the	DT	O	O
company	t140	6	company	O	O	O	O	O	O	cs14	O	NN1	I-NP	company	NN	t139:NMOD||t141:SUFFIX	O
's	t141	6	's	O	O	O	O	O	O	cs14	O	VBZ	B-VP	's	POS	O	O
$	t142	6	$	O	O	O	O	O	O	cs14	O	CRD	B-NP	$	$	t143:DEP||t144:DEP	O
728	t143	6	728	O	O	O	O	O	O	cs14	O	CRD	I-NP	728	CD	O	O
million	t144	6	million	O	O	O	O	O	O	cs14	O	CRD	I-NP	million	CD	O	O
recapitalization	t145	6	recapitalization	e24	OCCURRENCE	NONE+NONE+POS	O	O	O	cs14	O	NN1	I-NP	recapitalization	NN	t140:NMOD||t142:NMOD||t147:NMOD	O
that	t146	6	that	O	O	O	O	O	O	cs14	O	CJT	B-NP	that	WDT	O	O
took	t147	6	take	e25	OCCURRENCE	PAST+NONE+POS	O	O	O	cs14	O	VVD	B-VP	take	VBD	t146:SBJ||t148:OBJ||t149:TMP	O
place	t148	6	place	O	O	O	O	O	O	cs14	O	NN1	B-NP	place	NN	O	O
in	t149	6	in	O	O	O	O	O	O	cs14	O	PRP	B-PP	in	IN	t150:PMOD	O
1988	t150	6	1988	O	O	O	tmx26	DATE	1988	cs14	O	CRD	B-NP	1988	CD	O	O
.	t151	6	.	O	O	O	O	O	O	cs14	O	PUN	O	.	.	O	O

The	t152	7	the	O	O	O	O	O	O	cs14	O	AT0	B-NP	the	DT	O	O
company	t153	7	company	O	O	O	O	O	O	cs14	O	NN1	I-NP	company	NN	t152:NMOD	O
has	t154	7	have	O	O	O	O	O	O	cs14	O	VHZ	B-VP	have	VBZ	t153:SBJ||t155:VC||t176:P	mainVb
made	t155	7	make	e27	OCCURRENCE	PRESENT+PERFECTIVE+POS	O	O	O	cs14	O	VVN	I-VP	make	VBN	t156:OBJ	mainVb
payments	t156	7	payment	e28	OCCURRENCE	NONE+NONE+POS	O	O	O	cs14	O	NN2	B-NP	payment	NNS	t157:NMOD||t161:NMOD	O
of	t157	7	of	O	O	O	O	O	O	cs14	O	PRF	B-PP	of	IN	t158:PMOD	O
$	t158	7	$	O	O	O	O	O	O	cs14	O	NN0	B-NP	$	$	t159:DEP||t160:DEP	O
175	t159	7	175	O	O	O	O	O	O	cs14	O	CRD	I-NP	175	CD	O	O
million	t160	7	million	O	O	O	O	O	O	cs14	O	CRD	I-NP	million	CD	O	O
against	t161	7	against	O	O	O	O	O	O	cs14	O	PRP	B-PP	against	IN	t164:PMOD	O
the	t162	7	the	O	O	O	O	O	O	cs14	O	AT0	B-NP	the	DT	O	O
original	t163	7	original	O	O	O	O	O	O	cs14	O	AJ0	I-NP	original	JJ	O	O
$	t164	7	$	O	O	O	O	O	O	cs14	O	CRD	I-NP	$	$	t162:NMOD||t163:NMOD||t165:DEP||t166:DEP||t167:NMOD||t170:APPO	O
585	t165	7	585	O	O	O	O	O	O	cs14	O	CRD	I-NP	585	CD	O	O
million	t166	7	million	O	O	O	O	O	O	cs14	O	CRD	I-NP	million	CD	O	O
of	t167	7	of	O	O	O	O	O	O	cs14	O	PRF	B-PP	of	IN	t169:PMOD	O
bank	t168	7	bank	O	O	O	O	O	O	cs14	O	NN1	B-NP	bank	NN	O	O
debt	t169	7	debt	O	O	O	O	O	O	cs14	O	NN1	I-NP	debt	NN	t168:NMOD	O
incurred	t170	7	incur	e29	OCCURRENCE	PASTPART+NONE+POS	O	O	O	cs14	O	VVD	B-VP	incur	VBN	t171:ADV	O
in	t171	7	in	O	O	O	O	O	O	cs14	O	PRP	B-PP	in	IN	t172:PMOD	O
connection	t172	7	connection	O	O	O	O	O	O	cs14	O	PRP	B-NP	connection	NN	t173:NMOD	O
with	t173	7	with	O	O	O	O	O	O	cs14	O	PRP	B-PP	with	IN	t175:PMOD	O
the	t174	7	the	O	O	O	O	O	O	cs14	O	AT0	B-NP	the	DT	O	O
recapitalization	t175	7	recapitalization	O	O	O	O	O	O	cs14	O	NN1	I-NP	recapitalization	NN	t174:NMOD	O
.	t176	7	.	O	O	O	O	O	O	cs14	O	PUN	O	.	.	O	O

These	t177	8	these	O	O	O	O	O	O	cs14	O	DT0	B-NP	these	DT	O	O
payments	t178	8	payment	O	O	O	O	O	O	cs14	O	NN2	I-NP	payment	NNS	t177:NMOD	O
consisted	t179	8	consist	O	O	O	O	O	O	cs14	O	VVD	B-VP	consist	VBD	t178:SBJ||t180:ADV||t210:P	mainVb
of	t180	8	of	O	O	O	O	O	O	cs14	O	PRF	B-PP	of	IN	t181:PMOD	O
$	t181	8	$	O	O	O	O	O	O	cs14	O	NN0	B-NP	$	$	t182:DEP||t183:DEP||t184:NMOD||t187:COORD	O
54	t182	8	54	O	O	O	O	O	O	cs14	O	CRD	I-NP	54	CD	O	O
million	t183	8	million	O	O	O	O	O	O	cs14	O	CRD	I-NP	million	CD	O	O
in	t184	8	in	O	O	O	O	O	O	cs14	O	PRP	B-PP	in	IN	t186:PMOD	O
scheduled	t185	8	schedule	O	O	O	O	O	O	cs14	O	AJ0	B-NP	schedule	VBN	O	O
payments	t186	8	payment	O	O	O	O	O	O	cs14	O	NN2	I-NP	payment	NNS	t185:NMOD	O
and	t187	8	and	O	O	O	O	O	O	cs14	O	CJC	O	and	CC	t188:CONJ	O
$	t188	8	$	O	O	O	O	O	O	cs14	O	CRD	B-NP	$	$	t189:DEP||t190:DEP||t191:NMOD	O
121	t189	8	121	O	O	O	O	O	O	cs14	O	CRD	I-NP	121	CD	O	O
million	t190	8	million	O	O	O	O	O	O	cs14	O	CRD	I-NP	million	CD	O	O
in	t191	8	in	O	O	O	O	O	O	cs14	O	PRP	B-PP	in	IN	t192:PMOD	O
prepayments	t192	8	prepayment	O	O	O	O	O	O	cs14	O	NN2	B-NP	prepayment	NNS	t193:P||t194:APPO||t203:P||t204:NMOD	O
,	t193	8	,	O	O	O	O	O	O	cs14	O	PUN	O	,	,	O	O
funded	t194	8	fund	O	O	O	O	O	O	cs14	O	VVN	B-VP	fund	VBN	t195:LGS	O
by	t195	8	by	O	O	O	O	O	O	cs14	O	PRP	B-PP	by	IN	t196:PMOD	O
$	t196	8	$	O	O	O	O	O	O	cs14	O	CRD	B-NP	$	$	t197:DEP||t198:DEP||t199:NMOD	O
82.8	t197	8	82.8	O	O	O	O	O	O	cs14	O	CRD	I-NP	82.8	CD	O	O
million	t198	8	million	O	O	O	O	O	O	cs14	O	CRD	I-NP	million	CD	O	O
from	t199	8	from	O	O	O	O	O	O	cs14	O	PRP	B-PP	from	IN	t202:PMOD	O
operating	t200	8	operate	O	O	O	O	O	O	cs14	O	VVG	B-NP	operating	NN	O	O
cash	t201	8	cash	O	O	O	O	O	O	cs14	O	NN1	I-NP	cash	NN	O	O
flow	t202	8	flow	O	O	O	O	O	O	cs14	O	NN1	I-NP	flow	NN	t200:NMOD||t201:NMOD	O
,	t203	8	,	O	O	O	O	O	O	cs14	O	PUN	O	,	,	O	O
zero-coupon	t204	8	zero-coupon	O	O	O	O	O	O	cs14	O	NN1	B-NP	zero-coupon	IN	t206:PMOD	O
subordinated	t205	8	subordinated	O	O	O	O	O	O	cs14	O	VVD	I-NP	subordinate	VBN	O	O
debt	t206	8	debt	O	O	O	O	O	O	cs14	O	NN1	I-NP	debt	NN	t205:NMOD||t207:COORD	O
and	t207	8	and	O	O	O	O	O	O	cs14	O	CJC	I-NP	and	CC	t209:CONJ	O
assets	t208	8	asset	O	O	O	O	O	O	cs14	O	NN2	I-NP	assets	NNS	O	O
sales	t209	8	sale	O	O	O	O	O	O	cs14	O	NN0	I-NP	sales	NNS	t208:NMOD	O
.	t210	8	.	O	O	O	O	O	O	cs14	O	PUN	O	.	.	O	O
