DCT_1998-02-13T14:35:00	O	O	O	O	O	O	tmx0	TIME	1998-02-13T14:35:00	O	O	NP0	B-NP	dct_1998-02-13t14:35:00	VBG	O	O

CANBERRA	t1	1	CANBERRA	O	O	O+O+O	O	O	O	O	O	NP0	B-NP	canberra	NNP	O	O
,	t2	1	,	O	O	O+O+O	O	O	O	O	O	PUN	O	,	,	O	O
Australia	t3	1	Australia	O	O	O+O+O	O	O	O	O	O	NP0	B-NP	australia	NNP	O	O
-LRB-	t4	1	-lrb-	O	O	O+O+O	O	O	O	O	O	NP0	I-NP	-lrb-	NNP	O	O
AP	t5	1	AP	O	O	O+O+O	O	O	O	O	O	NP0	I-NP	ap	NNP	O	O
-RRB-	t6	1	-rrb-	O	O	O+O+O	O	O	O	O	O	NN1	I-NP	-rrb-	NNP	O	O
_	t7	1	_	O	O	O+O+O	O	O	O	O	O	UNC	I-NP	_	NNP	O	O
Qantas	t8	1	Qantas	O	O	O+O+O	O	O	O	O	O	NP0	I-NP	qantas	NNP	t3:NAME||t4:NAME||t5:NAME||t6:NAME||t7:NAME	O
will	t9	1	will	O	O	O+O+O	O	O	O	O	O	VM0	B-VP	will	MD	t1:ADV||t2:P||t8:SBJ||t11:VC||t33:P	mainVb
almost	t10	1	almost	O	O	O+O+O	O	O	O	O	O	AV0	I-VP	almost	RB	O	mainVb
double	t11	1	double	e1	OCCURRENCE	FUTURE+NONE+POS	O	O	O	O	O	AJ0	I-VP	double	VB	t10:ADV||t13:OBJ||t18:TMP||t20:TMP	mainVb
its	t12	1	its	O	O	O	O	O	O	O	O	DPS	B-NP	its	PRP$	O	O
flights	t13	1	flight	O	O	O	O	O	O	O	O	NN2	I-NP	flight	NNS	t12:NMOD||t14:NMOD	O
between	t14	1	between	O	O	O	O	O	O	O	O	PRP	B-PP	between	IN	t15:PMOD	O
Australia	t15	1	Australia	O	O	O	O	O	O	O	O	NP0	B-NP	australia	NNP	t16:COORD	O
and	t16	1	and	O	O	O	O	O	O	O	O	CJC	I-NP	and	CC	t17:CONJ	O
India	t17	1	India	O	O	O	O	O	O	O	O	NP0	I-NP	india	NNP	O	O
by	t18	1	by	O	O	O	O	O	O	O	O	PRP	B-PP	by	IN	t19:PMOD	O
August	t19	1	August	O	O	O	tmx2	DATE	1998-08	O	O	NP0	B-NP	august	NNP	O	O
in	t20	1	in	O	O	O	O	O	O	O	O	PRP	B-PP	in	IN	t22:PMOD	O
the	t21	1	the	O	O	O	O	O	O	O	O	AT0	B-NP	the	DT	O	O
search	t22	1	search	e3	OCCURRENCE	NONE+NONE+POS	O	O	O	O	O	NN1	I-NP	search	NN	t21:NMOD||t23:NMOD	O
for	t23	1	for	O	O	O	O	O	O	O	O	PRP	B-PP	for	IN	t25:PMOD	O
new	t24	1	new	O	O	O	O	O	O	O	O	AJ0	B-NP	new	JJ	O	O
markets	t25	1	market	O	O	O	O	O	O	O	O	NN2	I-NP	market	NNS	t24:NMOD||t26:APPO	O
untouched	t26	1	untouch	O	O	O	O	O	O	O	O	AJ0	B-ADJP	untouched	VBN	t27:LGS	O
by	t27	1	by	O	O	O	O	O	O	O	O	PRP	B-PP	by	IN	t32:PMOD	O
the	t28	1	the	O	O	O	O	O	O	O	O	AT0	B-NP	the	DT	O	O
crippling	t29	1	crippling	O	O	O	O	O	O	O	O	AJ0	I-NP	cripple	VBG	O	O
Asian	t30	1	asian	O	O	O	O	O	O	O	O	AJ0	I-NP	asian	JJ	O	O
financial	t31	1	financial	O	O	O	O	O	O	O	O	AJ0	I-NP	financial	JJ	O	O
crisis	t32	1	crisis	e4	OCCURRENCE	NONE+NONE+POS	O	O	O	O	O	NN1	I-NP	crisis	NN	t28:NMOD||t29:NMOD||t30:NMOD||t31:NMOD	O
.	t33	1	.	O	O	O	O	O	O	O	O	PUN	O	.	.	O	O

This	t34	2	this	O	O	O	O	O	O	O	O	DT0	B-NP	this	DT	O	O
move	t35	2	move	e5	OCCURRENCE	NONE+NONE+POS	O	O	O	O	O	NN1	I-NP	move	NN	t34:NMOD	O
comes	t36	2	come	O	O	O	O	O	O	O	O	VVZ	B-VP	come	VBZ	t35:SBJ||t37:ADV||t40:TMP||t63:P	mainVb
barely	t37	2	barely	O	O	O	O	O	O	O	O	AV0	B-NP	barely	RB	O	O
a	t38	2	a	O	O	O	tmx6	DURATION	P1M	O	O	AT0	I-NP	a	DT	O	O
month	t39	2	month	O	O	O	tmx6	DURATION	P1M	O	O	NN1	I-NP	month	NN	t38:NMOD	O
after	t40	2	after	O	O	O	O	O	O	O	O	CJS	B-SBAR	after	IN	t39:PMOD||t42:SUB	O
Qantas	t41	2	Qantas	O	O	O	O	O	O	O	O	NP0	B-NP	qantas	NNS	O	O
suspended	t42	2	suspend	e7	ASPECTUAL	PAST+NONE+POS	O	O	O	O	O	VVD	B-VP	suspend	VBD	t41:SBJ||t44:OBJ	O
a	t43	2	a	O	O	O	O	O	O	O	O	AT0	B-NP	a	DT	O	O
number	t44	2	number	O	O	O	O	O	O	O	O	NN1	I-NP	number	NN	t43:NMOD||t45:NMOD||t55:LOC	O
of	t45	2	of	O	O	O	O	O	O	O	O	PRF	B-PP	of	IN	t46:PMOD	O
services	t46	2	service	O	O	O	O	O	O	O	O	NN2	B-NP	services	NNS	t47:NMOD	O
between	t47	2	between	O	O	O	O	O	O	O	O	PRP	B-PP	between	IN	t48:PMOD	O
Australia	t48	2	Australia	O	O	O	O	O	O	O	O	NP0	B-NP	australia	NNP	t49:P||t50:COORD	O
,	t49	2	,	O	O	O	O	O	O	O	O	PUN	O	,	,	O	O
Indonesia	t50	2	Indonesia	O	O	O	O	O	O	O	O	NP0	B-NP	indonesia	NNP	t51:P||t52:COORD	O
,	t51	2	,	O	O	O	O	O	O	O	O	PUN	O	,	,	O	O
Thailand	t52	2	Thailand	O	O	O	O	O	O	O	O	NP0	B-NP	thailand	NNP	t53:COORD	O
and	t53	2	and	O	O	O	O	O	O	O	O	CJC	I-NP	and	CC	t54:CONJ	O
Malaysia	t54	2	Malaysia	O	O	O	O	O	O	O	O	NP0	I-NP	malaysia	NNP	O	O
in	t55	2	in	O	O	O	O	O	O	O	O	PRP	B-PP	in	IN	t57:PMOD	O
the	t56	2	the	O	O	O	O	O	O	O	O	AT0	B-NP	the	DT	O	O
wake	t57	2	wake	O	O	O	O	O	O	O	O	NN1	I-NP	wake	NN	t56:NMOD||t58:NMOD	O
of	t58	2	of	O	O	O	O	O	O	O	O	PRF	B-PP	of	IN	t62:PMOD	O
the	t59	2	the	O	O	O	O	O	O	O	O	AT0	B-NP	the	DT	O	O
Asian	t60	2	asian	O	O	O	O	O	O	O	O	AJ0	I-NP	asian	JJ	O	O
economic	t61	2	economic	O	O	O	O	O	O	O	O	AJ0	I-NP	economic	JJ	O	O
crisis	t62	2	crisis	e8	OCCURRENCE	NONE+NONE+POS	O	O	O	O	O	NN1	I-NP	crisis	NN	t59:NMOD||t60:NMOD||t61:NMOD	O
.	t63	2	.	O	O	O	O	O	O	O	O	PUN	O	.	.	O	O

The	t64	3	the	O	O	O	O	O	O	O	O	AT0	B-NP	the	DT	O	O
airline	t65	3	airline	O	O	O	O	O	O	O	O	NN1	I-NP	airline	NN	t64:NMOD	O
has	t66	3	have	O	O	O	O	O	O	O	O	VHZ	I-NP	have	VBZ	t65:SBJ||t67:ADV||t68:VC||t74:P	mainVb
also	t67	3	also	O	O	O	O	O	O	O	O	AV0	B-ADVP	also	RB	O	O
cut	t68	3	cut	e9	ASPECTUAL	PRESENT+PERFECTIVE+POS	O	O	O	O	O	VVN	B-VP	cut	VBN	t70:OBJ	O
all	t69	3	all	O	O	O	O	O	O	O	O	DT0	B-NP	all	DT	O	O
flights	t70	3	flight	O	O	O	O	O	O	O	O	NN2	I-NP	flight	NNS	t69:NMOD||t71:NMOD	O
to	t71	3	to	O	O	O	O	O	O	O	O	PRP	B-PP	to	TO	t73:PMOD	O
South	t72	3	South	O	O	O	O	O	O	O	O	NN1	B-NP	south	NNP	O	O
Korea	t73	3	Korea	O	O	O	O	O	O	O	O	NP0	I-NP	korea	NNP	t72:NAME	O
.	t74	3	.	O	O	O	O	O	O	O	O	PUN	O	.	.	O	O

Qantas	t75	4	Qantas	O	O	O	O	O	O	O	O	NP0	B-NP	qantas	NNP	O	O
plans	t76	4	plan	e10	I_ACTION	PRESENT+NONE+POS	O	O	O	O	O	VVZ	B-VP	plan	VBZ	t75:SBJ||t78:OBJ||t83:P||t84:ADV||t93:OPRD	O
daily	t77	4	daily	O	O	O	O	O	O	O	O	AJ0	B-NP	daily	JJ	O	O
flights	t78	4	flight	O	O	O	O	O	O	O	O	NN2	I-NP	flight	NNS	t77:NMOD||t79:NMOD	O
between	t79	4	between	O	O	O	O	O	O	O	O	PRP	B-PP	between	IN	t80:PMOD	O
Sydney	t80	4	Sydney	O	O	O	O	O	O	O	O	NP0	B-NP	sydney	NNP	t81:COORD	O
and	t81	4	and	O	O	O	O	O	O	O	O	CJC	I-NP	and	CC	t82:CONJ	O
Bombay	t82	4	Bombay	O	O	O	O	O	O	O	O	NP0	I-NP	bombay	NNP	O	O
,	t83	4	,	O	O	O	O	O	O	O	O	PUN	O	,	,	O	O
up	t84	4	up	O	O	O	O	O	O	O	O	AVP	B-ADVP	up	RB	t85:AMOD	O
from	t85	4	from	O	O	O	O	O	O	O	O	PRP	B-PP	from	IN	t89:PMOD	O
the	t86	4	the	O	O	O	O	O	O	O	O	AT0	B-NP	the	DT	O	O
current	t87	4	current	O	O	O	tmx11	DATE	PRESENT_REF	O	O	AJ0	I-NP	current	JJ	O	O
four	t88	4	four	O	O	O	O	O	O	O	O	CRD	I-NP	four	CD	O	O
flights	t89	4	flight	O	O	O	O	O	O	O	O	NN2	I-NP	flight	NNS	t86:NMOD||t87:NMOD||t88:NMOD||t91:ADV||t92:P	O
a	t90	4	a	O	O	O	O	O	O	O	O	AT0	B-NP	a	DT	O	O
week	t91	4	week	O	O	O	O	O	O	O	O	NN1	I-NP	week	NN	t90:NMOD	O
,	t92	4	,	O	O	O	O	O	O	O	O	PUN	O	,	,	O	O
to	t93	4	to	O	O	O	O	O	O	O	O	TO0	B-VP	to	TO	t94:IM	O
boost	t94	4	boost	e12	I_ACTION	INFINITIVE+NONE+POS	O	O	O	O	O	VVI	I-VP	boost	VB	t98:OBJ	O
business	t95	4	business	O	O	O	O	O	O	O	O	NN1	B-NP	business	NN	t96:COORD	O
and	t96	4	and	O	O	O	O	O	O	O	O	CJC	I-NP	and	CC	t97:CONJ	O
tourism	t97	4	tourism	O	O	O	O	O	O	O	O	NN1	I-NP	tourism	NN	O	O
ties	t98	4	tie	O	O	O	O	O	O	O	O	VVZ	B-VP	tie	NNS	t95:NMOD||t99:NMOD	O
with	t99	4	with	O	O	O	O	O	O	O	O	PRP	B-PP	with	IN	t100:PMOD	O
India	t100	4	India	O	O	O	O	O	O	O	O	NP0	B-NP	india	NNP	O	O
,	t101	4	,	O	O	O	O	O	O	O	O	PUN	O	,	,	O	O
the	t102	4	the	O	O	O	O	O	O	O	O	AT0	B-NP	the	DT	O	O
airline	t103	4	airline	O	O	O	O	O	O	O	O	NN1	I-NP	airline	NN	t102:NMOD	O
announced	t104	4	announce	e13	REPORTING	PAST+NONE+POS	O	O	O	O	O	VVD	B-VP	announce	VBD	t76:OBJ||t101:P||t103:SBJ||t105:TMP||t106:P	mainVb
Friday	t105	4	Friday	O	O	O	tmx14	DATE	1998-02-13	O	O	NP0	B-NP	friday	NNP	O	O
.	t106	4	.	O	O	O	O	O	O	O	O	PUN	O	.	.	O	O

In	t107	5	in	O	O	O	O	O	O	O	O	PRP	B-PP	in	IN	t110:PMOD	O
a	t108	5	a	O	O	O	O	O	O	O	O	AT0	B-NP	a	DT	O	O
joint	t109	5	joint	O	O	O	O	O	O	O	O	AJ0	I-NP	joint	JJ	O	O
statement	t110	5	statement	O	O	O	O	O	O	O	O	NN1	I-NP	statement	NN	t108:NMOD||t109:NMOD||t111:NMOD	O
with	t111	5	with	O	O	O	O	O	O	O	O	PRP	B-PP	with	IN	t115:PMOD	O
Tourism	t112	5	Tourism	O	O	O	O	O	O	O	O	NN1	B-NP	tourism	NNP	O	O
Minister	t113	5	Minister	O	O	O	O	O	O	O	O	NN1	I-NP	minister	NNP	O	O
Andrew	t114	5	Andrew	O	O	O	O	O	O	O	O	NP0	I-NP	andrew	NNP	O	O
Thomson	t115	5	Thomson	O	O	O	O	O	O	O	O	NP0	I-NP	thomson	NNP	t112:NAME||t113:NAME||t114:NAME	O
,	t116	5	,	O	O	O	O	O	O	O	O	PUN	O	,	,	O	O
it	t117	5	it	O	O	O	O	O	O	O	O	PNP	B-NP	it	PRP	O	O
said	t118	5	say	e15	REPORTING	PAST+NONE+POS	O	O	O	O	O	VVD	B-VP	say	VBD	t107:LOC||t116:P||t117:SBJ||t122:OBJ||t143:P	mainVb
two	t119	5	two	O	O	O	O	O	O	O	O	CRD	B-NP	two	CD	O	O
new	t120	5	new	O	O	O	O	O	O	O	O	AJ0	I-NP	new	JJ	O	O
flights	t121	5	flight	O	O	O	O	O	O	O	O	NN2	I-NP	flight	NNS	t119:NMOD||t120:NMOD	O
would	t122	5	would	O	O	O	O	O	O	O	O	VM0	B-VP	would	MD	t121:SBJ||t123:VC	O
leave	t123	5	leave	e16	OCCURRENCE	NONE+NONE+POS	O	O	O	O	O	VVI	I-VP	leave	VB	t124:OBJ||t125:LOC||t130:TMP||t133:P||t134:ADV	O
Bombay	t124	5	Bombay	O	O	O	O	O	O	O	O	NP0	B-NP	bombay	NNP	O	O
on	t125	5	on	O	O	O	O	O	O	O	O	PRP	B-PP	on	IN	t129:PMOD	O
Monday	t126	5	Monday	O	O	O	tmx17	SET	XXXX-WXX-1TNI	O	O	NP0	B-NP	monday	NNP	t127:COORD	O
and	t127	5	and	O	O	O	O	O	O	O	O	CJC	I-NP	and	CC	t128:CONJ	O
Tuesday	t128	5	Tuesday	O	O	O	tmx18	SET	XXXX-WXX-2TNI	O	O	NP0	I-NP	tuesday	NNP	O	O
nights	t129	5	night	O	O	O	tmx18	SET	XXXX-WXX-2TNI	O	O	NN2	I-NP	night	NNS	t126:NMOD	O
from	t130	5	from	O	O	O	O	O	O	O	O	PRP	B-PP	from	IN	t132:PMOD	O
March	t131	5	March	O	O	O	tmx19	DATE	1998-03-30	O	O	NP0	B-NP	march	NNP	O	O
30	t132	5	30	O	O	O	tmx19	DATE	1998-03-30	O	O	CRD	I-NP	30	CD	t131:NMOD	O
,	t133	5	,	O	O	O	O	O	O	O	O	PUN	O	,	,	O	O
with	t134	5	with	O	O	O	O	O	O	O	O	PRP	B-PP	with	IN	t137:PMOD	O
the	t135	5	the	O	O	O	O	O	O	O	O	AT0	B-NP	the	DT	O	O
third	t136	5	third	O	O	O	O	O	O	O	O	ORD	I-NP	third	JJ	O	O
departing	t137	5	depart	e20	OCCURRENCE	PRESPART+NONE+POS	O	O	O	O	O	VVG	I-NP	depart	VBG	t135:NMOD||t136:NMOD||t139:TMP||t140:ADV	O
each	t138	5	each	O	O	O	tmx21	SET	XXXX-WXX-4	O	O	DT0	B-NP	each	DT	O	O
Thursday	t139	5	Thursday	O	O	O	tmx21	SET	XXXX-WXX-4	O	O	NP0	I-NP	thursday	NNP	t138:NMOD	O
from	t140	5	from	O	O	O	O	O	O	O	O	PRP	B-PP	from	IN	t142:PMOD	O
August	t141	5	August	O	O	O	tmx22	DATE	1998-08-06	O	O	NP0	B-NP	august	NNP	O	O
6	t142	5	6	O	O	O	tmx22	DATE	1998-08-06	O	O	CRD	I-NP	6	CD	t141:NMOD	O
.	t143	5	.	O	O	O	O	O	O	O	O	PUN	O	.	.	O	O

This	t144	6	this	O	O	O	O	O	O	O	O	DT0	B-NP	this	DT	O	O
will	t145	6	will	O	O	O	O	O	O	O	O	VM0	B-VP	will	MD	t144:SBJ||t146:VC||t155:P	mainVb
add	t146	6	add	e23	OCCURRENCE	FUTURE+NONE+POS	O	O	O	O	O	VVI	I-VP	add	VB	t149:OBJ	mainVb
nearly	t147	6	nearly	O	O	O	O	O	O	O	O	AV0	B-NP	nearly	CD	O	O
700	t148	6	700	O	O	O	O	O	O	O	O	CRD	I-NP	700	CD	t147:DEP	O
seats	t149	6	seat	O	O	O	O	O	O	O	O	NN2	I-NP	seats	NNS	t148:NMOD||t151:ADV||t152:LOC	O
a	t150	6	a	O	O	O	O	O	O	O	O	AT0	B-NP	a	DT	O	O
week	t151	6	week	O	O	O	O	O	O	O	O	NN1	I-NP	week	NN	t150:NMOD	O
on	t152	6	on	O	O	O	O	O	O	O	O	PRP	B-PP	on	IN	t154:PMOD	O
the	t153	6	the	O	O	O	O	O	O	O	O	AT0	B-NP	the	DT	O	O
route	t154	6	route	O	O	O	O	O	O	O	O	NN1	I-NP	route	NN	t153:NMOD	O
.	t155	6	.	O	O	O	O	O	O	O	O	PUN	O	.	.	O	O

Thomson	t156	7	Thomson	O	O	O	O	O	O	O	O	NP0	B-NP	thomson	NNP	t157:P||t158:LOC||t160:PRP||t165:P	O
,	t157	7	,	O	O	O	O	O	O	O	O	PUN	O	,	,	O	O
in	t158	7	in	O	O	O	O	O	O	O	O	PRP	B-PP	in	IN	t159:PMOD	O
India	t159	7	India	O	O	O	O	O	O	O	O	NP0	B-NP	india	NNP	O	O
to	t160	7	to	O	O	O	O	O	O	O	O	TO0	B-VP	to	TO	t161:IM	O
talk	t161	7	talk	e24	OCCURRENCE	INFINITIVE+NONE+POS	O	O	O	O	O	VVI	I-VP	talk	VB	t162:ADV	O
to	t162	7	to	O	O	O	O	O	O	O	O	PRP	B-PP	to	TO	t164:PMOD	O
tourism	t163	7	tourism	O	O	O	O	O	O	O	O	NN1	B-NP	tourism	NN	O	O
leaders	t164	7	leader	O	O	O	O	O	O	O	O	NN2	I-NP	leaders	NNS	t163:NMOD	O
,	t165	7	,	O	O	O	O	O	O	O	O	PUN	O	,	,	O	O
said	t166	7	say	e25	REPORTING	PAST+NONE+POS	O	O	O	O	O	VVD	B-VP	say	VBD	t156:SBJ||t169:OBJ||t178:P	mainVb
the	t167	7	the	O	O	O	O	O	O	O	O	AT0	B-NP	the	DT	O	O
flights	t168	7	flight	e26	OCCURRENCE	NONE+NONE+POS	O	O	O	O	O	NN2	I-NP	flight	NNS	t167:NMOD	O
would	t169	7	would	O	O	O	O	O	O	O	O	VM0	B-VP	would	MD	t168:SBJ||t170:VC	O
provide	t170	7	provide	e27	I_STATE	NONE+NONE+POS	O	O	O	O	O	VVI	I-VP	provide	VB	t172:OBJ||t173:ADV	O
extra	t171	7	extra	O	O	O	O	O	O	O	O	AJ0	B-NP	extra	JJ	O	O
support	t172	7	support	e28	OCCURRENCE	NONE+NONE+POS	O	O	O	O	O	NN1	I-NP	support	NN	t171:NMOD	O
to	t173	7	to	O	O	O	O	O	O	O	O	PRP	B-PP	to	TO	t177:PMOD	O
the	t174	7	the	O	O	O	O	O	O	O	O	AT0	B-NP	the	DT	O	O
growing	t175	7	grow	O	O	O	O	O	O	O	O	AJ0	I-NP	grow	VBG	O	O
tourism	t176	7	tourism	O	O	O	O	O	O	O	O	NN1	I-NP	tourism	NN	O	O
market	t177	7	market	O	O	O	O	O	O	O	O	NN1	I-NP	market	NN	t174:NMOD||t175:NMOD||t176:NMOD	O
.	t178	7	.	O	O	O	O	O	O	O	O	PUN	O	.	.	O	O

Qantas	t179	8	Qantas	O	O	O	O	O	O	O	O	NP0	B-NP	qantas	NNP	t180:SUFFIX	O
'	t180	8	'	O	O	O	O	O	O	O	O	PUQ	B-NP	'	POS	O	O
India	t181	8	India	O	O	O	O	O	O	O	O	NP0	I-NP	india	NNP	O	O
manager	t182	8	manager	O	O	O	O	O	O	O	O	NN1	I-NP	manager	NN	t179:NMOD||t181:NMOD||t184:APPO	O
Khursheed	t183	8	Khursheed	O	O	O	O	O	O	O	O	NP0	I-NP	khursheed	NNP	O	O
Lam	t184	8	Lam	O	O	O	O	O	O	O	O	NP0	I-NP	lam	NNP	t183:NAME	O
said	t185	8	say	e29	REPORTING	PAST+NONE+POS	O	O	O	O	O	VVD	B-VP	say	VBD	t182:SBJ||t188:OBJ||t206:P	mainVb
the	t186	8	the	O	O	O	O	O	O	O	O	AT0	B-NP	the	DT	O	O
airline	t187	8	airline	O	O	O	O	O	O	O	O	NN1	I-NP	airline	NN	t186:NMOD	O
was	t188	8	be	O	O	O	O	O	O	O	O	VBD	B-VP	be	VBD	t187:SBJ||t189:VC	O
working	t189	8	work	e30	OCCURRENCE	PAST+PROGRESSIVE+POS	O	O	O	O	O	VVG	I-VP	work	VBG	t190:MNR||t191:ADV||t196:PRP	O
closely	t190	8	closely	O	O	O	O	O	O	O	O	AV0	B-ADVP	closely	RB	O	O
with	t191	8	with	O	O	O	O	O	O	O	O	PRP	B-PP	with	IN	t195:PMOD	O
the	t192	8	the	O	O	O	O	O	O	O	O	AT0	B-NP	the	DT	O	O
Australian	t193	8	australian	O	O	O	O	O	O	O	O	AJ0	I-NP	australian	NNP	O	O
Tourist	t194	8	Tourist	O	O	O	O	O	O	O	O	NN1	I-NP	tourist	NNP	O	O
Commission	t195	8	Commission	O	O	O	O	O	O	O	O	NN1	I-NP	commission	NNP	t192:NMOD||t193:NAME||t194:NAME	O
to	t196	8	to	O	O	O	O	O	O	O	O	TO0	B-VP	to	TO	t197:IM	O
develop	t197	8	develop	e31	I_ACTION	INFINITIVE+NONE+POS	O	O	O	O	O	VVI	I-VP	develop	VB	t199:OBJ	O
greater	t198	8	greater	O	O	O	O	O	O	O	O	AJC	B-NP	greater	JJR	O	O
awareness	t199	8	awareness	O	O	O	O	O	O	O	O	NN1	I-NP	awareness	NN	t198:NMOD||t200:NMOD||t202:LOC	O
of	t200	8	of	O	O	O	O	O	O	O	O	PRF	B-PP	of	IN	t201:PMOD	O
Australia	t201	8	Australia	O	O	O	O	O	O	O	O	NP0	B-NP	australia	NNP	O	O
in	t202	8	in	O	O	O	O	O	O	O	O	PRP	B-PP	in	IN	t205:PMOD	O
the	t203	8	the	O	O	O	O	O	O	O	O	AT0	B-NP	the	DT	O	O
Indian	t204	8	indian	O	O	O	O	O	O	O	O	AJ0	I-NP	indian	JJ	O	O
market	t205	8	market	O	O	O	O	O	O	O	O	NN1	I-NP	market	NN	t203:NMOD||t204:NMOD	O
.	t206	8	.	O	O	O	O	O	O	O	O	PUN	O	.	.	O	O

Qantas	t207	9	Qantas	O	O	O	O	O	O	O	O	NP0	B-NP	qantas	NNS	O	O
will	t208	9	will	O	O	O	O	O	O	O	O	VM0	B-VP	will	MD	t207:SBJ||t209:ADV||t210:VC||t216:P	mainVb
also	t209	9	also	O	O	O	O	O	O	O	O	AV0	I-VP	also	RB	O	mainVb
appoint	t210	9	appoint	e32	OCCURRENCE	FUTURE+NONE+POS	O	O	O	O	O	VVI	I-VP	appoint	VB	t215:OBJ	mainVb
a	t211	9	a	O	O	O	O	O	O	O	O	AT0	B-NP	a	DT	O	O
Bombay-based	t212	9	bombay-based	O	O	O	O	O	O	O	O	AJ0	I-NP	bombay-base	VBN	O	O
public	t213	9	public	O	O	O	O	O	O	O	O	AJ0	I-NP	public	JJ	O	O
relations	t214	9	relation	O	O	O	O	O	O	O	O	NN2	I-NP	relations	NNS	t213:NMOD	O
consultant	t215	9	consultant	O	O	O	O	O	O	O	O	AJ0	B-ADJP	consultant	NN	t211:NMOD||t212:NMOD||t214:NMOD	O
.	t216	9	.	O	O	O	O	O	O	O	O	PUN	O	.	.	O	O
