DCT_1998-02-06T22:19:00	O	O	O	O	O	O	tmx0	TIME	1998-02-06T22:19:00	O	O	NP0	B-NP	dct_1998-02-06t22:19:00	VBG	O	O

WASHINGTON	t1	1	WASHINGTON	O	O	O+O+O	O	O	O	O	O	NP0	B-NP	washington	NNP	O	O
_	t2	1	_	O	O	O+O+O	O	O	O	O	O	UNC	B-VP	_	:	O	O
The	t3	1	the	O	O	O+O+O	O	O	O	O	O	AT0	B-NP	the	DT	O	O
economy	t4	1	economy	O	O	O+O+O	O	O	O	O	O	NN1	I-NP	economy	NN	t3:NMOD	O
created	t5	1	create	e1	OCCURRENCE	PAST+NONE+POS	O	O	O	O	O	VVD	B-VP	create	VBD	t2:P||t4:SBJ||t6:OBJ||t7:MNR||t12:TMP	O
jobs	t6	1	job	O	O	O	O	O	O	O	O	NN2	B-NP	job	NNS	O	O
at	t7	1	at	O	O	O	O	O	O	O	O	PRP	B-PP	at	IN	t11:PMOD	O
a	t8	1	a	O	O	O	O	O	O	O	O	AT0	B-NP	a	DT	O	O
surprisingly	t9	1	surprisingly	O	O	O	O	O	O	O	O	AV0	I-NP	surprisingly	RB	O	O
robust	t10	1	robust	O	O	O	O	O	O	O	O	AJ0	I-NP	robust	JJ	t9:AMOD	O
pace	t11	1	pace	O	O	O	O	O	O	O	O	NN1	I-NP	pace	NN	t8:NMOD||t10:NMOD	O
in	t12	1	in	O	O	O	O	O	O	O	O	PRP	B-PP	in	IN	t13:PMOD	O
January	t13	1	January	O	O	O	tmx2	DATE	1998-01	O	O	NP0	B-NP	january	NNP	O	O
,	t14	1	,	O	O	O	O	O	O	O	O	PUN	O	,	,	O	O
the	t15	1	the	O	O	O	O	O	O	O	O	AT0	B-NP	the	DT	O	O
government	t16	1	government	O	O	O	O	O	O	O	O	NN1	I-NP	government	NN	t15:NMOD	O
reported	t17	1	report	e3	REPORTING	PAST+NONE+POS	O	O	O	O	O	VVD	B-VP	report	VBD	t1:SBJ||t5:OBJ||t14:P||t16:SBJ||t18:TMP||t40:P	mainVb
on	t18	1	on	O	O	O	O	O	O	O	O	PRP	B-PP	on	IN	t19:PMOD	O
Friday	t19	1	Friday	O	O	O	tmx4	DATE	1998-02-06	O	O	NP0	B-NP	friday	NNP	t20:P||t21:APPO	O
,	t20	1	,	O	O	O	O	O	O	O	O	PUN	O	,	,	O	O
evidence	t21	1	evidence	O	O	O	O	O	O	O	O	NN1	B-NP	evidence	NN	t22:NMOD	O
that	t22	1	that	O	O	O	O	O	O	O	O	CJT	B-SBAR	that	IN	t27:SUB	O
America	t23	1	America	O	O	O	O	O	O	O	O	NP0	B-NP	america	NNP	t24:SUFFIX	O
's	t24	1	's	O	O	O	O	O	O	O	O	POS	B-NP	's	POS	O	O
economic	t25	1	economic	O	O	O	O	O	O	O	O	AJ0	I-NP	economic	JJ	O	O
stamina	t26	1	stamina	O	O	O	O	O	O	O	O	NN1	I-NP	stamina	NN	t23:NMOD||t25:NMOD	O
has	t27	1	have	O	O	O	O	O	O	O	O	VHZ	B-VP	have	VBZ	t26:SBJ||t28:VC	O
withstood	t28	1	withstand	e5	OCCURRENCE	PRESENT+PERFECTIVE+POS	O	O	O	O	O	VVN	I-VP	withstand	VBN	t30:OBJ	O
any	t29	1	any	O	O	O	O	O	O	O	O	DT0	B-NP	any	DT	O	O
disruptions	t30	1	disruption	e6	OCCURRENCE	NONE+NONE+POS	O	O	O	O	O	NN2	I-NP	disruption	NNS	t29:NMOD||t31:APPO	O
caused	t31	1	cause	e7	OCCURRENCE	PAST+NONE+POS	O	O	O	O	O	VVN	B-VP	cause	VBN	t32:TMP||t34:LGS	O
so	t32	1	so	O	O	O	O	O	O	O	O	AV0	B-ADVP	so	RB	t33:AMOD	O
far	t33	1	far	O	O	O	O	O	O	O	O	AV0	I-ADVP	far	RB	O	O
by	t34	1	by	O	O	O	O	O	O	O	O	PRP	B-PP	by	IN	t37:PMOD	O
the	t35	1	the	O	O	O	O	O	O	O	O	AT0	B-NP	the	DT	O	O
financial	t36	1	financial	O	O	O	O	O	O	O	O	AJ0	I-NP	financial	JJ	O	O
tumult	t37	1	tumult	e8	OCCURRENCE	NONE+NONE+POS	O	O	O	O	O	NN1	I-NP	tumult	NN	t35:NMOD||t36:NMOD||t38:LOC	O
in	t38	1	in	O	O	O	O	O	O	O	O	PRP	B-PP	in	IN	t39:PMOD	O
Asia	t39	1	Asia	O	O	O	O	O	O	O	O	NP0	B-NP	asia	NNP	O	O
.	t40	1	.	O	O	O	O	O	O	O	O	PUN	O	.	.	O	O

The	t41	2	the	O	O	O	O	O	O	O	O	AT0	B-NP	the	DT	O	O
Bureau	t42	2	Bureau	O	O	O	O	O	O	O	O	NN1	I-NP	bureau	NNP	O	O
of	t43	2	of	O	O	O	O	O	O	O	O	PRF	B-PP	of	IN	O	O
Labor	t44	2	Labor	O	O	O	O	O	O	O	O	AJ0	B-NP	labor	NNP	O	O
Statistics	t45	2	Statistics	O	O	O	O	O	O	O	O	NN0	I-NP	statistics	NNP	t41:NAME||t42:NAME||t43:NAME||t44:NAME	O
said	t46	2	say	e9	REPORTING	PAST+NONE+POS	O	O	O	O	O	VVD	B-VP	say	VBD	t45:SBJ||t49:OBJ||t62:P	mainVb
the	t47	2	the	O	O	O	O	O	O	O	O	AT0	B-NP	the	DT	O	O
economy	t48	2	economy	O	O	O	O	O	O	O	O	NN1	I-NP	economy	NN	t47:NMOD	O
added	t49	2	add	e10	OCCURRENCE	PAST+NONE+POS	O	O	O	O	O	VVD	B-VP	add	VBD	t48:SBJ||t51:OBJ||t53:TMP||t54:P||t56:ADV	O
358,000	t50	2	358,000	O	O	O	O	O	O	O	O	CRD	B-NP	358,000	CD	O	O
jobs	t51	2	job	O	O	O	O	O	O	O	O	NN2	I-NP	job	NNS	t50:NMOD	O
last	t52	2	last	O	O	O	tmx11	DATE	1998-01	O	O	ORD	B-NP	last	JJ	O	O
month	t53	2	month	O	O	O	tmx11	DATE	1998-01	O	O	NN1	I-NP	month	NN	t52:NMOD	O
,	t54	2	,	O	O	O	O	O	O	O	O	PUN	O	,	,	O	O
far	t55	2	far	O	O	O	O	O	O	O	O	AV0	B-ADVP	far	RB	O	O
above	t56	2	above	O	O	O	O	O	O	O	O	PRP	B-PP	above	IN	t55:PMOD||t58:PMOD	O
the	t57	2	the	O	O	O	O	O	O	O	O	AT0	B-NP	the	DT	O	O
235,000	t58	2	235,000	O	O	O	O	O	O	O	O	CRD	I-NP	235,000	NN	t57:NMOD||t59:APPO	O
forecast	t59	2	forecast	e12	OCCURRENCE	NONE+NONE+POS	O	O	O	O	O	NN1	I-NP	forecast	VBN	t60:LGS	O
by	t60	2	by	O	O	O	O	O	O	O	O	PRP	B-PP	by	IN	t61:PMOD	O
economists	t61	2	economist	O	O	O	O	O	O	O	O	NN2	B-NP	economist	NNS	O	O
.	t62	2	.	O	O	O	O	O	O	O	O	PUN	O	.	.	O	O

It	t63	3	it	O	O	O	O	O	O	O	O	PNP	B-NP	it	PRP	O	O
was	t64	3	be	O	O	O	O	O	O	O	O	VBD	B-VP	be	VBD	t63:SBJ||t68:PRD||t76:P	mainVb
the	t65	3	the	O	O	O	O	O	O	O	O	AT0	B-NP	the	DT	O	O
third	t66	3	third	O	O	O	O	O	O	O	O	ORD	I-NP	third	JJ	O	O
consecutive	t67	3	consecutive	O	O	O	O	O	O	O	O	AJ0	I-NP	consecutive	JJ	O	O
month	t68	3	month	O	O	O	O	O	O	O	O	NN1	I-NP	month	NN	t65:NMOD||t66:NMOD||t67:NMOD||t69:NMOD	O
that	t69	3	that	O	O	O	O	O	O	O	O	CJT	B-NP	that	IN	t72:SUB	O
job	t70	3	job	O	O	O	O	O	O	O	O	NN1	B-NP	job	NN	O	O
generation	t71	3	generation	O	O	O	O	O	O	O	O	NN1	I-NP	generation	NN	t70:NMOD	O
has	t72	3	have	O	O	O	O	O	O	O	O	VHZ	B-VP	have	VBZ	t71:SBJ||t73:VC	O
been	t73	3	be	O	O	O	O	O	O	O	O	VBN	I-VP	be	VBN	t75:PRD	O
exceptionally	t74	3	exceptionally	O	O	O	O	O	O	O	O	AV0	B-ADJP	exceptionally	RB	O	O
strong	t75	3	strong	O	O	O	O	O	O	O	O	AJ0	I-ADJP	strong	JJ	t74:AMOD	O
.	t76	3	.	O	O	O	O	O	O	O	O	PUN	O	.	.	O	O

With	t77	4	with	O	O	O	O	O	O	O	O	PRP	B-PP	with	IN	t82:PMOD	O
growing	t78	4	grow	O	O	O	O	O	O	O	O	AJ0	B-NP	grow	VBG	O	O
opportunities	t79	4	opportunity	O	O	O	O	O	O	O	O	NN2	I-NP	opportunity	NNS	t78:NMOD||t80:NMOD	O
for	t80	4	for	O	O	O	O	O	O	O	O	PRP	B-PP	for	IN	t81:PMOD	O
work	t81	4	work	O	O	O	O	O	O	O	O	NN1	B-NP	work	NN	O	O
drawing	t82	4	draw	e13	OCCURRENCE	PRESPART+NONE+POS	O	O	O	O	O	VVG	B-VP	draw	VBG	t79:SBJ||t84:OBJ||t85:ADV	O
more	t83	4	more	O	O	O	O	O	O	O	O	DT0	B-NP	more	DT	O	O
people	t84	4	people	O	O	O	O	O	O	O	O	NN0	I-NP	people	NN	t83:NMOD	O
into	t85	4	into	O	O	O	O	O	O	O	O	PRP	B-PP	into	IN	t88:PMOD	O
the	t86	4	the	O	O	O	O	O	O	O	O	AT0	B-NP	the	DT	O	O
labor	t87	4	labor	O	O	O	O	O	O	O	O	NN1	I-NP	labor	NN	O	O
force	t88	4	force	O	O	O	O	O	O	O	O	NN1	I-NP	force	NN	t86:NMOD||t87:NMOD	O
,	t89	4	,	O	O	O	O	O	O	O	O	PUN	O	,	,	O	O
the	t90	4	the	O	O	O	O	O	O	O	O	AT0	B-NP	the	DT	O	O
unemployment	t91	4	unemployment	O	O	O	O	O	O	O	O	NN1	I-NP	unemployment	NN	O	O
rate	t92	4	rate	O	O	O	O	O	O	O	O	NN1	I-NP	rate	NN	t90:NMOD||t91:NMOD	O
remained	t93	4	remain	e14	STATE	PAST+NONE+POS	O	O	O	O	O	VVD	B-VP	remain	VBD	t77:ADV||t89:P||t92:SBJ||t94:LOC-PRD||t98:TMP||t99:P||t102:ADV||t107:P	mainVb
at	t94	4	at	O	O	O	O	O	O	O	O	PRP	B-PP	at	IN	t96:PMOD	O
4.7	t95	4	4.7	O	O	O	O	O	O	O	O	CRD	B-NP	4.7	CD	O	O
percent	t96	4	percent	O	O	O	O	O	O	O	O	NN0	I-NP	percent	NN	t95:NMOD	O
last	t97	4	last	O	O	O	tmx15	DATE	1998-01	O	O	ORD	B-NP	last	JJ	O	O
month	t98	4	month	O	O	O	tmx15	DATE	1998-01	O	O	NN1	I-NP	month	NN	t97:NMOD	O
,	t99	4	,	O	O	O	O	O	O	O	O	PUN	O	,	,	O	O
just	t100	4	just	O	O	O	O	O	O	O	O	AV0	B-NP	just	RB	O	O
a	t101	4	a	O	O	O	O	O	O	O	O	AT0	I-NP	a	DT	O	O
notch	t102	4	notch	O	O	O	O	O	O	O	O	NN1	I-NP	notch	NN	t100:NMOD||t101:NMOD||t103:NMOD	O
above	t103	4	above	O	O	O	O	O	O	O	O	PRP	B-PP	above	IN	t106:PMOD	O
its	t104	4	its	O	O	O	O	O	O	O	O	DPS	B-NP	its	PRP$	O	O
quarter-century	t105	4	quarter-century	O	O	O	O	O	O	O	O	NN1	I-NP	quarter-century	NN	O	O
low	t106	4	low	O	O	O	O	O	O	O	O	AJ0	I-NP	low	JJ	t104:NMOD||t105:NMOD	O
.	t107	4	.	O	O	O	O	O	O	O	O	PUN	O	.	.	O	O

The	t108	5	the	O	O	O	O	O	O	O	O	AT0	B-NP	the	DT	O	O
demand	t109	5	demand	e16	OCCURRENCE	NONE+NONE+POS	O	O	O	O	O	NN1	I-NP	demand	NN	t108:NMOD||t110:NMOD	O
for	t110	5	for	O	O	O	O	O	O	O	O	PRP	B-PP	for	IN	t111:PMOD	O
workers	t111	5	worker	O	O	O	O	O	O	O	O	NN2	B-NP	worker	NNS	O	O
also	t112	5	also	O	O	O	O	O	O	O	O	AV0	B-ADVP	also	RB	O	O
led	t113	5	lead	e17	OCCURRENCE	PAST+NONE+POS	O	O	O	O	O	VVD	B-VP	lead	VBD	t109:SBJ||t112:ADV||t114:OBJ||t115:OPRD||t120:TMP||t121:P	mainVb
employers	t114	5	employer	O	O	O	O	O	O	O	O	NN2	B-NP	employer	NNS	O	O
to	t115	5	to	O	O	O	O	O	O	O	O	TO0	B-VP	to	TO	t116:IM	O
raise	t116	5	raise	e18	OCCURRENCE	INFINITIVE+NONE+POS	O	O	O	O	O	VVI	I-VP	raise	VB	t117:OBJ||t118:TMP	O
wages	t117	5	wages	O	O	O	O	O	O	O	O	NN2	B-NP	wages	NNS	O	O
again	t118	5	again	O	O	O	O	O	O	O	O	AV0	B-ADVP	again	RB	O	O
last	t119	5	last	O	O	O	tmx19	DATE	1998-01	O	O	ORD	B-NP	last	JJ	O	O
month	t120	5	month	O	O	O	tmx19	DATE	1998-01	O	O	NN1	I-NP	month	NN	t119:NMOD	O
.	t121	5	.	O	O	O	O	O	O	O	O	PUN	O	.	.	O	O

Average	t122	6	average	O	O	O	O	O	O	O	O	NP0	B-NP	average	JJ	O	O
hourly	t123	6	hourly	O	O	O	tmx20	SET	PT1H	O	O	AV0	I-NP	hourly	JJ	O	O
earnings	t124	6	earnings	O	O	O	O	O	O	O	O	NN2	I-NP	earnings	NNS	t122:NMOD||t123:NMOD||t125:NMOD	O
of	t125	6	of	O	O	O	O	O	O	O	O	PRF	B-PP	of	IN	t129:PMOD	O
production	t126	6	production	O	O	O	O	O	O	O	O	NN1	B-NP	production	NN	t127:COORD	O
and	t127	6	and	O	O	O	O	O	O	O	O	CJC	O	and	CC	t128:CONJ	O
nonsupervisory	t128	6	nonsupervisory	O	O	O	O	O	O	O	O	AJ0	B-NP	nonsupervisory	JJ	O	O
employees	t129	6	employee	O	O	O	O	O	O	O	O	NN2	I-NP	employee	NNS	t126:NMOD	O
rose	t130	6	rise	e21	OCCURRENCE	PAST+NONE+POS	O	O	O	O	O	VVD	B-VP	rise	VBD	t124:SBJ||t132:EXT||t133:P||t134:DIR||t137:P	mainVb
4	t131	6	4	O	O	O	O	O	O	O	O	CRD	B-NP	4	CD	O	O
cents	t132	6	cent	O	O	O	O	O	O	O	O	NN2	I-NP	cent	NNS	t131:NMOD	O
,	t133	6	,	O	O	O	O	O	O	O	O	PUN	O	,	,	O	O
to	t134	6	to	O	O	O	O	O	O	O	O	PRP	B-PP	to	TO	t135:PMOD	O
$	t135	6	$	O	O	O	O	O	O	O	O	CRD	B-NP	$	$	t136:NMOD	O
12.51	t136	6	12.51	O	O	O	O	O	O	O	O	CRD	I-NP	12.51	CD	O	O
.	t137	6	.	O	O	O	O	O	O	O	O	PUN	O	.	.	O	O

The	t138	7	the	O	O	O	O	O	O	O	O	AT0	B-NP	the	DT	O	O
gain	t139	7	gain	O	O	O	O	O	O	O	O	NN1	I-NP	gain	NN	t138:NMOD	O
left	t140	7	leave	e22	OCCURRENCE	PAST+NONE+POS	O	O	O	O	O	VVD	B-VP	leave	VBD	t139:SBJ||t141:OBJ||t149:P||t150:ADV||t172:P	mainVb
wages	t141	7	wages	O	O	O	O	O	O	O	O	NN2	B-NP	wages	NNS	t144:APPO	O
3.8	t142	7	3.8	O	O	O	O	O	O	O	O	CRD	I-NP	3.8	CD	O	O
percent	t143	7	percent	O	O	O	O	O	O	O	O	NN0	I-NP	percent	NN	t142:NMOD	O
higher	t144	7	higher	O	O	O	O	O	O	O	O	AJC	B-ADJP	higher	JJR	t143:AMOD||t145:AMOD	O
than	t145	7	than	O	O	O	O	O	O	O	O	CJS	B-PP	than	IN	t148:TMP	O
a	t146	7	a	O	O	O	tmx23	DATE	1997	O	O	AT0	B-NP	a	DT	O	O
year	t147	7	year	O	O	O	tmx23	DATE	1997	O	O	NN1	I-NP	year	NN	t146:NMOD	O
earlier	t148	7	earlier	O	O	O	tmx23	DATE	1997	O	O	AV0	B-ADVP	earlier	RBR	t147:AMOD	O
,	t149	7	,	O	O	O	O	O	O	O	O	PUN	O	,	,	O	O
extending	t150	7	extend	e24	ASPECTUAL	PRESPART+NONE+POS	O	O	O	O	O	VVG	B-VP	extend	VBG	t152:OBJ	O
a	t151	7	a	O	O	O	O	O	O	O	O	AT0	B-NP	a	DT	O	O
trend	t152	7	trend	e25	OCCURRENCE	NONE+NONE+POS	O	O	O	O	O	NN1	I-NP	trend	NN	t151:NMOD||t154:NMOD	O
that	t153	7	that	O	O	O	O	O	O	O	O	CJT	B-NP	that	WDT	O	O
has	t154	7	have	O	O	O	O	O	O	O	O	VHZ	B-VP	have	VBZ	t153:SBJ||t155:VC	O
given	t155	7	give	e26	OCCURRENCE	PRESENT+PERFECTIVE+POS	O	O	O	O	O	VVN	I-VP	give	VBN	t156:ADV||t159:OBJ	O
back	t156	7	back	O	O	O	O	O	O	O	O	AVP	B-ADVP	back	RB	t157:AMOD	O
to	t157	7	to	O	O	O	O	O	O	O	O	PRP	B-PP	to	TO	t158:PMOD	O
workers	t158	7	worker	O	O	O	O	O	O	O	O	NN2	B-NP	worker	NNS	O	O
some	t159	7	some	O	O	O	O	O	O	O	O	DT0	B-NP	some	DT	t160:NMOD	O
of	t160	7	of	O	O	O	O	O	O	O	O	PRF	B-PP	of	IN	t163:PMOD	O
the	t161	7	the	O	O	O	O	O	O	O	O	AT0	B-NP	the	DT	O	O
earning	t162	7	earn	O	O	O	O	O	O	O	O	AJ0	I-NP	earn	VBG	O	O
power	t163	7	power	O	O	O	O	O	O	O	O	NN1	I-NP	power	NN	t161:NMOD||t162:NMOD||t165:NMOD	O
they	t164	7	they	O	O	O	O	O	O	O	O	PNP	B-NP	they	PRP	O	O
lost	t165	7	lose	e27	OCCURRENCE	PAST+NONE+POS	O	O	O	O	O	VVD	B-VP	lose	VBD	t164:SBJ||t166:ADV||t168:TMP	O
to	t166	7	to	O	O	O	O	O	O	O	O	PRP	B-PP	to	TO	t167:PMOD	O
inflation	t167	7	inflation	O	O	O	O	O	O	O	O	NN1	B-NP	inflation	NN	O	O
in	t168	7	in	O	O	O	O	O	O	O	O	PRP	B-PP	in	IN	t171:PMOD	O
the	t169	7	the	O	O	O	tmx28	DATE	198	O	O	AT0	B-NP	the	DT	O	O
last	t170	7	last	O	O	O	tmx28	DATE	198	O	O	ORD	I-NP	last	JJ	O	O
decade	t171	7	decade	O	O	O	tmx28	DATE	198	O	O	NN1	I-NP	decade	NN	t169:NMOD||t170:NMOD	O
.	t172	7	.	O	O	O	O	O	O	O	O	PUN	O	.	.	O	O

But	t173	8	but	O	O	O	O	O	O	O	O	CJC	O	but	CC	O	O
economists	t174	8	economist	O	O	O	O	O	O	O	O	NN2	B-NP	economist	NNS	O	O
said	t175	8	say	e29	REPORTING	PAST+NONE+POS	O	O	O	O	O	VVD	B-VP	say	VBD	t173:DEP||t174:SBJ||t179:OBJ||t189:P	mainVb
the	t176	8	the	O	O	O	O	O	O	O	O	AT0	B-NP	the	DT	O	O
wage	t177	8	wage	O	O	O	O	O	O	O	O	NN1	I-NP	wage	NN	O	O
increase	t178	8	increase	e30	OCCURRENCE	NONE+NONE+POS	O	O	O	O	O	NN1	I-NP	increase	NN	t176:NMOD||t177:NMOD	O
was	t179	8	be	O	O	O	O	O	O	O	O	VBD	B-VP	be	VBD	t178:SBJ||t180:ADV||t181:PRD	O
not	t180	8	not	O	O	O	O	O	O	O	O	XX0	O	not	RB	O	O
enough	t181	8	enough	O	O	O	O	O	O	O	O	AV0	B-ADJP	enough	DT	t182:AMOD	O
to	t182	8	to	O	O	O	O	O	O	O	O	TO0	B-VP	to	TO	t183:IM	O
raise	t183	8	raise	e31	OCCURRENCE	PAST+NONE+POS	O	O	O	O	O	VVI	I-VP	raise	VB	t185:OBJ	O
any	t184	8	any	O	O	O	O	O	O	O	O	DT0	B-NP	any	DT	O	O
concerns	t185	8	concern	O	O	O	O	O	O	O	O	NN2	I-NP	concern	NNS	t184:NMOD||t186:NMOD	O
about	t186	8	about	O	O	O	O	O	O	O	O	PRP	B-PP	about	IN	t188:PMOD	O
higher	t187	8	higher	O	O	O	O	O	O	O	O	AJC	B-NP	higher	JJR	O	O
inflation	t188	8	inflation	O	O	O	O	O	O	O	O	NN1	I-NP	inflation	NN	t187:NMOD	O
.	t189	8	.	O	O	O	O	O	O	O	O	PUN	O	.	.	O	O

And	t190	9	and	O	O	O	O	O	O	O	O	CJC	O	and	CC	O	O
because	t191	9	because	O	O	O	O	O	O	cs32	O	CJS	B-SBAR	because	IN	t195:SUB	O
the	t192	9	the	O	O	O	O	O	O	cs32	O	AT0	B-NP	the	DT	O	O
Federal	t193	9	Federal	O	O	O	O	O	O	cs32	O	AJ0	I-NP	federal	NNP	O	O
Reserve	t194	9	Reserve	O	O	O	O	O	O	cs32	O	NN1	I-NP	reserve	NNP	t192:NMOD||t193:NAME	O
has	t195	9	have	O	O	O	O	O	O	cs32	O	VHZ	B-VP	have	VBZ	t194:SBJ||t196:VC	O
made	t196	9	make	e33	OCCURRENCE	PRESENT+PERFECTIVE+POS	O	O	O	cs32	O	VVN	I-VP	make	VBN	t197:OPRD||t198:OBJ	O
clear	t197	9	clear	O	O	O	O	O	O	cs32	O	AJ0	B-ADJP	clear	JJ	O	O
that	t198	9	that	O	O	O	O	O	O	cs32	O	CJT	B-SBAR	that	IN	t200:SUB	O
it	t199	9	it	O	O	O	O	O	O	cs32	O	PNP	B-NP	it	PRP	O	O
expects	t200	9	expect	e34	I_STATE	PRESENT+NONE+POS	O	O	O	cs32	O	VVZ	B-VP	expect	VBZ	t199:SBJ||t202:OBJ||t203:OPRD	O
the	t201	9	the	O	O	O	O	O	O	cs32	O	AT0	B-NP	the	DT	O	O
economy	t202	9	economy	O	O	O	O	O	O	cs32	O	NN1	I-NP	economy	NN	t201:NMOD	O
to	t203	9	to	O	O	O	O	O	O	cs32	O	TO0	B-VP	to	TO	t204:IM	O
slow	t204	9	slow	e35	OCCURRENCE	INFINITIVE+NONE+POS	O	O	O	cs32	O	VVI	I-VP	slow	VB	t205:TMP||t208:TMP	O
in	t205	9	in	O	O	O	O	O	O	cs32	O	PRP	B-PP	in	IN	t207:PMOD	O
coming	t206	9	come	O	O	O	tmx36	DATE	FUTURE_REF	cs32	O	VVG	B-NP	coming	JJ	O	O
months	t207	9	month	O	O	O	tmx36	DATE	FUTURE_REF	cs32	O	NN2	I-NP	month	NNS	t206:NMOD	O
as	t208	9	as	O	O	O	O	O	O	cs37	O	PRP	B-PP	as	IN	t213:SUB	O
ripple	t209	9	ripple	O	O	O	O	O	O	cs37	O	NN1	B-NP	ripple	NN	O	O
effects	t210	9	effect	O	O	O	O	O	O	cs37	O	NN2	I-NP	effects	NNS	t209:NMOD||t211:NMOD	O
from	t211	9	from	O	O	O	O	O	O	cs37	O	PRP	B-PP	from	IN	t212:PMOD	O
Asia	t212	9	Asia	O	O	O	O	O	O	cs37	O	NP0	B-NP	asia	NNP	O	O
reach	t213	9	reach	e38	OCCURRENCE	PRESENT+NONE+POS	O	O	O	cs37	O	VVB	B-VP	reach	VBP	t210:SBJ||t216:OBJ	O
the	t214	9	the	O	O	O	O	O	O	cs37	O	AT0	B-NP	the	DT	O	O
United	t215	9	United	O	O	O	O	O	O	cs37	O	NP0	I-NP	united	NNP	O	O
States	t216	9	States	O	O	O	O	O	O	cs37	O	NP0	I-NP	state	NNPS	t214:NMOD||t215:NAME	O
,	t217	9	,	O	O	O	O	O	O	cs37	O	PUN	O	,	,	O	O
investors	t218	9	investor	O	O	O	O	O	O	cs37	O	NN2	B-NP	investor	NNS	O	O
disregarded	t219	9	disregard	e39	OCCURRENCE	PAST+NONE+POS	O	O	O	cs37	O	VVD	B-VP	disregard	VBD	t190:DEP||t191:PRP||t217:P||t218:SBJ||t223:OBJ||t224:P||t225:ADV||t238:P	mainVb
the	t220	9	the	O	O	O	O	O	O	cs37	O	AT0	B-NP	the	DT	O	O
large	t221	9	large	O	O	O	O	O	O	cs37	O	AJ0	I-NP	large	JJ	O	O
jobs	t222	9	job	O	O	O	O	O	O	cs37	O	NN2	I-NP	job	NNS	O	O
gains	t223	9	gain	O	O	O	O	O	O	cs37	O	NN2	I-NP	gain	NNS	t220:NMOD||t221:NMOD||t222:NMOD	O
,	t224	9	,	O	O	O	O	O	O	cs37	O	PUN	O	,	,	O	O
betting	t225	9	bet	e40	OCCURRENCE	PRESPART+NONE+POS	O	O	O	cs37	O	VVG	B-VP	bet	VBG	t226:OBJ	O
that	t226	9	that	O	O	O	O	O	O	cs37	O	CJT	B-SBAR	that	IN	t236:SUB	O
neither	t227	9	neither	O	O	O	O	O	O	cs37	O	DT0	B-NP	neither	DT	O	O
a	t228	9	a	O	O	O	O	O	O	cs37	O	AT0	I-NP	a	DT	O	O
rise	t229	9	rise	e41	OCCURRENCE	NONE+NONE+NEG	O	O	O	cs37	O	NN1	I-NP	rise	NN	t227:NMOD||t228:NMOD||t230:LOC	O
in	t230	9	in	O	O	O	O	O	O	cs37	O	PRP	B-PP	in	IN	t232:PMOD	O
interest	t231	9	interest	O	O	O	O	O	O	cs37	O	NN1	B-NP	interest	NN	O	O
rates	t232	9	rate	O	O	O	O	O	O	cs37	O	NN2	I-NP	rates	NNS	t231:NMOD||t233:COORD	O
nor	t233	9	nor	O	O	O	O	O	O	cs37	O	CJC	O	nor	CC	t235:CONJ	O
resurgent	t234	9	resurgent	O	O	O	O	O	O	cs37	O	AJ0	B-NP	resurgent	JJ	O	O
inflation	t235	9	inflation	e42	OCCURRENCE	NONE+NONE+NEG	O	O	O	cs37	O	NN1	I-NP	inflation	NN	t234:NMOD	O
is	t236	9	be	O	O	O	O	O	O	cs37	O	VBZ	B-VP	be	VBZ	t229:SBJ||t237:VC	O
looming	t237	9	loom	e43	I_STATE	PRESENT+PROGRESSIVE+POS	O	O	O	cs37	O	VVG	I-VP	loom	VBG	O	O
.	t238	9	.	O	O	O	O	O	O	cs37	O	PUN	O	.	.	O	O

Stocks	t239	10	stock	O	O	O	O	O	O	cs37	O	NP0	B-NP	stocks	NNS	O	O
rose	t240	10	rise	e44	OCCURRENCE	PAST+NONE+POS	O	O	O	cs37	O	VVD	B-VP	rise	VBD	t239:SBJ||t241:P||t242:ADV||t251:P||t252:DIR||t254:P||t255:ADV||t269:P	mainVb
,	t241	10	,	O	O	O	O	O	O	cs37	O	PUN	O	,	,	O	O
pushing	t242	10	push	e45	OCCURRENCE	PRESPART+NONE+POS	O	O	O	cs37	O	VVG	B-VP	push	VBG	t247:OBJ||t248:ADV	O
the	t243	10	the	O	O	O	O	O	O	cs37	O	AT0	B-NP	the	DT	O	O
Dow	t244	10	Dow	O	O	O	O	O	O	cs37	O	NP0	I-NP	dow	NNP	O	O
Jones	t245	10	Jones	O	O	O	O	O	O	cs37	O	NP0	I-NP	jones	NNP	t244:NAME	O
industrial	t246	10	industrial	O	O	O	O	O	O	cs37	O	AJ0	I-NP	industrial	JJ	O	O
average	t247	10	average	O	O	O	O	O	O	cs37	O	NN1	I-NP	average	NN	t243:NMOD||t245:NMOD||t246:NMOD	O
up	t248	10	up	O	O	O	O	O	O	cs37	O	PRP	B-ADVP	up	IN	t250:AMOD	O
72.24	t249	10	72.24	O	O	O	O	O	O	cs37	O	CRD	B-NP	72.24	CD	O	O
points	t250	10	point	O	O	O	O	O	O	cs37	O	NN2	I-NP	point	NNS	t249:NMOD	O
,	t251	10	,	O	O	O	O	O	O	cs37	O	PUN	O	,	,	O	O
to	t252	10	to	O	O	O	O	O	O	cs37	O	PRP	B-PP	to	TO	t253:PMOD	O
8,189.49	t253	10	8,189.49	O	O	O	O	O	O	cs37	O	CRD	B-NP	8,189.49	CD	O	O
,	t254	10	,	O	O	O	O	O	O	cs37	O	PUN	O	,	,	O	O
leaving	t255	10	leave	e46	OCCURRENCE	PRESPART+NONE+POS	O	O	O	cs37	O	VVG	B-VP	leave	VBG	t257:OBJ||t258:LOC||t266:TMP	O
the	t256	10	the	O	O	O	O	O	O	cs37	O	AT0	B-NP	the	DT	O	O
index	t257	10	index	O	O	O	O	O	O	cs37	O	NN1	I-NP	index	NN	t256:NMOD	O
within	t258	10	within	O	O	O	O	O	O	cs37	O	PRP	B-PP	within	IN	t260:PMOD	O
70	t259	10	70	O	O	O	O	O	O	cs37	O	CRD	B-NP	70	CD	O	O
points	t260	10	point	O	O	O	O	O	O	cs37	O	NN2	I-NP	point	NNS	t259:NMOD||t261:NMOD	O
of	t261	10	of	O	O	O	O	O	O	cs37	O	PRF	B-PP	of	IN	t265:PMOD	O
its	t262	10	its	O	O	O	O	O	O	cs37	O	DPS	B-NP	its	PRP$	O	O
record	t263	10	record	O	O	O	O	O	O	cs37	O	NN1	I-NP	record	NN	O	O
high	t264	10	high	O	O	O	O	O	O	cs37	O	AJ0	I-NP	high	JJ	O	O
set	t265	10	set	O	O	O	O	O	O	cs37	O	NN1	B-VP	set	NN	t262:NMOD||t263:NMOD||t264:NMOD	O
on	t266	10	on	O	O	O	O	O	O	cs37	O	PRP	B-PP	on	IN	t268:PMOD	O
Aug.	t267	10	Aug.	O	O	O	tmx47	DATE	1997-08-06	cs37	O	NP0	B-NP	aug.	NNP	O	O
6	t268	10	6	O	O	O	tmx47	DATE	1997-08-06	cs37	O	CRD	I-NP	6	CD	t267:NMOD	O
.	t269	10	.	O	O	O	O	O	O	cs37	O	PUN	O	.	.	O	O

In	t270	11	in	O	O	O	O	O	O	cs37	O	PRP	B-PP	in	IN	t273:PMOD	O
the	t271	11	the	O	O	O	O	O	O	cs37	O	AT0	B-NP	the	DT	O	O
bond	t272	11	bond	O	O	O	O	O	O	cs37	O	NN1	I-NP	bond	NN	O	O
market	t273	11	market	O	O	O	O	O	O	cs37	O	NN1	I-NP	market	NN	t271:NMOD||t272:NMOD||t274:P||t277:APPO	O
,	t274	11	,	O	O	O	O	O	O	cs37	O	PUN	O	,	,	O	O
a	t275	11	a	O	O	O	O	O	O	cs37	O	AT0	B-NP	a	DT	O	O
sensitive	t276	11	sensitive	O	O	O	O	O	O	cs37	O	AJ0	I-NP	sensitive	JJ	O	O
barometer	t277	11	barometer	O	O	O	O	O	O	cs37	O	NN1	I-NP	barometer	NN	t275:NMOD||t276:NMOD||t278:NMOD	O
of	t278	11	of	O	O	O	O	O	O	cs37	O	PRF	B-PP	of	IN	t280:PMOD	O
inflation	t279	11	inflation	O	O	O	O	O	O	cs37	O	NN1	B-NP	inflation	NN	O	O
anxiety	t280	11	anxiety	O	O	O	O	O	O	cs37	O	NN1	I-NP	anxiety	NN	t279:NMOD	O
,	t281	11	,	O	O	O	O	O	O	cs37	O	PUN	O	,	,	O	O
prices	t282	11	price	O	O	O	O	O	O	cs37	O	NN2	B-NP	price	NNS	O	O
edged	t283	11	edge	e48	OCCURRENCE	PAST+NONE+POS	O	O	O	cs37	O	VVN	B-VP	edge	VBD	t270:LOC||t281:P||t282:SBJ||t284:DIR||t285:P||t286:ADV||t302:P	mainVb
up	t284	11	up	O	O	O	O	O	O	cs37	O	AVP	B-PRT	up	RB	O	O
,	t285	11	,	O	O	O	O	O	O	cs37	O	PUN	O	,	,	O	O
pushing	t286	11	push	e49	OCCURRENCE	PRESPART+NONE+POS	O	O	O	cs37	O	VVG	B-VP	push	VBG	t287:PRT||t289:OBJ||t296:DIR||t299:DIR	O
down	t287	11	down	O	O	O	O	O	O	cs37	O	AVP	B-PRT	down	RP	O	O
the	t288	11	the	O	O	O	O	O	O	cs37	O	AT0	B-NP	the	DT	O	O
yield	t289	11	yield	O	O	O	O	O	O	cs37	O	NN1	I-NP	yield	NN	t288:NMOD||t290:NMOD	O
on	t290	11	on	O	O	O	O	O	O	cs37	O	PRP	B-PP	on	IN	t295:PMOD	O
the	t291	11	the	O	O	O	O	O	O	cs37	O	AT0	B-NP	the	DT	O	O
benchmark	t292	11	benchmark	O	O	O	O	O	O	cs37	O	NN1	I-NP	benchmark	NN	t291:NMOD||t293:SUFFIX	O
30-year	t293	11	30-year	O	O	O	tmx50	DURATION	P30Y	cs37	O	AJ0	I-NP	30-year	POS	t303:SBJ	O
Treasury	t294	11	Treasury	O	O	O	O	O	O	cs37	O	NN1	I-NP	treasury	NNP	O	O
bond	t295	11	bond	O	O	O	O	O	O	cs37	O	NN1	I-NP	bond	NN	t292:NMOD||t294:NMOD	O
to	t296	11	to	O	O	O	O	O	O	cs37	O	PRP	B-PP	to	TO	t298:PMOD	O
5.92	t297	11	5.92	O	O	O	O	O	O	cs37	O	CRD	B-NP	5.92	CD	O	O
percent	t298	11	percent	O	O	O	O	O	O	cs37	O	NN0	I-NP	percent	NN	t297:NMOD	O
from	t299	11	from	O	O	O	O	O	O	cs37	O	PRP	B-PP	from	IN	t301:PMOD	O
5.93	t300	11	5.93	O	O	O	O	O	O	cs37	O	CRD	B-NP	5.93	CD	O	O
percent	t301	11	percent	O	O	O	O	O	O	cs37	O	NN0	I-NP	percent	NN	t300:NMOD	O
.	t302	11	.	O	O	O	O	O	O	cs37	O	PUN	O	.	.	O	O
"	t303	11	"	O	O	O	O	O	O	cs37	O	PUQ	O	"	NN	O	O

Job	t304	12	Job	O	O	O	O	O	O	cs37	O	NP0	B-NP	job	NN	O	O
creation	t305	12	creation	e51	OCCURRENCE	NONE+NONE+POS	O	O	O	cs37	O	NN1	I-NP	creation	NN	t304:NMOD	O
is	t306	12	be	O	O	O	O	O	O	cs37	O	VBZ	B-VP	be	VBZ	t305:SBJ||t307:PRD||t308:COORD	O
sturdy	t307	12	sturdy	O	O	O	O	O	O	cs37	O	AJ0	B-ADJP	sturdy	JJ	O	O
and	t308	12	and	O	O	O	O	O	O	cs37	O	CJC	O	and	CC	t310:CONJ	O
we	t309	12	we	O	O	O	O	O	O	cs37	O	PNP	B-NP	we	PRP	O	O
have	t310	12	have	O	O	O	O	O	O	cs37	O	VHB	B-VP	have	VBP	t309:SBJ||t313:OBJ	O
effective	t311	12	effective	O	O	O	O	O	O	cs37	O	AJ0	B-NP	effective	JJ	O	O
price	t312	12	price	O	O	O	O	O	O	cs37	O	NN1	I-NP	price	NN	O	O
stability	t313	12	stability	O	O	O	O	O	O	cs37	O	NN1	I-NP	stability	NN	t311:NMOD||t312:NMOD	O
,	t314	12	,	O	O	O	O	O	O	cs37	O	PUN	O	,	,	O	O
"	t315	12	"	O	O	O	O	O	O	cs37	O	PUQ	O	"	NNP	O	O
said	t316	12	say	e52	REPORTING	PAST+NONE+POS	O	O	O	cs37	O	VVD	B-VP	say	VBD	t306:OBJ||t314:P||t315:SBJ||t318:SBJ||t325:P||t326:P	mainVb
Paul	t317	12	Paul	O	O	O	O	O	O	cs37	O	NP0	B-NP	paul	NNP	O	O
McCulley	t318	12	McCulley	O	O	O	O	O	O	cs37	O	NP0	I-NP	mcculley	NNP	t317:NAME||t319:P||t321:APPO	O
,	t319	12	,	O	O	O	O	O	O	cs37	O	PUN	O	,	,	O	O
an	t320	12	a	O	O	O	O	O	O	cs37	O	AT0	B-NP	an	DT	O	O
economist	t321	12	economist	O	O	O	O	O	O	cs37	O	NN1	I-NP	economist	NN	t320:NMOD||t322:LOC	O
at	t322	12	at	O	O	O	O	O	O	cs37	O	PRP	B-PP	at	IN	t324:PMOD	O
UBS	t323	12	UBS	O	O	O	O	O	O	cs37	O	NP0	B-NP	ubs	NNP	O	O
Securities	t324	12	Securities	O	O	O	O	O	O	cs37	O	NN2	I-NP	security	NNP	t323:NAME	O
.	t325	12	.	O	O	O	O	O	O	cs37	O	PUN	O	.	.	O	O
"	t326	12	"	O	O	O	O	O	O	cs37	O	PUQ	O	"	.	O	O

The	t327	13	the	O	O	O	O	O	O	cs37	O	AT0	B-NP	the	DT	O	O
bottom	t328	13	bottom	O	O	O	O	O	O	cs37	O	AJ0	I-NP	bottom	NN	O	O
line	t329	13	line	O	O	O	O	O	O	cs37	O	NN1	I-NP	line	NN	t327:NMOD||t328:NMOD	O
is	t330	13	be	O	O	O	O	O	O	cs37	O	VBZ	B-VP	be	VBZ	t329:SBJ||t331:PRD||t338:P||t339:P	mainVb
that	t331	13	that	O	O	O	O	O	O	cs37	O	CJT	B-SBAR	that	IN	t333:SUB	O
we	t332	13	we	O	O	O	O	O	O	cs37	O	PNP	B-NP	we	PRP	O	O
've	t333	13	have	O	O	O	O	O	O	cs37	O	VHB	B-VP	've	VBP	t332:SBJ||t334:VC	O
got	t334	13	get	O	O	O	O	O	O	cs37	O	VVN	I-VP	get	VBN	t337:OBJ	O
a	t335	13	a	O	O	O	O	O	O	cs37	O	AT0	B-NP	a	DT	O	O
lovely	t336	13	lovely	O	O	O	O	O	O	cs37	O	AJ0	I-NP	lovely	JJ	O	O
economy	t337	13	economy	O	O	O	O	O	O	cs37	O	NN1	I-NP	economy	NN	t335:NMOD||t336:NMOD	O
.	t338	13	.	O	O	O	O	O	O	cs37	O	PUN	O	.	.	O	O
"	t339	13	"	O	O	O	O	O	O	cs37	O	PUQ	O	"	''	O	O

With	t340	14	with	O	O	O	O	O	O	cs53	O	PRP	B-PP	with	IN	t342:PMOD	O
potential	t341	14	potential	O	O	O	O	O	O	cs53	O	AJ0	B-NP	potential	JJ	O	O
inflation	t342	14	inflation	O	O	O	O	O	O	cs53	O	NN1	I-NP	inflation	NN	t341:NMOD||t343:APPO	O
counterbalanced	t343	14	counterbalance	e54	OCCURRENCE	PASTPART+NONE+POS	O	O	O	cs53	O	VVN	B-VP	counterbalance	VBN	t344:LGS	O
by	t344	14	by	O	O	O	O	O	O	cs53	O	PRP	B-PP	by	IN	t345:PMOD	O
worries	t345	14	worry	O	O	O	O	O	O	cs53	O	NN2	B-NP	worry	NNS	t346:NMOD	O
about	t346	14	about	O	O	O	O	O	O	cs53	O	PRP	B-PP	about	IN	t349:PMOD	O
possible	t347	14	possible	O	O	O	O	O	O	cs53	O	AJ0	B-NP	possible	JJ	O	O
price	t348	14	price	O	O	O	O	O	O	cs53	O	NN1	I-NP	price	NN	O	O
declines	t349	14	decline	e55	OCCURRENCE	NONE+NONE+POS	O	O	O	cs53	O	NN2	I-NP	decline	NNS	t347:NMOD||t348:NMOD	O
,	t350	14	,	O	O	O	O	O	O	cs53	O	PUN	O	,	,	O	O
the	t351	14	the	O	O	O	O	O	O	cs53	O	AT0	B-NP	the	DT	O	O
Fed	t352	14	Fed	O	O	O	O	O	O	cs53	O	NP0	I-NP	fed	NNP	t351:NMOD||t353:COORD	O
and	t353	14	and	O	O	O	O	O	O	cs53	O	CJC	O	and	CC	t355:CONJ	O
its	t354	14	its	O	O	O	O	O	O	cs53	O	DPS	B-NP	its	PRP$	O	O
chairman	t355	14	chairman	O	O	O	O	O	O	cs53	O	NN1	I-NP	chairman	NN	t354:NMOD||t356:P||t358:APPO||t359:P	O
,	t356	14	,	O	O	O	O	O	O	cs53	O	PUN	O	,	,	O	O
Alan	t357	14	Alan	O	O	O	O	O	O	cs53	O	NP0	B-NP	alan	NNP	O	O
Greenspan	t358	14	Greenspan	O	O	O	O	O	O	cs53	O	NP0	I-NP	greenspan	NNP	t357:NAME	O
,	t359	14	,	O	O	O	O	O	O	cs53	O	PUN	O	,	,	O	O
have	t360	14	have	O	O	O	O	O	O	cs53	O	VHB	B-VP	have	VBP	t340:ADV||t350:P||t352:SBJ||t361:VC||t380:P	mainVb
suggested	t361	14	suggest	e56	I_ACTION	PRESENT+PERFECTIVE+POS	O	O	O	cs53	O	VVN	I-VP	suggest	VBN	t362:OBJ	mainVb
that	t362	14	that	O	O	O	O	O	O	cs53	O	CJT	B-SBAR	that	IN	t364:SUB	O
they	t363	14	they	O	O	O	O	O	O	cs53	O	PNP	B-NP	they	PRP	O	O
intend	t364	14	intend	e57	I_ACTION	PRESENT+NONE+POS	O	O	O	cs53	O	VVB	B-VP	intend	VBP	t363:SBJ||t365:OPRD	O
to	t365	14	to	O	O	O	O	O	O	cs53	O	TO0	I-VP	to	TO	t366:IM	O
keep	t366	14	keep	e58	OCCURRENCE	INFINITIVE+NONE+POS	O	O	O	cs53	O	VVI	I-VP	keep	VB	t368:OBJ||t369:OPRD||t370:TMP	O
interest	t367	14	interest	O	O	O	O	O	O	cs53	O	NN1	B-NP	interest	NN	O	O
rates	t368	14	rate	O	O	O	O	O	O	cs53	O	NN2	I-NP	rates	NNS	t367:NMOD	O
unchanged	t369	14	unchanged	O	O	O	O	O	O	cs53	O	AJ0	B-ADJP	unchanged	JJ	O	O
until	t370	14	until	O	O	O	O	O	O	cs53	O	CJS	B-SBAR	until	IN	t373:SUB	O
the	t371	14	the	O	O	O	O	O	O	cs53	O	AT0	B-NP	the	DT	O	O
economy	t372	14	economy	O	O	O	O	O	O	cs53	O	NN1	I-NP	economy	NN	t371:NMOD	O
tilts	t373	14	tilt	e59	OCCURRENCE	PRESENT+NONE+POS	O	O	O	cs53	O	NN2	I-NP	tilt	VBZ	t372:SBJ||t374:MNR||t375:ADV	O
clearly	t374	14	clearly	O	O	O	O	O	O	cs53	O	AV0	B-ADVP	clearly	RB	O	O
in	t375	14	in	O	O	O	O	O	O	cs53	O	PRP	B-PP	in	IN	t377:PMOD	O
one	t376	14	one	O	O	O	O	O	O	cs53	O	CRD	B-NP	one	CD	O	O
direction	t377	14	direction	O	O	O	O	O	O	cs53	O	NN1	I-NP	direction	NN	t376:NMOD||t378:COORD	O
or	t378	14	or	O	O	O	O	O	O	cs53	O	CJC	O	or	CC	t379:CONJ	O
another	t379	14	another	O	O	O	O	O	O	cs53	O	DT0	B-NP	another	DT	O	O
.	t380	14	.	O	O	O	O	O	O	cs53	O	PUN	O	.	.	O	O

The	t381	15	the	O	O	O	O	O	O	cs53	O	AT0	B-NP	the	DT	O	O
job	t382	15	job	O	O	O	O	O	O	cs53	O	NN1	I-NP	job	NN	O	O
figures	t383	15	figure	O	O	O	O	O	O	cs53	O	NN2	I-NP	figure	NNS	t381:NMOD||t382:NMOD||t384:NMOD	O
for	t384	15	for	O	O	O	O	O	O	cs53	O	PRP	B-PP	for	IN	t385:PMOD	O
January	t385	15	January	O	O	O	tmx60	DATE	1998-01	cs53	O	NP0	B-NP	january	NNP	O	O
extended	t386	15	extend	e61	ASPECTUAL	PAST+NONE+POS	O	O	O	cs53	O	VVD	B-VP	extend	VBD	t383:SBJ||t388:OBJ||t407:P	mainVb
a	t387	15	a	O	O	O	O	O	O	cs53	O	AT0	B-NP	a	DT	O	O
surge	t388	15	surge	e62	OCCURRENCE	NONE+NONE+POS	O	O	O	cs53	O	NN1	I-NP	surge	NN	t387:NMOD||t389:LOC||t393:NMOD||t396:P||t402:NMOD	O
in	t389	15	in	O	O	O	O	O	O	cs53	O	PRP	B-PP	in	IN	t391:PMOD	O
employment	t390	15	employment	O	O	O	O	O	O	cs53	O	NN1	B-NP	employment	NN	O	O
gains	t391	15	gain	e63	OCCURRENCE	NONE+NONE+POS	O	O	O	cs53	O	VVZ	I-NP	gain	NNS	t390:NMOD	O
that	t392	15	that	O	O	O	O	O	O	cs53	O	CJT	B-NP	that	WDT	O	O
began	t393	15	begin	e64	ASPECTUAL	PAST+NONE+POS	O	O	O	cs53	O	VVD	B-VP	begin	VBD	t392:SBJ||t395:TMP	O
last	t394	15	last	O	O	O	tmx65	DATE	1997-FA	cs53	O	ORD	B-NP	last	JJ	O	O
fall	t395	15	fall	O	O	O	tmx65	DATE	1997-FA	cs53	O	NN1	I-NP	fall	NN	t394:NMOD	O
,	t396	15	,	O	O	O	O	O	O	cs53	O	PUN	O	,	,	O	O
just	t397	15	just	O	O	O	O	O	O	cs53	O	AV0	B-ADVP	just	RB	O	O
when	t398	15	when	O	O	O	O	O	O	cs53	O	CJS	B-ADVP	when	WRB	t397:AMOD	O
the	t399	15	the	O	O	O	O	O	O	cs53	O	AT0	B-NP	the	DT	O	O
labor	t400	15	labor	O	O	O	O	O	O	cs53	O	NN1	I-NP	labor	NN	O	O
market	t401	15	market	O	O	O	O	O	O	cs53	O	NN1	I-NP	market	NN	t399:NMOD||t400:NMOD	O
had	t402	15	have	O	O	O	O	O	O	cs53	O	VHD	B-VP	have	VBD	t401:SBJ||t403:VC	O
showed	t403	15	show	e66	OCCURRENCE	PAST+PERFECTIVE+POS	O	O	O	cs53	O	VVN	I-VP	show	VBN	t398:TMP||t404:OBJ	O
signs	t404	15	sign	O	O	O	O	O	O	cs53	O	NN2	B-NP	sign	NNS	t405:NMOD	O
of	t405	15	of	O	O	O	O	O	O	cs53	O	PRF	B-PP	of	IN	t406:PMOD	O
cooling	t406	15	cooling	O	O	O	O	O	O	cs53	O	VVG	B-VP	cool	VBG	O	O
.	t407	15	.	O	O	O	O	O	O	cs53	O	PUN	O	.	.	O	O

After	t408	16	after	O	O	O	O	O	O	cs53	O	PRP	B-PP	after	IN	t409:PMOD	O
accounting	t409	16	account	e67	OCCURRENCE	PRESPART+NONE+POS	O	O	O	cs53	O	VVG	B-VP	account	VBG	t410:ADV||t415:TMP||t416:ADV	O
for	t410	16	for	O	O	O	O	O	O	cs53	O	PRP	B-PP	for	IN	t414:PMOD	O
a	t411	16	a	O	O	O	O	O	O	cs53	O	AT0	B-NP	a	DT	O	O
small	t412	16	small	O	O	O	O	O	O	cs53	O	AJ0	I-NP	small	JJ	O	O
downward	t413	16	downward	O	O	O	O	O	O	cs53	O	AJ0	I-NP	downward	JJ	O	O
revision	t414	16	revision	e68	OCCURRENCE	NONE+NONE+POS	O	O	O	cs53	O	NN1	I-NP	revision	NN	t411:NMOD||t412:NMOD||t413:NMOD	O
Friday	t415	16	Friday	O	O	O	tmx69	DATE	1998-02-06	cs53	O	NP0	B-NP	friday	NNP	O	O
to	t416	16	to	O	O	O	O	O	O	cs53	O	PRP	B-PP	to	TO	t419:PMOD	O
December	t417	16	December	O	O	O	tmx70	DATE	1997-12	cs53	O	NP0	B-NP	december	NNP	t418:SUFFIX	O
's	t418	16	's	O	O	O	O	O	O	cs53	O	POS	B-NP	's	POS	O	O
figures	t419	16	figure	O	O	O	O	O	O	cs53	O	NN2	I-NP	figure	NNS	t417:NMOD	O
,	t420	16	,	O	O	O	O	O	O	cs53	O	PUN	O	,	,	O	O
the	t421	16	the	O	O	O	O	O	O	cs53	O	AT0	B-NP	the	DT	O	O
economy	t422	16	economy	O	O	O	O	O	O	cs53	O	NN1	I-NP	economy	NN	t421:NMOD	O
has	t423	16	have	O	O	O	O	O	O	cs53	O	VHZ	B-VP	have	VBZ	t408:TMP||t420:P||t422:SBJ||t424:VC||t439:P||t440:COORD||t458:P	mainVb
been	t424	16	be	O	O	O	O	O	O	cs53	O	VBN	I-VP	be	VBN	t425:VC	mainVb
creating	t425	16	create	e71	OCCURRENCE	PRESENT+PERFECTIVE_PROGRESSIVE+POS	O	O	O	cs53	O	VVG	I-VP	create	VBG	t426:OBJ||t427:ADV||t434:TMP	mainVb
jobs	t426	16	job	O	O	O	O	O	O	cs53	O	NN2	B-NP	job	NNS	O	O
at	t427	16	at	O	O	O	O	O	O	cs53	O	PRP	B-PP	at	IN	t429:PMOD	O
a	t428	16	a	O	O	O	O	O	O	cs53	O	AT0	B-NP	a	DT	O	O
rate	t429	16	rate	O	O	O	O	O	O	cs53	O	NN1	I-NP	rate	NN	t428:NMOD||t430:NMOD	O
of	t430	16	of	O	O	O	O	O	O	cs53	O	PRF	B-PP	of	IN	t431:PMOD	O
358,000	t431	16	358,000	O	O	O	O	O	O	cs53	O	CRD	B-NP	358,000	CD	t433:ADV	O
a	t432	16	a	O	O	O	O	O	O	cs53	O	AT0	B-NP	a	DT	O	O
month	t433	16	month	O	O	O	O	O	O	cs53	O	NN1	I-NP	month	NN	t432:NMOD	O
for	t434	16	for	O	O	O	O	O	O	cs53	O	PRP	B-PP	for	IN	t438:PMOD	O
the	t435	16	the	O	O	O	tmx72	DURATION	P4M	cs53	O	AT0	B-NP	the	DT	O	O
last	t436	16	last	O	O	O	tmx72	DURATION	P4M	cs53	O	ORD	I-NP	last	JJ	O	O
four	t437	16	four	O	O	O	tmx72	DURATION	P4M	cs53	O	CRD	I-NP	four	CD	O	O
months	t438	16	month	O	O	O	tmx72	DURATION	P4M	cs53	O	NN2	I-NP	month	NNS	t435:NMOD||t436:NMOD||t437:NMOD	O
_	t439	16	_	O	O	O	O	O	O	cs53	O	PUQ	B-NP	_	:	O	O
and	t440	16	and	O	O	O	O	O	O	cs53	O	CJC	I-NP	and	CC	t441:GAP-SBJ||t442:GAP-TMP||t448:TMP	O
381,000	t441	16	381,000	O	O	O	O	O	O	cs53	O	CRD	I-NP	381,000	CD	O	O
over	t442	16	over	O	O	O	O	O	O	cs53	O	PRP	B-PP	over	IN	t446:PMOD	O
the	t443	16	the	O	O	O	tmx73	DURATION	P3M	cs53	O	AT0	B-NP	the	DT	O	O
last	t444	16	last	O	O	O	tmx73	DURATION	P3M	cs53	O	ORD	I-NP	last	JJ	O	O
three	t445	16	three	O	O	O	tmx73	DURATION	P3M	cs53	O	CRD	I-NP	three	CD	O	O
months	t446	16	month	O	O	O	tmx73	DURATION	P3M	cs53	O	NN2	I-NP	month	NNS	t443:NMOD||t444:NMOD||t445:NMOD	O
_	t447	16	_	O	O	O	O	O	O	cs53	O	UNC	B-NP	_	:	O	O
after	t448	16	after	O	O	O	O	O	O	cs53	O	PRP	B-PP	after	IN	t447:P||t449:PMOD	O
averaging	t449	16	average	e74	OCCURRENCE	NONE+NONE+POS	O	O	O	cs53	O	VVG	B-VP	average	VBG	t450:OBJ||t451:TMP	O
242,000	t450	16	242,000	O	O	O	O	O	O	cs53	O	CRD	B-NP	242,000	NN	O	O
for	t451	16	for	O	O	O	O	O	O	cs53	O	PRP	B-PP	for	IN	t455:PMOD	O
the	t452	16	the	O	O	O	tmx75	DURATION	P9M	cs53	O	AT0	B-NP	the	DT	O	O
first	t453	16	first	O	O	O	tmx75	DURATION	P9M	cs53	O	ORD	I-NP	first	JJ	O	O
nine	t454	16	nine	O	O	O	tmx75	DURATION	P9M	cs53	O	CRD	I-NP	nine	CD	O	O
months	t455	16	month	O	O	O	tmx75	DURATION	P9M	cs53	O	NN2	I-NP	month	NNS	t452:NMOD||t453:NMOD||t454:NMOD||t456:NMOD	O
of	t456	16	of	O	O	O	O	O	O	cs53	O	PRF	B-PP	of	IN	t457:PMOD	O
1997	t457	16	1997	O	O	O	tmx76	DATE	1997	cs53	O	CRD	B-NP	1997	CD	O	O
.	t458	16	.	O	O	O	O	O	O	cs53	O	PUN	O	.	.	O	O

The	t459	17	the	O	O	O	O	O	O	cs53	O	AT0	B-NP	the	DT	O	O
surge	t460	17	surge	O	O	O	O	O	O	cs53	O	NN1	I-NP	surge	NN	t459:NMOD||t461:LOC	O
in	t461	17	in	O	O	O	O	O	O	cs53	O	PRP	B-PP	in	IN	t462:PMOD	O
jobs	t462	17	job	O	O	O	O	O	O	cs53	O	NN2	B-NP	job	NNS	O	O
reflects	t463	17	reflect	e77	OCCURRENCE	PRESENT+NONE+POS	O	O	O	cs53	O	VVZ	B-VP	reflect	VBZ	t460:SBJ||t466:OBJ||t473:P	mainVb
a	t464	17	a	O	O	O	O	O	O	cs53	O	AT0	B-NP	a	DT	O	O
remarkable	t465	17	remarkable	O	O	O	O	O	O	cs53	O	AJ0	I-NP	remarkable	JJ	O	O
confluence	t466	17	confluence	O	O	O	O	O	O	cs53	O	NN1	I-NP	confluence	NN	t464:NMOD||t465:NMOD||t467:NMOD	O
of	t467	17	of	O	O	O	O	O	O	cs53	O	PRF	B-PP	of	IN	t472:PMOD	O
positive	t468	17	positive	O	O	O	O	O	O	cs53	O	AJ0	B-NP	positive	JJ	t469:COORD	O
and	t469	17	and	O	O	O	O	O	O	cs53	O	CJC	I-NP	and	CC	t470:CONJ	O
self-reinforcing	t470	17	self-reinforcing	O	O	O	O	O	O	cs53	O	AJ0	I-NP	self-reinforce	VBG	O	O
economic	t471	17	economic	O	O	O	O	O	O	cs53	O	AJ0	I-NP	economic	JJ	O	O
forces	t472	17	force	O	O	O	O	O	O	cs53	O	NN2	I-NP	force	NNS	t468:NMOD||t471:NMOD	O
.	t473	17	.	O	O	O	O	O	O	cs53	O	PUN	O	.	.	O	O

Inflation	t474	18	inflation	O	O	O	O	O	O	cs53	O	NN1	B-NP	inflation	NN	O	O
has	t475	18	have	O	O	O	O	O	O	cs53	O	VHZ	B-VP	have	VBZ	t474:SBJ||t476:VC||t479:P||t480:COORD||t487:P	mainVb
been	t476	18	be	O	O	O	O	O	O	cs53	O	VBN	I-VP	be	VBN	t478:PRD	mainVb
almost	t477	18	almost	O	O	O	O	O	O	cs53	O	AV0	B-ADJP	almost	RB	O	O
nonexistent	t478	18	nonexistent	O	O	O	O	O	O	cs53	O	AJ0	I-ADJP	nonexistent	JJ	t477:AMOD	O
,	t479	18	,	O	O	O	O	O	O	cs53	O	PUN	O	,	,	O	O
and	t480	18	and	O	O	O	O	O	O	cs53	O	CJC	O	and	CC	t483:CONJ	O
consumer	t481	18	consumer	O	O	O	O	O	O	cs53	O	NN1	B-NP	consumer	NN	O	O
confidence	t482	18	confidence	O	O	O	O	O	O	cs53	O	NN1	I-NP	confidence	NN	t481:NMOD	O
has	t483	18	have	O	O	O	O	O	O	cs53	O	VHZ	B-VP	have	VBZ	t482:SBJ||t484:VC	O
been	t484	18	be	O	O	O	O	O	O	cs53	O	VBN	I-VP	be	VBN	t486:PRD	O
extremely	t485	18	extremely	O	O	O	O	O	O	cs53	O	AV0	B-ADJP	extremely	RB	O	O
strong	t486	18	strong	O	O	O	O	O	O	cs53	O	AJ0	I-ADJP	strong	JJ	t485:AMOD	O
.	t487	18	.	O	O	O	O	O	O	cs53	O	PUN	O	.	.	O	O

After	t488	19	after	O	O	O	O	O	O	cs53	O	PRP	B-PP	after	IN	t493:PMOD	O
a	t489	19	a	O	O	O	O	O	O	cs53	O	AT0	B-NP	a	DT	O	O
short	t490	19	short	O	O	O	O	O	O	cs53	O	AJ0	I-NP	short	JJ	O	O
,	t491	19	,	O	O	O	O	O	O	cs53	O	PUN	O	,	,	O	O
sharp	t492	19	sharp	O	O	O	O	O	O	cs53	O	AJ0	B-NP	sharp	JJ	O	O
drop	t493	19	drop	e78	OCCURRENCE	NONE+NONE+POS	O	O	O	cs53	O	NN1	I-NP	drop	NN	t489:NMOD||t490:NMOD||t491:P||t492:NMOD||t500:TMP	O
when	t494	19	when	O	O	O	O	O	O	cs53	O	CJS	B-ADVP	when	WRB	O	O
Asia	t495	19	Asia	O	O	O	O	O	O	cs53	O	NP0	B-NP	asia	NNP	t496:SUFFIX	O
's	t496	19	's	O	O	O	O	O	O	cs53	O	POS	B-NP	's	POS	O	O
financial	t497	19	financial	O	O	O	O	O	O	cs53	O	AJ0	I-NP	financial	JJ	O	O
problems	t498	19	problem	O	O	O	O	O	O	cs53	O	NN2	I-NP	problem	NNS	t495:NMOD||t497:NMOD||t499:TMP	O
first	t499	19	first	O	O	O	O	O	O	cs53	O	ORD	B-ADVP	first	JJ	O	O
became	t500	19	become	e79	OCCURRENCE	PAST+NONE+POS	O	O	O	cs53	O	VVD	B-VP	become	VBD	t494:TMP||t498:SBJ||t501:PRD	O
clear	t501	19	clear	O	O	O	O	O	O	cs53	O	AJ0	B-ADJP	clear	JJ	O	O
,	t502	19	,	O	O	O	O	O	O	cs53	O	PUN	O	,	,	O	O
the	t503	19	the	O	O	O	O	O	O	cs53	O	AT0	B-NP	the	DT	O	O
stock	t504	19	stock	O	O	O	O	O	O	cs53	O	NN1	I-NP	stock	NN	O	O
market	t505	19	market	O	O	O	O	O	O	cs53	O	NN1	I-NP	market	NN	t503:NMOD||t504:NMOD	O
has	t506	19	have	O	O	O	O	O	O	cs53	O	VHZ	B-VP	have	VBZ	t488:TMP||t502:P||t505:SBJ||t507:VC||t508:COORD||t514:P	mainVb
rebounded	t507	19	rebound	e80	OCCURRENCE	PRESENT+PERFECTIVE+POS	O	O	O	cs53	O	VVN	I-VP	rebound	VBN	O	mainVb
and	t508	19	and	O	O	O	O	O	O	cs53	O	CJC	O	and	CC	t511:CONJ	O
corporate	t509	19	corporate	O	O	O	O	O	O	cs53	O	AJ0	B-NP	corporate	JJ	O	O
profits	t510	19	profit	O	O	O	O	O	O	cs53	O	NN2	I-NP	profits	NNS	t509:NMOD	O
have	t511	19	have	O	O	O	O	O	O	cs53	O	VHB	B-VP	have	VBP	t510:SBJ||t512:VC	O
remained	t512	19	remain	e81	STATE	PRESENT+PERFECTIVE+POS	O	O	O	cs53	O	VVN	I-VP	remain	VBN	t513:PRD	O
healthy	t513	19	healthy	O	O	O	O	O	O	cs53	O	AJ0	B-ADJP	healthy	JJ	O	O
.	t514	19	.	O	O	O	O	O	O	cs53	O	PUN	O	.	.	O	O

Long-term	t515	20	long-term	O	O	O	O	O	O	cs53	O	NP0	B-NP	long-term	JJ	O	O
interest	t516	20	interest	O	O	O	O	O	O	cs53	O	NN1	I-NP	interest	NN	O	O
rates	t517	20	rate	O	O	O	O	O	O	cs53	O	NN2	I-NP	rates	NNS	t515:NMOD||t516:NMOD	O
,	t518	20	,	O	O	O	O	O	O	cs53	O	PUN	O	,	,	O	O
an	t519	20	a	O	O	O	O	O	O	cs53	O	AT0	B-NP	an	DT	O	O
important	t520	20	important	O	O	O	O	O	O	cs53	O	AJ0	I-NP	important	JJ	O	O
indicator	t521	20	indicator	O	O	O	O	O	O	cs53	O	NN1	I-NP	indicator	NN	t519:NMOD||t520:NMOD||t522:NMOD||t525:P	O
of	t522	20	of	O	O	O	O	O	O	cs53	O	PRF	B-PP	of	IN	t524:PMOD	O
economic	t523	20	economic	O	O	O	O	O	O	cs53	O	AJ0	B-NP	economic	JJ	O	O
stability	t524	20	stability	O	O	O	O	O	O	cs53	O	NN1	I-NP	stability	NN	t523:NMOD	O
,	t525	20	,	O	O	O	O	O	O	cs53	O	PUN	O	,	,	O	O
have	t526	20	have	O	O	O	O	O	O	cs53	O	VHB	B-VP	have	VBP	t517:SBJ||t518:P||t521:SBJ||t527:VC||t533:P	mainVb
fallen	t527	20	fall	e82	OCCURRENCE	PRESENT+PERFECTIVE+POS	O	O	O	cs53	O	VVN	I-VP	fall	VBN	t528:TMP	mainVb
in	t528	20	in	O	O	O	O	O	O	cs53	O	PRP	B-PP	in	IN	t532:PMOD	O
the	t529	20	the	O	O	O	tmx83	DATE	PAST_REF	cs53	O	AT0	B-NP	the	DT	O	O
last	t530	20	last	O	O	O	tmx83	DATE	PAST_REF	cs53	O	ORD	I-NP	last	JJ	O	O
few	t531	20	few	O	O	O	tmx83	DATE	PAST_REF	cs53	O	DT0	I-NP	few	DT	O	O
months	t532	20	month	O	O	O	tmx83	DATE	PAST_REF	cs53	O	NN2	I-NP	month	NNS	t529:NMOD||t530:NMOD||t531:NMOD	O
.	t533	20	.	O	O	O	O	O	O	cs53	O	PUN	O	.	.	O	O

Lower	t534	21	lower	O	O	O	O	O	O	cs53	O	AJC	B-NP	low	JJR	O	O
rates	t535	21	rate	O	O	O	O	O	O	cs53	O	NN2	I-NP	rates	NNS	t534:NMOD	O
have	t536	21	have	O	O	O	O	O	O	cs53	O	VHB	B-VP	have	VBP	t535:SBJ||t537:VC||t552:P||t553:COORD||t565:P	mainVb
helped	t537	21	help	e84	I_ACTION	PRESENT+PERFECTIVE+POS	O	O	O	cs53	O	VVN	I-VP	help	VBN	t539:OPRD||t547:MNR	mainVb
invigorate	t538	21	invigorate	e85	OCCURRENCE	INFINITIVE+NONE+POS	O	O	O	cs53	O	AJ0	B-NP	invigorate	JJ	O	O
housing	t539	21	housing	O	O	O	O	O	O	cs53	O	NN1	I-NP	housing	NN	t538:NMOD||t540:COORD||t544:NMOD	O
and	t540	21	and	O	O	O	O	O	O	cs53	O	CJC	O	and	CC	t543:CONJ	O
other	t541	21	other	O	O	O	O	O	O	cs53	O	AJ0	B-NP	other	JJ	O	O
interest-sensitive	t542	21	interest-sensitive	O	O	O	O	O	O	cs53	O	AJ0	I-NP	interest-sensitive	JJ	O	O
sectors	t543	21	sector	O	O	O	O	O	O	cs53	O	NN2	I-NP	sector	NNS	t541:NMOD||t542:NMOD	O
of	t544	21	of	O	O	O	O	O	O	cs53	O	PRF	B-PP	of	IN	t546:PMOD	O
the	t545	21	the	O	O	O	O	O	O	cs53	O	AT0	B-NP	the	DT	O	O
economy	t546	21	economy	O	O	O	O	O	O	cs53	O	NN1	I-NP	economy	NN	t545:NMOD	O
by	t547	21	by	O	O	O	O	O	O	cs53	O	PRP	B-PP	by	IN	t548:PMOD	O
making	t548	21	make	e86	OCCURRENCE	PRESPART+NONE+POS	O	O	O	cs53	O	VVG	B-VP	make	VBG	t549:OBJ||t551:OPRD	O
loans	t549	21	loan	O	O	O	O	O	O	cs53	O	NN2	B-NP	loan	NNS	O	O
more	t550	21	more	O	O	O	O	O	O	cs53	O	AV0	B-ADJP	more	RBR	O	O
affordable	t551	21	affordable	O	O	O	O	O	O	cs53	O	AJ0	I-ADJP	affordable	JJ	t550:AMOD	O
,	t552	21	,	O	O	O	O	O	O	cs53	O	PUN	O	,	,	O	O
and	t553	21	and	O	O	O	O	O	O	cs53	O	CJC	O	and	CC	t554:CONJ	O
have	t554	21	have	O	O	O	O	O	O	cs53	O	VHB	B-VP	have	VBP	t555:VC	O
allowed	t555	21	allow	e87	I_ACTION	PRESENT+PERFECTIVE+POS	O	O	O	cs53	O	VVN	I-VP	allow	VBN	t556:OBJ||t557:OPRD	O
companies	t556	21	company	O	O	O	O	O	O	cs53	O	NN2	B-NP	company	NNS	O	O
to	t557	21	to	O	O	O	O	O	O	cs53	O	TO0	B-VP	to	TO	t558:IM	O
continue	t558	21	continue	e88	ASPECTUAL	INFINITIVE+NONE+POS	O	O	O	cs53	O	VVI	I-VP	continue	VB	t559:OPRD	O
investing	t559	21	invest	e89	OCCURRENCE	PRESPART+NONE+POS	O	O	O	cs53	O	VVG	I-VP	invest	VBG	t560:MNR||t561:ADV	O
heavily	t560	21	heavily	O	O	O	O	O	O	cs53	O	AV0	B-ADVP	heavily	RB	O	O
in	t561	21	in	O	O	O	O	O	O	cs53	O	PRP	B-PP	in	IN	t564:PMOD	O
more	t562	21	more	O	O	O	O	O	O	cs53	O	AV0	B-NP	more	RBR	O	O
efficient	t563	21	efficient	O	O	O	O	O	O	cs53	O	AJ0	I-NP	efficient	JJ	t562:AMOD	O
equipment	t564	21	equipment	O	O	O	O	O	O	cs53	O	NN1	I-NP	equipment	NN	t563:NMOD	O
.	t565	21	.	O	O	O	O	O	O	cs53	O	PUN	O	.	.	O	O

The	t566	22	the	O	O	O	O	O	O	cs53	O	AT0	B-NP	the	DT	O	O
likelihood	t567	22	likelihood	O	O	O	O	O	O	cs53	O	NN1	I-NP	likelihood	NN	t566:NMOD||t568:NMOD	O
that	t568	22	that	O	O	O	O	O	O	cs53	O	CJT	B-SBAR	that	IN	t572:SUB	O
the	t569	22	the	O	O	O	O	O	O	cs53	O	AT0	B-NP	the	DT	O	O
federal	t570	22	federal	O	O	O	O	O	O	cs53	O	AJ0	I-NP	federal	JJ	O	O
budget	t571	22	budget	O	O	O	O	O	O	cs53	O	NN1	I-NP	budget	NN	t569:NMOD||t570:NMOD	O
will	t572	22	will	O	O	O	O	O	O	cs53	O	VM0	B-VP	will	MD	t571:SBJ||t573:TMP||t574:VC	O
soon	t573	22	soon	O	O	O	O	O	O	cs53	O	AV0	I-VP	soon	RB	O	O
move	t574	22	move	e90	OCCURRENCE	FUTURE+NONE+POS	O	O	O	cs53	O	VVI	I-VP	move	VB	t575:DIR||t577:DIR	O
from	t575	22	from	O	O	O	O	O	O	cs53	O	PRP	B-PP	from	IN	t576:PMOD	O
deficit	t576	22	deficit	O	O	O	O	O	O	cs53	O	NN1	B-NP	deficit	NN	O	O
into	t577	22	into	O	O	O	O	O	O	cs53	O	PRP	B-PP	into	IN	t578:PMOD	O
surplus	t578	22	surplus	O	O	O	O	O	O	cs53	O	NN1	B-NP	surplus	NN	O	O
has	t579	22	have	O	O	O	O	O	O	cs53	O	VHZ	I-NP	have	VBZ	t567:SBJ||t581:VC||t584:P	mainVb
further	t580	22	further	O	O	O	O	O	O	cs53	O	AV0	B-ADVP	further	RBR	O	O
improved	t581	22	improve	e91	OCCURRENCE	PRESENT+PERFECTIVE+POS	O	O	O	cs53	O	VVN	B-VP	improve	VBN	t580:MNR||t583:OBJ	O
the	t582	22	the	O	O	O	O	O	O	cs53	O	AT0	B-NP	the	DT	O	O
outlook	t583	22	outlook	O	O	O	O	O	O	cs53	O	NN1	I-NP	outlook	NN	t582:NMOD	O
.	t584	22	.	O	O	O	O	O	O	cs53	O	PUN	O	.	.	O	O

The	t585	23	the	O	O	O	O	O	O	cs53	O	AT0	B-NP	the	DT	O	O
less	t586	23	less	O	O	O	O	O	O	cs53	O	DT0	I-NP	less	DT	O	O
money	t587	23	money	O	O	O	O	O	O	cs53	O	NN1	I-NP	money	NN	t585:NMOD||t586:NMOD||t590:NMOD	O
the	t588	23	the	O	O	O	O	O	O	cs53	O	AT0	B-NP	the	DT	O	O
government	t589	23	government	O	O	O	O	O	O	cs53	O	NN1	I-NP	government	NN	t588:NMOD	O
needs	t590	23	need	O	O	O	O	O	O	cs53	O	VVZ	B-VP	need	VBZ	t589:SBJ||t591:OPRD	O
to	t591	23	to	O	O	O	O	O	O	cs53	O	PRP	B-PP	to	TO	t592:IM	O
borrow	t592	23	borrow	O	O	O	O	O	O	cs53	O	NN1	B-NP	borrow	VB	O	O
,	t593	23	,	O	O	O	O	O	O	cs53	O	PUN	O	,	,	O	O
the	t594	23	the	O	O	O	O	O	O	cs53	O	AT0	B-NP	the	DT	O	O
more	t595	23	more	O	O	O	O	O	O	cs53	O	AV0	I-NP	more	DT	t594:DEP	O
is	t596	23	be	O	O	O	O	O	O	cs53	O	VBZ	B-VP	be	VBZ	t587:SBJ||t593:P||t595:DEP||t597:VC||t601:P	mainVb
freed	t597	23	free	O	O	O	O	O	O	cs53	O	VVN	I-VP	free	VBN	t598:ADV	mainVb
for	t598	23	for	O	O	O	O	O	O	cs53	O	PRP	B-PP	for	IN	t600:PMOD	O
private	t599	23	private	O	O	O	O	O	O	cs53	O	AJ0	B-NP	private	JJ	O	O
investment	t600	23	investment	O	O	O	O	O	O	cs53	O	NN1	I-NP	investment	NN	t599:NMOD	O
.	t601	23	.	O	O	O	O	O	O	cs53	O	PUN	O	.	.	O	O

President	t602	24	President	O	O	O	O	O	O	cs53	O	NP0	B-NP	president	NN	O	O
Clinton	t603	24	Clinton	O	O	O	O	O	O	cs53	O	NP0	I-NP	clinton	NNP	t602:TITLE	O
welcomed	t604	24	welcome	e92	OCCURRENCE	PAST+NONE+POS	O	O	O	cs53	O	VVD	B-VP	welcome	VBD	t603:SBJ||t607:OBJ||t608:LOC||t612:TMP||t613:P	mainVb
the	t605	24	the	O	O	O	O	O	O	cs53	O	AT0	B-NP	the	DT	O	O
job	t606	24	job	O	O	O	O	O	O	cs53	O	NN1	I-NP	job	NN	O	O
figures	t607	24	figure	O	O	O	O	O	O	cs53	O	NN2	I-NP	figure	NNS	t605:NMOD||t606:NMOD	O
at	t608	24	at	O	O	O	O	O	O	cs53	O	PRP	B-PP	at	IN	t611:PMOD	O
a	t609	24	a	O	O	O	O	O	O	cs53	O	AT0	B-NP	a	DT	O	O
news	t610	24	news	O	O	O	O	O	O	cs53	O	NN1	I-NP	news	NN	O	O
conference	t611	24	conference	e93	OCCURRENCE	NONE+NONE+POS	O	O	O	cs53	O	NN1	I-NP	conference	NN	t609:NMOD||t610:NMOD	O
Friday	t612	24	Friday	O	O	O	tmx94	DATE	1998-02-06	cs53	O	NP0	B-NP	friday	NNP	O	O
.	t613	24	.	O	O	O	O	O	O	cs53	O	PUN	O	.	.	O	O

His	t614	25	he	O	O	O	O	O	O	cs53	O	DPS	B-NP	his	PRP$	O	O
advisers	t615	25	adviser	O	O	O	O	O	O	cs53	O	NN2	I-NP	adviser	NNS	t614:NMOD	O
said	t616	25	say	e95	REPORTING	PAST+NONE+POS	O	O	O	cs53	O	VVD	B-VP	say	VBD	t615:SBJ||t619:OBJ||t645:P	mainVb
the	t617	25	the	O	O	O	O	O	O	cs53	O	AT0	B-NP	the	DT	O	O
results	t618	25	result	e96	OCCURRENCE	NONE+NONE+POS	O	O	O	cs53	O	NN2	I-NP	result	NNS	t617:NMOD	O
reflected	t619	25	reflect	e97	OCCURRENCE	PAST+NONE+POS	O	O	O	cs53	O	VVD	B-VP	reflect	VBD	t618:SBJ||t620:ADV	O
not	t620	25	not	O	O	O	O	O	O	cs53	O	XX0	O	not	RB	t621:AMOD||t622:COORD	O
just	t621	25	just	O	O	O	O	O	O	cs53	O	AV0	B-ADVP	just	RB	O	O
from	t622	25	from	O	O	O	O	O	O	cs98	O	PRP	B-PP	from	IN	t623:PMOD||t626:P||t627:COORD	O
balancing	t623	25	balance	e99	OCCURRENCE	PRESPART+NONE+POS	O	O	O	cs98	O	VVG	B-VP	balance	VBG	t625:OBJ	O
the	t624	25	the	O	O	O	O	O	O	cs98	O	AT0	B-NP	the	DT	O	O
budget	t625	25	budget	O	O	O	O	O	O	cs98	O	NN1	I-NP	budget	NN	t624:NMOD	O
,	t626	25	,	O	O	O	O	O	O	cs98	O	PUN	O	,	,	O	O
but	t627	25	but	O	O	O	O	O	O	cs98	O	CJC	O	but	CC	t628:COORD||t629:CONJ	O
also	t628	25	also	O	O	O	O	O	O	cs98	O	AV0	B-ADVP	also	RB	O	O
initiatives	t629	25	initiative	e100	OCCURRENCE	NONE+NONE+POS	O	O	O	cs98	O	VVZ	B-VP	initiative	NNS	t630:NMOD	O
like	t630	25	like	O	O	O	O	O	O	cs98	O	PRP	B-PP	like	IN	t632:PMOD	O
improved	t631	25	improved	O	O	O	O	O	O	cs98	O	AJ0	B-NP	improve	VBN	O	O
access	t632	25	access	O	O	O	O	O	O	cs98	O	NN1	I-NP	access	NN	t631:NMOD||t633:NMOD	O
to	t633	25	to	O	O	O	O	O	O	cs98	O	PRP	B-PP	to	TO	t634:PMOD	O
education	t634	25	education	O	O	O	O	O	O	cs98	O	NN1	B-NP	education	NN	t635:COORD	O
and	t635	25	and	O	O	O	O	O	O	cs98	O	CJC	I-NP	and	CC	t636:CONJ	O
training	t636	25	training	O	O	O	O	O	O	cs98	O	NN1	I-NP	training	NN	t637:COORD	O
and	t637	25	and	O	O	O	O	O	O	cs98	O	CJC	O	and	CC	t639:CONJ	O
the	t638	25	the	O	O	O	O	O	O	cs98	O	AT0	B-NP	the	DT	O	O
opening	t639	25	opening	O	O	O	O	O	O	cs98	O	NN1	I-NP	opening	NN	t638:NMOD||t640:NMOD||t643:NMOD	O
of	t640	25	of	O	O	O	O	O	O	cs98	O	PRF	B-PP	of	IN	t642:PMOD	O
foreign	t641	25	foreign	O	O	O	O	O	O	cs98	O	AJ0	B-NP	foreign	JJ	O	O
markets	t642	25	market	O	O	O	O	O	O	cs98	O	NN2	I-NP	market	NNS	t641:NMOD	O
to	t643	25	to	O	O	O	O	O	O	cs98	O	TO0	B-VP	to	TO	t644:IM	O
trade	t644	25	trade	O	O	O	O	O	O	cs98	O	VVI	I-VP	trade	VB	t646:OBJ	O
.	t645	25	.	O	O	O	O	O	O	cs98	O	PUN	O	.	.	O	O
"	t646	25	"	O	O	O	O	O	O	cs98	O	PUQ	O	"	NN	O	O

There	t647	26	there	O	O	O	O	O	O	cs98	O	EX0	B-NP	there	EX	O	O
are	t648	26	be	O	O	O	O	O	O	cs98	O	VBB	B-VP	be	VBP	t647:SBJ||t653:PRD	O
enormous	t649	26	enormous	O	O	O	O	O	O	cs98	O	AJ0	B-ADJP	enormous	JJ	O	O
economic	t650	26	economic	O	O	O	O	O	O	cs98	O	AJ0	I-ADJP	economic	JJ	t651:COORD	O
and	t651	26	and	O	O	O	O	O	O	cs98	O	CJC	O	and	CC	t652:CONJ	O
social	t652	26	social	O	O	O	O	O	O	cs98	O	AJ0	B-NP	social	JJ	O	O
benefits	t653	26	benefit	O	O	O	O	O	O	cs98	O	NN2	I-NP	benefit	NNS	t649:NMOD||t650:NMOD||t654:NMOD	O
from	t654	26	from	O	O	O	O	O	O	cs98	O	PRP	B-PP	from	IN	t659:PMOD	O
our	t655	26	we	O	O	O	O	O	O	cs98	O	DPS	B-NP	our	PRP$	O	O
nation	t656	26	nation	O	O	O	O	O	O	cs98	O	NN1	I-NP	nation	NN	t655:NMOD||t657:SUFFIX	O
's	t657	26	's	O	O	O	O	O	O	cs98	O	POS	B-NP	's	POS	O	O
high-employment	t658	26	high-employment	O	O	O	O	O	O	cs98	O	NN1	I-NP	high-employment	NN	O	O
economy	t659	26	economy	O	O	O	O	O	O	cs98	O	NN1	I-NP	economy	NN	t656:NMOD||t658:NMOD	O
,	t660	26	,	O	O	O	O	O	O	cs98	O	PUN	O	,	,	O	O
"	t661	26	"	O	O	O	O	O	O	cs98	O	PUQ	O	"	NNP	O	O
said	t662	26	say	O	O	O	O	O	O	cs98	O	VVD	B-VP	say	VBD	t648:OBJ||t660:P||t661:SBJ||t664:SBJ||t677:P	mainVb
Janet	t663	26	Janet	O	O	O	O	O	O	cs98	O	NP0	B-NP	janet	NNP	O	O
Yellen	t664	26	Yellen	O	O	O	O	O	O	cs98	O	NP0	I-NP	yellen	NNP	t663:NAME||t665:P||t667:APPO	O
,	t665	26	,	O	O	O	O	O	O	cs98	O	PUN	O	,	,	O	O
the	t666	26	the	O	O	O	O	O	O	cs98	O	AT0	B-NP	the	DT	O	O
chairwoman	t667	26	chairwoman	O	O	O	O	O	O	cs98	O	NN1	I-NP	chairwoman	NN	t666:NMOD||t668:NMOD	O
of	t668	26	of	O	O	O	O	O	O	cs98	O	PRF	B-PP	of	IN	t674:PMOD	O
the	t669	26	the	O	O	O	O	O	O	cs98	O	AT0	B-NP	the	DT	O	O
White	t670	26	White	O	O	O	O	O	O	cs98	O	NP0	I-NP	white	NNP	O	O
House	t671	26	House	O	O	O	O	O	O	cs98	O	NN1	I-NP	house	NNP	t669:NMOD||t670:NAME||t672:SUFFIX	O
's	t672	26	's	O	O	O	O	O	O	cs98	O	POS	B-NP	's	POS	O	O
Council	t673	26	Council	O	O	O	O	O	O	cs98	O	NN1	I-NP	council	NNP	t671:NMOD	O
of	t674	26	of	O	O	O	O	O	O	cs98	O	PRF	B-PP	of	IN	t673:NMOD||t676:PMOD	O
Economic	t675	26	Economic	O	O	O	O	O	O	cs98	O	AJ0	B-NP	economic	NNP	O	O
Advisers	t676	26	Advisers	O	O	O	O	O	O	cs98	O	NN2	I-NP	adviser	NNPS	t675:NAME	O
.	t677	26	.	O	O	O	O	O	O	cs98	O	PUN	O	.	.	O	O

Some	t678	27	some	O	O	O	O	O	O	cs98	O	DT0	B-NP	some	DT	t679:NMOD	O
of	t679	27	of	O	O	O	O	O	O	cs98	O	PRF	B-PP	of	IN	t683:PMOD	O
the	t680	27	the	O	O	O	O	O	O	cs98	O	AT0	B-NP	the	DT	O	O
biggest	t681	27	biggest	O	O	O	O	O	O	cs98	O	AJS	I-NP	big	JJS	O	O
employment	t682	27	employment	O	O	O	O	O	O	cs98	O	NN1	I-NP	employment	NN	O	O
gains	t683	27	gain	O	O	O	O	O	O	cs98	O	NN2	I-NP	gain	NNS	t680:NMOD||t681:NMOD||t682:NMOD	O
came	t684	27	come	e101	OCCURRENCE	PAST+NONE+POS	O	O	O	cs98	O	VVD	B-VP	come	VBD	t678:SBJ||t685:LOC||t696:P	mainVb
in	t685	27	in	O	O	O	O	O	O	cs98	O	PRP	B-PP	in	IN	t688:PMOD	O
the	t686	27	the	O	O	O	O	O	O	cs98	O	AT0	B-NP	the	DT	O	O
construction	t687	27	construction	O	O	O	O	O	O	cs98	O	NN1	I-NP	construction	NN	O	O
industry	t688	27	industry	O	O	O	O	O	O	cs98	O	NN1	I-NP	industry	NN	t686:NMOD||t687:NMOD||t689:P||t691:NMOD	O
,	t689	27	,	O	O	O	O	O	O	cs98	O	PUN	O	,	,	O	O
which	t690	27	which	O	O	O	O	O	O	cs98	O	DTQ	B-NP	which	WDT	O	O
added	t691	27	add	e102	OCCURRENCE	PAST+NONE+POS	O	O	O	cs98	O	VVD	B-VP	add	VBD	t690:SBJ||t693:OBJ||t694:TMP	O
92,000	t692	27	92,000	O	O	O	O	O	O	cs98	O	CRD	B-NP	92,000	CD	O	O
jobs	t693	27	job	O	O	O	O	O	O	cs98	O	NN2	I-NP	job	NNS	t692:NMOD	O
in	t694	27	in	O	O	O	O	O	O	cs98	O	PRP	B-PP	in	IN	t695:PMOD	O
January	t695	27	January	O	O	O	tmx103	DATE	1998-01	cs98	O	NP0	B-NP	january	NNP	O	O
.	t696	27	.	O	O	O	O	O	O	cs98	O	PUN	O	.	.	O	O

The	t697	28	the	O	O	O	O	O	O	cs98	O	AT0	B-NP	the	DT	O	O
increase	t698	28	increase	e104	OCCURRENCE	NONE+NONE+POS	O	O	O	cs98	O	NN1	I-NP	increase	NN	t697:NMOD	O
reflected	t699	28	reflect	e105	OCCURRENCE	PAST+NONE+POS	O	O	O	cs98	O	VVD	B-VP	reflect	VBD	t698:SBJ||t701:OBJ||t723:P	mainVb
the	t700	28	the	O	O	O	O	O	O	cs98	O	AT0	B-NP	the	DT	O	O
strength	t701	28	strength	e106	STATE	NONE+NONE+POS	O	O	O	cs98	O	NN1	I-NP	strength	NN	t700:NMOD||t702:NMOD	O
of	t702	28	of	O	O	O	O	O	O	cs98	O	PRF	B-PP	of	IN	t705:PMOD	O
the	t703	28	the	O	O	O	O	O	O	cs98	O	AT0	B-NP	the	DT	O	O
housing	t704	28	housing	O	O	O	O	O	O	cs98	O	NN1	I-NP	housing	NN	O	O
industry	t705	28	industry	O	O	O	O	O	O	cs98	O	NN1	I-NP	industry	NN	t703:NMOD||t704:NMOD||t706:P||t708:NMOD	O
,	t706	28	,	O	O	O	O	O	O	cs98	O	PUN	O	,	,	O	O
which	t707	28	which	O	O	O	O	O	O	cs98	O	DTQ	B-NP	which	WDT	O	O
has	t708	28	have	O	O	O	O	O	O	cs98	O	VHZ	B-VP	have	VBZ	t707:SBJ||t709:VC	O
been	t709	28	be	O	O	O	O	O	O	cs98	O	VBN	I-VP	be	VBN	t710:VC	O
helped	t710	28	help	e107	OCCURRENCE	PAST+NONE+POS	O	O	O	cs98	O	VVN	I-VP	help	VBN	t711:ADV	O
not	t711	28	not	O	O	O	O	O	O	cs98	O	XX0	B-CONJP	not	RB	t712:DEP||t713:LGS||t717:COORD||t719:LGS	O
just	t712	28	just	O	O	O	O	O	O	cs98	O	AV0	I-CONJP	just	RB	O	O
by	t713	28	by	O	O	O	O	O	O	cs98	O	PRP	B-PP	by	IN	t716:PMOD	O
declining	t714	28	decline	O	O	O	O	O	O	cs98	O	VVG	B-VP	decline	VBG	O	O
interest	t715	28	interest	O	O	O	O	O	O	cs98	O	NN1	B-NP	interest	NN	O	O
rates	t716	28	rate	O	O	O	O	O	O	cs98	O	NN2	I-NP	rates	NNS	t714:NMOD||t715:NMOD	O
but	t717	28	but	O	O	O	O	O	O	cs98	O	CJC	O	but	CC	t718:COORD	O
also	t718	28	also	O	O	O	O	O	O	cs98	O	AV0	B-ADVP	also	RB	O	O
by	t719	28	by	O	O	O	O	O	O	cs98	O	PRP	B-PP	by	IN	t722:PMOD	O
unusually	t720	28	unusually	O	O	O	O	O	O	cs98	O	AV0	B-NP	unusually	RB	O	O
warm	t721	28	warm	O	O	O	O	O	O	cs98	O	AJ0	I-NP	warm	JJ	t720:AMOD	O
weather	t722	28	weather	O	O	O	O	O	O	cs98	O	NN1	I-NP	weather	NN	t721:NMOD	O
.	t723	28	.	O	O	O	O	O	O	cs98	O	PUN	O	.	.	O	O

Service	t724	29	Service	O	O	O	O	O	O	cs98	O	NP0	B-NP	service	NN	O	O
industries	t725	29	industry	O	O	O	O	O	O	cs98	O	NN2	I-NP	industry	NNS	t724:NMOD	O
also	t726	29	also	O	O	O	O	O	O	cs98	O	AV0	B-ADVP	also	RB	O	O
showed	t727	29	show	e108	OCCURRENCE	PAST+NONE+POS	O	O	O	cs98	O	VVD	B-VP	show	VBD	t725:SBJ||t726:ADV||t730:OBJ||t731:P||t732:ADV||t754:P	mainVb
solid	t728	29	solid	O	O	O	O	O	O	cs98	O	AJ0	B-NP	solid	JJ	O	O
job	t729	29	job	O	O	O	O	O	O	cs98	O	NN1	I-NP	job	NN	O	O
gains	t730	29	gain	O	O	O	O	O	O	cs98	O	NN2	I-NP	gain	NNS	t728:NMOD||t729:NMOD	O
,	t731	29	,	O	O	O	O	O	O	cs98	O	PUN	O	,	,	O	O
as	t732	29	as	O	O	O	O	O	O	cs98	O	CJS	B-SBAR	as	IN	t733:SUB	O
did	t733	29	do	O	O	O	O	O	O	cs98	O	VDD	B-VP	do	VBD	t734:SBJ	O
manufacturers	t734	29	manufacturer	O	O	O	O	O	O	cs98	O	NN2	B-NP	manufacturer	NNS	t735:P||t737:APPO	O
,	t735	29	,	O	O	O	O	O	O	cs98	O	PUN	O	,	,	O	O
two	t736	29	two	O	O	O	O	O	O	cs98	O	CRD	B-NP	two	CD	O	O
areas	t737	29	area	O	O	O	O	O	O	cs98	O	NN2	I-NP	area	NNS	t736:NMOD||t738:APPO	O
expected	t738	29	expect	e109	I_STATE	PAST+NONE+POS	O	O	O	cs98	O	VVN	B-VP	expect	VBN	t739:OPRD	O
to	t739	29	to	O	O	O	O	O	O	cs98	O	TO0	I-VP	to	TO	t740:IM	O
be	t740	29	be	O	O	O	O	O	O	cs98	O	VBI	I-VP	be	VB	t742:PRD	O
hardest	t741	29	hardest	O	O	O	O	O	O	cs98	O	AJS	B-NP	hard	RBS	O	O
hit	t742	29	hit	e110	OCCURRENCE	PASTPART+NONE+POS	O	O	O	cs98	O	NN1	I-NP	hit	VBN	t741:AMOD||t750:TMP	O
when	t743	29	when	O	O	O	O	O	O	cs98	O	CJS	B-ADVP	when	WRB	O	O
the	t744	29	the	O	O	O	O	O	O	cs98	O	AT0	B-NP	the	DT	O	O
effects	t745	29	effect	O	O	O	O	O	O	cs98	O	NN2	I-NP	effects	NNS	t744:NMOD||t746:NMOD	O
of	t746	29	of	O	O	O	O	O	O	cs98	O	PRF	B-PP	of	IN	t749:PMOD	O
the	t747	29	the	O	O	O	O	O	O	cs98	O	AT0	B-NP	the	DT	O	O
Asian	t748	29	asian	O	O	O	O	O	O	cs98	O	AJ0	I-NP	asian	JJ	O	O
crisis	t749	29	crisis	O	O	O	O	O	O	cs98	O	NN1	I-NP	crisis	NN	t747:NMOD||t748:NMOD	O
hit	t750	29	hit	e111	OCCURRENCE	PAST+NONE+POS	O	O	O	cs98	O	VVD	B-VP	hit	VBD	t743:TMP||t745:SBJ||t753:OBJ	O
the	t751	29	the	O	O	O	O	O	O	cs98	O	AT0	B-NP	the	DT	O	O
American	t752	29	american	O	O	O	O	O	O	cs98	O	AJ0	I-NP	american	JJ	O	O
economy	t753	29	economy	O	O	O	O	O	O	cs98	O	NN1	I-NP	economy	NN	t751:NMOD||t752:NMOD	O
.	t754	29	.	O	O	O	O	O	O	cs98	O	PUN	O	.	.	O	O

The	t755	30	the	O	O	O	O	O	O	cs98	O	AT0	B-NP	the	DT	O	O
major	t756	30	major	O	O	O	O	O	O	cs98	O	AJ0	I-NP	major	JJ	O	O
harm	t757	30	harm	e112	OCCURRENCE	NONE+NONE+POS	O	O	O	cs98	O	NN1	I-NP	harm	NN	t755:NMOD||t756:NMOD||t758:NMOD	O
from	t758	30	from	O	O	O	O	O	O	cs98	O	PRP	B-PP	from	IN	t759:PMOD	O
Asia	t759	30	Asia	O	O	O	O	O	O	cs98	O	NP0	B-NP	asia	NNP	O	O
is	t760	30	be	O	O	O	O	O	O	cs98	O	VBZ	B-VP	be	VBZ	t757:SBJ||t761:PRD||t800:P	mainVb
likely	t761	30	likely	O	O	O	O	O	O	cs98	O	AJ0	B-ADJP	likely	JJ	t762:AMOD	O
to	t762	30	to	O	O	O	O	O	O	cs98	O	TO0	B-VP	to	TO	t763:IM	O
come	t763	30	come	O	O	O	O	O	O	cs98	O	VVI	I-VP	come	VB	t764:DIR	O
from	t764	30	from	O	O	O	O	O	O	cs98	O	PRP	B-PP	from	IN	t766:PMOD	O
the	t765	30	the	O	O	O	O	O	O	cs98	O	AT0	B-NP	the	DT	O	O
plunge	t766	30	plunge	e113	OCCURRENCE	NONE+NONE+POS	O	O	O	cs98	O	NN1	I-NP	plunge	NN	t765:NMOD||t767:LOC	O
in	t767	30	in	O	O	O	O	O	O	cs98	O	PRP	B-PP	in	IN	t769:PMOD	O
the	t768	30	the	O	O	O	O	O	O	cs98	O	AT0	B-NP	the	DT	O	O
value	t769	30	value	O	O	O	O	O	O	cs98	O	NN1	I-NP	value	NN	t768:NMOD||t770:NMOD	O
of	t770	30	of	O	O	O	O	O	O	cs98	O	PRF	B-PP	of	IN	t773:PMOD	O
many	t771	30	many	O	O	O	O	O	O	cs98	O	DT0	B-NP	many	DT	O	O
Asian	t772	30	asian	O	O	O	O	O	O	cs98	O	AJ0	I-NP	asian	JJ	O	O
currencies	t773	30	currency	O	O	O	O	O	O	cs98	O	NN2	I-NP	currency	NNS	t771:NMOD||t772:NMOD||t774:APPO	O
relative	t774	30	relative	O	O	O	O	O	O	cs98	O	VVB	B-VP	relative	JJ	t775:AMOD	O
to	t775	30	to	O	O	O	O	O	O	cs98	O	PRP	B-PP	to	TO	t777:PMOD	O
the	t776	30	the	O	O	O	O	O	O	cs98	O	AT0	B-NP	the	DT	O	O
dollar	t777	30	dollar	O	O	O	O	O	O	cs98	O	NN1	I-NP	dollar	NN	t776:NMOD||t778:P||t780:APPO	O
,	t778	30	,	O	O	O	O	O	O	cs98	O	PUN	O	,	,	O	O
a	t779	30	a	O	O	O	O	O	O	cs98	O	AT0	B-NP	a	DT	O	O
situation	t780	30	situation	e114	STATE	NONE+NONE+POS	O	O	O	cs98	O	NN1	I-NP	situation	NN	t779:NMOD||t782:NMOD	O
that	t781	30	that	O	O	O	O	O	O	cs98	O	DT0	B-NP	that	WDT	O	O
is	t782	30	be	O	O	O	O	O	O	cs98	O	VBZ	B-VP	be	VBZ	t781:SBJ||t783:VC	O
expected	t783	30	expect	e115	I_STATE	PRESENT+NONE+POS	O	O	O	cs98	O	VVN	I-VP	expect	VBN	t784:OPRD	O
to	t784	30	to	O	O	O	O	O	O	cs98	O	TO0	I-VP	to	TO	t785:IM	O
lead	t785	30	lead	e116	OCCURRENCE	INFINITIVE+NONE+POS	O	O	O	cs98	O	VVI	I-VP	lead	VB	t786:DIR||t796:P||t797:ADV	O
to	t786	30	to	O	O	O	O	O	O	cs98	O	PRP	B-PP	to	TO	t788:PMOD	O
a	t787	30	a	O	O	O	O	O	O	cs98	O	AT0	B-NP	a	DT	O	O
surge	t788	30	surge	e117	OCCURRENCE	NONE+NONE+POS	O	O	O	cs98	O	NN1	I-NP	surge	NN	t787:NMOD||t789:NMOD||t792:NMOD	O
of	t789	30	of	O	O	O	O	O	O	cs98	O	PRF	B-PP	of	IN	t791:PMOD	O
inexpensive	t790	30	inexpensive	O	O	O	O	O	O	cs98	O	AJ0	B-NP	inexpensive	JJ	O	O
imports	t791	30	import	O	O	O	O	O	O	cs98	O	NN2	I-NP	import	NNS	t790:NMOD	O
into	t792	30	into	O	O	O	O	O	O	cs98	O	PRP	B-PP	into	IN	t795:PMOD	O
the	t793	30	the	O	O	O	O	O	O	cs98	O	AT0	B-NP	the	DT	O	O
United	t794	30	United	O	O	O	O	O	O	cs98	O	NP0	I-NP	united	NNP	O	O
States	t795	30	States	O	O	O	O	O	O	cs98	O	NP0	I-NP	state	NNPS	t793:NMOD||t794:NAME	O
,	t796	30	,	O	O	O	O	O	O	cs98	O	PUN	O	,	,	O	O
hurting	t797	30	hurt	e118	OCCURRENCE	PRESPART+NONE+POS	O	O	O	cs98	O	VVG	B-VP	hurt	VBG	t799:OBJ	O
American	t798	30	american	O	O	O	O	O	O	cs98	O	AJ0	B-NP	american	JJ	O	O
competitors	t799	30	competitor	O	O	O	O	O	O	cs98	O	NN2	I-NP	competitor	NNS	t798:NMOD	O
.	t800	30	.	O	O	O	O	O	O	cs98	O	PUN	O	.	.	O	O

And	t801	31	and	O	O	O	O	O	O	cs98	O	CJC	O	and	CC	O	O
the	t802	31	the	O	O	O	O	O	O	cs98	O	AT0	B-NP	the	DT	O	O
weakness	t803	31	weakness	e119	STATE	NONE+NONE+POS	O	O	O	cs98	O	NN1	I-NP	weakness	NN	t802:NMOD||t804:NMOD	O
of	t804	31	of	O	O	O	O	O	O	cs98	O	PRF	B-PP	of	IN	t807:PMOD	O
the	t805	31	the	O	O	O	O	O	O	cs98	O	AT0	B-NP	the	DT	O	O
Asian	t806	31	asian	O	O	O	O	O	O	cs98	O	AJ0	I-NP	asian	JJ	O	O
economies	t807	31	economy	O	O	O	O	O	O	cs98	O	NN2	I-NP	economy	NNS	t805:NMOD||t806:NMOD	O
is	t808	31	be	O	O	O	O	O	O	cs98	O	VBZ	B-VP	be	VBZ	t801:DEP||t803:SBJ||t809:ADV||t810:PRD||t819:P||t820:P	mainVb
also	t809	31	also	O	O	O	O	O	O	cs98	O	AV0	B-ADVP	also	RB	O	O
likely	t810	31	likely	O	O	O	O	O	O	cs98	O	AJ0	B-ADJP	likely	JJ	t811:AMOD	O
to	t811	31	to	O	O	O	O	O	O	cs98	O	TO0	B-VP	to	TO	t812:IM	O
lead	t812	31	lead	e120	OCCURRENCE	INFINITIVE+NONE+POS	O	O	O	cs98	O	VVI	I-VP	lead	VB	t813:DIR	O
to	t813	31	to	O	O	O	O	O	O	cs98	O	PRP	B-PP	to	TO	t815:PMOD	O
decreased	t814	31	decrease	O	O	O	O	O	O	cs98	O	AJ0	B-NP	decrease	VBN	O	O
demand	t815	31	demand	e121	OCCURRENCE	NONE+NONE+POS	O	O	O	cs98	O	NN1	I-NP	demand	NN	t814:NMOD||t816:NMOD	O
for	t816	31	for	O	O	O	O	O	O	cs98	O	PRP	B-PP	for	IN	t818:PMOD	O
American	t817	31	american	O	O	O	O	O	O	cs98	O	AJ0	B-NP	american	JJ	O	O
exports	t818	31	export	O	O	O	O	O	O	cs98	O	NN2	I-NP	export	NNS	t817:NMOD	O
.	t819	31	.	O	O	O	O	O	O	cs98	O	PUN	O	.	.	O	O
"	t820	31	"	O	O	O	O	O	O	cs98	O	PUQ	O	"	''	O	O

The	t821	32	the	O	O	O	O	O	O	cs98	O	AT0	B-NP	the	DT	O	O
economy	t822	32	economy	O	O	O	O	O	O	cs98	O	NN1	I-NP	economy	NN	t821:NMOD	O
has	t823	32	have	O	O	O	O	O	O	cs98	O	VHZ	B-VP	have	VBZ	t822:SBJ||t824:VC	O
been	t824	32	be	O	O	O	O	O	O	cs98	O	VBN	I-VP	be	VBN	t825:VC	O
running	t825	32	run	e122	OCCURRENCE	PRESENT+PERFECTIVE_PROGRESSIVE+POS	O	O	O	cs98	O	VVG	I-VP	run	VBG	t826:ADV	O
on	t826	32	on	O	O	O	O	O	O	cs98	O	PRP	B-PP	on	IN	t828:PMOD	O
the	t827	32	the	O	O	O	O	O	O	cs98	O	AT0	B-NP	the	DT	O	O
fumes	t828	32	fume	O	O	O	O	O	O	cs98	O	NN2	I-NP	fumes	NNS	t827:NMOD||t829:NMOD||t832:NMOD	O
of	t829	32	of	O	O	O	O	O	O	cs98	O	PRF	B-PP	of	IN	t831:PMOD	O
the	t830	32	the	O	O	O	O	O	O	cs98	O	AT0	B-NP	the	DT	O	O
strength	t831	32	strength	O	O	O	O	O	O	cs98	O	NN1	I-NP	strength	NN	t830:NMOD	O
from	t832	32	from	O	O	O	O	O	O	cs98	O	PRP	B-PP	from	IN	t833:PMOD	O
before	t833	32	before	O	O	O	O	O	O	cs98	O	PRP	B-PP	before	IN	t836:PMOD	O
the	t834	32	the	O	O	O	O	O	O	cs98	O	AT0	B-NP	the	DT	O	O
Asia	t835	32	Asia	O	O	O	O	O	O	cs98	O	NP0	I-NP	asia	NNP	O	O
shock	t836	32	shock	O	O	O	O	O	O	cs98	O	NN1	I-NP	shock	NN	t834:NMOD||t835:NMOD	O
,	t837	32	,	O	O	O	O	O	O	cs98	O	PUN	O	,	,	O	O
"	t838	32	"	O	O	O	O	O	O	cs98	O	PUQ	O	"	NNP	O	O
McCulley	t839	32	McCulley	O	O	O	O	O	O	cs98	O	NP0	B-NP	mcculley	NNP	t838:NAME	O
said	t840	32	say	e123	REPORTING	PAST+NONE+POS	O	O	O	cs98	O	VVD	B-VP	say	VBD	t823:OBJ||t837:P||t839:SBJ||t841:P||t842:P	mainVb
.	t841	32	.	O	O	O	O	O	O	cs98	O	PUN	O	.	.	O	O
"	t842	32	"	O	O	O	O	O	O	cs98	O	PUQ	O	"	)	O	O

Those	t843	33	those	O	O	O	O	O	O	cs98	O	DT0	B-NP	those	DT	O	O
fumes	t844	33	fume	O	O	O	O	O	O	cs98	O	NN2	I-NP	fumes	NNS	t843:NMOD	O
will	t845	33	will	O	O	O	O	O	O	cs98	O	VM0	B-VP	will	MD	t844:SBJ||t846:VC||t848:P||t849:COORD||t863:P||t864:P	mainVb
exhaust	t846	33	exhaust	e124	OCCURRENCE	FUTURE+NONE+POS	O	O	O	cs98	O	VVI	I-VP	exhaust	VB	t847:OBJ	mainVb
themselves	t847	33	themselves	O	O	O	O	O	O	cs98	O	PNX	B-NP	themselves	PRP	O	O
,	t848	33	,	O	O	O	O	O	O	cs98	O	PUN	O	,	,	O	O
and	t849	33	and	O	O	O	O	O	O	cs98	O	CJC	O	and	CC	t853:CONJ	O
the	t850	33	the	O	O	O	O	O	O	cs98	O	AT0	B-NP	the	DT	O	O
manufacturing	t851	33	manufacturing	O	O	O	O	O	O	cs98	O	NN1	I-NP	manufacturing	NN	O	O
sector	t852	33	sector	O	O	O	O	O	O	cs98	O	NN1	I-NP	sector	NN	t850:NMOD||t851:NMOD	O
is	t853	33	be	O	O	O	O	O	O	cs98	O	VBZ	B-VP	be	VBZ	t852:SBJ||t854:VC	O
going	t854	33	go	O	O	O	O	O	O	cs98	O	VVG	I-VP	go	VBG	t855:VC	O
to	t855	33	to	O	O	O	O	O	O	cs98	O	TO0	I-VP	to	TO	t856:IM	O
start	t856	33	start	e125	ASPECTUAL	FUTURE+NONE+POS	O	O	O	cs98	O	VVI	I-VP	start	VB	t857:OPRD||t860:TMP	O
getting	t857	33	get	O	O	O	O	O	O	cs98	O	VVG	I-VP	get	VBG	t858:VC	O
beat	t858	33	beat	e126	OCCURRENCE	NONE+NONE+POS	O	O	O	cs98	O	VVB	I-VP	beat	VBN	t859:PRT	O
up	t859	33	up	O	O	O	O	O	O	cs98	O	AVP	B-PRT	up	RP	O	O
in	t860	33	in	O	O	O	O	O	O	cs98	O	PRP	B-PP	in	IN	t862:PMOD	O
the	t861	33	the	O	O	O	O	O	O	cs98	O	AT0	B-NP	the	DT	O	O
spring	t862	33	spring	O	O	O	O	O	O	cs98	O	NN1	I-NP	spring	NN	t861:NMOD	O
.	t863	33	.	O	O	O	O	O	O	cs98	O	PUN	O	.	.	O	O
"	t864	33	"	O	O	O	O	O	O	cs98	O	PUQ	O	"	''	O	O

The	t865	34	the	O	O	O	O	O	O	cs98	O	AT0	B-NP	the	DT	O	O
figures	t866	34	figure	O	O	O	O	O	O	cs98	O	NN2	I-NP	figure	NNS	t865:NMOD	O
showed	t867	34	show	e127	OCCURRENCE	PAST+NONE+POS	O	O	O	cs98	O	VVD	B-VP	show	VBD	t866:SBJ||t874:OBJ||t893:P	mainVb
the	t868	34	the	O	O	O	O	O	O	cs98	O	AT0	B-NP	the	DT	O	O
unemployment	t869	34	unemployment	O	O	O	O	O	O	cs98	O	NN1	I-NP	unemployment	NN	O	O
rate	t870	34	rate	O	O	O	O	O	O	cs98	O	NN1	I-NP	rate	NN	t868:NMOD||t869:NMOD||t871:NMOD	O
for	t871	34	for	O	O	O	O	O	O	cs98	O	PRP	B-PP	for	IN	t873:PMOD	O
adult	t872	34	adult	O	O	O	O	O	O	cs98	O	NN1	B-NP	adult	NN	O	O
men	t873	34	man	O	O	O	O	O	O	cs98	O	NN2	I-NP	men	NNS	t872:NMOD	O
declined	t874	34	decline	e128	OCCURRENCE	PAST+NONE+POS	O	O	O	cs98	O	VVD	B-VP	decline	VBD	t870:SBJ||t875:DIR||t879:TMP||t880:ADV	O
to	t875	34	to	O	O	O	O	O	O	cs98	O	PRP	B-PP	to	TO	t877:PMOD	O
3.8	t876	34	3.8	O	O	O	O	O	O	cs98	O	CRD	B-NP	3.8	CD	O	O
percent	t877	34	percent	O	O	O	O	O	O	cs98	O	NN0	I-NP	percent	NN	t876:NMOD	O
last	t878	34	last	O	O	O	tmx129	DATE	1998-01	cs98	O	ORD	B-NP	last	JJ	O	O
month	t879	34	month	O	O	O	tmx129	DATE	1998-01	cs98	O	NN1	I-NP	month	NN	t878:NMOD	O
from	t880	34	from	O	O	O	O	O	O	cs98	O	PRP	B-PP	from	IN	t882:PMOD||t883:TMP	O
4.1	t881	34	4.1	O	O	O	O	O	O	cs98	O	CRD	B-NP	4.1	CD	O	O
percent	t882	34	percent	O	O	O	O	O	O	cs98	O	NN0	I-NP	percent	NN	t881:NMOD	O
in	t883	34	in	O	O	O	O	O	O	cs98	O	PRP	B-PP	in	IN	t884:PMOD	O
December	t884	34	December	O	O	O	tmx130	DATE	1997-12	cs98	O	NP0	B-NP	december	NNP	t885:P||t888:APPO	O
,	t885	34	,	O	O	O	O	O	O	cs98	O	PUN	O	,	,	O	O
the	t886	34	the	O	O	O	O	O	O	cs98	O	AT0	B-NP	the	DT	O	O
lowest	t887	34	lowest	O	O	O	O	O	O	cs98	O	AJS	I-NP	lowest	JJS	O	O
figure	t888	34	figure	O	O	O	O	O	O	cs98	O	NN1	I-NP	figure	NN	t886:NMOD||t887:NMOD||t889:TMP	O
for	t889	34	for	O	O	O	O	O	O	cs98	O	PRP	B-PP	for	IN	t892:PMOD	O
almost	t890	34	almost	O	O	O	O	O	O	cs98	O	AV0	B-NP	almost	RB	O	O
two	t891	34	two	O	O	O	tmx131	DURATION	P20Y	cs98	O	CRD	I-NP	two	CD	O	O
decades	t892	34	decade	O	O	O	tmx131	DURATION	P20Y	cs98	O	NN2	I-NP	decade	NNS	t890:NMOD||t891:NMOD	O
.	t893	34	.	O	O	O	O	O	O	cs98	O	PUN	O	.	.	O	O

The	t894	35	the	O	O	O	O	O	O	cs98	O	AT0	B-NP	the	DT	O	O
rate	t895	35	rate	O	O	O	O	O	O	cs98	O	NN1	I-NP	rate	NN	t894:NMOD||t896:NMOD	O
for	t896	35	for	O	O	O	O	O	O	cs98	O	PRP	B-PP	for	IN	t898:PMOD	O
adult	t897	35	adult	O	O	O	O	O	O	cs98	O	NN1	B-NP	adult	NN	O	O
women	t898	35	woman	O	O	O	O	O	O	cs98	O	NN2	I-NP	woman	NNS	t897:NMOD	O
rose	t899	35	rise	e132	OCCURRENCE	PAST+NONE+POS	O	O	O	cs98	O	VVD	B-VP	rise	VBD	t895:SBJ||t901:EXT||t902:P||t903:DIR||t906:P	mainVb
0.4	t900	35	0.4	O	O	O	O	O	O	cs98	O	CRD	B-NP	0.4	CD	O	O
percent	t901	35	percent	O	O	O	O	O	O	cs98	O	NN0	I-NP	percent	NN	t900:NMOD	O
,	t902	35	,	O	O	O	O	O	O	cs98	O	PUN	O	,	,	O	O
to	t903	35	to	O	O	O	O	O	O	cs98	O	PRP	B-PP	to	TO	t905:PMOD	O
4.4	t904	35	4.4	O	O	O	O	O	O	cs98	O	CRD	B-NP	4.4	CD	O	O
percent	t905	35	percent	O	O	O	O	O	O	cs98	O	NN0	I-NP	percent	NN	t904:NMOD	O
.	t906	35	.	O	O	O	O	O	O	cs98	O	PUN	O	.	.	O	O

For	t907	36	for	O	O	O	O	O	O	cs98	O	PRP	B-PP	for	IN	t910:PMOD	O
the	t908	36	the	O	O	O	O	O	O	cs98	O	AT0	B-NP	the	DT	O	O
first	t909	36	first	O	O	O	O	O	O	cs98	O	ORD	I-NP	first	JJ	O	O
time	t910	36	time	O	O	O	O	O	O	cs98	O	NN1	I-NP	time	NN	t908:NMOD||t909:NMOD	O
,	t911	36	,	O	O	O	O	O	O	cs98	O	PUN	O	,	,	O	O
the	t912	36	the	O	O	O	O	O	O	cs98	O	AT0	B-NP	the	DT	O	O
Labor	t913	36	Labor	O	O	O	O	O	O	cs98	O	AJ0	I-NP	labor	NNP	O	O
Department	t914	36	Department	O	O	O	O	O	O	cs98	O	NN1	I-NP	department	NNP	t912:NMOD||t913:NAME	O
broke	t915	36	break	e133	OCCURRENCE	PAST+NONE+POS	O	O	O	cs98	O	VVD	B-VP	break	VBD	t907:TMP||t911:P||t914:SBJ||t916:PRT||t917:OBJ||t918:MNR||t921:TMP||t929:P	mainVb
out	t916	36	out	O	O	O	O	O	O	cs98	O	AVP	B-PRT	out	RP	O	O
unemployment	t917	36	unemployment	O	O	O	O	O	O	cs98	O	NN1	B-NP	unemployment	NN	O	O
by	t918	36	by	O	O	O	O	O	O	cs98	O	PRP	B-PP	by	IN	t920:PMOD	O
education	t919	36	education	O	O	O	O	O	O	cs98	O	NN1	B-NP	education	NN	O	O
level	t920	36	level	O	O	O	O	O	O	cs98	O	NN1	I-NP	level	NN	t919:NMOD	O
as	t921	36	as	O	O	O	O	O	O	cs98	O	AV0	B-CONJP	as	RB	t922:DEP||t923:DEP	O
well	t922	36	well	O	O	O	O	O	O	cs98	O	AV0	I-CONJP	well	RB	O	O
as	t923	36	as	O	O	O	O	O	O	cs98	O	CJS	I-CONJP	as	IN	t924:PMOD	O
gender	t924	36	gender	O	O	O	O	O	O	cs98	O	NN1	B-NP	gender	NN	t925:P||t926:COORD	O
,	t925	36	,	O	O	O	O	O	O	cs98	O	PUN	I-NP	,	,	O	O
age	t926	36	age	O	O	O	O	O	O	cs98	O	NN1	I-NP	age	NN	t927:COORD	O
and	t927	36	and	O	O	O	O	O	O	cs98	O	CJC	I-NP	and	CC	t928:CONJ	O
race	t928	36	race	O	O	O	O	O	O	cs98	O	NN1	I-NP	race	NN	O	O
.	t929	36	.	O	O	O	O	O	O	cs98	O	PUN	O	.	.	O	O

The	t930	37	the	O	O	O	O	O	O	cs98	O	AT0	B-NP	the	DT	O	O
analysis	t931	37	analysis	O	O	O	O	O	O	cs98	O	NN1	I-NP	analysis	NN	t930:NMOD	O
showed	t932	37	show	e134	OCCURRENCE	PAST+NONE+POS	O	O	O	cs98	O	VVD	B-VP	show	VBD	t931:SBJ||t935:OBJ||t942:P	mainVb
unemployment	t933	37	unemployment	O	O	O	O	O	O	cs98	O	NN1	B-NP	unemployment	NN	O	O
rates	t934	37	rate	O	O	O	O	O	O	cs98	O	NN2	I-NP	rates	NNS	t933:NMOD	O
dropped	t935	37	drop	e135	OCCURRENCE	PAST+NONE+POS	O	O	O	cs98	O	VVD	B-VP	drop	VBD	t934:SBJ||t936:MNR||t937:ADV	O
steadily	t936	37	steadily	O	O	O	O	O	O	cs98	O	AV0	B-ADVP	steadily	RB	O	O
with	t937	37	with	O	O	O	O	O	O	cs98	O	PRP	B-PP	with	IN	t939:PMOD	O
higher	t938	37	higher	O	O	O	O	O	O	cs98	O	AJC	B-NP	higher	JJR	O	O
levels	t939	37	level	O	O	O	O	O	O	cs98	O	NN2	I-NP	level	NNS	t938:NMOD||t940:NMOD	O
of	t940	37	of	O	O	O	O	O	O	cs98	O	PRF	B-PP	of	IN	t941:PMOD	O
education	t941	37	education	O	O	O	O	O	O	cs98	O	NN1	B-NP	education	NN	O	O
.	t942	37	.	O	O	O	O	O	O	cs98	O	PUN	O	.	.	O	O

Among	t943	38	among	O	O	O	O	O	O	cs98	O	PRP	B-PP	among	IN	t944:PMOD	O
people	t944	38	people	O	O	O	O	O	O	cs98	O	NN0	B-NP	people	NN	t945:NMOD	O
with	t945	38	with	O	O	O	O	O	O	cs98	O	PRP	B-PP	with	IN	t946:PMOD	O
less	t946	38	less	O	O	O	O	O	O	cs98	O	DT0	B-NP	less	JJR	t947:NMOD	O
than	t947	38	than	O	O	O	O	O	O	cs98	O	CJS	B-PP	than	IN	t951:PMOD	O
a	t948	38	a	O	O	O	O	O	O	cs98	O	AT0	B-NP	a	DT	O	O
high	t949	38	high	O	O	O	O	O	O	cs98	O	AJ0	I-NP	high	JJ	O	O
school	t950	38	school	O	O	O	O	O	O	cs98	O	NN1	I-NP	school	NN	t949:NMOD	O
education	t951	38	education	O	O	O	O	O	O	cs98	O	NN1	I-NP	education	NN	t948:NMOD||t950:NMOD	O
,	t952	38	,	O	O	O	O	O	O	cs98	O	PUN	O	,	,	O	O
the	t953	38	the	O	O	O	O	O	O	cs98	O	AT0	B-NP	the	DT	O	O
rate	t954	38	rate	O	O	O	O	O	O	cs98	O	NN1	I-NP	rate	NN	t953:NMOD||t955:LOC	O
in	t955	38	in	O	O	O	O	O	O	cs98	O	PRP	B-PP	in	IN	t956:PMOD	O
January	t956	38	January	O	O	O	tmx136	DATE	1998-01	cs98	O	NP0	B-NP	january	NNP	O	O
was	t957	38	be	O	O	O	O	O	O	cs98	O	VBD	B-VP	be	VBD	t943:ADV||t952:P||t954:SBJ||t959:PRD||t960:P	mainVb
7.2	t958	38	7.2	O	O	O	O	O	O	cs98	O	CRD	B-NP	7.2	CD	O	O
percent	t959	38	percent	O	O	O	O	O	O	cs98	O	NN0	I-NP	percent	NN	t958:NMOD	O
.	t960	38	.	O	O	O	O	O	O	cs98	O	PUN	O	.	.	O	O

Among	t961	39	among	O	O	O	O	O	O	cs98	O	PRP	B-PP	among	IN	t964:PMOD	O
high	t962	39	high	O	O	O	O	O	O	cs98	O	AJ0	B-NP	high	JJ	O	O
school	t963	39	school	O	O	O	O	O	O	cs98	O	NN1	I-NP	school	NN	t962:NMOD	O
graduates	t964	39	graduate	O	O	O	O	O	O	cs98	O	NN2	I-NP	graduate	NNS	t963:NMOD	O
,	t965	39	,	O	O	O	O	O	O	cs98	O	PUN	O	,	,	O	O
the	t966	39	the	O	O	O	O	O	O	cs98	O	AT0	B-NP	the	DT	O	O
rate	t967	39	rate	O	O	O	O	O	O	cs98	O	NN1	I-NP	rate	NN	t966:NMOD	O
was	t968	39	be	O	O	O	O	O	O	cs98	O	VBD	B-VP	be	VBD	t961:LOC||t965:P||t967:SBJ||t970:PRD||t978:P	mainVb
3.9	t969	39	3.9	O	O	O	O	O	O	cs98	O	CRD	B-NP	3.9	CD	O	O
percent	t970	39	percent	O	O	O	O	O	O	cs98	O	NN0	I-NP	percent	NN	t969:NMOD||t971:P||t972:COORD	O
,	t971	39	,	O	O	O	O	O	O	cs98	O	PUN	O	,	,	O	O
and	t972	39	and	O	O	O	O	O	O	cs98	O	CJC	O	and	CC	t977:CONJ	O
college	t973	39	college	O	O	O	O	O	O	cs98	O	NN1	B-NP	college	NN	O	O
graduates	t974	39	graduate	O	O	O	O	O	O	cs98	O	NN2	I-NP	graduate	NNS	t973:NMOD	O
,	t975	39	,	O	O	O	O	O	O	cs98	O	PUN	O	,	,	O	O
1.9	t976	39	1.9	O	O	O	O	O	O	cs98	O	CRD	B-NP	1.9	CD	O	O
percent	t977	39	percent	O	O	O	O	O	O	cs98	O	NN0	I-NP	percent	NN	t974:NMOD||t975:P||t976:NMOD	O
.	t978	39	.	O	O	O	O	O	O	cs98	O	PUN	O	.	.	O	O
