DCT_1989-11-02	O	O	O	O	O	O	tmx0	DATE	1989-11-02	O	O	NP0	B-NP	dct_1989-11-02	LS	O	O

Ralston	t1	1	Ralston	O	O	O+O+O	O	O	O	O	O	NP0	B-NP	ralston	NNP	O	O
Purina	t2	1	Purina	O	O	O+O+O	O	O	O	O	O	NP0	I-NP	purina	NNP	t1:NAME||t3:POSTHON	O
Co.	t3	1	Co.	O	O	O+O+O	O	O	O	O	O	NP0	I-NP	co.	NNP	O	O
reported	t4	1	report	e1	REPORTING	PAST+NONE+POS	O	O	O	O	O	VVD	B-VP	report	VBD	t2:SBJ||t8:OBJ||t12:P||t13:ADV||t25:P	mainVb
a	t5	1	a	O	O	O	O	O	O	O	O	AT0	B-NP	a	DT	O	O
47	t6	1	47	O	O	O	O	O	O	O	O	CRD	I-NP	47	CD	O	O
%	t7	1	%	O	O	O	O	O	O	O	O	UNC	I-NP	%	NN	t6:NMOD	O
decline	t8	1	decline	e2	OCCURRENCE	NONE+NONE+POS	O	O	O	O	O	NN1	I-NP	decline	NN	t5:NMOD||t7:NMOD||t9:LOC	O
in	t9	1	in	O	O	O	O	O	O	O	O	PRP	B-PP	in	IN	t11:PMOD	O
fourth-quarter	t10	1	fourth-quarter	O	O	O	tmx3	DURATION	1989-Q4	O	O	NN1	B-NP	fourth-quarter	NN	O	O
earnings	t11	1	earnings	e4	OCCURRENCE	NONE+NONE+POS	O	O	O	O	O	NN2	I-NP	earnings	NNS	t10:NMOD	O
,	t12	1	,	O	O	O	O	O	O	O	O	PUN	O	,	,	O	O
reflecting	t13	1	reflect	e5	I_STATE	PRESPART+NONE+POS	O	O	O	O	O	VVG	B-VP	reflect	VBG	t15:OBJ	O
restructuring	t14	1	restructuring	O	O	O	O	O	O	O	O	VVG	B-NP	restructuring	VBG	O	O
costs	t15	1	cost	e6	OCCURRENCE	NONE+NONE+POS	O	O	O	O	O	NN2	I-NP	costs	NNS	t14:NMOD||t16:COORD	O
as	t16	1	as	O	O	O	O	O	O	O	O	AV0	B-CONJP	as	RB	t17:DEP||t18:DEP||t24:CONJ	O
well	t17	1	well	O	O	O	O	O	O	O	O	AV0	I-CONJP	well	RB	O	O
as	t18	1	as	O	O	O	O	O	O	O	O	PRP	I-CONJP	as	IN	O	O
a	t19	1	a	O	O	O	O	O	O	O	O	AT0	B-NP	a	DT	O	O
more	t20	1	more	O	O	O	O	O	O	O	O	AV0	I-NP	more	RBR	O	O
difficult	t21	1	difficult	O	O	O	O	O	O	O	O	AJ0	I-NP	difficult	JJ	t20:AMOD	O
pet	t22	1	pet	O	O	O	O	O	O	O	O	NN1	I-NP	pet	NN	O	O
food	t23	1	food	O	O	O	O	O	O	O	O	NN1	I-NP	food	NN	t22:NMOD	O
market	t24	1	market	e7	OCCURRENCE	NONE+NONE+POS	O	O	O	O	O	NN1	I-NP	market	NN	t19:NMOD||t21:NMOD||t23:NMOD	O
.	t25	1	.	O	O	O	O	O	O	O	O	PUN	O	.	.	O	O

The	t26	2	the	O	O	O	O	O	O	O	O	AT0	B-NP	the	DT	O	O
St.	t27	2	St.	O	O	O	O	O	O	O	O	NP0	I-NP	st.	NNP	O	O
Louis	t28	2	Louis	O	O	O	O	O	O	O	O	NP0	I-NP	louis	NNP	t27:TITLE	O
company	t29	2	company	O	O	O	O	O	O	O	O	NN1	I-NP	company	NN	t26:NMOD||t28:NMOD	O
earned	t30	2	earn	e8	OCCURRENCE	PAST+NONE+POS	O	O	O	O	O	VVD	B-VP	earn	VBD	t29:SBJ||t31:OBJ||t40:P||t41:ADV||t56:P	mainVb
$	t31	2	$	O	O	O	O	O	O	O	O	NN0	B-NP	$	$	t32:DEP||t33:DEP||t34:P||t35:COORD	O
45.2	t32	2	45.2	O	O	O	O	O	O	O	O	CRD	I-NP	45.2	CD	O	O
million	t33	2	million	O	O	O	O	O	O	O	O	CRD	I-NP	million	CD	O	O
,	t34	2	,	O	O	O	O	O	O	O	O	PUN	O	,	,	O	O
or	t35	2	or	O	O	O	O	O	O	O	O	CJC	O	or	CC	t37:CONJ	O
65	t36	2	65	O	O	O	O	O	O	O	O	CRD	B-NP	65	CD	O	O
cents	t37	2	cent	O	O	O	O	O	O	O	O	NN2	I-NP	cent	NNS	t36:NMOD||t39:ADV	O
a	t38	2	a	O	O	O	O	O	O	O	O	AT0	B-NP	a	DT	O	O
share	t39	2	share	O	O	O	O	O	O	O	O	NN1	I-NP	share	NN	t38:NMOD	O
,	t40	2	,	O	O	O	O	O	O	O	O	PUN	O	,	,	O	O
compared	t41	2	compare	O	O	O	O	O	O	O	O	VVN	B-PP	compare	VBN	t42:PMOD	O
with	t42	2	with	O	O	O	O	O	O	O	O	PRP	B-PP	with	IN	t43:PMOD	O
$	t43	2	$	O	O	O	O	O	O	O	O	CRD	B-NP	$	$	t44:DEP||t45:DEP||t46:P||t47:COORD||t52:P||t55:TMP	O
84.9	t44	2	84.9	O	O	O	O	O	O	O	O	CRD	I-NP	84.9	CD	O	O
million	t45	2	million	O	O	O	O	O	O	O	O	CRD	I-NP	million	CD	O	O
,	t46	2	,	O	O	O	O	O	O	O	O	PUN	O	,	,	O	O
or	t47	2	or	O	O	O	O	O	O	O	O	CJC	O	or	CC	t48:CONJ	O
$	t48	2	$	O	O	O	O	O	O	O	O	CRD	B-NP	$	$	t49:NMOD||t51:ADV	O
1.24	t49	2	1.24	O	O	O	O	O	O	O	O	CRD	I-NP	1.24	CD	O	O
a	t50	2	a	O	O	O	O	O	O	O	O	AT0	B-NP	a	DT	O	O
share	t51	2	share	O	O	O	O	O	O	O	O	NN1	I-NP	share	NN	t50:NMOD	O
,	t52	2	,	O	O	O	O	O	O	O	O	PUN	O	,	,	O	O
a	t53	2	a	O	O	O	tmx9	DATE	1988-Q4	O	O	AT0	B-NP	a	DT	O	O
year	t54	2	year	O	O	O	tmx9	DATE	1988-Q4	O	O	NN1	I-NP	year	NN	t53:NMOD	O
earlier	t55	2	earlier	O	O	O	tmx9	DATE	1988-Q4	O	O	AV0	B-ADVP	earlier	RBR	t54:AMOD	O
.	t56	2	.	O	O	O	O	O	O	O	O	PUN	O	.	.	O	O

Sales	t57	3	sale	e10	OCCURRENCE	NONE+NONE+POS	O	O	O	O	O	NP0	B-NP	sales	NNS	t58:TMP	O
in	t58	3	in	O	O	O	O	O	O	O	O	PRP	B-PP	in	IN	t61:PMOD	O
the	t59	3	the	O	O	O	tmx11	DATE	1989-Q4	O	O	AT0	B-NP	the	DT	O	O
latest	t60	3	latest	O	O	O	tmx11	DATE	1989-Q4	O	O	AJS	I-NP	latest	JJS	O	O
period	t61	3	period	O	O	O	tmx11	DATE	1989-Q4	O	O	NN1	I-NP	period	NN	t59:NMOD||t60:NMOD	O
were	t62	3	be	O	O	O	O	O	O	O	O	VBD	B-VP	be	VBD	t57:SBJ||t63:PRD||t78:P	mainVb
$	t63	3	$	O	O	O	O	O	O	O	O	CRD	B-NP	$	$	t64:DEP||t65:DEP||t66:P||t70:APPO	O
1.76	t64	3	1.76	O	O	O	O	O	O	O	O	CRD	I-NP	1.76	CD	O	O
billion	t65	3	billion	O	O	O	O	O	O	O	O	CRD	I-NP	billion	CD	O	O
,	t66	3	,	O	O	O	O	O	O	O	O	PUN	O	,	,	O	O
a	t67	3	a	O	O	O	O	O	O	O	O	AT0	B-NP	a	DT	O	O
13	t68	3	13	O	O	O	O	O	O	O	O	CRD	I-NP	13	CD	O	O
%	t69	3	%	O	O	O	O	O	O	O	O	UNC	I-NP	%	NN	t68:NMOD	O
increase	t70	3	increase	e12	OCCURRENCE	NONE+NONE+POS	O	O	O	O	O	NN1	I-NP	increase	NN	t67:NMOD||t69:NMOD||t71:NMOD	O
from	t71	3	from	O	O	O	O	O	O	O	O	PRP	B-PP	from	IN	t75:PMOD	O
last	t72	3	last	O	O	O	tmx13	DATE	1988-Q4	O	O	ORD	B-NP	last	JJ	O	O
year	t73	3	year	O	O	O	tmx13	DATE	1988-Q4	O	O	NN1	I-NP	year	NN	t72:NMOD||t74:SUFFIX	O
's	t74	3	's	O	O	O	O	O	O	O	O	VBZ	B-VP	's	POS	O	O
$	t75	3	$	O	O	O	O	O	O	O	O	CRD	B-NP	$	$	t73:NMOD||t76:DEP||t77:DEP	O
1.55	t76	3	1.55	O	O	O	O	O	O	O	O	CRD	I-NP	1.55	CD	O	O
billion	t77	3	billion	O	O	O	O	O	O	O	O	CRD	I-NP	billion	CD	O	O
.	t78	3	.	O	O	O	O	O	O	O	O	PUN	O	.	.	O	O

For	t79	4	for	O	O	O	O	O	O	O	O	PRP	B-PP	for	IN	t81:PMOD	O
the	t80	4	the	O	O	O	tmx14	DATE	1989	O	O	AT0	B-NP	the	DT	O	O
year	t81	4	year	O	O	O	tmx14	DATE	1989	O	O	NN1	I-NP	year	NN	t80:NMOD||t82:APPO	O
ended	t82	4	end	e15	ASPECTUAL	PASTPART+NONE+POS	O	O	O	O	O	VVD	B-VP	end	VBN	t84:TMP	O
Sept.	t83	4	Sept.	O	O	O	tmx16	DATE	1989-09-30	O	O	NP0	B-NP	sept.	NNP	O	O
30	t84	4	30	O	O	O	tmx16	DATE	1989-09-30	O	O	CRD	I-NP	30	CD	t83:NMOD	O
,	t85	4	,	O	O	O	O	O	O	O	O	PUN	O	,	,	O	O
Ralston	t86	4	Ralston	O	O	O	O	O	O	O	O	NP0	B-NP	ralston	NNP	O	O
earned	t87	4	earn	e17	OCCURRENCE	PAST+NONE+POS	O	O	O	O	O	VVD	B-VP	earn	VBD	t79:ADV||t85:P||t86:SBJ||t88:OBJ||t98:ADV||t111:P	mainVb
$	t88	4	$	O	O	O	O	O	O	O	O	CRD	B-NP	$	$	t89:DEP||t90:DEP||t91:P||t92:COORD||t97:P	O
422.5	t89	4	422.5	O	O	O	O	O	O	O	O	CRD	I-NP	422.5	CD	O	O
million	t90	4	million	O	O	O	O	O	O	O	O	CRD	I-NP	million	CD	O	O
,	t91	4	,	O	O	O	O	O	O	O	O	PUN	O	,	,	O	O
or	t92	4	or	O	O	O	O	O	O	O	O	CJC	O	or	CC	t93:CONJ	O
$	t93	4	$	O	O	O	O	O	O	O	O	CRD	B-NP	$	$	t94:NMOD||t96:ADV	O
6.44	t94	4	6.44	O	O	O	O	O	O	O	O	CRD	I-NP	6.44	CD	O	O
a	t95	4	a	O	O	O	O	O	O	O	O	AT0	B-NP	a	DT	O	O
share	t96	4	share	O	O	O	O	O	O	O	O	NN1	I-NP	share	NN	t95:NMOD	O
,	t97	4	,	O	O	O	O	O	O	O	O	PUN	O	,	,	O	O
up	t98	4	up	O	O	O	O	O	O	O	O	PRP	B-ADVP	up	IN	t100:AMOD||t101:AMOD	O
8.9	t99	4	8.9	O	O	O	O	O	O	O	O	CRD	B-NP	8.9	CD	O	O
%	t100	4	%	O	O	O	O	O	O	O	O	UNC	I-NP	%	NN	t99:NMOD	O
from	t101	4	from	O	O	O	O	O	O	O	O	PRP	B-PP	from	IN	t102:PMOD	O
$	t102	4	$	O	O	O	O	O	O	O	O	CRD	B-NP	$	$	t103:DEP||t104:DEP||t105:P||t106:COORD	O
387.8	t103	4	387.8	O	O	O	O	O	O	O	O	CRD	I-NP	387.8	CD	O	O
million	t104	4	million	O	O	O	O	O	O	O	O	CRD	I-NP	million	CD	O	O
,	t105	4	,	O	O	O	O	O	O	O	O	PUN	O	,	,	O	O
or	t106	4	or	O	O	O	O	O	O	O	O	CJC	O	or	CC	t107:CONJ	O
$	t107	4	$	O	O	O	O	O	O	O	O	CRD	B-NP	$	$	t108:NMOD||t110:ADV	O
5.63	t108	4	5.63	O	O	O	O	O	O	O	O	CRD	I-NP	5.63	CD	O	O
a	t109	4	a	O	O	O	O	O	O	O	O	AT0	B-NP	a	DT	O	O
share	t110	4	share	O	O	O	O	O	O	O	O	NN1	I-NP	share	NN	t109:NMOD	O
.	t111	4	.	O	O	O	O	O	O	O	O	PUN	O	.	.	O	O

This	t112	5	this	O	O	O	tmx18	DATE	1989	O	O	DT0	B-NP	this	DT	O	O
year	t113	5	year	O	O	O	tmx18	DATE	1989	O	O	NN1	I-NP	year	NN	t112:NMOD||t114:SUFFIX	O
's	t114	5	's	O	O	O	O	O	O	O	O	POS	B-NP	's	POS	O	O
results	t115	5	result	e19	OCCURRENCE	NONE+NONE+POS	O	O	O	O	O	NN2	I-NP	result	NNS	t113:NMOD	O
included	t116	5	include	O	O	O	O	O	O	O	O	VVD	B-VP	include	VBD	t115:SBJ||t118:OBJ||t129:P	mainVb
a	t117	5	a	O	O	O	O	O	O	O	O	AT0	B-NP	a	DT	O	O
gain	t118	5	gain	e20	OCCURRENCE	NONE+NONE+POS	O	O	O	O	O	NN1	I-NP	gain	NN	t117:NMOD||t119:NMOD||t123:NMOD	O
of	t119	5	of	O	O	O	O	O	O	O	O	PRF	B-PP	of	IN	t120:PMOD	O
$	t120	5	$	O	O	O	O	O	O	O	O	NN0	B-NP	$	$	t121:DEP||t122:DEP	O
70.2	t121	5	70.2	O	O	O	O	O	O	O	O	CRD	I-NP	70.2	CD	O	O
million	t122	5	million	O	O	O	O	O	O	O	O	CRD	I-NP	million	CD	O	O
on	t123	5	on	O	O	O	O	O	O	O	O	PRP	B-PP	on	IN	t125:PMOD	O
the	t124	5	the	O	O	O	O	O	O	O	O	AT0	B-NP	the	DT	O	O
disposal	t125	5	disposal	e21	OCCURRENCE	NONE+NONE+POS	O	O	O	O	O	NN1	I-NP	disposal	NN	t124:NMOD||t126:NMOD	O
of	t126	5	of	O	O	O	O	O	O	O	O	PRF	B-PP	of	IN	t128:PMOD	O
seafood	t127	5	seafood	O	O	O	O	O	O	O	O	NN1	B-NP	seafood	NN	O	O
operations	t128	5	operation	O	O	O	O	O	O	O	O	NN2	I-NP	operations	NNS	t127:NMOD	O
.	t129	5	.	O	O	O	O	O	O	O	O	PUN	O	.	.	O	O

Sales	t130	6	sale	e22	OCCURRENCE	NONE+NONE+POS	O	O	O	O	O	NP0	B-NP	sales	NNS	t131:NMOD	O
for	t131	6	for	O	O	O	O	O	O	O	O	PRP	B-PP	for	IN	t134:PMOD	O
the	t132	6	the	O	O	O	tmx23	DATE	1989	O	O	AT0	B-NP	the	DT	O	O
full	t133	6	full	O	O	O	tmx23	DATE	1989	O	O	AJ0	I-NP	full	JJ	O	O
year	t134	6	year	O	O	O	tmx23	DATE	1989	O	O	NN1	I-NP	year	NN	t132:NMOD||t133:NMOD	O
were	t135	6	be	O	O	O	O	O	O	O	O	VBD	B-VP	be	VBD	t130:SBJ||t136:PRD||t139:P||t140:ADV||t147:P	mainVb
$	t136	6	$	O	O	O	O	O	O	O	O	CRD	B-NP	$	$	t137:DEP||t138:DEP	O
6.6	t137	6	6.6	O	O	O	O	O	O	O	O	CRD	I-NP	6.6	CD	O	O
billion	t138	6	billion	O	O	O	O	O	O	O	O	CRD	I-NP	billion	CD	O	O
,	t139	6	,	O	O	O	O	O	O	O	O	PUN	O	,	,	O	O
up	t140	6	up	O	O	O	O	O	O	O	O	AV0	B-ADVP	up	IN	t142:AMOD||t143:AMOD	O
13	t141	6	13	O	O	O	O	O	O	O	O	CRD	B-NP	13	CD	O	O
%	t142	6	%	O	O	O	O	O	O	O	O	UNC	I-NP	%	NN	t141:NMOD	O
from	t143	6	from	O	O	O	O	O	O	O	O	PRP	B-PP	from	IN	t144:PMOD	O
$	t144	6	$	O	O	O	O	O	O	O	O	CRD	B-NP	$	$	t145:DEP||t146:DEP	O
5.8	t145	6	5.8	O	O	O	O	O	O	O	O	CRD	I-NP	5.8	CD	O	O
billion	t146	6	billion	O	O	O	O	O	O	O	O	CRD	I-NP	billion	CD	O	O
.	t147	6	.	O	O	O	O	O	O	O	O	PUN	O	.	.	O	O

Ralston	t148	7	Ralston	O	O	O	O	O	O	O	O	NP0	B-NP	ralston	NNP	O	O
said	t149	7	say	e24	REPORTING	PAST+NONE+POS	O	O	O	O	O	VVD	B-VP	say	VBD	t148:SBJ||t153:OBJ||t183:P	mainVb
its	t150	7	its	O	O	O	O	O	O	O	O	DPS	B-NP	its	PRP$	O	O
restructuring	t151	7	restructuring	O	O	O	O	O	O	O	O	NN1	I-NP	restructuring	NN	O	O
costs	t152	7	cost	O	O	O	O	O	O	O	O	NN2	I-NP	costs	NNS	t150:NMOD||t151:NMOD	O
include	t153	7	include	e25	OCCURRENCE	PRESENT+NONE+POS	O	O	O	O	O	VVB	B-VP	include	VBP	t152:SBJ||t155:OBJ	O
the	t154	7	the	O	O	O	O	O	O	O	O	AT0	B-NP	the	DT	O	O
phase-out	t155	7	phase-out	e26	OCCURRENCE	NONE+NONE+POS	O	O	O	O	O	NN1	I-NP	phase-out	NN	t154:NMOD||t156:NMOD	O
of	t156	7	of	O	O	O	O	O	O	O	O	PRF	B-PP	of	IN	t159:PMOD	O
a	t157	7	a	O	O	O	O	O	O	O	O	AT0	B-NP	a	DT	O	O
battery	t158	7	battery	O	O	O	O	O	O	O	O	NN1	I-NP	battery	NN	O	O
facility	t159	7	facility	O	O	O	O	O	O	O	O	NN1	I-NP	facility	NN	t157:NMOD||t158:NMOD||t160:LOC||t167:COORD	O
in	t160	7	in	O	O	O	O	O	O	O	O	PRP	B-PP	in	IN	t163:PMOD	O
Greenville	t161	7	Greenville	O	O	O	O	O	O	O	O	NP0	B-NP	greenville	NNP	O	O
,	t162	7	,	O	O	O	O	O	O	O	O	PUN	O	,	,	O	O
N.C.	t163	7	N.C.	O	O	O	O	O	O	O	O	NP0	B-NP	n.c.	NNP	t161:NMOD||t162:P||t164:P	O
,	t164	7	,	O	O	O	O	O	O	O	O	PUN	O	,	,	O	O
the	t165	7	the	O	O	O	O	O	O	O	O	AT0	B-NP	the	DT	O	O
recent	t166	7	recent	O	O	O	tmx27	DATE	PAST_REF	O	O	AJ0	I-NP	recent	JJ	O	O
closing	t167	7	closing	e28	OCCURRENCE	NONE+NONE+POS	O	O	O	O	O	NN1	I-NP	closing	NN	t165:NMOD||t166:NMOD||t168:NMOD||t175:COORD	O
of	t168	7	of	O	O	O	O	O	O	O	O	PRF	B-PP	of	IN	t172:PMOD	O
a	t169	7	a	O	O	O	O	O	O	O	O	AT0	B-NP	a	DT	O	O
Hostess	t170	7	Hostess	O	O	O	O	O	O	O	O	NN1	I-NP	hostess	NNP	O	O
cake	t171	7	cake	O	O	O	O	O	O	O	O	NN1	I-NP	cake	NN	O	O
bakery	t172	7	bakery	O	O	O	O	O	O	O	O	NN1	I-NP	bakery	NN	t169:NMOD||t170:NMOD||t171:NMOD||t173:LOC	O
in	t173	7	in	O	O	O	O	O	O	O	O	PRP	B-PP	in	IN	t174:PMOD	O
Cincinnati	t174	7	Cincinnati	O	O	O	O	O	O	O	O	NP0	B-NP	cincinnati	NNP	O	O
and	t175	7	and	O	O	O	O	O	O	O	O	CJC	O	and	CC	t177:CONJ	O
a	t176	7	a	O	O	O	O	O	O	O	O	AT0	B-NP	a	DT	O	O
reduction	t177	7	reduction	e29	OCCURRENCE	NONE+NONE+POS	O	O	O	O	O	NN1	I-NP	reduction	NN	t176:NMOD||t178:NMOD||t180:TMP	O
in	t178	7	in	O	O	O	O	O	O	O	O	PRP	B-PP	in	IN	t179:PMOD	O
staff	t179	7	staff	O	O	O	O	O	O	O	O	NN0	B-NP	staff	NN	O	O
throughout	t180	7	throughout	O	O	O	O	O	O	O	O	PRP	B-PP	throughout	IN	t182:PMOD	O
the	t181	7	the	O	O	O	O	O	O	O	O	AT0	B-NP	the	DT	O	O
company	t182	7	company	O	O	O	O	O	O	O	O	NN1	I-NP	company	NN	t181:NMOD	O
.	t183	7	.	O	O	O	O	O	O	O	O	PUN	O	.	.	O	O

The	t184	8	the	O	O	O	O	O	O	O	O	AT0	B-NP	the	DT	O	O
battery	t185	8	battery	O	O	O	O	O	O	O	O	NN1	I-NP	battery	NN	O	O
plant	t186	8	plant	O	O	O	O	O	O	O	O	NN1	I-NP	plant	NN	t184:NMOD||t185:NMOD||t187:P||t189:NMOD||t197:P	O
,	t187	8	,	O	O	O	O	O	O	O	O	PUN	O	,	,	O	O
which	t188	8	which	O	O	O	O	O	O	O	O	DTQ	B-NP	which	WDT	O	O
makes	t189	8	make	e30	OCCURRENCE	PRESENT+NONE+POS	O	O	O	O	O	VVZ	B-VP	make	VBZ	t188:SBJ||t196:OBJ	O
rechargeable	t190	8	rechargeable	O	O	O	O	O	O	O	O	AJ0	B-NP	rechargeable	JJ	O	O
nickel	t191	8	nickel	O	O	O	O	O	O	O	O	NN1	I-NP	nickel	NN	O	O
cadmium	t192	8	cadmium	O	O	O	O	O	O	O	O	NN1	I-NP	cadmium	NN	t190:NMOD||t191:NMOD||t193:COORD	O
and	t193	8	and	O	O	O	O	O	O	O	O	CJC	I-NP	and	CC	t195:CONJ	O
carbon	t194	8	carbon	O	O	O	O	O	O	O	O	NN1	I-NP	carbon	NN	O	O
zinc	t195	8	zinc	O	O	O	O	O	O	O	O	NN1	I-NP	zinc	NN	t194:NMOD	O
products	t196	8	product	O	O	O	O	O	O	O	O	NN2	I-NP	product	NNS	t192:NMOD	O
,	t197	8	,	O	O	O	O	O	O	O	O	PUN	O	,	,	O	O
will	t198	8	will	O	O	O	O	O	O	O	O	VM0	B-VP	will	MD	t186:SBJ||t199:VC	O
be	t199	8	be	O	O	O	O	O	O	O	O	VBI	I-VP	be	VB	t200:VC	O
closed	t200	8	close	e31	OCCURRENCE	FUTURE+NONE+POS	O	O	O	O	O	VVN	I-VP	close	VBN	t201:TMP	O
over	t201	8	over	O	O	O	O	O	O	O	O	AVP	B-PP	over	IN	t204:PMOD	O
the	t202	8	the	O	O	O	tmx32	DATE	1990	O	O	AT0	B-NP	the	DT	O	O
next	t203	8	next	O	O	O	tmx32	DATE	1990	O	O	ORD	I-NP	next	JJ	O	O
year	t204	8	year	O	O	O	tmx32	DATE	1990	O	O	NN1	I-NP	year	NN	t202:NMOD||t203:NMOD||t206:NMOD	O
or	t205	8	or	O	O	O	tmx32	DATE	1990	O	O	CJC	I-NP	or	CC	O	O
so	t206	8	so	O	O	O	tmx32	DATE	1990	O	O	AV0	I-NP	so	RB	t205:DEP	O
,	t207	8	,	O	O	O	O	O	O	O	O	PUN	O	,	,	O	O
a	t208	8	a	O	O	O	O	O	O	O	O	AT0	B-NP	a	DT	O	O
spokesman	t209	8	spokesman	O	O	O	O	O	O	O	O	NN1	I-NP	spokesman	NN	t208:NMOD	O
said	t210	8	say	e33	REPORTING	PAST+NONE+POS	O	O	O	O	O	VVD	B-VP	say	VBD	t198:OBJ||t207:P||t209:SBJ||t211:P	mainVb
.	t211	8	.	O	O	O	O	O	O	O	O	PUN	O	.	.	O	O

Ralston	t212	9	Ralston	O	O	O	O	O	O	O	O	NP0	B-NP	ralston	NNP	O	O
attributed	t213	9	attribute	e34	I_STATE	PAST+NONE+POS	O	O	O	O	O	VVD	B-VP	attribute	VBD	t212:SBJ||t216:OBJ||t218:ADV||t239:P	mainVb
its	t214	9	its	O	O	O	O	O	O	O	O	DPS	B-NP	its	PRP$	O	O
fourth-quarter	t215	9	fourth-quarter	O	O	O	tmx35	DATE	1989-Q4	O	O	NN1	I-NP	fourth-quarter	NN	O	O
slump	t216	9	slump	e36	OCCURRENCE	NONE+NONE+POS	O	O	O	O	O	NN1	I-NP	slump	NN	t214:NMOD||t215:NMOD	O
partly	t217	9	partly	O	O	O	O	O	O	O	O	AV0	B-ADVP	partly	RB	O	O
to	t218	9	to	O	O	O	O	O	O	O	O	PRP	B-PP	to	TO	t217:PMOD||t220:PMOD	O
higher	t219	9	higher	O	O	O	O	O	O	O	O	AJC	B-NP	higher	JJR	O	O
costs	t220	9	cost	O	O	O	O	O	O	O	O	NN2	I-NP	costs	NNS	t219:NMOD||t221:NMOD	O
of	t221	9	of	O	O	O	O	O	O	O	O	PRF	B-PP	of	IN	t222:PMOD	O
ingredients	t222	9	ingredient	O	O	O	O	O	O	O	O	NN2	B-NP	ingredient	NNS	t223:LOC||t228:COORD	O
in	t223	9	in	O	O	O	O	O	O	O	O	PRP	B-PP	in	IN	t227:PMOD	O
the	t224	9	the	O	O	O	O	O	O	O	O	AT0	B-NP	the	DT	O	O
pet	t225	9	pet	O	O	O	O	O	O	O	O	NN1	I-NP	pet	NN	O	O
food	t226	9	food	O	O	O	O	O	O	O	O	NN1	I-NP	food	NN	t225:NMOD	O
business	t227	9	business	O	O	O	O	O	O	O	O	NN1	I-NP	business	NN	t224:NMOD||t226:NMOD	O
as	t228	9	as	O	O	O	O	O	O	O	O	PRP	B-CONJP	as	RB	t229:DEP||t230:DEP||t232:CONJ	O
well	t229	9	well	O	O	O	O	O	O	O	O	PRP	I-CONJP	well	RB	O	O
as	t230	9	as	O	O	O	O	O	O	O	O	PRP	I-CONJP	as	IN	O	O
competitive	t231	9	competitive	O	O	O	O	O	O	O	O	AJ0	B-NP	competitive	JJ	O	O
pressures	t232	9	pressure	O	O	O	O	O	O	O	O	NN2	I-NP	pressure	NNS	t231:NMOD||t233:P||t235:NMOD	O
,	t233	9	,	O	O	O	O	O	O	O	O	PUN	O	,	,	O	O
which	t234	9	which	O	O	O	O	O	O	O	O	DTQ	B-NP	which	WDT	O	O
required	t235	9	require	e37	I_STATE	PAST+NONE+POS	O	O	O	O	O	VVD	B-VP	require	VBD	t234:SBJ||t238:OBJ	O
higher	t236	9	higher	O	O	O	O	O	O	O	O	AJC	B-NP	higher	JJR	O	O
advertising	t237	9	advertising	O	O	O	O	O	O	O	O	NN1	I-NP	advertising	NN	O	O
spending	t238	9	spending	e38	OCCURRENCE	NONE+NONE+POS	O	O	O	O	O	NN1	I-NP	spending	NN	t236:NMOD||t237:NMOD	O
.	t239	9	.	O	O	O	O	O	O	O	O	PUN	O	.	.	O	O

For	t240	10	for	O	O	O	O	O	O	O	O	PRP	B-PP	for	IN	t242:PMOD	O
the	t241	10	the	O	O	O	tmx39	DATE	1989	O	O	AT0	B-NP	the	DT	O	O
year	t242	10	year	O	O	O	tmx39	DATE	1989	O	O	NN1	I-NP	year	NN	t241:NMOD	O
,	t243	10	,	O	O	O	O	O	O	O	O	PUN	O	,	,	O	O
pet	t244	10	pet	O	O	O	O	O	O	O	O	VVB	B-VP	pet	NN	O	O
food	t245	10	food	O	O	O	O	O	O	O	O	NN1	B-NP	food	NN	O	O
volume	t246	10	volume	O	O	O	O	O	O	O	O	NN1	I-NP	volume	NN	t244:NMOD||t245:NMOD	O
was	t247	10	be	O	O	O	O	O	O	O	O	VBD	B-VP	be	VBD	t240:ADV||t243:P||t246:SBJ||t248:PRD	O
flat	t248	10	flat	e40	STATE	PAST+NONE+POS	O	O	O	O	O	AJ0	B-ADJP	flat	JJ	O	O
,	t249	10	,	O	O	O	O	O	O	O	O	PUN	O	,	,	O	O
the	t250	10	the	O	O	O	O	O	O	O	O	AT0	B-NP	the	DT	O	O
company	t251	10	company	O	O	O	O	O	O	O	O	NN1	I-NP	company	NN	t250:NMOD	O
said	t252	10	say	e41	REPORTING	PAST+NONE+POS	O	O	O	O	O	VVD	B-VP	say	VBD	t247:OBJ||t249:P||t251:SBJ||t253:P	mainVb
.	t253	10	.	O	O	O	O	O	O	O	O	PUN	O	.	.	O	O

Its	t254	11	its	O	O	O	O	O	O	O	O	DPS	B-NP	its	PRP$	O	O
cereal	t255	11	cereal	O	O	O	O	O	O	O	O	AJ0	I-NP	cereal	NN	O	O
division	t256	11	division	O	O	O	O	O	O	O	O	NN1	I-NP	division	NN	t254:NMOD||t255:NMOD	O
realized	t257	11	realize	e42	OCCURRENCE	PAST+NONE+POS	O	O	O	O	O	VVD	B-VP	realize	VBD	t256:SBJ||t260:OBJ||t264:P||t265:COORD||t271:P	mainVb
higher	t258	11	higher	O	O	O	O	O	O	O	O	AJC	B-NP	higher	JJR	O	O
operating	t259	11	operating	O	O	O	O	O	O	O	O	VVG	I-NP	operating	NN	O	O
profit	t260	11	profit	O	O	O	O	O	O	O	O	NN1	I-NP	profit	NN	t258:NMOD||t259:NMOD||t261:NMOD	O
on	t261	11	on	O	O	O	O	O	O	O	O	PRP	B-PP	on	IN	t263:PMOD	O
volume	t262	11	volume	O	O	O	O	O	O	O	O	NN1	B-NP	volume	NN	O	O
increases	t263	11	increase	e43	OCCURRENCE	NONE+NONE+POS	O	O	O	O	O	NN2	I-NP	increase	NNS	t262:NMOD	O
,	t264	11	,	O	O	O	O	O	O	O	O	PUN	O	,	,	O	O
but	t265	11	but	O	O	O	O	O	O	O	O	CJC	O	but	CC	t266:COORD||t267:CONJ	O
also	t266	11	also	O	O	O	O	O	O	O	O	AV0	B-ADVP	also	RB	O	O
spent	t267	11	spend	e44	OCCURRENCE	PAST+NONE+POS	O	O	O	O	O	VVN	B-VP	spend	VBD	t268:OBJ||t269:ADV	O
more	t268	11	more	O	O	O	O	O	O	O	O	AV0	B-ADVP	more	RBR	O	O
on	t269	11	on	O	O	O	O	O	O	O	O	PRP	B-PP	on	IN	t270:PMOD	O
promotion	t270	11	promotion	O	O	O	O	O	O	O	O	NN1	B-NP	promotion	NN	O	O
.	t271	11	.	O	O	O	O	O	O	O	O	PUN	O	.	.	O	O

The	t272	12	the	O	O	O	O	O	O	O	O	AT0	B-NP	the	DT	O	O
Continental	t273	12	Continental	O	O	O	O	O	O	O	O	AJ0	I-NP	continental	NNP	O	O
Baking	t274	12	Baking	O	O	O	O	O	O	O	O	NN1	I-NP	baking	NNP	t273:NAME	O
business	t275	12	business	O	O	O	O	O	O	O	O	NN1	I-NP	business	NN	t272:NMOD||t274:NMOD	O
benefited	t276	12	benefit	e45	OCCURRENCE	PAST+NONE+POS	O	O	O	O	O	VVD	B-VP	benefit	VBD	t275:SBJ||t277:ADV	O
from	t277	12	from	O	O	O	O	O	O	O	O	PRP	B-PP	from	IN	t279:PMOD	O
higher	t278	12	higher	O	O	O	O	O	O	O	O	AJC	B-NP	higher	JJR	O	O
margins	t279	12	margin	O	O	O	O	O	O	O	O	NN2	I-NP	margin	NNS	t278:NMOD||t280:LOC	O
on	t280	12	on	O	O	O	O	O	O	O	O	PRP	B-PP	on	IN	t281:PMOD||t282:COORD	O
bread	t281	12	bread	O	O	O	O	O	O	O	O	NN1	B-NP	bread	NN	O	O
and	t282	12	and	O	O	O	O	O	O	O	O	CJC	O	and	CC	t283:CONJ	O
on	t283	12	on	O	O	O	O	O	O	O	O	PRP	B-PP	on	IN	t286:PMOD	O
increased	t284	12	increase	O	O	O	O	O	O	O	O	AJ0	B-NP	increase	VBN	O	O
cake	t285	12	cake	O	O	O	O	O	O	O	O	NN1	I-NP	cake	NN	O	O
sales	t286	12	sale	e46	OCCURRENCE	NONE+NONE+POS	O	O	O	O	O	NN0	I-NP	sales	NNS	t284:NMOD||t285:NMOD	O
,	t287	12	,	O	O	O	O	O	O	O	O	PUN	O	,	,	O	O
it	t288	12	it	O	O	O	O	O	O	O	O	PNP	B-NP	it	PRP	O	O
added	t289	12	add	e47	REPORTING	PAST+NONE+POS	O	O	O	O	O	VVD	B-VP	add	VBD	t276:OBJ||t287:P||t288:SBJ||t290:P	mainVb
.	t290	12	.	O	O	O	O	O	O	O	O	PUN	O	.	.	O	O

Ralston	t291	13	Ralston	O	O	O	O	O	O	O	O	NP0	B-NP	ralston	NNP	O	O
said	t292	13	say	e48	REPORTING	PAST+NONE+POS	O	O	O	O	O	VVD	B-VP	say	VBD	t291:SBJ||t297:OBJ||t306:P	mainVb
its	t293	13	its	O	O	O	O	O	O	O	O	DPS	B-NP	its	PRP$	O	O
Eveready	t294	13	Eveready	O	O	O	O	O	O	O	O	AJ0	I-NP	eveready	JJ	O	O
battery	t295	13	battery	O	O	O	O	O	O	O	O	NN1	I-NP	battery	NN	O	O
unit	t296	13	unit	O	O	O	O	O	O	O	O	NN1	I-NP	unit	NN	t293:NMOD||t294:NMOD||t295:NMOD	O
was	t297	13	be	O	O	O	O	O	O	O	O	VBD	B-VP	be	VBD	t296:SBJ||t298:VC	O
hurt	t298	13	hurt	e49	OCCURRENCE	PAST+NONE+POS	O	O	O	O	O	VVN	I-VP	hurt	VBN	t299:LGS	O
by	t299	13	by	O	O	O	O	O	O	cs50	O	PRP	B-PP	by	IN	t302:PMOD	O
continuing	t300	13	continue	O	O	O	O	O	O	cs50	O	VVG	B-VP	continue	VBG	O	O
economic	t301	13	economic	O	O	O	O	O	O	cs50	O	AJ0	B-NP	economic	JJ	O	O
problems	t302	13	problem	e51	OCCURRENCE	NONE+NONE+POS	O	O	O	cs50	O	NN2	I-NP	problem	NNS	t300:NMOD||t301:NMOD||t303:LOC	O
in	t303	13	in	O	O	O	O	O	O	cs50	O	PRP	B-PP	in	IN	t305:PMOD	O
South	t304	13	South	O	O	O	O	O	O	cs50	O	NP0	B-NP	south	NNP	O	O
America	t305	13	America	O	O	O	O	O	O	cs50	O	NP0	I-NP	america	NNP	t304:NAME	O
.	t306	13	.	O	O	O	O	O	O	cs50	O	PUN	O	.	.	O	O

Ralston	t307	14	Ralston	O	O	O	O	O	O	cs50	O	NP0	B-NP	ralston	NNP	O	O
shares	t308	14	share	O	O	O	O	O	O	cs50	O	VVZ	I-NP	share	NNS	t307:NMOD	O
closed	t309	14	close	e52	OCCURRENCE	PAST+NONE+POS	O	O	O	cs50	O	AJ0	B-VP	close	VBD	t308:SBJ||t310:TMP||t311:ADV||t314:P||t315:ADV||t318:P||t319:LOC||t326:P	mainVb
yesterday	t310	14	yesterday	O	O	O	tmx53	DATE	1989-11-01	cs50	O	AV0	B-NP	yesterday	NN	O	O
at	t311	14	at	O	O	O	O	O	O	cs50	O	PRP	B-PP	at	IN	t312:PMOD	O
$	t312	14	$	O	O	O	O	O	O	cs50	O	NN0	B-NP	$	$	t313:NMOD	O
80.50	t313	14	80.50	O	O	O	O	O	O	cs50	O	CRD	I-NP	80.50	CD	O	O
,	t314	14	,	O	O	O	O	O	O	cs50	O	PUN	O	,	,	O	O
off	t315	14	off	O	O	O	O	O	O	cs50	O	AVP	B-ADVP	off	IN	t316:AMOD	O
$	t316	14	$	O	O	O	O	O	O	cs50	O	CRD	B-NP	$	$	t317:NMOD	O
1	t317	14	1	O	O	O	O	O	O	cs50	O	CRD	I-NP	1	CD	O	O
,	t318	14	,	O	O	O	O	O	O	cs50	O	PUN	O	,	,	O	O
in	t319	14	in	O	O	O	O	O	O	cs50	O	PRP	B-PP	in	IN	t325:PMOD	O
New	t320	14	New	O	O	O	O	O	O	cs50	O	NP0	B-NP	new	NNP	O	O
York	t321	14	York	O	O	O	O	O	O	cs50	O	NP0	I-NP	york	NNP	t320:NAME	O
Stock	t322	14	Stock	O	O	O	O	O	O	cs50	O	NP0	I-NP	stock	NNP	O	O
Exchange	t323	14	Exchange	O	O	O	O	O	O	cs50	O	NP0	I-NP	exchange	NNP	t321:NAME||t322:NAME	O
composite	t324	14	composite	O	O	O	O	O	O	cs50	O	AJ0	I-NP	composite	JJ	O	O
trading	t325	14	trading	O	O	O	O	O	O	cs50	O	NN1	I-NP	trading	NN	t323:NMOD||t324:NMOD	O
.	t326	14	.	O	O	O	O	O	O	cs50	O	PUN	O	.	.	O	O
