DCT_1989-10-27	O	O	O	O	O	O	tmx0	DATE	1989-10-27	O	O	NP0	B-NP	dct_1989-10-27	LS	O	O

Billions	t1	1	billion	O	O	O+O+O	O	O	O	O	O	CRD	B-NP	billion	NNS	t2:NMOD	O
of	t2	1	of	O	O	O+O+O	O	O	O	O	O	PRF	B-PP	of	IN	t5:PMOD	O
investors	t3	1	investor	O	O	O+O+O	O	O	O	O	O	NN2	B-NP	investor	NNS	t4:SUFFIX	O
'	t4	1	'	O	O	O+O+O	O	O	O	O	O	POS	B-NP	'	POS	O	O
dollars	t5	1	dollar	O	O	O+O+O	O	O	O	O	O	NN2	I-NP	dollar	NNS	t3:NMOD	O
are	t6	1	be	O	O	O+O+O	O	O	O	O	O	VBB	B-VP	be	VBP	t1:SBJ||t7:VC||t28:P	mainVb
pouring	t7	1	pour	e1	OCCURRENCE	PRESENT+PROGRESSIVE+POS	O	O	O	O	O	VVG	I-VP	pour	VBG	t8:DIR||t16:P||t17:ADV	mainVb
out	t8	1	out	O	O	O	O	O	O	O	O	PRP	B-PRT	out	IN	t9:PMOD	O
of	t9	1	of	O	O	O	O	O	O	O	O	PRP	B-PP	of	IN	t15:PMOD	O
the	t10	1	the	O	O	O	O	O	O	O	O	AT0	B-NP	the	DT	O	O
nation	t11	1	nation	O	O	O	O	O	O	O	O	NN1	I-NP	nation	NN	t10:NMOD||t12:SUFFIX	O
's	t12	1	's	O	O	O	O	O	O	O	O	POS	B-NP	's	POS	O	O
junk-bond	t13	1	junk-bond	O	O	O	O	O	O	O	O	NN1	I-NP	junk-bond	NN	O	O
mutual	t14	1	mutual	O	O	O	O	O	O	O	O	AJ0	I-NP	mutual	JJ	O	O
funds	t15	1	fund	O	O	O	O	O	O	O	O	NN2	I-NP	funds	NNS	t11:NMOD||t13:NMOD||t14:NMOD	O
,	t16	1	,	O	O	O	O	O	O	O	O	PUN	O	,	,	O	O
undermining	t17	1	undermine	e2	OCCURRENCE	PRESPART+NONE+POS	O	O	O	O	O	VVG	B-VP	undermine	VBG	t19:OBJ	O
a	t18	1	a	O	O	O	O	O	O	O	O	AT0	B-NP	a	DT	O	O
pillar	t19	1	pillar	O	O	O	O	O	O	O	O	NN1	I-NP	pillar	NN	t18:NMOD||t20:NMOD||t22:LOC	O
of	t20	1	of	O	O	O	O	O	O	O	O	PRF	B-PP	of	IN	t21:PMOD	O
support	t21	1	support	O	O	O	O	O	O	O	O	NN1	B-NP	support	NN	O	O
in	t22	1	in	O	O	O	O	O	O	O	O	PRP	B-PP	in	IN	t27:PMOD	O
the	t23	1	the	O	O	O	O	O	O	O	O	AT0	B-NP	the	DT	O	O
already	t24	1	already	O	O	O	O	O	O	O	O	AV0	I-NP	already	RB	O	O
reeling	t25	1	reel	O	O	O	O	O	O	O	O	VVG	I-NP	reel	VBG	t24:AMOD	O
junk	t26	1	junk	O	O	O	O	O	O	O	O	NN1	I-NP	junk	NN	O	O
market	t27	1	market	O	O	O	O	O	O	O	O	NN1	I-NP	market	NN	t23:NMOD||t25:NMOD||t26:NMOD	O
.	t28	1	.	O	O	O	O	O	O	O	O	PUN	O	.	.	O	O

Last	t29	2	last	O	O	O	tmx3	DATE	1989-WXX	O	O	ORD	B-NP	last	JJ	O	O
week	t30	2	week	O	O	O	tmx3	DATE	1989-WXX	O	O	NN1	I-NP	week	NN	t29:NMOD||t31:NMOD	O
alone	t31	2	alone	O	O	O	O	O	O	O	O	AV0	B-ADVP	alone	RB	O	O
,	t32	2	,	O	O	O	O	O	O	O	O	PUN	O	,	,	O	O
an	t33	2	a	O	O	O	O	O	O	O	O	AT0	B-NP	an	DT	O	O
eye-popping	t34	2	eye-popping	O	O	O	O	O	O	O	O	NN1	I-NP	eye-pop	VBG	O	O
$	t35	2	$	O	O	O	O	O	O	O	O	CRD	B-NP	$	$	t33:NMOD||t34:NMOD||t36:DEP||t37:DEP	O
1.6	t36	2	1.6	O	O	O	O	O	O	O	O	CRD	I-NP	1.6	CD	O	O
billion	t37	2	billion	O	O	O	O	O	O	O	O	CRD	I-NP	billion	CD	O	O
flowed	t38	2	flow	e4	OCCURRENCE	PAST+NONE+POS	O	O	O	O	O	VVD	B-VP	flow	VBD	t30:TMP||t32:P||t35:SBJ||t39:DIR||t44:P||t45:COORD||t53:P||t54:ADV||t67:P	mainVb
out	t39	2	out	O	O	O	O	O	O	O	O	PRP	B-PRT	out	IN	t40:PMOD	O
of	t40	2	of	O	O	O	O	O	O	O	O	PRP	B-PP	of	IN	t43:PMOD	O
the	t41	2	the	O	O	O	O	O	O	O	O	AT0	B-NP	the	DT	O	O
junk	t42	2	junk	O	O	O	O	O	O	O	O	NN1	I-NP	junk	NN	O	O
funds	t43	2	fund	O	O	O	O	O	O	O	O	NN2	I-NP	funds	NNS	t41:NMOD||t42:NMOD	O
,	t44	2	,	O	O	O	O	O	O	O	O	PUN	O	,	,	O	O
or	t45	2	or	O	O	O	O	O	O	O	O	CJC	O	or	CC	t48:CONJ	O
nearly	t46	2	nearly	O	O	O	O	O	O	O	O	AV0	B-NP	nearly	RB	t47:DEP	O
5	t47	2	5	O	O	O	O	O	O	O	O	CRD	I-NP	5	CD	O	O
%	t48	2	%	O	O	O	O	O	O	O	O	NN0	I-NP	%	NN	t46:NMOD||t49:NMOD	O
of	t49	2	of	O	O	O	O	O	O	O	O	PRF	B-PP	of	IN	t52:PMOD	O
their	t50	2	they	O	O	O	O	O	O	O	O	DPS	B-NP	their	PRP$	O	O
total	t51	2	total	O	O	O	O	O	O	O	O	AJ0	I-NP	total	JJ	O	O
assets	t52	2	asset	O	O	O	O	O	O	O	O	NN2	I-NP	assets	NNS	t50:NMOD||t51:NMOD	O
,	t53	2	,	O	O	O	O	O	O	O	O	PUN	O	,	,	O	O
according	t54	2	accord	e5	REPORTING	PRESPART+NONE+POS	O	O	O	O	O	PRP	B-PP	accord	VBG	t55:PMOD	O
to	t55	2	to	O	O	O	O	O	O	O	O	PRP	B-PP	to	TO	t56:PMOD	O
estimates	t56	2	estimate	O	O	O	O	O	O	O	O	NN2	B-NP	estimate	NNS	t57:NMOD	O
by	t57	2	by	O	O	O	O	O	O	O	O	PRP	B-PP	by	IN	t60:PMOD	O
Dalbar	t58	2	Dalbar	O	O	O	O	O	O	O	O	NP0	B-NP	dalbar	NNP	O	O
Financial	t59	2	Financial	O	O	O	O	O	O	O	O	AJ0	I-NP	financial	NNP	O	O
Services	t60	2	Services	O	O	O	O	O	O	O	O	NN2	I-NP	services	NNP	t58:NAME||t59:NAME||t61:POSTHON||t62:P||t66:APPO	O
Inc.	t61	2	Inc.	O	O	O	O	O	O	O	O	NN1	I-NP	inc.	NNP	O	O
,	t62	2	,	O	O	O	O	O	O	O	O	PUN	O	,	,	O	O
a	t63	2	a	O	O	O	O	O	O	O	O	AT0	B-NP	a	DT	O	O
Boston	t64	2	Boston	O	O	O	O	O	O	O	O	NP0	I-NP	boston	NNP	O	O
research	t65	2	research	O	O	O	O	O	O	O	O	NN1	I-NP	research	NN	O	O
firm	t66	2	firm	O	O	O	O	O	O	O	O	NN1	I-NP	firm	NN	t63:NMOD||t64:NMOD||t65:NMOD	O
.	t67	2	.	O	O	O	O	O	O	O	O	PUN	O	.	.	O	O

In	t68	3	in	O	O	O	O	O	O	O	O	PRP	B-PP	in	IN	t72:PMOD	O
the	t69	3	the	O	O	O	tmx6	DURATION	P2M	O	O	AT0	B-NP	the	DT	O	O
past	t70	3	past	O	O	O	tmx6	DURATION	P2M	O	O	AJ0	I-NP	past	JJ	O	O
two	t71	3	two	O	O	O	tmx6	DURATION	P2M	O	O	CRD	I-NP	two	CD	O	O
months	t72	3	month	O	O	O	tmx6	DURATION	P2M	O	O	NN2	I-NP	month	NNS	t69:NMOD||t70:NMOD||t71:NMOD	O
the	t73	3	the	O	O	O	O	O	O	O	O	AT0	B-NP	the	DT	O	O
nation	t74	3	nation	O	O	O	O	O	O	O	O	NN1	I-NP	nation	NN	t73:NMOD||t75:SUFFIX	O
's	t75	3	's	O	O	O	O	O	O	O	O	POS	B-NP	's	POS	O	O
88	t76	3	88	O	O	O	O	O	O	O	O	CRD	I-NP	88	CD	O	O
junk	t77	3	junk	O	O	O	O	O	O	O	O	NN1	I-NP	junk	NN	t76:NMOD	O
funds	t78	3	fund	O	O	O	O	O	O	O	O	NN2	I-NP	funds	NNS	t74:NMOD||t77:NMOD	O
have	t79	3	have	O	O	O	O	O	O	O	O	VHB	B-VP	have	VBP	t68:TMP||t78:SBJ||t80:VC	O
lost	t80	3	lose	e7	OCCURRENCE	PRESENT+PERFECTIVE+POS	O	O	O	O	O	VVN	I-VP	lose	VBN	t82:OBJ||t96:MNR	O
a	t81	3	a	O	O	O	O	O	O	O	O	AT0	B-NP	a	DT	O	O
total	t82	3	total	O	O	O	O	O	O	O	O	NN1	I-NP	total	NN	t81:NMOD||t83:NMOD	O
of	t83	3	of	O	O	O	O	O	O	O	O	PRF	B-PP	of	IN	t85:PMOD	O
about	t84	3	about	O	O	O	O	O	O	O	O	AV0	B-NP	about	IN	O	O
$	t85	3	$	O	O	O	O	O	O	O	O	CRD	I-NP	$	$	t84:DEP||t86:DEP||t87:DEP||t92:APPO	O
6	t86	3	6	O	O	O	O	O	O	O	O	CRD	I-NP	6	CD	O	O
billion	t87	3	billion	O	O	O	O	O	O	O	O	CRD	I-NP	billion	CD	O	O
--	t88	3	--	O	O	O	O	O	O	O	O	UNC	O	--	:	O	O
more	t89	3	more	O	O	O	O	O	O	O	O	AV0	B-NP	more	RBR	O	O
than	t90	3	than	O	O	O	O	O	O	O	O	AV0	I-NP	than	IN	O	O
15	t91	3	15	O	O	O	O	O	O	O	O	CRD	I-NP	15	CD	t89:DEP||t90:DEP	O
%	t92	3	%	O	O	O	O	O	O	O	O	NN0	I-NP	%	NN	t88:P||t91:NMOD||t93:NMOD||t95:P	O
of	t93	3	of	O	O	O	O	O	O	O	O	PRF	B-PP	of	IN	t94:PMOD	O
assets	t94	3	asset	O	O	O	O	O	O	O	O	NN2	B-NP	assets	NNS	O	O
--	t95	3	--	O	O	O	O	O	O	O	O	UNC	O	--	:	O	O
through	t96	3	through	O	O	O	O	O	O	O	O	PRP	B-PP	through	IN	t97:PMOD	O
sales	t97	3	sale	e8	OCCURRENCE	NONE+NONE+POS	O	O	O	O	O	NN0	B-NP	sales	NNS	t98:COORD||t100:NMOD	O
or	t98	3	or	O	O	O	O	O	O	O	O	CJC	I-NP	or	CC	t99:CONJ	O
transfers	t99	3	transfer	e9	OCCURRENCE	NONE+NONE+POS	O	O	O	O	O	NN2	I-NP	transfer	NNS	O	O
of	t100	3	of	O	O	O	O	O	O	O	O	PRF	B-PP	of	IN	t102:PMOD	O
junk-fund	t101	3	junk-fund	O	O	O	O	O	O	O	O	NN1	B-NP	junk-fund	NN	O	O
shares	t102	3	share	O	O	O	O	O	O	O	O	NN2	I-NP	share	NNS	t101:NMOD	O
,	t103	3	,	O	O	O	O	O	O	O	O	PUN	O	,	,	O	O
Dalbar	t104	3	Dalbar	O	O	O	O	O	O	O	O	NP0	B-NP	dalbar	NNP	O	O
says	t105	3	say	e10	REPORTING	PRESENT+NONE+POS	O	O	O	O	O	VVZ	B-VP	say	VBZ	t79:OBJ||t103:P||t104:SBJ||t106:P	mainVb
.	t106	3	.	O	O	O	O	O	O	O	O	PUN	O	.	.	O	O

It	t107	4	it	O	O	O	O	O	O	O	O	PNP	B-NP	it	PRP	O	O
made	t108	4	make	O	O	O	O	O	O	O	O	VVD	B-VP	make	VBD	t107:SBJ||t110:OBJ||t111:MNR||t123:P	mainVb
the	t109	4	the	O	O	O	O	O	O	O	O	AT0	B-NP	the	DT	O	O
estimates	t110	4	estimate	O	O	O	O	O	O	O	O	NN2	I-NP	estimate	NNS	t109:NMOD	O
based	t111	4	base	O	O	O	O	O	O	O	O	VVN	B-VP	base	VBN	t112:PMOD	O
on	t112	4	on	O	O	O	O	O	O	O	O	PRP	B-PP	on	IN	t113:PMOD	O
data	t113	4	datum	O	O	O	O	O	O	O	O	NN0	B-NP	data	NNS	t114:APPO	O
collected	t114	4	collect	O	O	O	O	O	O	O	O	VVN	B-VP	collect	VBN	t115:ADV	O
from	t115	4	from	O	O	O	O	O	O	O	O	PRP	B-PP	from	IN	t122:PMOD	O
more	t116	4	more	O	O	O	O	O	O	O	O	AV0	B-NP	more	RBR	O	O
than	t117	4	than	O	O	O	O	O	O	O	O	AV0	I-NP	than	IN	O	O
a	t118	4	a	O	O	O	O	O	O	O	O	AT0	I-NP	a	DT	t116:DEP||t117:DEP||t119:DEP	O
dozen	t119	4	dozen	O	O	O	O	O	O	O	O	CRD	I-NP	dozen	CD	O	O
big	t120	4	big	O	O	O	O	O	O	O	O	AJ0	I-NP	big	JJ	O	O
junk	t121	4	junk	O	O	O	O	O	O	O	O	NN1	I-NP	junk	NN	O	O
funds	t122	4	fund	O	O	O	O	O	O	O	O	NN2	I-NP	funds	NNS	t118:NMOD||t120:NMOD||t121:NMOD	O
.	t123	4	.	O	O	O	O	O	O	O	O	PUN	O	.	.	O	O

Interviews	t124	5	interview	e11	OCCURRENCE	NONE+NONE+POS	O	O	O	O	O	NP0	B-NP	interview	NNS	t125:NMOD	O
with	t125	5	with	O	O	O	O	O	O	O	O	PRP	B-PP	with	IN	t129:PMOD	O
three	t126	5	three	O	O	O	O	O	O	O	O	CRD	B-NP	three	CD	O	O
major	t127	5	major	O	O	O	O	O	O	O	O	AJ0	I-NP	major	JJ	O	O
fund	t128	5	fund	O	O	O	O	O	O	O	O	NN1	I-NP	fund	NN	O	O
groups	t129	5	group	O	O	O	O	O	O	O	O	NN2	I-NP	group	NNS	t126:NMOD||t127:NMOD||t128:NMOD||t132:APPO	O
--	t130	5	--	O	O	O	O	O	O	O	O	UNC	O	--	:	O	O
Fidelity	t131	5	Fidelity	O	O	O	O	O	O	O	O	NN1	B-NP	fidelity	NNP	O	O
Investments	t132	5	Investments	O	O	O	O	O	O	O	O	NN2	I-NP	investment	NNPS	t130:P||t131:NAME||t133:P||t135:COORD||t143:P	O
,	t133	5	,	O	O	O	O	O	O	O	O	PUN	O	,	,	O	O
Vanguard	t134	5	Vanguard	O	O	O	O	O	O	O	O	NP0	B-NP	vanguard	NNP	O	O
Group	t135	5	Group	O	O	O	O	O	O	O	O	NP0	I-NP	group	NNP	t134:NAME||t136:POSTHON||t137:COORD	O
Inc.	t136	5	Inc.	O	O	O	O	O	O	O	O	NP0	I-NP	inc.	NNP	O	O
and	t137	5	and	O	O	O	O	O	O	O	O	CJC	O	and	CC	t141:CONJ	O
T.	t138	5	T.	O	O	O	O	O	O	O	O	NP0	B-NP	t.	NNP	O	O
Rowe	t139	5	Rowe	O	O	O	O	O	O	O	O	NP0	I-NP	rowe	NNP	O	O
Price	t140	5	Price	O	O	O	O	O	O	O	O	NP0	I-NP	price	NNP	t138:NAME||t139:NAME	O
Associates	t141	5	Associates	O	O	O	O	O	O	O	O	NP0	I-NP	associate	NNP	t140:NAME||t142:POSTHON	O
Inc.	t142	5	Inc.	O	O	O	O	O	O	O	O	NP0	I-NP	inc.	NNP	O	O
--	t143	5	--	O	O	O	O	O	O	O	O	UNC	O	--	:	O	O
confirm	t144	5	confirm	e12	REPORTING	PRESENT+NONE+POS	O	O	O	O	O	VVB	B-VP	confirm	VBP	t124:SBJ||t146:OBJ||t147:P	mainVb
the	t145	5	the	O	O	O	O	O	O	O	O	AT0	B-NP	the	DT	O	O
trend	t146	5	trend	e13	OCCURRENCE	NONE+NONE+POS	O	O	O	O	O	NN1	I-NP	trend	NN	t145:NMOD	O
.	t147	5	.	O	O	O	O	O	O	O	O	PUN	O	.	.	O	O

Their	t148	6	they	O	O	O	O	O	O	O	O	DPS	B-NP	their	PRP$	O	O
junk	t149	6	junk	O	O	O	O	O	O	O	O	NN1	I-NP	junk	NN	O	O
funds	t150	6	fund	O	O	O	O	O	O	O	O	NN2	I-NP	funds	NNS	t148:NMOD||t149:NMOD||t151:APPO	O
combined	t151	6	combine	O	O	O	O	O	O	O	O	VVD	B-VP	combine	VBN	O	O
have	t152	6	have	O	O	O	O	O	O	O	O	VHB	B-VP	have	VBP	t150:SBJ||t153:VC||t177:P	mainVb
had	t153	6	have	O	O	O	O	O	O	O	O	VHN	B-NP	have	VBN	t155:OBJ||t172:TMP	O
net	t154	6	net	O	O	O	O	O	O	O	O	AJ0	I-NP	net	JJ	O	O
outflows	t155	6	outflow	e14	OCCURRENCE	PRESENT+PERFECTIVE+POS	O	O	O	O	O	NN2	I-NP	outflow	NNS	t154:NMOD||t156:APPO	O
totaling	t156	6	total	O	O	O	O	O	O	O	O	VVG	B-VP	total	VBG	t158:OBJ	O
nearly	t157	6	nearly	O	O	O	O	O	O	O	O	AV0	B-NP	nearly	RB	O	O
$	t158	6	$	O	O	O	O	O	O	O	O	CRD	I-NP	$	$	t157:DEP||t159:DEP||t160:DEP||t161:P||t162:COORD||t171:P	O
500	t159	6	500	O	O	O	O	O	O	O	O	CRD	I-NP	500	CD	O	O
million	t160	6	million	O	O	O	O	O	O	O	O	CRD	I-NP	million	CD	O	O
,	t161	6	,	O	O	O	O	O	O	O	O	PUN	O	,	,	O	O
or	t162	6	or	O	O	O	O	O	O	O	O	CJC	O	or	CC	t165:CONJ	O
about	t163	6	about	O	O	O	O	O	O	O	O	AV0	B-NP	about	IN	t164:DEP	O
13	t164	6	13	O	O	O	O	O	O	O	O	CRD	I-NP	13	CD	O	O
%	t165	6	%	O	O	O	O	O	O	O	O	NN0	I-NP	%	NN	t163:NMOD||t166:NMOD	O
of	t166	6	of	O	O	O	O	O	O	O	O	PRF	B-PP	of	IN	t170:PMOD	O
their	t167	6	they	O	O	O	O	O	O	O	O	DPS	B-NP	their	PRP$	O	O
junk	t168	6	junk	O	O	O	O	O	O	O	O	NN1	I-NP	junk	NN	O	O
fund	t169	6	fund	O	O	O	O	O	O	O	O	NN1	I-NP	fund	NN	t168:NMOD	O
assets	t170	6	asset	O	O	O	O	O	O	O	O	NN2	I-NP	assets	NNS	t167:NMOD||t169:NMOD	O
,	t171	6	,	O	O	O	O	O	O	O	O	PUN	O	,	,	O	O
in	t172	6	in	O	O	O	O	O	O	O	O	PRP	B-PP	in	IN	t176:PMOD	O
the	t173	6	the	O	O	O	tmx15	DURATION	P2M	O	O	AT0	B-NP	the	DT	O	O
past	t174	6	past	O	O	O	tmx15	DURATION	P2M	O	O	AJ0	I-NP	past	JJ	O	O
two	t175	6	two	O	O	O	tmx15	DURATION	P2M	O	O	CRD	I-NP	two	CD	O	O
months	t176	6	month	O	O	O	tmx15	DURATION	P2M	O	O	NN2	I-NP	month	NNS	t173:NMOD||t174:NMOD||t175:NMOD	O
.	t177	6	.	O	O	O	O	O	O	O	O	PUN	O	.	.	O	O

Some	t178	7	some	O	O	O	O	O	O	O	O	DT0	B-NP	some	DT	O	O
fund	t179	7	fund	O	O	O	O	O	O	O	O	NN1	I-NP	fund	NN	O	O
managers	t180	7	manager	O	O	O	O	O	O	O	O	NN2	I-NP	manager	NNS	t178:NMOD||t179:NMOD	O
say	t181	7	say	e16	REPORTING	PRESENT+NONE+POS	O	O	O	O	O	VVB	B-VP	say	VBP	t180:SBJ||t184:OBJ||t195:P||t196:P	mainVb
negative	t182	7	negative	O	O	O	O	O	O	O	O	AJ0	B-NP	negative	JJ	O	O
publicity	t183	7	publicity	O	O	O	O	O	O	O	O	NN1	I-NP	publicity	NN	t182:NMOD	O
has	t184	7	have	O	O	O	O	O	O	O	O	VHZ	B-VP	have	VBZ	t183:SBJ||t185:VC	O
exacerbated	t185	7	exacerbate	e17	OCCURRENCE	PRESENT+PERFECTIVE+POS	O	O	O	O	O	VVN	I-VP	exacerbate	VBN	t188:OBJ	O
investors	t186	7	investor	O	O	O	O	O	O	O	O	NN2	B-NP	investor	NNS	t187:SUFFIX	O
'	t187	7	'	O	O	O	O	O	O	O	O	POS	B-NP	'	POS	O	O
concern	t188	7	concern	O	O	O	O	O	O	O	O	NN1	I-NP	concern	NN	t186:NMOD||t189:NMOD	O
about	t189	7	about	O	O	O	O	O	O	O	O	PRP	B-PP	about	IN	t191:PMOD	O
recent	t190	7	recent	O	O	O	tmx18	DATE	PAST_REF	O	O	AJ0	B-NP	recent	JJ	O	O
declines	t191	7	decline	e19	OCCURRENCE	NONE+NONE+POS	O	O	O	O	O	NN2	I-NP	decline	NNS	t190:NMOD||t192:LOC	O
in	t192	7	in	O	O	O	O	O	O	O	O	PRP	B-PP	in	IN	t194:PMOD	O
junk-bond	t193	7	junk-bond	O	O	O	O	O	O	O	O	NN1	B-NP	junk-bond	NN	O	O
prices	t194	7	price	O	O	O	O	O	O	O	O	NN2	I-NP	price	NNS	t193:NMOD	O
.	t195	7	.	O	O	O	O	O	O	O	O	PUN	O	.	.	O	O
"	t196	7	"	O	O	O	O	O	O	O	O	PUQ	O	"	''	O	O

People	t197	8	people	O	O	O	O	O	O	O	O	NN0	B-NP	people	NN	O	O
have	t198	8	have	O	O	O	O	O	O	O	O	VHB	B-VP	have	VBP	t197:SBJ||t199:VC	O
been	t199	8	be	O	O	O	O	O	O	O	O	VBN	I-VP	be	VBN	t200:VC	O
seeing	t200	8	see	O	O	O	O	O	O	O	O	VVG	I-VP	see	VBG	t201:OBJ||t206:COORD	O
headline	t201	8	headline	O	O	O	O	O	O	O	O	NN1	B-NP	headline	NN	t202:NMOD	O
after	t202	8	after	O	O	O	O	O	O	O	O	PRP	B-PP	after	IN	t203:PMOD	O
headline	t203	8	headline	O	O	O	O	O	O	O	O	NN1	B-NP	headline	NN	t204:NMOD	O
after	t204	8	after	O	O	O	O	O	O	O	O	PRP	B-PP	after	IN	t205:PMOD	O
headline	t205	8	headline	O	O	O	O	O	O	O	O	NN1	B-NP	headline	NN	O	O
and	t206	8	and	O	O	O	O	O	O	O	O	CJC	O	and	CC	t207:CONJ	O
saying	t207	8	say	O	O	O	O	O	O	O	O	VVG	B-VP	say	VBG	t208:P||t211:OBJ	O
:	t208	8	:	O	O	O	O	O	O	O	O	PUN	O	:	:	O	O
`	t209	8	`	O	O	O	O	O	O	O	O	PUQ	O	`	``	O	O
I	t210	8	I	O	O	O	O	O	O	O	O	PNP	B-NP	i	PRP	O	O
ca	t211	8	can	O	O	O	O	O	O	O	O	VM0	B-VP	ca	MD	t209:P||t210:SBJ||t212:ADV||t213:VC||t216:P||t218:COORD	O
n't	t212	8	not	O	O	O	O	O	O	O	O	XX0	I-VP	not	RB	O	O
take	t213	8	take	O	O	O	O	O	O	O	O	VVI	I-VP	take	VB	t214:OBJ||t215:TMP	O
it	t214	8	it	O	O	O	O	O	O	O	O	PNP	B-NP	it	PRP	O	O
anymore	t215	8	anymore	O	O	O	O	O	O	O	O	AV0	B-ADVP	anymore	RB	O	O
--	t216	8	--	O	O	O	O	O	O	O	O	UNC	O	--	:	O	O
I	t217	8	I	O	O	O	O	O	O	O	O	PNP	B-NP	i	PRP	O	O
'm	t218	8	be	O	O	O	O	O	O	O	O	VBB	B-VP	'm	VBP	t217:SBJ||t219:VC	O
getting	t219	8	get	O	O	O	O	O	O	O	O	VVG	I-VP	get	VBG	t220:PRD	O
out	t220	8	out	O	O	O	O	O	O	O	O	AVP	B-PRT	out	RB	O	O
,	t221	8	,	O	O	O	O	O	O	O	O	PUN	O	,	,	O	O
'	t222	8	'	O	O	O	O	O	O	O	O	PUQ	O	'	''	O	O
"	t223	8	"	O	O	O	O	O	O	O	O	PUQ	O	"	PRP	O	O
says	t224	8	say	e20	REPORTING	PRESENT+NONE+POS	O	O	O	O	O	VVZ	B-VP	say	VBZ	t198:OBJ||t221:P||t222:P||t223:SBJ||t226:SBJ||t237:P	mainVb
Kurt	t225	8	Kurt	O	O	O	O	O	O	O	O	NP0	B-NP	kurt	NNP	O	O
Brouwer	t226	8	Brouwer	O	O	O	O	O	O	O	O	NP0	I-NP	brouwer	NNP	t225:NAME||t227:NMOD	O
of	t227	8	of	O	O	O	O	O	O	O	O	PRF	B-PP	of	IN	t230:PMOD	O
Brouwer	t228	8	Brouwer	O	O	O	O	O	O	O	O	NP0	B-NP	brouwer	NNP	O	O
amp	t229	8	amp	O	O	O	O	O	O	O	O	NN1	I-NP	amp	NNP	O	O
Janachowski	t230	8	Janachowski	O	O	O	O	O	O	O	O	NP0	I-NP	janachowski	NNP	t228:NAME||t229:NAME||t231:P||t236:APPO	O
,	t231	8	,	O	O	O	O	O	O	O	O	PUN	O	,	,	O	O
a	t232	8	a	O	O	O	O	O	O	O	O	AT0	B-NP	a	DT	O	O
San	t233	8	San	O	O	O	O	O	O	O	O	NP0	I-NP	san	NNP	O	O
Francisco	t234	8	Francisco	O	O	O	O	O	O	O	O	NP0	I-NP	francisco	NNP	t233:NAME	O
investment	t235	8	investment	O	O	O	O	O	O	O	O	NN1	I-NP	investment	NN	O	O
adviser	t236	8	adviser	O	O	O	O	O	O	O	O	NN1	I-NP	adviser	NN	t232:NMOD||t234:NMOD||t235:NMOD	O
.	t237	8	.	O	O	O	O	O	O	O	O	PUN	O	.	.	O	O

The	t238	9	the	O	O	O	O	O	O	O	O	AT0	B-NP	the	DT	O	O
withdrawals	t239	9	withdrawal	e21	OCCURRENCE	NONE+NONE+POS	O	O	O	O	O	NN2	I-NP	withdrawal	NNS	t238:NMOD	O
could	t240	9	could	O	O	O	O	O	O	O	O	VM0	B-VP	could	MD	t239:SBJ||t241:VC||t250:P	mainVb
spell	t241	9	spell	e22	STATE	NONE+NONE+POS	O	O	O	O	O	VVI	I-VP	spell	VB	t242:OBJ	mainVb
trouble	t242	9	trouble	O	O	O	O	O	O	O	O	NN1	B-NP	trouble	NN	t243:NMOD	O
for	t243	9	for	O	O	O	O	O	O	O	O	PRP	B-PP	for	IN	t249:PMOD	O
the	t244	9	the	O	O	O	O	O	O	O	O	AT0	B-NP	the	DT	O	O
$	t245	9	$	O	O	O	O	O	O	O	O	CRD	I-NP	$	$	t246:DEP||t247:DEP	O
200	t246	9	200	O	O	O	O	O	O	O	O	CRD	I-NP	200	CD	O	O
billion	t247	9	billion	O	O	O	O	O	O	O	O	CRD	I-NP	billion	CD	O	O
junk	t248	9	junk	O	O	O	O	O	O	O	O	NN1	I-NP	junk	NN	O	O
market	t249	9	market	O	O	O	O	O	O	O	O	NN1	I-NP	market	NN	t244:NMOD||t245:NMOD||t248:NMOD	O
.	t250	9	.	O	O	O	O	O	O	O	O	PUN	O	.	.	O	O

If	t251	10	if	O	O	O	O	O	O	O	O	CJS	B-SBAR	if	IN	t255:SUB	O
the	t252	10	the	O	O	O	O	O	O	O	O	AT0	B-NP	the	DT	O	O
heavy	t253	10	heavy	O	O	O	O	O	O	O	O	AJ0	I-NP	heavy	JJ	O	O
outflows	t254	10	outflow	e23	OCCURRENCE	NONE+NONE+POS	O	O	O	O	O	NN2	I-NP	outflow	NNS	t252:NMOD||t253:NMOD	O
continue	t255	10	continue	e24	ASPECTUAL	PRESENT+NONE+POS	O	O	O	O	O	VVB	B-VP	continue	VBP	t254:SBJ	O
,	t256	10	,	O	O	O	O	O	O	O	O	PUN	O	,	,	O	O
fund	t257	10	fund	O	O	O	O	O	O	O	O	AJ0	B-NP	fund	NN	O	O
managers	t258	10	manager	O	O	O	O	O	O	O	O	NN2	I-NP	manager	NNS	t257:NMOD	O
will	t259	10	will	O	O	O	O	O	O	O	O	VM0	B-VP	will	MD	t251:ADV||t256:P||t258:SBJ||t260:VC||t278:P	mainVb
face	t260	10	face	e25	I_ACTION	FUTURE+NONE+POS	O	O	O	O	O	VVI	I-VP	face	VB	t262:OBJ	mainVb
increasing	t261	10	increase	O	O	O	O	O	O	O	O	AJ0	B-NP	increase	VBG	O	O
pressure	t262	10	pressure	e26	STATE	NONE+NONE+POS	O	O	O	O	O	NN1	I-NP	pressure	NN	t261:NMOD||t263:NMOD	O
to	t263	10	to	O	O	O	O	O	O	O	O	TO0	B-VP	to	TO	t264:IM	O
sell	t264	10	sell	e27	OCCURRENCE	INFINITIVE+NONE+POS	O	O	O	O	O	VVI	I-VP	sell	VB	t265:PRT||t266:OBJ||t270:PRP	O
off	t265	10	off	O	O	O	O	O	O	O	O	AVP	B-PRT	off	RP	O	O
some	t266	10	some	O	O	O	O	O	O	O	O	DT0	B-NP	some	DT	t267:NMOD	O
of	t267	10	of	O	O	O	O	O	O	O	O	PRF	B-PP	of	IN	t269:PMOD	O
their	t268	10	they	O	O	O	O	O	O	O	O	DPS	B-NP	their	PRP$	O	O
junk	t269	10	junk	O	O	O	O	O	O	O	O	NN1	I-NP	junk	NN	t268:NMOD	O
to	t270	10	to	O	O	O	O	O	O	O	O	TO0	B-VP	to	TO	t271:IM	O
pay	t271	10	pay	e28	OCCURRENCE	INFINITIVE+NONE+POS	O	O	O	O	O	VVI	I-VP	pay	VB	t273:OBJ||t274:TMP	O
departing	t272	10	depart	O	O	O	O	O	O	O	O	VVG	I-VP	depart	VBG	O	O
investors	t273	10	investor	O	O	O	O	O	O	O	O	NN2	B-NP	investor	NNS	t272:NMOD	O
in	t274	10	in	O	O	O	O	O	O	O	O	PRP	B-PP	in	IN	t276:PMOD	O
the	t275	10	the	O	O	O	tmx29	DURATION	PXW	O	O	AT0	B-NP	the	DT	O	O
weeks	t276	10	week	O	O	O	tmx29	DURATION	PXW	O	O	NN2	I-NP	week	NNS	t275:NMOD||t277:NMOD	O
ahead	t277	10	ahead	O	O	O	tmx29	DURATION	PXW	O	O	AV0	B-ADVP	ahead	RB	O	O
.	t278	10	.	O	O	O	O	O	O	O	O	PUN	O	.	.	O	O

Such	t279	11	such	O	O	O	O	O	O	O	O	DT0	B-NP	such	DT	O	O
selling	t280	11	selling	e30	OCCURRENCE	NONE+NONE+POS	O	O	O	O	O	NN1	I-NP	selling	NN	t279:NMOD	O
could	t281	11	could	O	O	O	O	O	O	O	O	VM0	B-VP	could	MD	t280:SBJ||t282:VC||t298:P	mainVb
erode	t282	11	erode	e31	OCCURRENCE	NONE+NONE+POS	O	O	O	O	O	VVI	I-VP	erode	VB	t283:OBJ	mainVb
prices	t283	11	price	O	O	O	O	O	O	O	O	NN2	B-NP	price	NNS	t284:NMOD	O
of	t284	11	of	O	O	O	O	O	O	O	O	PRF	B-PP	of	IN	t287:PMOD	O
high-yield	t285	11	high-yield	O	O	O	O	O	O	O	O	AJ0	B-NP	high-yield	NN	O	O
junk	t286	11	junk	O	O	O	O	O	O	O	O	NN1	I-NP	junk	NN	O	O
bonds	t287	11	bond	O	O	O	O	O	O	O	O	NN2	I-NP	bond	NNS	t285:NMOD||t286:NMOD||t288:P||t290:APPO	O
,	t288	11	,	O	O	O	O	O	O	O	O	PUN	O	,	,	O	O
already	t289	11	already	O	O	O	O	O	O	O	O	AV0	B-VP	already	RB	O	O
weakened	t290	11	weaken	e32	OCCURRENCE	PASTPART+NONE+POS	O	O	O	O	O	VVN	I-VP	weaken	VBN	t289:TMP||t291:LGS	O
by	t291	11	by	O	O	O	O	O	O	O	O	PRP	B-PP	by	IN	t293:PMOD	O
a	t292	11	a	O	O	O	O	O	O	O	O	AT0	B-NP	a	DT	O	O
rash	t293	11	rash	O	O	O	O	O	O	O	O	NN1	I-NP	rash	NN	t292:NMOD||t294:NMOD	O
of	t294	11	of	O	O	O	O	O	O	O	O	PRF	B-PP	of	IN	t297:PMOD	O
corporate	t295	11	corporate	O	O	O	O	O	O	O	O	AJ0	B-NP	corporate	JJ	O	O
credit	t296	11	credit	O	O	O	O	O	O	O	O	NN1	I-NP	credit	NN	t295:NMOD	O
problems	t297	11	problem	O	O	O	O	O	O	O	O	NN2	I-NP	problem	NNS	t296:NMOD	O
.	t298	11	.	O	O	O	O	O	O	O	O	PUN	O	.	.	O	O

Mutual	t299	12	mutual	O	O	O	O	O	O	O	O	AJ0	B-NP	mutual	JJ	O	O
fund	t300	12	fund	O	O	O	O	O	O	O	O	NN1	I-NP	fund	NN	t299:NMOD	O
groups	t301	12	group	O	O	O	O	O	O	O	O	NN2	I-NP	group	NNS	t300:NMOD	O
have	t302	12	have	O	O	O	O	O	O	O	O	VHB	B-VP	have	VBP	t301:SBJ||t303:ADV||t304:VC	O
n't	t303	12	not	O	O	O	O	O	O	O	O	XX0	I-VP	not	RB	O	O
lost	t304	12	lose	e33	OCCURRENCE	PRESENT+PERFECTIVE+NEG	O	O	O	O	O	VVN	I-VP	lose	VBN	t305:OBJ	O
control	t305	12	control	O	O	O	O	O	O	O	O	NN1	B-NP	control	NN	t306:NMOD	O
of	t306	12	of	O	O	O	O	O	O	O	O	PRF	B-PP	of	IN	t307:PMOD	O
much	t307	12	much	O	O	O	O	O	O	O	O	DT0	B-NP	much	JJ	t308:NMOD	O
of	t308	12	of	O	O	O	O	O	O	O	O	PRF	B-PP	of	IN	t311:PMOD	O
the	t309	12	the	O	O	O	O	O	O	O	O	AT0	B-NP	the	DT	O	O
outgoing	t310	12	outgoing	O	O	O	O	O	O	O	O	AJ0	I-NP	outgoing	JJ	O	O
money	t311	12	money	O	O	O	O	O	O	O	O	NN1	I-NP	money	NN	t309:NMOD||t310:NMOD	O
,	t312	12	,	O	O	O	O	O	O	O	O	PUN	O	,	,	O	O
says	t313	12	say	e34	REPORTING	PRESENT+NONE+POS	O	O	O	O	O	VVZ	B-VP	say	VBZ	t302:OBJ||t312:P||t319:SBJ||t320:P	mainVb
Louis	t314	12	Louis	O	O	O	O	O	O	O	O	NP0	B-NP	louis	NNP	O	O
Harvey	t315	12	Harvey	O	O	O	O	O	O	O	O	NP0	I-NP	harvey	NNP	t314:NAME	O
,	t316	12	,	O	O	O	O	O	O	O	O	PUN	O	,	,	O	O
Dalbar	t317	12	Dalbar	O	O	O	O	O	O	O	O	NP0	B-NP	dalbar	NNP	t318:SUFFIX	O
's	t318	12	's	O	O	O	O	O	O	O	O	POS	B-NP	's	POS	O	O
president	t319	12	president	O	O	O	O	O	O	O	O	NN1	I-NP	president	NN	t315:NMOD||t316:P||t317:NMOD	O
.	t320	12	.	O	O	O	O	O	O	O	O	PUN	O	.	.	O	O

Mutual	t321	13	mutual	O	O	O	O	O	O	O	O	AJ0	B-NP	mutual	JJ	O	O
fund	t322	13	fund	O	O	O	O	O	O	O	O	NN1	I-NP	fund	NN	t321:NMOD	O
officials	t323	13	official	O	O	O	O	O	O	O	O	NN2	I-NP	official	NNS	t322:NMOD	O
say	t324	13	say	e35	REPORTING	PRESENT+NONE+POS	O	O	O	O	O	VVB	B-VP	say	VBP	t323:SBJ||t325:OBJ||t346:P	mainVb
that	t325	13	that	O	O	O	O	O	O	O	O	CJT	B-SBAR	that	IN	t327:SUB	O
investors	t326	13	investor	O	O	O	O	O	O	O	O	NN2	B-NP	investor	NNS	O	O
have	t327	13	have	O	O	O	O	O	O	O	O	VHB	B-VP	have	VBP	t326:SBJ||t328:VC	O
transferred	t328	13	transfer	e36	OCCURRENCE	PRESENT+PERFECTIVE+POS	O	O	O	O	O	VVN	I-VP	transfer	VBN	t329:OBJ||t332:ADV	O
most	t329	13	most	O	O	O	O	O	O	O	O	DT0	B-NP	most	DT	t330:NMOD	O
of	t330	13	of	O	O	O	O	O	O	O	O	PRF	B-PP	of	IN	t331:PMOD	O
it	t331	13	it	O	O	O	O	O	O	O	O	PNP	B-NP	it	PRP	O	O
into	t332	13	into	O	O	O	O	O	O	O	O	PRP	B-PP	into	IN	t336:PMOD	O
their	t333	13	they	O	O	O	O	O	O	O	O	DPS	B-NP	their	PRP$	O	O
money	t334	13	money	O	O	O	O	O	O	O	O	NN1	I-NP	money	NN	O	O
market	t335	13	market	O	O	O	O	O	O	O	O	NN1	I-NP	market	NN	t334:NMOD	O
accounts	t336	13	account	O	O	O	O	O	O	O	O	NN2	I-NP	account	NNS	t333:NMOD||t335:NMOD||t337:P||t338:COORD	O
,	t337	13	,	O	O	O	O	O	O	O	O	PUN	O	,	,	O	O
and	t338	13	and	O	O	O	O	O	O	O	O	CJC	O	and	CC	t345:CONJ	O
to	t339	13	to	O	O	O	O	O	O	O	O	PRP	B-PP	to	TO	t342:PMOD	O
a	t340	13	a	O	O	O	O	O	O	O	O	AT0	B-NP	a	DT	O	O
lesser	t341	13	lesser	O	O	O	O	O	O	O	O	AJ0	I-NP	lesser	JJR	O	O
extent	t342	13	extent	O	O	O	O	O	O	O	O	NN1	I-NP	extent	NN	t340:NMOD||t341:NMOD	O
,	t343	13	,	O	O	O	O	O	O	O	O	PUN	O	,	,	O	O
government-bond	t344	13	government-bond	O	O	O	O	O	O	O	O	AJ0	B-NP	government-bond	NN	O	O
funds	t345	13	fund	O	O	O	O	O	O	O	O	NN2	I-NP	funds	NNS	t339:ADV||t343:P||t344:NMOD	O
.	t346	13	.	O	O	O	O	O	O	O	O	PUN	O	.	.	O	O

So	t347	14	so	O	O	O	O	O	O	cs37	O	CJS	O	so	IN	O	O
the	t348	14	the	O	O	O	O	O	O	cs37	O	AT0	B-NP	the	DT	O	O
impact	t349	14	impact	e38	OCCURRENCE	NONE+NONE+POS	O	O	O	cs37	O	NN1	I-NP	impact	NN	t348:NMOD||t350:NMOD	O
on	t350	14	on	O	O	O	O	O	O	cs37	O	PRP	B-PP	on	IN	t357:PMOD	O
the	t351	14	the	O	O	O	O	O	O	cs37	O	AT0	B-NP	the	DT	O	O
$	t352	14	$	O	O	O	O	O	O	cs37	O	CRD	I-NP	$	$	t353:DEP||t354:DEP	O
950	t353	14	950	O	O	O	O	O	O	cs37	O	CRD	I-NP	950	CD	O	O
billion	t354	14	billion	O	O	O	O	O	O	cs37	O	CRD	I-NP	billion	CD	O	O
mutual	t355	14	mutual	O	O	O	O	O	O	cs37	O	AJ0	I-NP	mutual	JJ	O	O
fund	t356	14	fund	O	O	O	O	O	O	cs37	O	NN1	I-NP	fund	NN	t355:NMOD	O
industry	t357	14	industry	O	O	O	O	O	O	cs37	O	NN1	I-NP	industry	NN	t351:NMOD||t352:NMOD||t356:NMOD||t358:NMOD	O
as	t358	14	as	O	O	O	O	O	O	cs37	O	PRP	B-PP	as	IN	t360:PMOD	O
a	t359	14	a	O	O	O	O	O	O	cs37	O	AT0	B-NP	a	DT	O	O
whole	t360	14	whole	O	O	O	O	O	O	cs37	O	AJ0	I-NP	whole	NN	t359:NMOD	O
probably	t361	14	probably	O	O	O	O	O	O	cs37	O	AV0	B-ADVP	probably	RB	O	O
will	t362	14	will	O	O	O	O	O	O	cs37	O	VM0	B-VP	will	MD	t347:DEP||t349:SBJ||t361:ADV||t363:VC||t365:P	mainVb
be	t363	14	be	O	O	O	O	O	O	cs37	O	VBI	I-VP	be	VB	t364:PRD	mainVb
slight	t364	14	slight	O	O	O	O	O	O	cs37	O	AJ0	B-ADJP	slight	JJ	O	O
.	t365	14	.	O	O	O	O	O	O	cs37	O	PUN	O	.	.	O	O

But	t366	15	but	O	O	O	O	O	O	cs37	O	CJC	O	but	CC	O	O
tremors	t367	15	tremor	e39	OCCURRENCE	NONE+NONE+POS	O	O	O	cs37	O	NN2	B-NP	tremor	NNS	O	O
are	t368	15	be	O	O	O	O	O	O	cs37	O	VBB	B-VP	be	VBP	t366:DEP||t367:SBJ||t369:PRD||t370:LOC||t386:P	mainVb
likely	t369	15	likely	O	O	O	O	O	O	cs37	O	AJ0	B-ADJP	likely	JJ	O	O
in	t370	15	in	O	O	O	O	O	O	cs37	O	PRP	B-PP	in	IN	t373:PMOD	O
the	t371	15	the	O	O	O	O	O	O	cs37	O	AT0	B-NP	the	DT	O	O
junk-bond	t372	15	junk-bond	O	O	O	O	O	O	cs37	O	NN1	I-NP	junk-bond	NN	O	O
market	t373	15	market	O	O	O	O	O	O	cs37	O	NN1	I-NP	market	NN	t371:NMOD||t372:NMOD||t374:P||t376:NMOD	O
,	t374	15	,	O	O	O	O	O	O	cs37	O	PUN	O	,	,	O	O
which	t375	15	which	O	O	O	O	O	O	cs37	O	DTQ	B-NP	which	WDT	O	O
has	t376	15	have	O	O	O	O	O	O	cs37	O	VHZ	B-VP	have	VBZ	t375:SBJ||t377:VC	O
helped	t377	15	help	e40	OCCURRENCE	PRESENT+PERFECTIVE+POS	O	O	O	cs37	O	VVN	I-VP	help	VBN	t378:OPRD	O
to	t378	15	to	O	O	O	O	O	O	cs37	O	TO0	I-VP	to	TO	t379:IM	O
finance	t379	15	finance	e41	I_ACTION	INFINITIVE+NONE+POS	O	O	O	cs37	O	VVI	I-VP	finance	VB	t382:OBJ	O
the	t380	15	the	O	O	O	O	O	O	cs37	O	AT0	B-NP	the	DT	O	O
takeover	t381	15	takeover	O	O	O	O	O	O	cs37	O	NN1	I-NP	takeover	NN	O	O
boom	t382	15	boom	e42	OCCURRENCE	NONE+NONE+POS	O	O	O	cs37	O	NN1	I-NP	boom	NN	t380:NMOD||t381:NMOD||t383:NMOD	O
of	t383	15	of	O	O	O	O	O	O	cs37	O	PRF	B-PP	of	IN	t385:PMOD	O
recent	t384	15	recent	O	O	O	tmx43	DATE	PAST_REF	cs37	O	AJ0	B-NP	recent	JJ	O	O
years	t385	15	year	O	O	O	tmx43	DATE	PAST_REF	cs37	O	NN2	I-NP	years	NNS	t384:NMOD	O
.	t386	15	.	O	O	O	O	O	O	cs37	O	PUN	O	.	.	O	O

Mutual	t387	16	mutual	O	O	O	O	O	O	cs37	O	AJ0	B-NP	mutual	JJ	O	O
funds	t388	16	fund	O	O	O	O	O	O	cs37	O	NN2	I-NP	funds	NNS	t387:NMOD	O
are	t389	16	be	O	O	O	O	O	O	cs37	O	VBB	B-VP	be	VBP	t388:SBJ||t390:DEP||t391:PRD||t397:P||t398:ADV||t411:P	mainVb
the	t390	16	the	O	O	O	O	O	O	cs37	O	AT0	B-NP	the	DT	O	O
among	t391	16	among	O	O	O	O	O	O	cs37	O	PRP	I-NP	among	IN	t394:PMOD	O
the	t392	16	the	O	O	O	O	O	O	cs37	O	AT0	I-NP	the	DT	O	O
largest	t393	16	largest	O	O	O	O	O	O	cs37	O	AJS	I-NP	large	JJS	O	O
holders	t394	16	holder	O	O	O	O	O	O	cs37	O	NN2	I-NP	holder	NNS	t392:NMOD||t393:NMOD||t395:NMOD	O
of	t395	16	of	O	O	O	O	O	O	cs37	O	PRF	B-PP	of	IN	t396:PMOD	O
junk	t396	16	junk	O	O	O	O	O	O	cs37	O	NN1	B-NP	junk	NN	O	O
,	t397	16	,	O	O	O	O	O	O	cs37	O	PUN	O	,	,	O	O
accounting	t398	16	account	O	O	O	O	O	O	cs37	O	VVG	B-VP	account	VBG	t399:ADV	O
for	t399	16	for	O	O	O	O	O	O	cs37	O	PRP	B-PP	for	IN	t403:PMOD	O
more	t400	16	more	O	O	O	O	O	O	cs37	O	AV0	B-NP	more	RBR	O	O
than	t401	16	than	O	O	O	O	O	O	cs37	O	AV0	I-NP	than	IN	O	O
a	t402	16	a	O	O	O	O	O	O	cs37	O	AT0	I-NP	a	DT	O	O
quarter	t403	16	quarter	O	O	O	O	O	O	cs37	O	NN1	I-NP	quarter	NN	t400:DEP||t401:DEP||t402:NMOD||t404:NMOD	O
of	t404	16	of	O	O	O	O	O	O	cs37	O	PRF	B-PP	of	IN	t407:PMOD	O
the	t405	16	the	O	O	O	O	O	O	cs37	O	AT0	B-NP	the	DT	O	O
entire	t406	16	entire	O	O	O	O	O	O	cs37	O	AJ0	I-NP	entire	JJ	O	O
high-yield	t407	16	high-yield	O	O	O	O	O	O	cs37	O	NN1	I-NP	high-yield	NN	t405:NMOD||t406:NMOD||t408:P||t410:APPO	O
,	t408	16	,	O	O	O	O	O	O	cs37	O	PUN	O	,	,	O	O
high-risk	t409	16	high-risk	O	O	O	O	O	O	cs37	O	AJ0	B-NP	high-risk	NN	O	O
market	t410	16	market	O	O	O	O	O	O	cs37	O	NN1	I-NP	market	NN	t409:NMOD	O
.	t411	16	.	O	O	O	O	O	O	cs37	O	PUN	O	.	.	O	O

The	t412	17	the	O	O	O	O	O	O	cs37	O	AT0	B-NP	the	DT	O	O
88	t413	17	88	O	O	O	O	O	O	cs37	O	CRD	I-NP	88	CD	O	O
mutual	t414	17	mutual	O	O	O	O	O	O	cs37	O	AJ0	I-NP	mutual	JJ	O	O
funds	t415	17	fund	O	O	O	O	O	O	cs37	O	NN2	I-NP	funds	NNS	t412:NMOD||t413:NMOD||t414:NMOD||t416:APPO	O
investing	t416	17	invest	O	O	O	O	O	O	cs37	O	VVG	I-NP	invest	VBG	t417:ADV||t418:ADV	O
solely	t417	17	solely	O	O	O	O	O	O	cs37	O	AV0	B-ADVP	solely	RB	O	O
in	t418	17	in	O	O	O	O	O	O	cs37	O	PRP	B-PP	in	IN	t420:PMOD	O
junk	t419	17	junk	O	O	O	O	O	O	cs37	O	NN1	B-NP	junk	NN	O	O
bonds	t420	17	bond	O	O	O	O	O	O	cs37	O	NN2	I-NP	bond	NNS	t419:NMOD	O
hold	t421	17	hold	O	O	O	O	O	O	cs37	O	VVB	B-VP	hold	VBP	t415:SBJ||t422:OBJ||t428:P	mainVb
assets	t422	17	asset	O	O	O	O	O	O	cs37	O	NN2	B-NP	assets	NNS	t423:NMOD	O
of	t423	17	of	O	O	O	O	O	O	cs37	O	PRF	B-PP	of	IN	t425:PMOD	O
about	t424	17	about	O	O	O	O	O	O	cs37	O	AV0	B-NP	about	RB	O	O
$	t425	17	$	O	O	O	O	O	O	cs37	O	CRD	I-NP	$	$	t424:DEP||t426:DEP||t427:DEP	O
32	t426	17	32	O	O	O	O	O	O	cs37	O	CRD	I-NP	32	CD	O	O
billion	t427	17	billion	O	O	O	O	O	O	cs37	O	CRD	I-NP	billion	CD	O	O
.	t428	17	.	O	O	O	O	O	O	cs37	O	PUN	O	.	.	O	O

Other	t429	18	other	O	O	O	O	O	O	cs37	O	AJ0	B-NP	other	JJ	O	O
funds	t430	18	fund	O	O	O	O	O	O	cs37	O	NN2	I-NP	funds	NNS	t429:NMOD	O
hold	t431	18	hold	O	O	O	O	O	O	cs37	O	VVB	B-VP	hold	VBP	t430:SBJ||t433:OBJ||t437:P||t438:ADV||t439:P	mainVb
a	t432	18	a	O	O	O	O	O	O	cs37	O	AT0	B-NP	a	DT	O	O
smattering	t433	18	smattering	O	O	O	O	O	O	cs37	O	NN1	I-NP	smattering	NN	t432:NMOD||t434:NMOD	O
of	t434	18	of	O	O	O	O	O	O	cs37	O	PRF	B-PP	of	IN	t436:PMOD	O
junk	t435	18	junk	O	O	O	O	O	O	cs37	O	NN1	B-NP	junk	NN	O	O
bonds	t436	18	bond	O	O	O	O	O	O	cs37	O	NN2	I-NP	bond	NNS	t435:NMOD	O
,	t437	18	,	O	O	O	O	O	O	cs37	O	PUN	O	,	,	O	O
too	t438	18	too	O	O	O	O	O	O	cs37	O	AV0	B-ADVP	too	RB	O	O
.	t439	18	.	O	O	O	O	O	O	cs37	O	PUN	O	.	.	O	O

The	t440	19	the	O	O	O	O	O	O	cs37	O	AT0	B-NP	the	DT	O	O
$	t441	19	$	O	O	O	O	O	O	cs37	O	CRD	I-NP	$	$	t442:DEP||t443:DEP	O
1.5	t442	19	1.5	O	O	O	O	O	O	cs37	O	CRD	I-NP	1.5	CD	O	O
billion	t443	19	billion	O	O	O	O	O	O	cs37	O	CRD	I-NP	billion	CD	O	O
Fidelity	t444	19	Fidelity	O	O	O	O	O	O	cs37	O	NN1	I-NP	fidelity	NNP	O	O
High	t445	19	High	O	O	O	O	O	O	cs37	O	AJ0	I-NP	high	NNP	O	O
Income	t446	19	Income	O	O	O	O	O	O	cs37	O	NN1	I-NP	income	NNP	t445:NAME	O
Fund	t447	19	Fund	O	O	O	O	O	O	cs37	O	NN1	I-NP	fund	NNP	t440:NMOD||t441:NMOD||t444:NAME||t446:NAME	O
has	t448	19	have	O	O	O	O	O	O	cs37	O	VHZ	B-VP	have	VBZ	t447:SBJ||t449:VC||t463:P	mainVb
had	t449	19	have	O	O	O	O	O	O	cs37	O	VHN	I-VP	have	VBN	t452:OBJ||t458:TMP	mainVb
a	t450	19	a	O	O	O	O	O	O	cs37	O	AT0	B-NP	a	DT	O	O
net	t451	19	net	O	O	O	O	O	O	cs37	O	AJ0	I-NP	net	JJ	O	O
outflow	t452	19	outflow	e44	OCCURRENCE	PRESENT+PERFECTIVE+POS	O	O	O	cs37	O	NN1	I-NP	outflow	NN	t450:NMOD||t451:NMOD||t453:NMOD	O
of	t453	19	of	O	O	O	O	O	O	cs37	O	PRF	B-PP	of	IN	t455:PMOD	O
about	t454	19	about	O	O	O	O	O	O	cs37	O	AV0	B-NP	about	IN	O	O
$	t455	19	$	O	O	O	O	O	O	cs37	O	CRD	I-NP	$	$	t454:DEP||t456:DEP||t457:DEP	O
150	t456	19	150	O	O	O	O	O	O	cs37	O	CRD	B-NP	150	CD	O	O
million	t457	19	million	O	O	O	O	O	O	cs37	O	CRD	I-NP	million	CD	O	O
in	t458	19	in	O	O	O	O	O	O	cs37	O	PRP	B-PP	in	IN	t462:PMOD	O
the	t459	19	the	O	O	O	tmx45	DURATION	P2M	cs37	O	AT0	B-NP	the	DT	O	O
past	t460	19	past	O	O	O	tmx45	DURATION	P2M	cs37	O	AJ0	I-NP	past	JJ	O	O
two	t461	19	two	O	O	O	tmx45	DURATION	P2M	cs37	O	CRD	I-NP	two	CD	O	O
months	t462	19	month	O	O	O	tmx45	DURATION	P2M	cs37	O	NN2	I-NP	month	NNS	t459:NMOD||t460:NMOD||t461:NMOD	O
.	t463	19	.	O	O	O	O	O	O	cs37	O	PUN	O	.	.	O	O

About	t464	20	about	O	O	O	O	O	O	cs37	O	AV0	B-NP	about	IN	O	O
$	t465	20	$	O	O	O	O	O	O	cs37	O	CRD	I-NP	$	$	t464:DEP||t466:DEP||t467:DEP	O
60	t466	20	60	O	O	O	O	O	O	cs37	O	CRD	B-NP	60	CD	O	O
million	t467	20	million	O	O	O	O	O	O	cs37	O	CRD	I-NP	million	CD	O	O
streamed	t468	20	stream	e46	OCCURRENCE	PAST+NONE+POS	O	O	O	cs37	O	VVD	B-VP	stream	VBD	t465:SBJ||t469:PRT||t471:TMP||t473:P||t476:OBJ||t480:TMP||t488:P	mainVb
out	t469	20	out	O	O	O	O	O	O	cs37	O	AVP	B-PRT	out	IN	O	O
last	t470	20	last	O	O	O	tmx47	DATE	1989-WXX	cs37	O	ORD	B-NP	last	JJ	O	O
week	t471	20	week	O	O	O	tmx47	DATE	1989-WXX	cs37	O	NN1	I-NP	week	NN	t470:NMOD||t472:NMOD	O
alone	t472	20	alone	O	O	O	O	O	O	cs37	O	AV0	B-ADVP	alone	RB	O	O
,	t473	20	,	O	O	O	O	O	O	cs37	O	PUN	O	,	,	O	O
double	t474	20	double	O	O	O	O	O	O	cs37	O	VVB	B-VP	double	JJ	O	O
the	t475	20	the	O	O	O	O	O	O	cs37	O	AT0	B-NP	the	DT	O	O
level	t476	20	level	O	O	O	O	O	O	cs37	O	NN1	I-NP	level	NN	t474:NMOD||t475:NMOD||t477:NMOD	O
of	t477	20	of	O	O	O	O	O	O	cs37	O	PRF	B-PP	of	IN	t479:PMOD	O
the	t478	20	the	O	O	O	O	O	O	cs37	O	AT0	B-NP	the	DT	O	O
week	t479	20	week	O	O	O	tmx48	DATE	1989-WXX	cs37	O	NN1	I-NP	week	NN	t478:NMOD	O
following	t480	20	follow	O	O	O	O	O	O	cs37	O	VVG	B-PP	follow	VBG	t487:PMOD	O
last	t481	20	last	O	O	O	tmx49	DATE	1989-09	cs37	O	ORD	B-NP	last	JJ	O	O
month	t482	20	month	O	O	O	tmx49	DATE	1989-09	cs37	O	NN1	I-NP	month	NN	t481:NMOD||t483:SUFFIX	O
's	t483	20	's	O	O	O	O	O	O	cs37	O	POS	B-NP	's	POS	O	O
Campeau	t484	20	Campeau	O	O	O	O	O	O	cs37	O	NP0	I-NP	campeau	NNP	t485:POSTHON	O
Corp.	t485	20	Corp.	O	O	O	O	O	O	cs37	O	NP0	B-NP	corp.	NNP	O	O
credit	t486	20	credit	O	O	O	O	O	O	cs37	O	NN1	I-NP	credit	NN	O	O
squeeze	t487	20	squeeze	e50	OCCURRENCE	NONE+NONE+POS	O	O	O	cs37	O	NN1	I-NP	squeeze	NN	t482:NMOD||t484:NMOD||t486:NMOD	O
.	t488	20	.	O	O	O	O	O	O	cs37	O	PUN	O	.	.	O	O

About	t489	21	about	O	O	O	O	O	O	cs37	O	AV0	B-NP	about	IN	t490:DEP	O
98	t490	21	98	O	O	O	O	O	O	cs37	O	CRD	I-NP	98	CD	O	O
%	t491	21	%	O	O	O	O	O	O	cs37	O	NN0	I-NP	%	NN	t489:NMOD||t492:NMOD	O
of	t492	21	of	O	O	O	O	O	O	cs37	O	PRF	B-PP	of	IN	t494:PMOD	O
the	t493	21	the	O	O	O	O	O	O	cs37	O	AT0	B-NP	the	DT	O	O
outflow	t494	21	outflow	O	O	O	O	O	O	cs37	O	NN1	I-NP	outflow	NN	t493:NMOD	O
was	t495	21	be	O	O	O	O	O	O	cs37	O	VBD	B-VP	be	VBD	t491:SBJ||t496:VC||t520:P||t521:P	O
transferred	t496	21	transfer	e51	OCCURRENCE	PAST+NONE+POS	O	O	O	cs37	O	VVN	I-VP	transfer	VBN	t497:ADV||t513:ADV	O
to	t497	21	to	O	O	O	O	O	O	cs37	O	PRP	B-PP	to	TO	t500:PMOD	O
other	t498	21	other	O	O	O	O	O	O	cs37	O	AJ0	B-NP	other	JJ	O	O
Fidelity	t499	21	Fidelity	O	O	O	O	O	O	cs37	O	NN1	I-NP	fidelity	NNP	O	O
funds	t500	21	fund	O	O	O	O	O	O	cs37	O	NN2	I-NP	funds	NNS	t498:NMOD||t499:NMOD	O
,	t501	21	,	O	O	O	O	O	O	cs37	O	PUN	O	,	,	O	O
says	t502	21	say	e52	REPORTING	PRESENT+NONE+POS	O	O	O	cs37	O	VVZ	B-VP	say	VBZ	t495:OBJ||t501:P||t504:SBJ||t512:P	mainVb
Neal	t503	21	Neal	O	O	O	O	O	O	cs37	O	AJ0	B-NP	neal	NNP	O	O
Litvack	t504	21	Litvack	O	O	O	O	O	O	cs37	O	NN1	I-NP	litvack	NNP	t503:NAME||t505:P||t507:APPO	O
,	t505	21	,	O	O	O	O	O	O	cs37	O	PUN	O	,	,	O	O
a	t506	21	a	O	O	O	O	O	O	cs37	O	AT0	B-NP	a	DT	O	O
Fidelity	t507	21	Fidelity	O	O	O	O	O	O	cs37	O	NN1	I-NP	fidelity	NNP	t506:NMOD||t509:APPO||t510:P||t511:APPO	O
vice	t508	21	vice	O	O	O	O	O	O	cs37	O	NN1	I-NP	vice	NN	O	O
president	t509	21	president	O	O	O	O	O	O	cs37	O	NN1	I-NP	president	NN	t508:NMOD	O
,	t510	21	,	O	O	O	O	O	O	cs37	O	PUN	O	,	,	O	O
marketing	t511	21	marketing	O	O	O	O	O	O	cs37	O	VVG	B-VP	marketing	NN	O	O
,	t512	21	,	O	O	O	O	O	O	cs37	O	PUN	O	,	,	O	O
with	t513	21	with	O	O	O	O	O	O	cs37	O	PRP	B-PP	with	IN	t515:PMOD	O
most	t514	21	most	O	O	O	O	O	O	cs37	O	DT0	B-NP	most	DT	O	O
going	t515	21	go	e53	OCCURRENCE	PRESPART+NONE+POS	O	O	O	cs37	O	VVG	B-VP	go	VBG	t514:SBJ||t516:DIR	O
into	t516	21	into	O	O	O	O	O	O	cs37	O	PRP	B-PP	into	IN	t519:PMOD	O
money	t517	21	money	O	O	O	O	O	O	cs37	O	NN1	B-NP	money	NN	O	O
market	t518	21	market	O	O	O	O	O	O	cs37	O	NN1	I-NP	market	NN	t517:NMOD	O
funds	t519	21	fund	O	O	O	O	O	O	cs37	O	NN2	I-NP	funds	NNS	t518:NMOD	O
.	t520	21	.	O	O	O	O	O	O	cs37	O	PUN	O	.	.	O	O
"	t521	21	"	O	O	O	O	O	O	cs37	O	PUQ	O	"	''	O	O

You	t522	22	you	O	O	O	O	O	O	cs37	O	PNP	B-NP	you	PRP	O	O
get	t523	22	get	O	O	O	O	O	O	cs37	O	VVB	B-VP	get	VBP	t522:SBJ||t526:OBJ||t527:P||t529:COORD	O
a	t524	22	a	O	O	O	O	O	O	cs37	O	AT0	B-NP	a	DT	O	O
news	t525	22	news	O	O	O	O	O	O	cs37	O	NN1	I-NP	news	NN	O	O
item	t526	22	item	O	O	O	O	O	O	cs37	O	NN1	I-NP	item	NN	t524:NMOD||t525:NMOD	O
,	t527	22	,	O	O	O	O	O	O	cs37	O	PUN	O	,	,	O	O
it	t528	22	it	O	O	O	O	O	O	cs37	O	PNP	B-NP	it	PRP	O	O
hits	t529	22	hit	O	O	O	O	O	O	cs37	O	VVZ	B-VP	hit	VBZ	t528:SBJ||t530:P||t532:COORD	O
,	t530	22	,	O	O	O	O	O	O	cs37	O	PUN	O	,	,	O	O
you	t531	22	you	O	O	O	O	O	O	cs37	O	PNP	B-NP	you	PRP	O	O
have	t532	22	have	O	O	O	O	O	O	cs37	O	VHB	B-VP	have	VBP	t531:SBJ||t534:OBJ||t536:TMP||t542:P||t543:COORD	O
strong	t533	22	strong	O	O	O	O	O	O	cs37	O	AJ0	B-NP	strong	JJ	O	O
redemptions	t534	22	redemption	O	O	O	O	O	O	cs37	O	NN2	I-NP	redemption	NNS	t533:NMOD	O
that	t535	22	that	O	O	O	O	O	O	cs37	O	CJT	B-NP	that	DT	O	O
day	t536	22	day	O	O	O	O	O	O	cs37	O	NN1	B-VP	day	NN	t535:NMOD||t537:COORD	O
and	t537	22	and	O	O	O	O	O	O	cs37	O	CJC	O	and	CC	t538:CONJ	O
for	t538	22	for	O	O	O	O	O	O	cs37	O	PRP	B-PP	for	IN	t540:PMOD	O
two	t539	22	two	O	O	O	O	O	O	cs37	O	CRD	B-NP	two	CD	O	O
days	t540	22	day	O	O	O	O	O	O	cs37	O	NN2	I-NP	days	NNS	t539:NMOD||t541:NMOD	O
following	t541	22	follow	O	O	O	O	O	O	cs37	O	VVG	B-PP	following	VBG	O	O
--	t542	22	--	O	O	O	O	O	O	cs37	O	UNC	O	--	:	O	O
then	t543	22	then	O	O	O	O	O	O	cs37	O	AV0	B-ADVP	then	RB	t544:COORD	O
go	t544	22	go	O	O	O	O	O	O	cs37	O	VVB	B-VP	go	VBP	t545:DIR	O
back	t545	22	back	O	O	O	O	O	O	cs37	O	AVP	B-ADVP	back	RB	t546:AMOD	O
to	t546	22	to	O	O	O	O	O	O	cs37	O	PRP	B-PP	to	TO	t547:PMOD	O
normal	t547	22	normal	O	O	O	O	O	O	cs37	O	AJ0	B-ADJP	normal	JJ	O	O
,	t548	22	,	O	O	O	O	O	O	cs37	O	PUN	O	,	,	O	O
"	t549	22	"	O	O	O	O	O	O	cs37	O	PUQ	O	"	PRP	O	O
says	t550	22	say	e54	REPORTING	PRESENT+NONE+POS	O	O	O	cs37	O	VVZ	B-VP	say	VBZ	t523:OBJ||t548:P||t549:SBJ||t552:SBJ||t553:P	mainVb
Mr.	t551	22	Mr.	O	O	O	O	O	O	cs37	O	NP0	B-NP	mr.	NNP	O	O
Litvack	t552	22	Litvack	O	O	O	O	O	O	cs37	O	NP0	I-NP	litvack	NNP	t551:TITLE	O
.	t553	22	.	O	O	O	O	O	O	cs37	O	PUN	O	.	.	O	O

The	t554	23	the	O	O	O	O	O	O	cs37	O	AT0	B-NP	the	DT	O	O
fund	t555	23	fund	O	O	O	O	O	O	cs37	O	NN1	I-NP	fund	NN	t554:NMOD	O
,	t556	23	,	O	O	O	O	O	O	cs37	O	PUN	O	,	,	O	O
with	t557	23	with	O	O	O	O	O	O	cs37	O	PRP	B-PP	with	IN	t560:PMOD	O
a	t558	23	a	O	O	O	O	O	O	cs37	O	AT0	B-NP	a	DT	O	O
cash	t559	23	cash	O	O	O	O	O	O	cs37	O	NN1	I-NP	cash	NN	O	O
cushion	t560	23	cushion	O	O	O	O	O	O	cs37	O	NN1	I-NP	cushion	NN	t558:NMOD||t559:NMOD||t561:NMOD	O
of	t561	23	of	O	O	O	O	O	O	cs37	O	PRF	B-PP	of	IN	t565:PMOD	O
more	t562	23	more	O	O	O	O	O	O	cs37	O	AV0	B-NP	more	RBR	O	O
than	t563	23	than	O	O	O	O	O	O	cs37	O	AV0	I-NP	than	IN	O	O
10	t564	23	10	O	O	O	O	O	O	cs37	O	CRD	I-NP	10	CD	t562:DEP||t563:DEP	O
%	t565	23	%	O	O	O	O	O	O	cs37	O	UNC	I-NP	%	NN	t564:NMOD	O
,	t566	23	,	O	O	O	O	O	O	cs37	O	PUN	O	,	,	O	O
has	t567	23	have	O	O	O	O	O	O	cs37	O	VHZ	B-VP	have	VBZ	t555:SBJ||t556:P||t557:ADV||t566:P||t568:SBJ||t569:VC	O
"	t568	23	"	O	O	O	O	O	O	cs37	O	PUQ	I-VP	"	PRP	O	O
met	t569	23	meet	O	O	O	O	O	O	cs37	O	VVN	I-VP	meet	VBD	t572:OBJ||t573:MNR	O
all	t570	23	all	O	O	O	O	O	O	cs37	O	DT0	B-NP	all	PDT	O	O
the	t571	23	the	O	O	O	O	O	O	cs37	O	AT0	I-NP	the	DT	O	O
redemptions	t572	23	redemption	O	O	O	O	O	O	cs37	O	NN2	I-NP	redemption	NNS	t570:NMOD||t571:NMOD	O
without	t573	23	without	O	O	O	O	O	O	cs37	O	PRP	B-PP	without	IN	t574:PMOD	O
having	t574	23	have	O	O	O	O	O	O	cs37	O	VHG	B-VP	have	VBG	t575:OPRD	O
to	t575	23	to	O	O	O	O	O	O	cs37	O	TO0	I-VP	to	TO	t576:IM	O
sell	t576	23	sell	O	O	O	O	O	O	cs37	O	VVI	I-VP	sell	VB	t578:OBJ	O
one	t577	23	one	O	O	O	O	O	O	cs37	O	CRD	B-NP	one	CD	O	O
thing	t578	23	thing	O	O	O	O	O	O	cs37	O	NN1	I-NP	thing	NN	t577:NMOD	O
,	t579	23	,	O	O	O	O	O	O	cs37	O	PUN	O	,	,	O	O
"	t580	23	"	O	O	O	O	O	O	cs37	O	PUQ	O	"	NNP	O	O
Mr.	t581	23	Mr.	O	O	O	O	O	O	cs37	O	NP0	B-NP	mr.	NNP	O	O
Litvack	t582	23	Litvack	O	O	O	O	O	O	cs37	O	NP0	I-NP	litvack	NNP	t580:NAME||t581:TITLE	O
says	t583	23	say	O	O	O	O	O	O	cs37	O	VVZ	B-VP	say	VBZ	t567:OBJ||t579:P||t582:SBJ||t584:P	mainVb
.	t584	23	.	O	O	O	O	O	O	cs37	O	PUN	O	.	.	O	O

He	t585	24	he	O	O	O	O	O	O	cs37	O	PNP	B-NP	he	PRP	O	O
adds	t586	24	add	e55	REPORTING	PRESENT+NONE+POS	O	O	O	cs37	O	VVZ	B-VP	add	VBZ	t585:SBJ||t587:P||t591:COORD||t609:P||t610:P	mainVb
:	t587	24	:	O	O	O	O	O	O	cs37	O	PUN	O	:	:	O	O
"	t588	24	"	O	O	O	O	O	O	cs37	O	PUQ	O	"	IN	t590:PMOD	O
Our	t589	24	we	O	O	O	O	O	O	cs37	O	DPS	B-NP	our	PRP$	O	O
fund	t590	24	fund	O	O	O	O	O	O	cs37	O	NN1	I-NP	fund	NN	t589:NMOD	O
has	t591	24	have	O	O	O	O	O	O	cs37	O	VHZ	I-NP	have	VBZ	t588:LOC||t592:VC	O
had	t592	24	have	O	O	O	O	O	O	cs37	O	VHN	I-NP	have	VBN	t597:OBJ||t599:TMP	O
-LCB-	t593	24	-lcb-	O	O	O	O	O	O	cs37	O	AJ0	I-NP	-lcb-	VBN	O	O
positive	t594	24	positive	O	O	O	O	O	O	cs37	O	AJ0	I-NP	positive	JJ	O	O
-RCB-	t595	24	-rcb-	O	O	O	O	O	O	cs37	O	NN1	I-NP	-rcb-	NN	t594:NMOD	O
net	t596	24	net	O	O	O	O	O	O	cs37	O	NN1	I-NP	net	JJ	O	O
sales	t597	24	sale	e56	STATE	NONE+NONE+POS	O	O	O	cs37	O	NN0	I-NP	sales	NNS	t593:NMOD||t595:NMOD||t596:NMOD	O
every	t598	24	every	O	O	O	tmx57	SET	P1M	cs37	O	AT0	B-NP	every	DT	O	O
month	t599	24	month	O	O	O	tmx57	SET	P1M	cs37	O	NN1	I-NP	month	NN	t598:NMOD||t600:NMOD||t605:P||t606:NMOD	O
for	t600	24	for	O	O	O	O	O	O	cs37	O	PRP	B-PP	for	IN	t604:PMOD	O
the	t601	24	the	O	O	O	tmx58	DURATION	P3Y	cs37	O	AT0	B-NP	the	DT	O	O
last	t602	24	last	O	O	O	tmx58	DURATION	P3Y	cs37	O	ORD	I-NP	last	JJ	O	O
three	t603	24	three	O	O	O	tmx58	DURATION	P3Y	cs37	O	CRD	I-NP	three	CD	O	O
years	t604	24	year	O	O	O	tmx58	DURATION	P3Y	cs37	O	NN2	I-NP	years	NNS	t601:NMOD||t602:NMOD||t603:NMOD	O
--	t605	24	--	O	O	O	O	O	O	cs37	O	UNC	O	--	:	O	O
until	t606	24	until	O	O	O	O	O	O	cs37	O	CJS	B-SBAR	until	IN	t608:PMOD	O
this	t607	24	this	O	O	O	tmx59	DATE	1989-10	cs37	O	DT0	B-NP	this	DT	O	O
month	t608	24	month	O	O	O	tmx59	DATE	1989-10	cs37	O	NN1	I-NP	month	NN	t607:NMOD	O
.	t609	24	.	O	O	O	O	O	O	cs37	O	PUN	O	.	.	O	O
"	t610	24	"	O	O	O	O	O	O	cs37	O	PUQ	O	"	''	O	O

Vanguard	t611	25	Vanguard	O	O	O	O	O	O	cs37	O	NP0	B-NP	vanguard	NNP	t612:SUFFIX	O
's	t612	25	's	O	O	O	O	O	O	cs37	O	POS	B-NP	's	POS	O	O
$	t613	25	$	O	O	O	O	O	O	cs37	O	NN1	I-NP	$	$	t614:DEP||t615:DEP	O
1	t614	25	1	O	O	O	O	O	O	cs37	O	CRD	I-NP	1	CD	O	O
billion	t615	25	billion	O	O	O	O	O	O	cs37	O	CRD	I-NP	billion	CD	O	O
High	t616	25	high	O	O	O	O	O	O	cs37	O	AJ0	I-NP	high	NNP	O	O
Yield	t617	25	yield	O	O	O	O	O	O	cs37	O	NP0	I-NP	yield	NNP	t616:NAME	O
Bond	t618	25	bond	O	O	O	O	O	O	cs37	O	NP0	I-NP	bond	NNP	t617:NMOD	O
Portfolio	t619	25	portfolio	O	O	O	O	O	O	cs37	O	NP0	I-NP	portfolio	NNP	t611:NMOD||t613:NMOD||t618:NAME	O
has	t620	25	have	O	O	O	O	O	O	cs37	O	VHZ	B-VP	have	VBZ	t619:SBJ||t621:VC||t630:P||t636:COORD||t642:P	mainVb
seen	t621	25	see	e60	PERCEPTION	PRESENT+PERFECTIVE+POS	O	O	O	cs37	O	VVN	I-VP	see	VBN	t622:OBJ||t625:OPRD	mainVb
$	t622	25	$	O	O	O	O	O	O	cs37	O	NN0	B-NP	$	$	t623:DEP||t624:DEP	O
161	t623	25	161	O	O	O	O	O	O	cs37	O	CRD	I-NP	161	CD	O	O
million	t624	25	million	O	O	O	O	O	O	cs37	O	CRD	I-NP	million	CD	O	O
flow	t625	25	flow	e61	OCCURRENCE	PAST+NONE+POS	O	O	O	cs37	O	NN1	I-NP	flow	VBP	t626:PRT||t627:TMP	O
out	t626	25	out	O	O	O	O	O	O	cs37	O	AVP	B-ADVP	out	RB	O	O
since	t627	25	since	O	O	O	O	O	O	cs37	O	AV0	I-ADVP	since	IN	t629:PMOD	O
early	t628	25	early	O	O	O	tmx62	DATE	1989-09	cs37	O	AJ0	B-ADJP	early	JJ	O	O
September	t629	25	September	O	O	O	tmx62	DATE	1989-09	cs37	O	NP0	B-NP	september	NNP	t628:NMOD	O
;	t630	25	;	O	O	O	O	O	O	cs37	O	PUN	O	;	:	O	O
$	t631	25	$	O	O	O	O	O	O	cs37	O	UNC	B-NP	$	$	t632:DEP||t633:DEP||t634:NMOD	O
14	t632	25	14	O	O	O	O	O	O	cs37	O	CRD	I-NP	14	CD	O	O
million	t633	25	million	O	O	O	O	O	O	cs37	O	CRD	I-NP	million	CD	O	O
of	t634	25	of	O	O	O	O	O	O	cs37	O	PRF	B-PP	of	IN	t635:PMOD	O
that	t635	25	that	O	O	O	O	O	O	cs37	O	DT0	B-NP	that	DT	O	O
seeped	t636	25	seep	e63	OCCURRENCE	PAST+NONE+POS	O	O	O	cs37	O	VVD	B-VP	seep	VBD	t631:SBJ||t637:PRT||t641:TMP	O
out	t637	25	out	O	O	O	O	O	O	cs37	O	AVP	B-PRT	out	RP	O	O
Friday	t638	25	Friday	O	O	O	tmx64	DATE	1989-10-13	cs37	O	NP0	B-NP	friday	NNP	t639:POSTHON	O
Oct.	t639	25	Oct.	O	O	O	tmx64	DATE	1989-10-13	cs37	O	NP0	B-NP	oct.	NNP	O	O
13	t640	25	13	O	O	O	tmx64	DATE	1989-10-13	cs37	O	CRD	I-NP	13	CD	t638:NMOD	O
alone	t641	25	alone	O	O	O	O	O	O	cs37	O	AJ0	B-ADVP	alone	RB	t640:NMOD	O
.	t642	25	.	O	O	O	O	O	O	cs37	O	PUN	O	.	.	O	O

Still	t643	26	still	O	O	O	O	O	O	cs37	O	AV0	B-NP	still	RB	O	O
,	t644	26	,	O	O	O	O	O	O	cs37	O	PUN	O	,	,	O	O
two-thirds	t645	26	two-third	O	O	O	O	O	O	cs37	O	CRD	B-NP	two-third	NNS	t646:NMOD	O
of	t646	26	of	O	O	O	O	O	O	cs37	O	PRF	B-PP	of	IN	t648:PMOD	O
the	t647	26	the	O	O	O	O	O	O	cs37	O	AT0	B-NP	the	DT	O	O
outflow	t648	26	outflow	e65	OCCURRENCE	NONE+NONE+POS	O	O	O	cs37	O	NN1	I-NP	outflow	NN	t647:NMOD	O
has	t649	26	have	O	O	O	O	O	O	cs37	O	VHZ	B-VP	have	VBZ	t643:ADV||t644:P||t645:SBJ||t650:VC	O
been	t650	26	be	O	O	O	O	O	O	cs37	O	VBN	I-VP	be	VBN	t651:VC	O
steered	t651	26	steer	e66	OCCURRENCE	PRESENT+PERFECTIVE+POS	O	O	O	cs37	O	VVN	I-VP	steer	VBN	t652:DIR	O
into	t652	26	into	O	O	O	O	O	O	cs37	O	PRP	B-PP	into	IN	t655:PMOD	O
other	t653	26	other	O	O	O	O	O	O	cs37	O	AJ0	B-NP	other	JJ	O	O
Vanguard	t654	26	Vanguard	O	O	O	O	O	O	cs37	O	NP0	I-NP	vanguard	NNP	O	O
portfolios	t655	26	portfolio	O	O	O	O	O	O	cs37	O	NN2	I-NP	portfolio	NNS	t653:NMOD||t654:NMOD	O
,	t656	26	,	O	O	O	O	O	O	cs37	O	PUN	O	,	,	O	O
says	t657	26	say	e67	REPORTING	PRESENT+NONE+POS	O	O	O	cs37	O	VVZ	B-VP	say	VBZ	t649:OBJ||t656:P||t659:SBJ||t664:P	mainVb
Brian	t658	26	Brian	O	O	O	O	O	O	cs37	O	NP0	B-NP	brian	NNP	O	O
Mattes	t659	26	Mattes	O	O	O	O	O	O	cs37	O	NP0	I-NP	matte	NNP	t658:NAME||t660:P||t663:APPO	O
,	t660	26	,	O	O	O	O	O	O	cs37	O	PUN	O	,	,	O	O
a	t661	26	a	O	O	O	O	O	O	cs37	O	AT0	B-NP	a	DT	O	O
vice	t662	26	vice	O	O	O	O	O	O	cs37	O	NN1	I-NP	vice	NN	O	O
president	t663	26	president	O	O	O	O	O	O	cs37	O	NN1	I-NP	president	NN	t661:NMOD||t662:NMOD	O
.	t664	26	.	O	O	O	O	O	O	cs37	O	PUN	O	.	.	O	O

The	t665	27	the	O	O	O	O	O	O	cs37	O	AT0	B-NP	the	DT	O	O
fund	t666	27	fund	O	O	O	O	O	O	cs37	O	NN1	I-NP	fund	NN	t665:NMOD	O
now	t667	27	now	O	O	O	tmx68	DATE	PRESENT_REF	cs37	O	AV0	B-ADVP	now	RB	O	O
holds	t668	27	hold	e69	STATE	PRESENT+NONE+POS	O	O	O	cs37	O	VVZ	B-VP	hold	VBZ	t666:SBJ||t667:TMP||t671:OBJ||t676:P	mainVb
a	t669	27	a	O	O	O	O	O	O	cs37	O	AT0	B-NP	a	DT	O	O
cash	t670	27	cash	O	O	O	O	O	O	cs37	O	NN1	I-NP	cash	NN	O	O
position	t671	27	position	O	O	O	O	O	O	cs37	O	NN1	I-NP	position	NN	t669:NMOD||t670:NMOD||t672:NMOD	O
of	t672	27	of	O	O	O	O	O	O	cs37	O	PRF	B-PP	of	IN	t675:PMOD	O
about	t673	27	about	O	O	O	O	O	O	cs37	O	AV0	B-NP	about	RB	O	O
15	t674	27	15	O	O	O	O	O	O	cs37	O	CRD	I-NP	15	CD	t673:DEP	O
%	t675	27	%	O	O	O	O	O	O	cs37	O	UNC	I-NP	%	NN	t674:NMOD	O
.	t676	27	.	O	O	O	O	O	O	cs37	O	PUN	O	.	.	O	O

At	t677	28	at	O	O	O	O	O	O	cs37	O	PRP	B-PP	at	IN	t687:PMOD	O
the	t678	28	the	O	O	O	O	O	O	cs37	O	AT0	B-NP	the	DT	O	O
$	t679	28	$	O	O	O	O	O	O	cs37	O	CRD	I-NP	$	$	t680:DEP||t681:DEP	O
932	t680	28	932	O	O	O	O	O	O	cs37	O	CRD	I-NP	932	CD	O	O
million	t681	28	million	O	O	O	O	O	O	cs37	O	CRD	I-NP	million	CD	O	O
T.	t682	28	T.	O	O	O	O	O	O	cs37	O	NP0	I-NP	t.	NNP	O	O
Rowe	t683	28	Rowe	O	O	O	O	O	O	cs37	O	NP0	I-NP	rowe	NNP	O	O
Price	t684	28	Price	O	O	O	O	O	O	cs37	O	NP0	I-NP	price	NNP	t682:NAME||t683:NAME	O
High	t685	28	High	O	O	O	O	O	O	cs37	O	AJ0	I-NP	high	NNP	O	O
Yield	t686	28	Yield	O	O	O	O	O	O	cs37	O	NP0	I-NP	yield	NNP	t685:NAME	O
Fund	t687	28	Fund	O	O	O	O	O	O	cs37	O	NP0	I-NP	fund	NNP	t678:NMOD||t679:NMOD||t684:NAME||t686:NAME	O
,	t688	28	,	O	O	O	O	O	O	cs37	O	PUN	O	,	,	O	O
investors	t689	28	investor	O	O	O	O	O	O	cs37	O	NN2	B-NP	investor	NNS	O	O
yanked	t690	28	yank	e70	OCCURRENCE	PAST+NONE+POS	O	O	O	cs37	O	VVD	B-VP	yank	VBD	t677:LOC||t688:P||t689:SBJ||t691:PRT||t693:OBJ||t696:TMP||t701:P	mainVb
out	t691	28	out	O	O	O	O	O	O	cs37	O	AVP	B-PRT	out	RP	O	O
about	t692	28	about	O	O	O	O	O	O	cs37	O	PRP	B-NP	about	IN	O	O
$	t693	28	$	O	O	O	O	O	O	cs37	O	CRD	I-NP	$	$	t692:DEP||t694:DEP||t695:DEP	O
182	t694	28	182	O	O	O	O	O	O	cs37	O	CRD	I-NP	182	CD	O	O
million	t695	28	million	O	O	O	O	O	O	cs37	O	CRD	I-NP	million	CD	O	O
in	t696	28	in	O	O	O	O	O	O	cs37	O	PRP	B-PP	in	IN	t700:PMOD	O
the	t697	28	the	O	O	O	tmx71	DURATION	P2M	cs37	O	AT0	B-NP	the	DT	O	O
past	t698	28	past	O	O	O	tmx71	DURATION	P2M	cs37	O	AJ0	I-NP	past	JJ	O	O
two	t699	28	two	O	O	O	tmx71	DURATION	P2M	cs37	O	CRD	I-NP	two	CD	O	O
months	t700	28	month	O	O	O	tmx71	DURATION	P2M	cs37	O	NN2	I-NP	month	NNS	t697:NMOD||t698:NMOD||t699:NMOD	O
.	t701	28	.	O	O	O	O	O	O	cs37	O	PUN	O	.	.	O	O

Those	t702	29	those	O	O	O	O	O	O	cs37	O	DT0	B-NP	those	DT	O	O
withdrawals	t703	29	withdrawal	e72	OCCURRENCE	NONE+NONE+POS	O	O	O	cs37	O	NN2	I-NP	withdrawal	NNS	t702:NMOD||t704:P||t708:NMOD||t716:P	O
,	t704	29	,	O	O	O	O	O	O	cs37	O	PUN	O	,	,	O	O
most	t705	29	most	O	O	O	O	O	O	cs37	O	DT0	B-NP	most	DT	t706:NMOD	O
of	t706	29	of	O	O	O	O	O	O	cs37	O	PRF	B-PP	of	IN	t707:PMOD	O
which	t707	29	which	O	O	O	O	O	O	cs37	O	DTQ	B-NP	which	WDT	O	O
were	t708	29	be	O	O	O	O	O	O	cs37	O	VBD	B-VP	be	VBD	t705:SBJ||t709:VC	O
transferred	t709	29	transfer	e73	OCCURRENCE	PAST+NONE+POS	O	O	O	cs37	O	VVN	I-VP	transfer	VBN	t710:ADV	O
to	t710	29	to	O	O	O	O	O	O	cs37	O	PRP	B-PP	to	TO	t715:PMOD	O
other	t711	29	other	O	O	O	O	O	O	cs37	O	AJ0	B-NP	other	JJ	O	O
T.	t712	29	T.	O	O	O	O	O	O	cs37	O	NP0	I-NP	t.	NNP	O	O
Rowe	t713	29	Rowe	O	O	O	O	O	O	cs37	O	NP0	I-NP	rowe	NNP	O	O
Price	t714	29	Price	O	O	O	O	O	O	cs37	O	NP0	I-NP	price	NNP	t712:NAME||t713:NAME	O
funds	t715	29	fund	O	O	O	O	O	O	cs37	O	NN2	I-NP	funds	NNS	t711:NMOD||t714:NMOD	O
,	t716	29	,	O	O	O	O	O	O	cs37	O	PUN	O	,	,	O	O
followed	t717	29	follow	O	O	O	O	O	O	cs37	O	VVD	B-VP	follow	VBD	t703:SBJ||t719:OBJ||t727:TMP||t730:P||t731:P	mainVb
little	t718	29	little	O	O	O	O	O	O	cs37	O	AV0	B-NP	little	JJ	O	O
change	t719	29	change	e74	OCCURRENCE	NONE+NONE+POS	O	O	O	cs37	O	VVI	I-NP	change	NN	t718:NMOD||t720:LOC	O
in	t720	29	in	O	O	O	O	O	O	cs37	O	PRP	B-PP	in	IN	t725:PMOD	O
the	t721	29	the	O	O	O	O	O	O	cs37	O	AT0	B-NP	the	DT	O	O
fund	t722	29	fund	O	O	O	O	O	O	cs37	O	NN1	I-NP	fund	NN	t721:NMOD||t723:SUFFIX	O
's	t723	29	's	O	O	O	O	O	O	cs37	O	POS	B-NP	's	POS	O	O
sales	t724	29	sale	O	O	O	O	O	O	cs37	O	NN0	I-NP	sales	NNS	O	O
picture	t725	29	picture	O	O	O	O	O	O	cs37	O	NN1	I-NP	picture	NN	t722:NMOD||t724:NMOD	O
this	t726	29	this	O	O	O	tmx75	DATE	1989	cs37	O	DT0	B-NP	this	DT	O	O
year	t727	29	year	O	O	O	tmx75	DATE	1989	cs37	O	NN1	I-NP	year	NN	t726:NMOD||t728:NMOD	O
through	t728	29	through	O	O	O	O	O	O	cs37	O	PRP	B-PP	through	IN	t729:PMOD	O
August	t729	29	August	O	O	O	tmx76	DATE	1989-08	cs37	O	NP0	B-NP	august	NNP	O	O
.	t730	29	.	O	O	O	O	O	O	cs37	O	PUN	O	.	.	O	O
"	t731	29	"	O	O	O	O	O	O	cs37	O	PUQ	O	"	''	O	O

The	t732	30	the	O	O	O	tmx77	DURATION	P2M	cs37	O	AT0	B-NP	the	DT	O	O
last	t733	30	last	O	O	O	tmx77	DURATION	P2M	cs37	O	ORD	I-NP	last	JJ	O	O
two	t734	30	two	O	O	O	tmx77	DURATION	P2M	cs37	O	CRD	I-NP	two	CD	O	O
months	t735	30	month	O	O	O	tmx77	DURATION	P2M	cs37	O	NN2	I-NP	month	NNS	t732:NMOD||t733:NMOD||t734:NMOD	O
have	t736	30	have	O	O	O	O	O	O	cs37	O	VHB	B-VP	have	VBP	t735:SBJ||t737:VC	O
been	t737	30	be	O	O	O	O	O	O	cs37	O	VBN	I-VP	be	VBN	t741:PRD	O
the	t738	30	the	O	O	O	O	O	O	cs37	O	AT0	B-NP	the	DT	O	O
whole	t739	30	whole	O	O	O	O	O	O	cs37	O	AJ0	I-NP	whole	JJ	O	O
ball	t740	30	ball	O	O	O	O	O	O	cs37	O	NN1	I-NP	ball	NN	O	O
game	t741	30	game	e78	OCCURRENCE	PRESENT+PERFECTIVE+POS	O	O	O	cs37	O	NN1	I-NP	game	NN	t738:NMOD||t739:NMOD||t740:NMOD	O
,	t742	30	,	O	O	O	O	O	O	cs37	O	PUN	O	,	,	O	O
"	t743	30	"	O	O	O	O	O	O	cs37	O	PUQ	O	"	NNP	O	O
says	t744	30	say	e79	REPORTING	PRESENT+NONE+POS	O	O	O	cs37	O	VVZ	B-VP	say	VBZ	t736:OBJ||t742:P||t743:SBJ||t746:SBJ||t751:P	mainVb
Steven	t745	30	Steven	O	O	O	O	O	O	cs37	O	NP0	B-NP	steven	NNP	O	O
Norwitz	t746	30	Norwitz	O	O	O	O	O	O	cs37	O	NP0	I-NP	norwitz	NNP	t745:NAME||t747:P||t750:APPO	O
,	t747	30	,	O	O	O	O	O	O	cs37	O	PUN	O	,	,	O	O
a	t748	30	a	O	O	O	O	O	O	cs37	O	AT0	B-NP	a	DT	O	O
vice	t749	30	vice	O	O	O	O	O	O	cs37	O	NN1	I-NP	vice	NN	O	O
president	t750	30	president	O	O	O	O	O	O	cs37	O	NN1	I-NP	president	NN	t748:NMOD||t749:NMOD	O
.	t751	30	.	O	O	O	O	O	O	cs37	O	PUN	O	.	.	O	O

Junk-fund	t752	31	junk-fund	O	O	O	O	O	O	cs37	O	NP0	B-NP	junk-fund	NN	O	O
holders	t753	31	holder	O	O	O	O	O	O	cs37	O	NN2	I-NP	holder	NNS	t752:NMOD	O
have	t754	31	have	O	O	O	O	O	O	cs37	O	VHB	B-VP	have	VBP	t753:SBJ||t756:VC||t771:P	mainVb
barely	t755	31	barely	O	O	O	O	O	O	cs37	O	AV0	I-VP	barely	RB	O	mainVb
broken	t756	31	break	e80	OCCURRENCE	PRESENT+PERFECTIVE+POS	O	O	O	cs37	O	VVN	I-VP	break	VBN	t755:MNR||t757:ADV||t759:TMP||t760:P||t761:ADV	mainVb
even	t757	31	even	O	O	O	O	O	O	cs37	O	AV0	B-NP	even	RB	O	O
this	t758	31	this	O	O	O	tmx81	DATE	1989	cs37	O	DT0	I-NP	this	DT	O	O
year	t759	31	year	O	O	O	tmx81	DATE	1989	cs37	O	NN1	I-NP	year	NN	t758:NMOD	O
,	t760	31	,	O	O	O	O	O	O	cs37	O	PUN	O	,	,	O	O
as	t761	31	as	O	O	O	O	O	O	cs82	O	CJS	B-SBAR	as	IN	t766:SUB	O
fat	t762	31	fat	O	O	O	O	O	O	cs82	O	AJ0	B-NP	fat	JJ	O	O
interest	t763	31	interest	O	O	O	O	O	O	cs82	O	NN1	I-NP	interest	NN	O	O
payments	t764	31	payment	O	O	O	O	O	O	cs82	O	NN2	I-NP	payment	NNS	t762:NMOD||t763:NMOD	O
barely	t765	31	barely	O	O	O	O	O	O	cs82	O	AV0	B-VP	barely	RB	O	O
managed	t766	31	manage	e83	OCCURRENCE	PASTPART+NONE+POS	O	O	O	cs82	O	VVN	I-VP	manage	VBD	t764:SBJ||t765:MNR||t767:OPRD	O
to	t767	31	to	O	O	O	O	O	O	cs82	O	TO0	I-VP	to	TO	t768:IM	O
offset	t768	31	offset	O	O	O	O	O	O	cs82	O	VVI	I-VP	offset	VB	t770:OBJ	O
declining	t769	31	decline	O	O	O	O	O	O	cs82	O	VVG	I-VP	decline	VBG	O	O
prices	t770	31	price	O	O	O	O	O	O	cs82	O	NN2	B-NP	price	NNS	t769:NMOD	O
.	t771	31	.	O	O	O	O	O	O	cs82	O	PUN	O	.	.	O	O

Through	t772	32	through	O	O	O	O	O	O	cs82	O	PRP	B-PP	through	IN	t774:PMOD	O
Oct.	t773	32	Oct.	O	O	O	tmx84	DATE	1989-10-19	cs82	O	NP0	B-NP	oct.	NNP	O	O
19	t774	32	19	O	O	O	tmx84	DATE	1989-10-19	cs82	O	CRD	I-NP	19	CD	t773:NMOD	O
,	t775	32	,	O	O	O	O	O	O	cs82	O	PUN	O	,	,	O	O
high-yield	t776	32	high-yield	O	O	O	O	O	O	cs82	O	AJ0	B-NP	high-yield	NN	O	O
funds	t777	32	fund	O	O	O	O	O	O	cs82	O	NN2	I-NP	funds	NNS	t776:NMOD	O
had	t778	32	have	e85	STATE	PAST+NONE+POS	O	O	O	cs82	O	VHD	B-VP	have	VBD	t772:TMP||t775:P||t777:SBJ||t784:OBJ||t795:P||t796:ADV||t802:P	mainVb
an	t779	32	a	O	O	O	O	O	O	cs82	O	AT0	B-NP	an	DT	O	O
average	t780	32	average	O	O	O	O	O	O	cs82	O	NN1	I-NP	average	JJ	O	O
0.85	t781	32	0.85	O	O	O	O	O	O	cs82	O	CRD	I-NP	0.85	CD	O	O
%	t782	32	%	O	O	O	O	O	O	cs82	O	UNC	I-NP	%	NN	t781:NMOD	O
total	t783	32	total	O	O	O	O	O	O	cs82	O	AJ0	I-NP	total	JJ	O	O
return	t784	32	return	O	O	O	O	O	O	cs82	O	NN1	I-NP	return	NN	t779:NMOD||t780:NMOD||t782:NMOD||t783:NMOD||t785:APPO	O
-LRB-	t785	32	-lrb-	O	O	O	O	O	O	cs82	O	NN1	I-NP	-lrb-	VBD	t788:OBJ||t794:OPRD	O
the	t786	32	the	O	O	O	O	O	O	cs82	O	AT0	B-NP	the	DT	O	O
price	t787	32	price	O	O	O	O	O	O	cs82	O	NN1	I-NP	price	NN	O	O
change	t788	32	change	O	O	O	O	O	O	cs82	O	NN1	I-NP	change	NN	t786:NMOD||t787:NMOD||t789:NMOD	O
plus	t789	32	plus	O	O	O	O	O	O	cs82	O	PRP	O	plus	IN	t790:PMOD	O
dividends	t790	32	dividend	O	O	O	O	O	O	cs82	O	NN2	B-NP	dividend	NNS	t791:NMOD	O
on	t791	32	on	O	O	O	O	O	O	cs82	O	PRP	B-PP	on	IN	t793:PMOD	O
fund	t792	32	fund	O	O	O	O	O	O	cs82	O	AJ0	B-NP	fund	NN	O	O
shares	t793	32	share	O	O	O	O	O	O	cs82	O	NN2	I-NP	share	NNS	t792:NMOD	O
-RRB-	t794	32	-rrb-	O	O	O	O	O	O	cs82	O	UNC	I-NP	-rrb-	VBP	O	O
,	t795	32	,	O	O	O	O	O	O	cs82	O	PUN	O	,	,	O	O
according	t796	32	accord	e86	REPORTING	PRESPART+NONE+POS	O	O	O	cs82	O	PRP	B-PP	accord	VBG	t797:PMOD	O
to	t797	32	to	O	O	O	O	O	O	cs82	O	PRP	B-PP	to	TO	t800:PMOD	O
Lipper	t798	32	Lipper	O	O	O	O	O	O	cs82	O	NP0	B-NP	lipper	NNP	O	O
Analytical	t799	32	Analytical	O	O	O	O	O	O	cs82	O	AJ0	I-NP	analytical	NNP	O	O
Services	t800	32	Services	O	O	O	O	O	O	cs82	O	NN2	I-NP	services	NNPS	t798:NAME||t799:NAME||t801:POSTHON	O
Inc.	t801	32	Inc.	O	O	O	O	O	O	cs82	O	NN1	I-NP	inc.	NNP	O	O
.	t802	32	.	O	O	O	O	O	O	cs82	O	PUN	O	.	.	O	O

That	t803	33	that	O	O	O	O	O	O	cs82	O	DT0	B-NP	that	DT	O	O
's	t804	33	be	O	O	O	O	O	O	cs82	O	VBZ	B-VP	's	VBZ	t803:SBJ||t806:PRD||t821:P	mainVb
even	t805	33	even	O	O	O	O	O	O	cs82	O	AV0	B-ADVP	even	RB	O	O
less	t806	33	less	O	O	O	O	O	O	cs82	O	DT0	B-ADJP	less	JJR	t805:AMOD||t807:AMOD	O
than	t807	33	than	O	O	O	O	O	O	cs82	O	CJS	B-PP	than	IN	t812:PMOD	O
the	t808	33	the	O	O	O	O	O	O	cs82	O	AT0	B-NP	the	DT	O	O
4.35	t809	33	4.35	O	O	O	O	O	O	cs82	O	CRD	I-NP	4.35	CD	O	O
%	t810	33	%	O	O	O	O	O	O	cs82	O	UNC	I-NP	%	NN	t809:NMOD	O
total	t811	33	total	O	O	O	O	O	O	cs82	O	AJ0	I-NP	total	JJ	O	O
return	t812	33	return	O	O	O	O	O	O	cs82	O	NN1	I-NP	return	NN	t808:NMOD||t810:NMOD||t811:NMOD||t813:NMOD	O
of	t813	33	of	O	O	O	O	O	O	cs82	O	PRF	B-PP	of	IN	t820:PMOD	O
the	t814	33	the	O	O	O	O	O	O	cs82	O	AT0	B-NP	the	DT	O	O
Merrill	t815	33	Merrill	O	O	O	O	O	O	cs82	O	AJ0	I-NP	merrill	NNP	O	O
Lynch	t816	33	Lynch	O	O	O	O	O	O	cs82	O	NN1	I-NP	lynch	NNP	t815:NAME	O
High	t817	33	High	O	O	O	O	O	O	cs82	O	AJ0	I-NP	high	NNP	O	O
-	t818	33	-	O	O	O	O	O	O	cs82	O	PUN	O	-	HYPH	O	O
Yield	t819	33	Yield	O	O	O	O	O	O	cs82	O	NP0	B-NP	yield	NNP	O	O
Index	t820	33	Index	O	O	O	O	O	O	cs82	O	NP0	I-NP	index	NNP	t814:NMOD||t816:NAME||t817:NAME||t818:NAME||t819:NMOD	O
.	t821	33	.	O	O	O	O	O	O	cs82	O	PUN	O	.	.	O	O

Fidelity	t822	34	Fidelity	O	O	O	O	O	O	cs82	O	NN1	B-NP	fidelity	NNP	t823:SUFFIX	O
's	t823	34	's	O	O	O	O	O	O	cs82	O	POS	B-NP	's	POS	O	O
junk	t824	34	junk	O	O	O	O	O	O	cs82	O	NN1	I-NP	junk	NN	O	O
fund	t825	34	fund	O	O	O	O	O	O	cs82	O	NN1	I-NP	fund	NN	t822:NMOD||t824:NMOD	O
has	t826	34	have	O	O	O	O	O	O	cs82	O	VHZ	B-VP	have	VBZ	t825:SBJ||t827:VC	O
fallen	t827	34	fall	e87	OCCURRENCE	PRESENT+PERFECTIVE+POS	O	O	O	cs82	O	VVN	I-VP	fall	VBN	t829:EXT||t831:TMP||t832:TMP	O
2.08	t828	34	2.08	O	O	O	O	O	O	cs82	O	CRD	B-NP	2.08	CD	O	O
%	t829	34	%	O	O	O	O	O	O	cs82	O	UNC	I-NP	%	NN	t828:NMOD	O
this	t830	34	this	O	O	O	tmx88	DATE	1989	cs82	O	DT0	I-NP	this	DT	O	O
year	t831	34	year	O	O	O	tmx88	DATE	1989	cs82	O	NN1	I-NP	year	NN	t830:NMOD	O
through	t832	34	through	O	O	O	O	O	O	cs82	O	PRP	B-PP	through	IN	t834:PMOD	O
Oct.	t833	34	Oct.	O	O	O	tmx89	DATE	1989-10-19	cs82	O	NP0	B-NP	oct.	NNP	O	O
19	t834	34	19	O	O	O	tmx89	DATE	1989-10-19	cs82	O	CRD	I-NP	19	CD	t833:NMOD	O
,	t835	34	,	O	O	O	O	O	O	cs82	O	PUN	O	,	,	O	O
Lipper	t836	34	Lipper	O	O	O	O	O	O	cs82	O	NP0	B-NP	lipper	NNP	O	O
says	t837	34	say	e90	REPORTING	PRESENT+NONE+POS	O	O	O	cs82	O	VVZ	B-VP	say	VBZ	t826:OBJ||t835:P||t836:SBJ||t838:P||t842:COORD||t856:P	mainVb
;	t838	34	;	O	O	O	O	O	O	cs82	O	PUN	O	;	:	O	O
the	t839	34	the	O	O	O	O	O	O	cs82	O	AT0	B-NP	the	DT	O	O
Vanguard	t840	34	Vanguard	O	O	O	O	O	O	cs82	O	NP0	I-NP	vanguard	NNP	O	O
fund	t841	34	fund	O	O	O	O	O	O	cs82	O	NN1	I-NP	fund	NN	t839:NMOD||t840:NMOD	O
rose	t842	34	rise	e91	OCCURRENCE	PAST+NONE+POS	O	O	O	cs82	O	VVD	B-VP	rise	VBD	t841:SBJ||t844:EXT||t845:P||t846:COORD	O
1.84	t843	34	1.84	O	O	O	O	O	O	cs82	O	CRD	B-NP	1.84	CD	O	O
%	t844	34	%	O	O	O	O	O	O	cs82	O	UNC	I-NP	%	NN	t843:NMOD	O
;	t845	34	;	O	O	O	O	O	O	cs82	O	PUN	O	;	:	O	O
and	t846	34	and	O	O	O	O	O	O	cs82	O	CJC	O	and	CC	t852:CONJ	O
the	t847	34	the	O	O	O	O	O	O	cs82	O	AT0	B-NP	the	DT	O	O
T.	t848	34	T.	O	O	O	O	O	O	cs82	O	NP0	I-NP	t.	NNP	O	O
Rowe	t849	34	Rowe	O	O	O	O	O	O	cs82	O	NP0	I-NP	rowe	NNP	O	O
Price	t850	34	Price	O	O	O	O	O	O	cs82	O	NP0	I-NP	price	NNP	t848:NAME||t849:NAME	O
fund	t851	34	fund	O	O	O	O	O	O	cs82	O	NN1	I-NP	fund	NN	t847:NMOD||t850:NMOD	O
edged	t852	34	edge	e92	OCCURRENCE	PAST+NONE+POS	O	O	O	cs82	O	VVD	B-VP	edge	VBD	t851:SBJ||t853:ADV	O
up	t853	34	up	O	O	O	O	O	O	cs82	O	AVP	B-PRT	up	IN	t855:AMOD	O
0.66	t854	34	0.66	O	O	O	O	O	O	cs82	O	CRD	B-NP	0.66	CD	O	O
%	t855	34	%	O	O	O	O	O	O	cs82	O	UNC	I-NP	%	NN	t854:NMOD	O
.	t856	34	.	O	O	O	O	O	O	cs82	O	PUN	O	.	.	O	O

People	t857	35	people	O	O	O	O	O	O	cs82	O	NN0	B-NP	people	NN	t859:NMOD	O
who	t858	35	who	O	O	O	O	O	O	cs82	O	PNQ	B-NP	who	WP	O	O
remain	t859	35	remain	e93	STATE	PRESENT+NONE+POS	O	O	O	cs82	O	VVB	B-VP	remain	VBP	t858:SBJ||t860:LOC-PRD||t863:TMP	O
in	t860	35	in	O	O	O	O	O	O	cs82	O	PRP	B-PP	in	IN	t862:PMOD	O
junk	t861	35	junk	O	O	O	O	O	O	cs82	O	NN1	B-NP	junk	NN	O	O
funds	t862	35	fund	O	O	O	O	O	O	cs82	O	NN2	I-NP	funds	NNS	t861:NMOD	O
now	t863	35	now	O	O	O	tmx94	DATE	PRESENT_REF	cs82	O	AV0	B-ADVP	now	RB	O	O
could	t864	35	could	O	O	O	O	O	O	cs82	O	VM0	B-VP	could	MD	t857:SBJ||t865:VC	O
get	t865	35	get	e95	OCCURRENCE	NONE+NONE+POS	O	O	O	cs82	O	VVI	I-VP	get	VB	t866:VC	O
hit	t866	35	hit	e96	STATE	PASTPART+NONE+POS	O	O	O	cs82	O	NN1	B-NP	hit	VB	t867:TMP	O
again	t867	35	again	O	O	O	O	O	O	cs82	O	AV0	B-ADVP	again	RB	O	O
,	t868	35	,	O	O	O	O	O	O	cs82	O	PUN	O	,	,	O	O
some	t869	35	some	O	O	O	O	O	O	cs82	O	DT0	B-NP	some	DT	O	O
analysts	t870	35	analyst	O	O	O	O	O	O	cs82	O	NN2	I-NP	analyst	NNS	t869:NMOD||t871:COORD	O
and	t871	35	and	O	O	O	O	O	O	cs82	O	CJC	I-NP	and	CC	t873:CONJ	O
fund	t872	35	fund	O	O	O	O	O	O	cs82	O	NN1	I-NP	fund	NN	O	O
specialists	t873	35	specialist	O	O	O	O	O	O	cs82	O	NN2	I-NP	specialist	NNS	t872:NMOD	O
say	t874	35	say	e97	REPORTING	PRESENT+NONE+POS	O	O	O	cs82	O	VVB	B-VP	say	VBP	t864:OBJ||t868:P||t870:SBJ||t875:P	mainVb
.	t875	35	.	O	O	O	O	O	O	cs82	O	PUN	O	.	.	O	O

Many	t876	36	many	O	O	O	O	O	O	cs82	O	DT0	B-NP	many	DT	O	O
funds	t877	36	fund	O	O	O	O	O	O	cs82	O	NN2	I-NP	funds	NNS	t876:NMOD||t878:TMP	O
in	t878	36	in	O	O	O	O	O	O	cs82	O	PRP	B-PP	in	IN	t880:PMOD	O
recent	t879	36	recent	O	O	O	tmx98	DATE	PAST_REF	cs82	O	AJ0	B-NP	recent	JJ	O	O
weeks	t880	36	week	O	O	O	tmx98	DATE	PAST_REF	cs82	O	NN2	I-NP	week	NNS	t879:NMOD||t881:COORD	O
and	t881	36	and	O	O	O	tmx98	DATE	PAST_REF	cs82	O	CJC	O	and	CC	t882:CONJ	O
months	t882	36	month	O	O	O	tmx98	DATE	PAST_REF	cs82	O	NN2	B-NP	month	NNS	O	O
have	t883	36	have	O	O	O	O	O	O	cs82	O	VHB	B-VP	have	VBP	t877:SBJ||t884:VC||t903:P	mainVb
been	t884	36	be	O	O	O	O	O	O	cs82	O	VBN	I-VP	be	VBN	t885:VC	mainVb
selling	t885	36	sell	e99	OCCURRENCE	PRESENT+PERFECTIVE_PROGRESSIVE+POS	O	O	O	cs82	O	VVG	I-VP	sell	VBG	t889:OBJ||t896:PRP	mainVb
their	t886	36	they	O	O	O	O	O	O	cs82	O	DPS	B-NP	their	PRP$	O	O
highest-quality	t887	36	highest-quality	O	O	O	O	O	O	cs82	O	NN1	I-NP	highest-quality	NN	O	O
junk	t888	36	junk	O	O	O	O	O	O	cs82	O	NN1	I-NP	junk	NN	O	O
issues	t889	36	issue	O	O	O	O	O	O	cs82	O	NN2	I-NP	issue	NNS	t886:NMOD||t887:NMOD||t888:NMOD||t890:P||t892:NMOD||t895:P	O
,	t890	36	,	O	O	O	O	O	O	cs82	O	PUN	O	,	,	O	O
such	t891	36	such	O	O	O	O	O	O	cs82	O	PRP	B-PP	such	JJ	O	O
as	t892	36	as	O	O	O	O	O	O	cs82	O	PRP	I-PP	as	IN	t891:DEP||t894:PMOD	O
RJR	t893	36	RJR	O	O	O	O	O	O	cs82	O	NP0	B-NP	rjr	NNP	O	O
Nabisco	t894	36	Nabisco	O	O	O	O	O	O	cs82	O	NP0	I-NP	nabisco	NNP	t893:NAME	O
,	t895	36	,	O	O	O	O	O	O	cs82	O	PUN	O	,	,	O	O
to	t896	36	to	O	O	O	O	O	O	cs82	O	TO0	B-VP	to	TO	t897:IM	O
raise	t897	36	raise	e100	OCCURRENCE	INFINITIVE+NONE+POS	O	O	O	cs82	O	VVI	I-VP	raise	VB	t898:OBJ||t899:PRP	O
cash	t898	36	cash	O	O	O	O	O	O	cs82	O	NN1	B-NP	cash	NN	O	O
to	t899	36	to	O	O	O	O	O	O	cs82	O	TO0	B-VP	to	TO	t900:IM	O
meet	t900	36	meet	e101	OCCURRENCE	INFINITIVE+NONE+POS	O	O	O	cs82	O	VVI	I-VP	meet	VB	t902:OBJ	O
expected	t901	36	expected	O	O	O	O	O	O	cs82	O	AJ0	B-NP	expected	JJ	O	O
redemptions	t902	36	redemption	e102	OCCURRENCE	NONE+NONE+POS	O	O	O	cs82	O	NN2	I-NP	redemption	NNS	t901:NMOD	O
.	t903	36	.	O	O	O	O	O	O	cs82	O	PUN	O	.	.	O	O

Funds	t904	37	fund	O	O	O	O	O	O	cs82	O	NP0	B-NP	funds	NNS	O	O
might	t905	37	might	O	O	O	O	O	O	cs82	O	VM0	B-VP	might	MD	t904:SBJ||t906:VC||t923:P	mainVb
be	t906	37	be	O	O	O	O	O	O	cs82	O	VBI	I-VP	be	VB	t907:VC	mainVb
forced	t907	37	force	e103	I_STATE	NONE+NONE+POS	O	O	O	cs82	O	VVN	I-VP	force	VBN	t908:OPRD||t912:ADV	mainVb
to	t908	37	to	O	O	O	O	O	O	cs82	O	TO0	I-VP	to	TO	t909:IM	mainVb
accept	t909	37	accept	e104	I_ACTION	INFINITIVE+NONE+POS	O	O	O	cs82	O	VVI	I-VP	accept	VB	t911:OBJ	mainVb
lower	t910	37	lower	O	O	O	O	O	O	cs82	O	AJC	B-NP	low	JJR	O	O
prices	t911	37	price	O	O	O	O	O	O	cs82	O	NN2	I-NP	price	NNS	t910:NMOD	O
if	t912	37	if	O	O	O	O	O	O	cs82	O	CJS	B-SBAR	if	IN	t914:SUB	O
they	t913	37	they	O	O	O	O	O	O	cs82	O	PNP	B-NP	they	PRP	O	O
expand	t914	37	expand	e105	I_ACTION	PRESENT+NONE+POS	O	O	O	cs82	O	VVB	B-VP	expand	VBP	t913:SBJ||t916:OBJ||t917:ADV	O
their	t915	37	they	O	O	O	O	O	O	cs82	O	DPS	B-NP	their	PRP$	O	O
selling	t916	37	selling	e106	OCCURRENCE	NONE+NONE+POS	O	O	O	cs82	O	NN1	I-NP	selling	NN	t915:NMOD	O
to	t917	37	to	O	O	O	O	O	O	cs82	O	PRP	B-PP	to	TO	t919:PMOD	O
the	t918	37	the	O	O	O	O	O	O	cs82	O	AT0	B-NP	the	DT	O	O
securities	t919	37	security	O	O	O	O	O	O	cs82	O	NN2	I-NP	security	NNS	t918:NMOD||t920:NMOD	O
of	t920	37	of	O	O	O	O	O	O	cs82	O	PRF	B-PP	of	IN	t922:PMOD	O
less-creditworthy	t921	37	less-creditworthy	O	O	O	O	O	O	cs82	O	AJ0	B-NP	less-creditworthy	JJ	O	O
borrowers	t922	37	borrower	O	O	O	O	O	O	cs82	O	NN2	I-NP	borrower	NNS	t921:NMOD	O
.	t923	37	.	O	O	O	O	O	O	cs82	O	PUN	O	.	.	O	O

And	t924	38	and	O	O	O	O	O	O	cs82	O	CJC	O	and	CC	O	O
then	t925	38	then	O	O	O	O	O	O	cs82	O	AV0	B-ADVP	then	RB	O	O
,	t926	38	,	O	O	O	O	O	O	cs82	O	PUN	O	,	,	O	O
asset	t927	38	asset	O	O	O	O	O	O	cs82	O	AJ0	B-NP	asset	NN	O	O
values	t928	38	value	O	O	O	O	O	O	cs82	O	NN2	I-NP	values	NNS	t927:NMOD||t929:NMOD	O
of	t929	38	of	O	O	O	O	O	O	cs82	O	PRF	B-PP	of	IN	t931:PMOD	O
the	t930	38	the	O	O	O	O	O	O	cs82	O	AT0	B-NP	the	DT	O	O
funds	t931	38	fund	O	O	O	O	O	O	cs82	O	NN2	I-NP	funds	NNS	t930:NMOD	O
could	t932	38	could	O	O	O	O	O	O	cs82	O	VM0	B-VP	could	MD	t924:DEP||t925:TMP||t926:P||t928:SBJ||t933:VC||t940:P	mainVb
plunge	t933	38	plunge	e107	OCCURRENCE	NONE+NONE+POS	O	O	O	cs82	O	VVI	I-VP	plunge	VB	t934:OBJ	mainVb
more	t934	38	more	O	O	O	O	O	O	cs82	O	DT0	B-NP	more	RBR	t935:NMOD	O
than	t935	38	than	O	O	O	O	O	O	cs82	O	CJS	B-SBAR	than	IN	t937:SUB	O
they	t936	38	they	O	O	O	O	O	O	cs82	O	PNP	B-NP	they	PRP	O	O
have	t937	38	have	O	O	O	O	O	O	cs82	O	VHB	B-VP	have	VBP	t936:SBJ||t938:VC	O
so	t938	38	so	O	O	O	O	O	O	cs82	O	AV0	B-ADVP	so	RB	t939:AMOD	O
far	t939	38	far	O	O	O	O	O	O	cs82	O	AV0	I-ADVP	far	RB	O	O
.	t940	38	.	O	O	O	O	O	O	cs82	O	PUN	O	.	.	O	O

Says	t941	39	say	O	O	O	O	O	O	cs82	O	VVZ	B-VP	say	VBZ	t943:SBJ||t961:P||t962:P||t964:OBJ||t973:P||t974:P	mainVb
Michael	t942	39	Michael	O	O	O	O	O	O	cs82	O	NP0	B-NP	michael	NNP	O	O
Hirsch	t943	39	Hirsch	O	O	O	O	O	O	cs82	O	NP0	I-NP	hirsch	NNP	t942:NAME||t944:P||t947:APPO	O
,	t944	39	,	O	O	O	O	O	O	cs82	O	PUN	O	,	,	O	O
chief	t945	39	chief	O	O	O	O	O	O	cs82	O	AJ0	B-NP	chief	NN	O	O
investment	t946	39	investment	O	O	O	O	O	O	cs82	O	NN1	I-NP	investment	NN	O	O
officer	t947	39	officer	O	O	O	O	O	O	cs82	O	NN1	I-NP	officer	NN	t945:NMOD||t946:NMOD||t948:NMOD||t952:COORD	O
of	t948	39	of	O	O	O	O	O	O	cs82	O	PRF	B-PP	of	IN	t951:PMOD	O
Republic	t949	39	Republic	O	O	O	O	O	O	cs82	O	AJ0	B-NP	republic	NNP	O	O
National	t950	39	National	O	O	O	O	O	O	cs82	O	AJ0	I-NP	national	NNP	O	O
Bank	t951	39	Bank	O	O	O	O	O	O	cs82	O	NN1	I-NP	bank	NNP	t949:NAME||t950:NAME	O
and	t952	39	and	O	O	O	O	O	O	cs82	O	CJC	I-NP	and	CC	t953:CONJ	O
manager	t953	39	manager	O	O	O	O	O	O	cs82	O	NN1	I-NP	manager	NN	t954:NMOD	O
of	t954	39	of	O	O	O	O	O	O	cs82	O	PRF	B-PP	of	IN	t957:PMOD	O
the	t955	39	the	O	O	O	O	O	O	cs82	O	AT0	B-NP	the	DT	O	O
FundTrust	t956	39	FundTrust	O	O	O	O	O	O	cs82	O	NP0	I-NP	fundtrust	NNP	O	O
Group	t957	39	Group	O	O	O	O	O	O	cs82	O	NN1	I-NP	group	NNP	t955:NMOD||t956:NAME||t958:LOC	O
in	t958	39	in	O	O	O	O	O	O	cs82	O	PRP	B-PP	in	IN	t960:PMOD	O
New	t959	39	New	O	O	O	O	O	O	cs82	O	NP0	B-NP	new	NNP	O	O
York	t960	39	York	O	O	O	O	O	O	cs82	O	NP0	I-NP	york	NNP	t959:NAME	O
:	t961	39	:	O	O	O	O	O	O	cs82	O	PUN	O	:	:	O	O
"	t962	39	"	O	O	O	O	O	O	cs82	O	PUQ	O	"	.	O	O
It	t963	39	it	O	O	O	O	O	O	cs82	O	PNP	B-NP	it	PRP	O	O
's	t964	39	be	O	O	O	O	O	O	cs82	O	VBZ	B-VP	's	VBZ	t963:SBJ||t967:PRD	O
a	t965	39	a	O	O	O	O	O	O	cs82	O	AT0	B-NP	a	DT	O	O
time	t966	39	time	O	O	O	O	O	O	cs82	O	NN1	I-NP	time	NN	O	O
bomb	t967	39	bomb	O	O	O	O	O	O	cs82	O	NN1	I-NP	bomb	NN	t965:NMOD||t966:NMOD||t969:APPO	O
just	t968	39	just	O	O	O	O	O	O	cs82	O	AV0	B-ADVP	just	RB	O	O
waiting	t969	39	wait	O	O	O	O	O	O	cs82	O	VVG	B-VP	wait	VBG	t968:ADV||t970:OPRD	O
to	t970	39	to	O	O	O	O	O	O	cs82	O	TO0	I-VP	to	TO	t971:IM	O
go	t971	39	go	O	O	O	O	O	O	cs82	O	VVI	I-VP	go	VB	t972:ADV	O
off	t972	39	off	O	O	O	O	O	O	cs82	O	AVP	B-PRT	off	RP	O	O
.	t973	39	.	O	O	O	O	O	O	cs82	O	PUN	O	.	.	O	O
"	t974	39	"	O	O	O	O	O	O	cs82	O	PUQ	O	"	''	O	O
