DCT_1989-10-26	O	O	O	O	O	O	tmx0	DATE	1989-10-26	O	O	NP0	B-NP	dct_1989-10-26	LS	O	O

ONEIDA	t1	1	ONEIDA	O	O	O+O+O	O	O	O	O	O	NP0	B-NP	oneida	NNP	t2:POSTHON	O
Ltd.	t2	1	Ltd.	O	O	O+O+O	O	O	O	O	O	AJ0	I-NP	ltd.	NNP	O	O
declared	t3	1	declare	e1	OCCURRENCE	PAST+NONE+POS	O	O	O	O	O	VVD	B-VP	declare	VBD	t1:SBJ||t8:OBJ||t19:P	mainVb
a	t4	1	a	O	O	O	O	O	O	O	O	AT0	B-NP	a	DT	O	O
10	t5	1	10	O	O	O	O	O	O	O	O	CRD	I-NP	10	CD	O	O
%	t6	1	%	O	O	O	O	O	O	O	O	UNC	I-NP	%	NN	t5:NMOD	O
stock	t7	1	stock	O	O	O	O	O	O	O	O	NN1	I-NP	stock	NN	O	O
dividend	t8	1	dividend	O	O	O	O	O	O	O	O	NN1	I-NP	dividend	NN	t4:NMOD||t6:NMOD||t7:NMOD||t9:P||t10:APPO	O
,	t9	1	,	O	O	O	O	O	O	O	O	PUN	O	,	,	O	O
payable	t10	1	payable	O	O	O	O	O	O	O	O	AJ0	B-NP	payable	JJ	t12:TMP||t13:AMOD	O
Dec.	t11	1	Dec.	O	O	O	tmx2	DATE	1989-12-15	O	O	NN1	I-NP	dec.	NNP	O	O
15	t12	1	15	O	O	O	tmx2	DATE	1989-12-15	O	O	CRD	I-NP	15	CD	t11:NMOD	O
to	t13	1	to	O	O	O	O	O	O	O	O	TO0	B-VP	to	TO	t14:PMOD	O
stock	t14	1	stock	O	O	O	O	O	O	O	O	VVI	I-VP	stock	NN	t15:NMOD||t18:TMP	O
of	t15	1	of	O	O	O	O	O	O	O	O	PRF	B-PP	of	IN	t16:PMOD	O
record	t16	1	record	O	O	O	O	O	O	O	O	NN1	B-NP	record	NN	O	O
Nov.	t17	1	Nov.	O	O	O	tmx3	DATE	1989-11-17	O	O	NP0	B-NP	nov.	NNP	O	O
17	t18	1	17	O	O	O	tmx3	DATE	1989-11-17	O	O	CRD	I-NP	17	CD	t17:NMOD	O
.	t19	1	.	O	O	O	O	O	O	O	O	PUN	O	.	.	O	O

The	t20	2	the	O	O	O	O	O	O	O	O	AT0	B-NP	the	DT	O	O
Oneida	t21	2	Oneida	O	O	O	O	O	O	O	O	NP0	I-NP	oneida	NNP	O	O
,	t22	2	,	O	O	O	O	O	O	O	O	PUN	O	,	,	O	O
N.Y.	t23	2	N.Y.	O	O	O	O	O	O	O	O	NP0	B-NP	n.y.	NNP	t21:NAME||t22:P||t24:P	O
,	t24	2	,	O	O	O	O	O	O	O	O	PUN	O	,	,	O	O
maker	t25	2	maker	O	O	O	O	O	O	O	O	NN1	B-NP	maker	NN	t20:NMOD||t23:LOC||t26:NMOD	O
of	t26	2	of	O	O	O	O	O	O	O	O	PRF	B-PP	of	IN	t32:PMOD	O
consumer	t27	2	consumer	O	O	O	O	O	O	O	O	NN1	B-NP	consumer	NN	t28:P||t29:COORD	O
,	t28	2	,	O	O	O	O	O	O	O	O	PUN	O	,	,	O	O
food-service	t29	2	food-service	O	O	O	O	O	O	O	O	NN1	B-NP	food-service	NN	t30:COORD	O
and	t30	2	and	O	O	O	O	O	O	O	O	CJC	O	and	CC	t31:CONJ	O
industrial	t31	2	industrial	O	O	O	O	O	O	O	O	AJ0	B-NP	industrial	JJ	O	O
products	t32	2	product	O	O	O	O	O	O	O	O	NN2	I-NP	product	NNS	t27:NMOD	O
also	t33	2	also	O	O	O	O	O	O	O	O	AV0	B-ADVP	also	RB	O	O
declared	t34	2	declare	e4	OCCURRENCE	PAST+NONE+POS	O	O	O	O	O	VVD	B-VP	declare	VBD	t25:SBJ||t33:ADV||t38:OBJ||t52:P	mainVb
a	t35	2	a	O	O	O	O	O	O	O	O	AT0	B-NP	a	DT	O	O
quarterly	t36	2	quarterly	O	O	O	O	O	O	O	O	AV0	I-NP	quarterly	JJ	O	O
cash	t37	2	cash	O	O	O	O	O	O	O	O	AJ0	I-NP	cash	NN	O	O
dividend	t38	2	dividend	O	O	O	O	O	O	O	O	NN1	I-NP	dividend	NN	t35:NMOD||t36:NMOD||t37:NMOD||t39:NMOD||t44:P||t45:NMOD	O
of	t39	2	of	O	O	O	O	O	O	O	O	PRF	B-PP	of	IN	t41:PMOD	O
12	t40	2	12	O	O	O	O	O	O	O	O	CRD	B-NP	12	CD	O	O
cents	t41	2	cent	O	O	O	O	O	O	O	O	NN2	I-NP	cent	NNS	t40:NMOD||t43:ADV	O
a	t42	2	a	O	O	O	O	O	O	O	O	AT0	B-NP	a	DT	O	O
share	t43	2	share	O	O	O	O	O	O	O	O	NN1	I-NP	share	NN	t42:NMOD	O
,	t44	2	,	O	O	O	O	O	O	O	O	PUN	O	,	,	O	O
with	t45	2	with	O	O	O	O	O	O	O	O	PRP	B-PP	with	IN	t51:PMOD	O
the	t46	2	the	O	O	O	O	O	O	O	O	AT0	B-NP	the	DT	O	O
same	t47	2	same	O	O	O	O	O	O	O	O	DT0	I-NP	same	JJ	O	O
payable	t48	2	payable	O	O	O	O	O	O	O	O	AJ0	I-NP	payable	JJ	t49:COORD	O
and	t49	2	and	O	O	O	O	O	O	O	O	CJC	I-NP	and	CC	t50:CONJ	O
record	t50	2	record	O	O	O	O	O	O	O	O	NN1	I-NP	record	NN	O	O
dates	t51	2	date	O	O	O	O	O	O	O	O	NN2	I-NP	date	NNS	t46:NMOD||t47:NMOD||t48:NMOD	O
.	t52	2	.	O	O	O	O	O	O	O	O	PUN	O	.	.	O	O

The	t53	3	the	O	O	O	O	O	O	O	O	AT0	B-NP	the	DT	O	O
cash	t54	3	cash	O	O	O	O	O	O	O	O	NN1	I-NP	cash	NN	O	O
dividend	t55	3	dividend	O	O	O	O	O	O	O	O	NN1	I-NP	dividend	NN	t53:NMOD||t54:NMOD||t56:APPO	O
paid	t56	3	pay	e5	OCCURRENCE	PASTPART+NONE+POS	O	O	O	O	O	VVN	B-VP	pay	VBN	t57:ADV	O
on	t57	3	on	O	O	O	O	O	O	O	O	PRP	B-PP	on	IN	t60:PMOD	O
the	t58	3	the	O	O	O	O	O	O	O	O	AT0	B-NP	the	DT	O	O
common	t59	3	common	O	O	O	O	O	O	O	O	AJ0	I-NP	common	JJ	O	O
stock	t60	3	stock	O	O	O	O	O	O	O	O	NN1	I-NP	stock	NN	t58:NMOD||t59:NMOD	O
also	t61	3	also	O	O	O	O	O	O	O	O	AV0	B-ADVP	also	RB	O	O
will	t62	3	will	O	O	O	O	O	O	O	O	VM0	B-VP	will	MD	t55:SBJ||t61:ADV||t63:VC	O
apply	t63	3	apply	e6	OCCURRENCE	FUTURE+NONE+POS	O	O	O	O	O	VVI	I-VP	apply	VB	t64:ADV	O
to	t64	3	to	O	O	O	O	O	O	O	O	PRP	B-PP	to	TO	t67:PMOD	O
the	t65	3	the	O	O	O	O	O	O	O	O	AT0	B-NP	the	DT	O	O
new	t66	3	new	O	O	O	O	O	O	O	O	AJ0	I-NP	new	JJ	O	O
shares	t67	3	share	O	O	O	O	O	O	O	O	NN2	I-NP	share	NNS	t65:NMOD||t66:NMOD	O
,	t68	3	,	O	O	O	O	O	O	O	O	PUN	O	,	,	O	O
the	t69	3	the	O	O	O	O	O	O	O	O	AT0	B-NP	the	DT	O	O
company	t70	3	company	O	O	O	O	O	O	O	O	NN1	I-NP	company	NN	t69:NMOD	O
said	t71	3	say	e7	REPORTING	PAST+NONE+POS	O	O	O	O	O	VVD	B-VP	say	VBD	t62:OBJ||t68:P||t70:SBJ||t72:P	mainVb
.	t72	3	.	O	O	O	O	O	O	O	O	PUN	O	.	.	O	O

The	t73	4	the	O	O	O	O	O	O	O	O	AT0	B-NP	the	DT	O	O
move	t74	4	move	O	O	O	O	O	O	O	O	NN1	I-NP	move	NN	t73:NMOD	O
rewards	t75	4	reward	e8	OCCURRENCE	PRESENT+NONE+POS	O	O	O	O	O	AV0	B-ADVP	reward	VBZ	t74:SBJ||t76:OBJ||t77:COORD	O
shareholders	t76	4	shareholder	O	O	O	O	O	O	O	O	NN2	B-NP	shareholder	NNS	O	O
and	t77	4	and	O	O	O	O	O	O	cs9	O	CJC	O	and	CC	t78:CONJ	O
should	t78	4	should	O	O	O	O	O	O	cs9	O	VM0	B-VP	should	MD	t79:VC	O
improve	t79	4	improve	e10	OCCURRENCE	NONE+NONE+POS	O	O	O	cs9	O	VVI	I-VP	improve	VB	t83:OBJ	O
the	t80	4	the	O	O	O	O	O	O	cs9	O	AT0	B-NP	the	DT	O	O
stock	t81	4	stock	O	O	O	O	O	O	cs9	O	NN1	I-NP	stock	NN	t80:NMOD||t82:SUFFIX	O
's	t82	4	's	O	O	O	O	O	O	cs9	O	POS	B-NP	's	POS	O	O
liquidity	t83	4	liquidity	O	O	O	O	O	O	cs9	O	NN1	I-NP	liquidity	NN	t81:NMOD	O
,	t84	4	,	O	O	O	O	O	O	cs9	O	PUN	O	,	,	O	O
Oneida	t85	4	Oneida	O	O	O	O	O	O	cs9	O	NP0	B-NP	oneida	NNP	O	O
said	t86	4	say	e11	REPORTING	PAST+NONE+POS	O	O	O	cs9	O	VVD	B-VP	say	VBD	t75:OBJ||t84:P||t85:SBJ||t87:P	mainVb
.	t87	4	.	O	O	O	O	O	O	cs9	O	PUN	O	.	.	O	O

The	t88	5	the	O	O	O	O	O	O	cs9	O	AT0	B-NP	the	DT	O	O
company	t89	5	company	O	O	O	O	O	O	cs9	O	NN1	I-NP	company	NN	t88:NMOD	O
has	t90	5	have	e12	OCCURRENCE	PRESENT+NONE+POS	O	O	O	cs9	O	VHZ	B-VP	have	VBZ	t89:SBJ||t94:OBJ||t96:P	mainVb
about	t91	5	about	O	O	O	O	O	O	cs9	O	AV0	B-NP	about	CD	O	O
8.8	t92	5	8.8	O	O	O	O	O	O	cs9	O	CRD	I-NP	8.8	CD	O	O
million	t93	5	million	O	O	O	O	O	O	cs9	O	CRD	I-NP	million	CD	t91:DEP||t92:DEP	O
shares	t94	5	share	O	O	O	O	O	O	cs9	O	NN2	I-NP	share	NNS	t93:NMOD||t95:APPO	O
outstanding	t95	5	outstanding	O	O	O	O	O	O	cs9	O	VVG	B-VP	outstanding	JJ	O	O
.	t96	5	.	O	O	O	O	O	O	cs9	O	PUN	O	.	.	O	O

In	t97	6	in	O	O	O	O	O	O	cs9	O	PRP	B-PP	in	IN	t103:PMOD	O
New	t98	6	New	O	O	O	O	O	O	cs9	O	NP0	B-NP	new	NNP	O	O
York	t99	6	York	O	O	O	O	O	O	cs9	O	NP0	I-NP	york	NNP	t98:NAME	O
Stock	t100	6	Stock	O	O	O	O	O	O	cs9	O	NP0	I-NP	stock	NNP	O	O
Exchange	t101	6	Exchange	O	O	O	O	O	O	cs9	O	NP0	I-NP	exchange	NNP	t99:NAME||t100:NAME	O
composite	t102	6	composite	O	O	O	O	O	O	cs9	O	AJ0	I-NP	composite	JJ	O	O
trading	t103	6	trading	O	O	O	O	O	O	cs9	O	NN1	I-NP	trading	NN	t101:NMOD||t102:NMOD	O
yesterday	t104	6	yesterday	O	O	O	tmx13	DATE	1989-10-25	cs9	O	AV0	B-NP	yesterday	NN	O	O
,	t105	6	,	O	O	O	O	O	O	cs9	O	PUN	O	,	,	O	O
Oneida	t106	6	Oneida	O	O	O	O	O	O	cs9	O	NP0	B-NP	oneida	NNP	t107:SUFFIX	O
's	t107	6	's	O	O	O	O	O	O	cs9	O	POS	B-NP	's	POS	O	O
shares	t108	6	share	O	O	O	O	O	O	cs9	O	NN2	I-NP	share	NNS	t106:NMOD	O
closed	t109	6	close	e14	OCCURRENCE	PAST+NONE+POS	O	O	O	cs9	O	VVD	B-VP	close	VBD	t97:LOC||t104:TMP||t105:P||t108:SBJ||t110:ADV||t115:P||t116:ADV||t117:P	mainVb
at	t110	6	at	O	O	O	O	O	O	cs9	O	PRP	B-PP	at	IN	t111:PMOD	O
$	t111	6	$	O	O	O	O	O	O	cs9	O	NN1	B-NP	$	$	t112:NMOD||t114:ADV	O
18.375	t112	6	18.375	O	O	O	O	O	O	cs9	O	CRD	I-NP	18.375	CD	O	O
a	t113	6	a	O	O	O	O	O	O	cs9	O	AT0	B-NP	a	DT	O	O
share	t114	6	share	O	O	O	O	O	O	cs9	O	NN1	I-NP	share	NN	t113:NMOD	O
,	t115	6	,	O	O	O	O	O	O	cs9	O	PUN	O	,	,	O	O
unchanged	t116	6	unchanged	O	O	O	O	O	O	cs9	O	AJ0	B-ADJP	unchanged	JJ	O	O
.	t117	6	.	O	O	O	O	O	O	cs9	O	PUN	O	.	.	O	O
