DCT_1990-08-15T13:37	O	O	O	O	O	O	tmx0	TIME	1990-08-15T13:37	O	O	NP0	B-NP	dct_1990-08-15t13:37	VBG	O	O

Iraq	t1	1	Iraq	O	O	O+O+O	O	O	O	O	O	NP0	B-NP	iraq	NNP	t2:SUFFIX	O
's	t2	1	's	O	O	O+O+O	O	O	O	O	O	POS	B-NP	's	POS	O	O
Saddam	t3	1	Saddam	O	O	O+O+O	O	O	O	O	O	NP0	I-NP	saddam	NNP	O	O
Hussein	t4	1	Hussein	O	O	O+O+O	O	O	O	O	O	NP0	I-NP	hussein	NNP	t1:NMOD||t3:NAME||t5:P	O
,	t5	1	,	O	O	O+O+O	O	O	O	O	O	PUN	O	,	,	O	O
facing	t6	1	face	e1	STATE	PRESPART+NONE+POS	O	O	O	O	O	VVG	B-VP	face	VBG	t7:OBJ||t11:ADV	O
U.S.	t7	1	U.S.	O	O	O	O	O	O	O	O	NP0	B-NP	u.s.	NNP	t8:COORD	O
and	t8	1	and	O	O	O	O	O	O	O	O	CJC	I-NP	and	CC	t10:CONJ	O
Arab	t9	1	Arab	O	O	O	O	O	O	O	O	NP0	I-NP	arab	JJ	O	O
troops	t10	1	troops	O	O	O	O	O	O	O	O	NN2	I-NP	troops	NNS	t9:NMOD	O
at	t11	1	at	O	O	O	O	O	O	O	O	PRP	B-PP	at	IN	t14:PMOD	O
the	t12	1	the	O	O	O	O	O	O	O	O	AT0	B-NP	the	DT	O	O
Saudi	t13	1	Saudi	O	O	O	O	O	O	O	O	NP0	I-NP	saudi	JJ	O	O
border	t14	1	border	O	O	O	O	O	O	O	O	NN1	I-NP	border	NN	t12:NMOD||t13:NMOD	O
,	t15	1	,	O	O	O	O	O	O	O	O	PUN	O	,	,	O	O
today	t16	1	today	O	O	O	tmx2	DATE	1990-08-15	O	O	AV0	B-NP	today	NN	O	O
sought	t17	1	seek	e3	I_ACTION	PAST+PERFECTIVE+POS	O	O	O	O	O	VVN	I-NP	seek	VBD	t4:SBJ||t6:ADV||t15:P||t16:TMP||t18:OBJ||t19:LOC||t22:MNR||t39:P	mainVb
peace	t18	1	peace	O	O	O	O	O	O	O	O	NN1	I-NP	peace	NN	O	O
on	t19	1	on	O	O	O	O	O	O	O	O	PRP	B-PP	on	IN	t21:PMOD	O
another	t20	1	another	O	O	O	O	O	O	O	O	DT0	B-NP	another	DT	O	O
front	t21	1	front	O	O	O	O	O	O	O	O	NN1	I-NP	front	NN	t20:NMOD	O
by	t22	1	by	O	O	O	O	O	O	O	O	PRP	B-PP	by	IN	t23:PMOD	O
promising	t23	1	promise	e4	I_ACTION	PRESPART+NONE+POS	O	O	O	O	O	VVG	B-VP	promise	VBG	t24:OPRD	O
to	t24	1	to	O	O	O	O	O	O	O	O	TO0	I-VP	to	TO	t25:IM	O
withdraw	t25	1	withdraw	e5	OCCURRENCE	INFINITIVE+NONE+POS	O	O	O	O	O	VVI	I-VP	withdraw	VB	t26:DIR	O
from	t26	1	from	O	O	O	O	O	O	O	O	PRP	B-PP	from	IN	t31:PMOD	O
Iranian	t27	1	iranian	O	O	O	O	O	O	O	O	AJ0	B-NP	iranian	JJ	O	O
territory	t28	1	territory	O	O	O	O	O	O	O	O	NN1	I-NP	territory	NN	t29:COORD	O
and	t29	1	and	O	O	O	O	O	O	O	O	CJC	I-NP	and	CC	t30:CONJ	O
release	t30	1	release	e6	OCCURRENCE	NONE+NONE+POS	O	O	O	O	O	NN1	I-NP	release	NN	O	O
soldiers	t31	1	soldier	O	O	O	O	O	O	O	O	NN2	I-NP	soldier	NNS	t27:NMOD||t28:NMOD||t32:APPO	O
captured	t32	1	capture	e7	OCCURRENCE	PASTPART+NONE+POS	O	O	O	O	O	VVD	B-VP	capture	VBN	t33:TMP	O
during	t33	1	during	O	O	O	O	O	O	O	O	PRP	B-PP	during	IN	t38:PMOD	O
the	t34	1	the	O	O	O	O	O	O	O	O	AT0	B-NP	the	DT	O	O
Iran	t35	1	Iran	O	O	O	O	O	O	O	O	NP0	I-NP	iran	NNP	O	O
-	t36	1	-	O	O	O	O	O	O	O	O	PUN	O	-	NNP	O	O
Iraq	t37	1	Iraq	O	O	O	O	O	O	O	O	NP0	B-NP	iraq	NNP	t35:NAME||t36:HMOD	O
war	t38	1	war	e8	OCCURRENCE	NONE+NONE+POS	O	O	O	O	O	NN1	I-NP	war	NN	t34:NMOD||t37:NMOD	O
.	t39	1	.	O	O	O	O	O	O	O	O	PUN	O	.	.	O	O

Also	t40	2	also	O	O	O	O	O	O	O	O	AV0	B-ADVP	also	RB	O	O
today	t41	2	today	O	O	O	tmx9	DATE	1990-08-15	O	O	AV0	I-ADVP	today	NN	O	O
,	t42	2	,	O	O	O	O	O	O	O	O	PUN	O	,	,	O	O
King	t43	2	King	O	O	O	O	O	O	O	O	NP0	B-NP	king	NNP	O	O
Hussein	t44	2	Hussein	O	O	O	O	O	O	O	O	NP0	I-NP	hussein	NNP	t43:TITLE||t45:NMOD	O
of	t45	2	of	O	O	O	O	O	O	O	O	PRF	B-PP	of	IN	t46:PMOD	O
Jordan	t46	2	Jordan	O	O	O	O	O	O	O	O	NP0	B-NP	jordan	NNP	O	O
arrived	t47	2	arrive	e10	OCCURRENCE	PAST+PERFECTIVE+POS	O	O	O	O	O	VVD	B-VP	arrive	VBD	t40:ADV||t41:TMP||t42:P||t44:SBJ||t48:LOC||t50:ADV||t57:P	mainVb
in	t48	2	in	O	O	O	O	O	O	O	O	PRP	B-PP	in	IN	t49:PMOD	O
Washington	t49	2	Washington	O	O	O	O	O	O	O	O	NP0	B-NP	washington	NNP	O	O
seeking	t50	2	seek	e11	I_ACTION	PRESPART+NONE+POS	O	O	O	O	O	VVG	B-VP	seek	VBG	t51:OPRD	O
to	t51	2	to	O	O	O	O	O	O	O	O	TO0	I-VP	to	TO	t52:IM	O
mediate	t52	2	mediate	e12	OCCURRENCE	INFINITIVE+NONE+POS	O	O	O	O	O	VVI	I-VP	mediate	VB	t56:OBJ	O
the	t53	2	the	O	O	O	O	O	O	O	O	AT0	B-NP	the	DT	O	O
Persian	t54	2	Persian	O	O	O	O	O	O	O	O	AJ0	I-NP	persian	NNP	O	O
Gulf	t55	2	Gulf	O	O	O	O	O	O	O	O	NN1	I-NP	gulf	NNP	t54:NAME	O
crisis	t56	2	crisis	e13	OCCURRENCE	NONE+NONE+POS	O	O	O	O	O	NN1	I-NP	crisis	NN	t53:NMOD||t55:NMOD	O
.	t57	2	.	O	O	O	O	O	O	O	O	PUN	O	.	.	O	O

President	t58	3	President	O	O	O	O	O	O	O	O	NP0	B-NP	president	NN	O	O
Bush	t59	3	Bush	O	O	O	O	O	O	O	O	NP0	I-NP	bush	NNP	t58:TITLE	O
on	t60	3	on	O	O	O	O	O	O	O	O	PRP	B-PP	on	IN	t61:PMOD	O
Tuesday	t61	3	Tuesday	O	O	O	tmx14	DATE	1990-08-14	O	O	NP0	B-NP	tuesday	NNP	O	O
said	t62	3	say	e15	REPORTING	PAST+NONE+POS	O	O	O	O	O	VVD	B-VP	say	VBD	t59:SBJ||t60:TMP||t66:OBJ||t88:P	mainVb
the	t63	3	the	O	O	O	O	O	O	O	O	AT0	B-NP	the	DT	O	O
United	t64	3	United	O	O	O	O	O	O	O	O	NP0	I-NP	united	NNP	O	O
States	t65	3	States	O	O	O	O	O	O	O	O	NP0	I-NP	state	NNPS	t63:NMOD||t64:NAME	O
may	t66	3	may	O	O	O	O	O	O	O	O	VM0	B-VP	may	MD	t65:SBJ||t67:VC	O
extend	t67	3	extend	e16	OCCURRENCE	NONE+NONE+POS	O	O	O	O	O	VVI	I-VP	extend	VB	t70:OBJ||t71:ADV||t79:PRP	O
its	t68	3	its	O	O	O	O	O	O	O	O	DPS	B-NP	its	PRP$	O	O
naval	t69	3	naval	O	O	O	O	O	O	O	O	AJ0	I-NP	naval	JJ	O	O
quarantine	t70	3	quarantine	O	O	O	O	O	O	O	O	NN1	I-NP	quarantine	NN	t68:NMOD||t69:NMOD	O
to	t71	3	to	O	O	O	O	O	O	O	O	PRP	B-PP	to	TO	t76:PMOD	O
Jordan	t72	3	Jordan	O	O	O	O	O	O	O	O	NP0	B-NP	jordan	NNP	t73:SUFFIX	O
's	t73	3	's	O	O	O	O	O	O	O	O	POS	B-NP	's	POS	O	O
Red	t74	3	Red	O	O	O	O	O	O	O	O	AJ0	I-NP	red	NNP	O	O
Sea	t75	3	Sea	O	O	O	O	O	O	O	O	NN1	I-NP	sea	NNP	t74:NAME	O
port	t76	3	port	O	O	O	O	O	O	O	O	NN1	I-NP	port	NN	t72:NMOD||t75:NMOD||t77:NMOD	O
of	t77	3	of	O	O	O	O	O	O	O	O	PRF	B-PP	of	IN	t78:PMOD	O
Aqaba	t78	3	Aqaba	O	O	O	O	O	O	O	O	NP0	B-NP	aqaba	NNP	O	O
to	t79	3	to	O	O	O	O	O	O	O	O	TO0	B-VP	to	TO	t80:IM	O
shut	t80	3	shut	e17	OCCURRENCE	INFINITIVE+NONE+POS	O	O	O	O	O	VVI	I-VP	shut	VB	t81:PRT||t87:OBJ	O
off	t81	3	off	O	O	O	O	O	O	O	O	AVP	B-PRT	off	RP	O	O
Iraq	t82	3	Iraq	O	O	O	O	O	O	O	O	NP0	B-NP	iraq	NNP	t83:SUFFIX	O
's	t83	3	's	O	O	O	O	O	O	O	O	POS	B-NP	's	POS	O	O
last	t84	3	last	O	O	O	O	O	O	O	O	ORD	I-NP	last	JJ	O	O
unhindered	t85	3	unhindered	O	O	O	O	O	O	O	O	AJ0	I-NP	unhindered	JJ	O	O
trade	t86	3	trade	O	O	O	O	O	O	O	O	NN1	I-NP	trade	NN	t85:NMOD	O
route	t87	3	route	O	O	O	O	O	O	O	O	NN1	I-NP	route	NN	t82:NMOD||t84:NMOD||t86:NMOD	O
.	t88	3	.	O	O	O	O	O	O	O	O	PUN	O	.	.	O	O

In	t89	4	in	O	O	O	O	O	O	O	O	PRP	B-PP	in	IN	t92:PMOD	O
another	t90	4	another	O	O	O	O	O	O	O	O	DT0	B-NP	another	DT	O	O
mediation	t91	4	mediation	O	O	O	O	O	O	O	O	NN1	I-NP	mediation	NN	O	O
effort	t92	4	effort	O	O	O	O	O	O	O	O	NN1	I-NP	effort	NN	t90:NMOD||t91:NMOD	O
,	t93	4	,	O	O	O	O	O	O	O	O	PUN	O	,	,	O	O
the	t94	4	the	O	O	O	O	O	O	O	O	AT0	B-NP	the	DT	O	O
Soviet	t95	4	Soviet	O	O	O	O	O	O	O	O	AJ0	I-NP	soviet	NNP	O	O
Union	t96	4	Union	O	O	O	O	O	O	O	O	NN1	I-NP	union	NNP	t94:NMOD||t95:NAME	O
said	t97	4	say	e18	REPORTING	PAST+NONE+POS	O	O	O	O	O	VVD	B-VP	say	VBD	t89:LOC||t93:P||t96:SBJ||t98:TMP||t100:OBJ||t116:P	mainVb
today	t98	4	today	O	O	O	tmx19	DATE	1990-08-15	O	O	AV0	B-NP	today	NN	O	O
it	t99	4	it	O	O	O	O	O	O	O	O	PNP	B-NP	it	PRP	O	O
had	t100	4	have	O	O	O	O	O	O	O	O	VHD	B-VP	have	VBD	t99:SBJ||t101:VC	O
sent	t101	4	send	e20	OCCURRENCE	PAST+PERFECTIVE+POS	O	O	O	O	O	VVN	I-VP	send	VBN	t103:OBJ||t104:DIR||t108:ADV	O
an	t102	4	a	O	O	O	O	O	O	O	O	AT0	B-NP	an	DT	O	O
envoy	t103	4	envoy	O	O	O	O	O	O	O	O	NN1	I-NP	envoy	NN	t102:NMOD	O
to	t104	4	to	O	O	O	O	O	O	O	O	PRP	B-PP	to	TO	t107:PMOD	O
the	t105	4	the	O	O	O	O	O	O	O	O	AT0	B-NP	the	DT	O	O
Middle	t106	4	Middle	O	O	O	O	O	O	O	O	AJ0	I-NP	middle	NNP	O	O
East	t107	4	East	O	O	O	O	O	O	O	O	NN1	I-NP	east	NNP	t105:NMOD||t106:NAME	O
on	t108	4	on	O	O	O	O	O	O	O	O	PRP	B-PP	on	IN	t110:PMOD	O
a	t109	4	a	O	O	O	O	O	O	O	O	AT0	B-NP	a	DT	O	O
series	t110	4	series	O	O	O	O	O	O	O	O	NN0	I-NP	series	NN	t109:NMOD||t111:NMOD	O
of	t111	4	of	O	O	O	O	O	O	O	O	PRF	B-PP	of	IN	t112:PMOD	O
stops	t112	4	stop	e21	OCCURRENCE	NONE+NONE+POS	O	O	O	O	O	NN2	B-NP	stop	NNS	t113:NMOD	O
to	t113	4	to	O	O	O	O	O	O	O	O	TO0	B-VP	to	TO	t114:IM	O
include	t114	4	include	O	O	O	O	O	O	O	O	VVI	I-VP	include	VB	t115:OBJ	O
Baghdad	t115	4	Baghdad	O	O	O	O	O	O	O	O	NP0	B-NP	baghdad	NNP	O	O
.	t116	4	.	O	O	O	O	O	O	O	O	PUN	O	.	.	O	O

Soviet	t117	5	soviet	O	O	O	O	O	O	O	O	AJ0	B-NP	soviet	JJ	O	O
officials	t118	5	official	O	O	O	O	O	O	O	O	NN2	I-NP	official	NNS	t117:NMOD	O
also	t119	5	also	O	O	O	O	O	O	O	O	AV0	B-ADVP	also	RB	O	O
said	t120	5	say	e22	REPORTING	PAST+NONE+POS	O	O	O	O	O	VVD	B-VP	say	VBD	t118:SBJ||t119:ADV||t127:OBJ||t133:P	mainVb
Soviet	t121	5	soviet	O	O	O	O	O	O	O	O	AJ0	B-NP	soviet	JJ	O	O
women	t122	5	woman	O	O	O	O	O	O	O	O	NN2	I-NP	woman	NNS	t121:NMOD||t123:P||t124:COORD	O
,	t123	5	,	O	O	O	O	O	O	O	O	PUN	O	,	,	O	O
children	t124	5	child	O	O	O	O	O	O	O	O	NN2	B-NP	child	NNS	t125:COORD	O
and	t125	5	and	O	O	O	O	O	O	O	O	CJC	I-NP	and	CC	t126:CONJ	O
invalids	t126	5	invalid	O	O	O	O	O	O	O	O	NN2	I-NP	invalid	NNS	O	O
would	t127	5	would	O	O	O	O	O	O	O	O	VM0	B-VP	would	MD	t122:SBJ||t128:VC	O
be	t128	5	be	O	O	O	O	O	O	O	O	VBI	I-VP	be	VB	t129:VC	O
allowed	t129	5	allow	e23	I_ACTION	NONE+NONE+POS	O	O	O	O	O	VVN	I-VP	allow	VBN	t130:OPRD	O
to	t130	5	to	O	O	O	O	O	O	O	O	TO0	I-VP	to	TO	t131:IM	O
leave	t131	5	leave	e24	OCCURRENCE	INFINITIVE+NONE+POS	O	O	O	O	O	VVI	I-VP	leave	VB	t132:OBJ	O
Iraq	t132	5	Iraq	O	O	O	O	O	O	O	O	NP0	B-NP	iraq	NNP	O	O
.	t133	5	.	O	O	O	O	O	O	O	O	PUN	O	.	.	O	O

President	t134	6	President	O	O	O	O	O	O	O	O	NP0	B-NP	president	NN	O	O
Bush	t135	6	Bush	O	O	O	O	O	O	O	O	NP0	I-NP	bush	NNP	t134:TITLE	O
today	t136	6	today	O	O	O	tmx25	DATE	1990-08-15	O	O	AV0	B-NP	today	NN	O	O
denounced	t137	6	denounce	e26	OCCURRENCE	PAST+NONE+POS	O	O	O	O	O	VVD	B-VP	denounce	VBD	t135:SBJ||t136:TMP||t142:OBJ||t147:COORD||t166:P	mainVb
Saddam	t138	6	Saddam	O	O	O	O	O	O	O	O	NP0	B-NP	saddam	NNP	t139:SUFFIX	O
's	t139	6	's	O	O	O	O	O	O	O	O	POS	B-NP	's	POS	O	O
"	t140	6	"	O	O	O	O	O	O	O	O	PUQ	I-NP	"	:	O	O
ruinous	t141	6	ruinous	O	O	O	O	O	O	O	O	AJ0	I-NP	ruinous	JJ	O	O
policies	t142	6	policy	O	O	O	O	O	O	O	O	NN2	I-NP	policy	NNS	t138:NMOD||t140:P||t141:NMOD||t143:NMOD	O
of	t143	6	of	O	O	O	O	O	O	O	O	PRF	B-PP	of	IN	t144:PMOD	O
war	t144	6	war	O	O	O	O	O	O	O	O	NN1	B-NP	war	NN	t145:P||t146:COORD	O
,	t145	6	,	O	O	O	O	O	O	O	O	PUN	O	,	,	O	O
"	t146	6	"	O	O	O	O	O	O	O	O	PUQ	O	"	NN	O	O
and	t147	6	and	O	O	O	O	O	O	O	O	CJC	O	and	CC	t148:CONJ	O
said	t148	6	say	e27	REPORTING	PAST+NONE+POS	O	O	O	O	O	VVD	B-VP	say	VBD	t152:OBJ	O
the	t149	6	the	O	O	O	O	O	O	O	O	AT0	B-NP	the	DT	O	O
United	t150	6	United	O	O	O	O	O	O	O	O	NP0	I-NP	united	NNP	O	O
States	t151	6	States	O	O	O	O	O	O	O	O	NP0	I-NP	state	NNPS	t149:NMOD||t150:NAME	O
is	t152	6	be	O	O	O	O	O	O	O	O	VBZ	B-VP	be	VBZ	t151:SBJ||t154:VC	O
"	t153	6	"	O	O	O	O	O	O	O	O	PUQ	I-VP	"	.	O	O
striking	t154	6	strike	e28	OCCURRENCE	PRESENT+PROGRESSIVE+POS	O	O	O	O	O	VVG	I-VP	strike	VBG	t153:P||t156:OBJ	O
a	t155	6	a	O	O	O	O	O	O	O	O	AT0	B-NP	a	DT	O	O
blow	t156	6	blow	O	O	O	O	O	O	O	O	NN1	I-NP	blow	NN	t155:NMOD||t157:NMOD||t161:NMOD	O
for	t157	6	for	O	O	O	O	O	O	O	O	PRP	B-PP	for	IN	t159:PMOD	O
the	t158	6	the	O	O	O	O	O	O	O	O	AT0	B-NP	the	DT	O	O
principle	t159	6	principle	O	O	O	O	O	O	O	O	NN1	I-NP	principle	NN	t158:NMOD	O
that	t160	6	that	O	O	O	O	O	O	O	O	CJT	B-NP	that	WDT	O	O
might	t161	6	might	O	O	O	O	O	O	O	O	VM0	B-VP	might	MD	t160:SBJ||t163:ADV||t164:VC	O
does	t162	6	do	O	O	O	O	O	O	O	O	VDZ	I-VP	do	VBZ	t167:SBJ	O
not	t163	6	not	O	O	O	O	O	O	O	O	XX0	I-VP	not	RB	O	O
make	t164	6	make	O	O	O	O	O	O	O	O	VVI	I-VP	make	VB	t162:DEP||t165:OPRD	O
right	t165	6	right	O	O	O	O	O	O	O	O	AV0	B-ADVP	right	JJ	O	O
.	t166	6	.	O	O	O	O	O	O	O	O	PUN	O	.	.	O	O
"	t167	6	"	O	O	O	O	O	O	O	O	PUQ	O	"	PRP	O	O

In	t168	7	in	O	O	O	O	O	O	O	O	PRP	B-PP	in	IN	t170:PMOD	O
a	t169	7	a	O	O	O	O	O	O	O	O	AT0	B-NP	a	DT	O	O
speech	t170	7	speech	e29	OCCURRENCE	NONE+NONE+POS	O	O	O	O	O	NN1	I-NP	speech	NN	t169:NMOD||t171:APPO	O
delivered	t171	7	deliver	e30	OCCURRENCE	PAST+NONE+POS	O	O	O	O	O	VVD	B-VP	deliver	VBN	t172:LOC	O
at	t172	7	at	O	O	O	O	O	O	O	O	PRP	B-PP	at	IN	t174:PMOD	O
the	t173	7	the	O	O	O	O	O	O	O	O	AT0	B-NP	the	DT	O	O
Pentagon	t174	7	Pentagon	O	O	O	O	O	O	O	O	NN1	I-NP	pentagon	NNP	t173:NMOD	O
,	t175	7	,	O	O	O	O	O	O	O	O	PUN	O	,	,	O	O
Bush	t176	7	Bush	O	O	O	O	O	O	O	O	NP0	B-NP	bush	NNP	O	O
seemed	t177	7	seem	e31	I_STATE	PAST+NONE+POS	O	O	O	O	O	VVD	B-VP	seem	VBD	t168:LOC||t175:P||t176:SBJ||t178:OPRD||t192:P||t193:P	mainVb
to	t178	7	to	O	O	O	O	O	O	O	O	TO0	I-VP	to	TO	t179:IM	mainVb
suggest	t179	7	suggest	e32	I_ACTION	INFINITIVE+NONE+POS	O	O	O	O	O	VVI	I-VP	suggest	VB	t180:OBJ	mainVb
that	t180	7	that	O	O	O	O	O	O	O	O	CJT	B-SBAR	that	IN	t183:SUB	O
American	t181	7	american	O	O	O	O	O	O	O	O	AJ0	B-NP	american	JJ	O	O
forces	t182	7	force	O	O	O	O	O	O	O	O	NN2	I-NP	force	NNS	t181:NMOD	O
could	t183	7	could	O	O	O	O	O	O	O	O	VM0	B-VP	could	MD	t182:SBJ||t184:VC	O
be	t184	7	be	O	O	O	O	O	O	O	O	VBI	I-VP	be	VB	t185:LOC-PRD	O
in	t185	7	in	O	O	O	O	O	O	O	O	PRP	B-PP	in	IN	t188:PMOD	O
the	t186	7	the	O	O	O	O	O	O	O	O	AT0	B-NP	the	DT	O	O
gulf	t187	7	gulf	O	O	O	O	O	O	O	O	NN1	I-NP	gulf	NN	O	O
region	t188	7	region	O	O	O	O	O	O	O	O	NN1	I-NP	region	NN	t186:NMOD||t187:NMOD||t189:NMOD	O
for	t189	7	for	O	O	O	O	O	O	O	O	PRP	B-PP	for	IN	t191:PMOD	O
some	t190	7	some	O	O	O	tmx33	DURATION	PXM	O	O	DT0	B-NP	some	DT	O	O
time	t191	7	time	O	O	O	tmx33	DURATION	PXM	O	O	NN1	I-NP	time	NN	t190:NMOD	O
.	t192	7	.	O	O	O	O	O	O	O	O	PUN	O	.	.	O	O
"	t193	7	"	O	O	O	O	O	O	O	O	PUQ	O	"	''	O	O

No	t194	8	no	O	O	O	O	O	O	O	O	PNI	B-NP	no	DT	O	O
one	t195	8	one	O	O	O	O	O	O	O	O	PNI	I-NP	one	PRP	t194:NMOD	O
should	t196	8	should	O	O	O	O	O	O	O	O	VM0	B-VP	should	MD	t195:SBJ||t197:VC	O
doubt	t197	8	doubt	e34	I_ACTION	NONE+NONE+POS	O	O	O	O	O	VVI	I-VP	doubt	VB	t200:OBJ	O
our	t198	8	we	O	O	O	O	O	O	O	O	DPS	B-NP	our	PRP$	O	O
staying	t199	8	stay	O	O	O	O	O	O	O	O	VVG	I-NP	stay	VBG	O	O
power	t200	8	power	O	O	O	O	O	O	O	O	NN1	I-NP	power	NN	t198:NMOD||t199:NMOD||t201:COORD	O
or	t201	8	or	O	O	O	O	O	O	O	O	CJC	I-NP	or	CC	t202:CONJ	O
determination	t202	8	determination	O	O	O	O	O	O	O	O	NN1	I-NP	determination	NN	O	O
,	t203	8	,	O	O	O	O	O	O	O	O	PUN	O	,	,	O	O
"	t204	8	"	O	O	O	O	O	O	O	O	PUQ	O	"	''	O	O
he	t205	8	he	O	O	O	O	O	O	O	O	PNP	B-NP	he	PRP	O	O
said	t206	8	say	e35	REPORTING	PAST+PERFECTIVE+POS	O	O	O	O	O	VVD	B-VP	say	VBD	t196:OBJ||t203:P||t204:P||t205:SBJ||t207:P	mainVb
.	t207	8	.	O	O	O	O	O	O	O	O	PUN	O	.	.	O	O

The	t208	9	the	O	O	O	O	O	O	O	O	AT0	B-NP	the	DT	O	O
U.S.	t209	9	U.S.	O	O	O	O	O	O	O	O	NP0	I-NP	u.s.	NNP	O	O
military	t210	9	military	O	O	O	O	O	O	O	O	AJ0	I-NP	military	JJ	O	O
buildup	t211	9	buildup	e36	OCCURRENCE	NONE+NONE+POS	O	O	O	O	O	NN1	I-NP	buildup	NN	t208:NMOD||t209:NMOD||t210:NMOD||t212:LOC	O
in	t212	9	in	O	O	O	O	O	O	O	O	PRP	B-PP	in	IN	t214:PMOD	O
Saudi	t213	9	Saudi	O	O	O	O	O	O	O	O	NP0	B-NP	saudi	NNP	O	O
Arabia	t214	9	Arabia	O	O	O	O	O	O	O	O	NP0	I-NP	arabia	NNP	t213:NAME	O
continued	t215	9	continue	e37	ASPECTUAL	PAST+NONE+POS	O	O	O	O	O	VVD	B-VP	continue	VBD	t211:SBJ||t216:LOC||t219:P||t220:ADV||t245:P	mainVb
at	t216	9	at	O	O	O	O	O	O	O	O	PRP	B-PP	at	IN	t218:PMOD	O
fever	t217	9	fever	O	O	O	O	O	O	O	O	NN1	B-NP	fever	JJ	O	O
pace	t218	9	pace	O	O	O	O	O	O	O	O	NN1	I-NP	pace	NN	t217:NMOD	O
,	t219	9	,	O	O	O	O	O	O	O	O	PUN	O	,	,	O	O
with	t220	9	with	O	O	O	O	O	O	O	O	PRP	B-PP	with	IN	t229:SUB	O
Syrian	t221	9	syrian	O	O	O	O	O	O	O	O	AJ0	B-NP	syrian	JJ	O	O
troops	t222	9	troops	O	O	O	O	O	O	O	O	NN2	I-NP	troops	NNS	t221:NMOD	O
now	t223	9	now	O	O	O	tmx38	DATE	PRESENT_REF	O	O	AV0	B-ADVP	now	RB	O	O
part	t224	9	part	O	O	O	O	O	O	O	O	NN1	B-NP	part	NN	t225:NMOD	O
of	t225	9	of	O	O	O	O	O	O	O	O	PRF	B-PP	of	IN	t228:PMOD	O
a	t226	9	a	O	O	O	O	O	O	O	O	AT0	B-NP	a	DT	O	O
multinational	t227	9	multinational	O	O	O	O	O	O	O	O	AJ0	I-NP	multinational	JJ	O	O
force	t228	9	force	O	O	O	O	O	O	O	O	NN1	I-NP	force	NN	t226:NMOD||t227:NMOD	O
camped	t229	9	camp	e39	OCCURRENCE	PASTPART+NONE+POS	O	O	O	O	O	VVD	B-VP	camp	VBD	t222:SBJ||t223:TMP||t224:SBJ||t230:PRT||t231:LOC||t234:PRP	O
out	t230	9	out	O	O	O	O	O	O	O	O	AVP	B-PRT	out	RP	O	O
in	t231	9	in	O	O	O	O	O	O	O	O	PRP	B-PP	in	IN	t233:PMOD	O
the	t232	9	the	O	O	O	O	O	O	O	O	AT0	B-NP	the	DT	O	O
desert	t233	9	desert	O	O	O	O	O	O	O	O	NN1	I-NP	desert	NN	t232:NMOD	O
to	t234	9	to	O	O	O	O	O	O	O	O	TO0	B-VP	to	TO	t235:IM	O
guard	t235	9	guard	e40	I_ACTION	INFINITIVE+NONE+POS	O	O	O	O	O	VVI	I-VP	guard	VB	t238:OBJ||t239:ADV	O
the	t236	9	the	O	O	O	O	O	O	O	O	AT0	B-NP	the	DT	O	O
Saudi	t237	9	Saudi	O	O	O	O	O	O	O	O	NP0	I-NP	saudi	JJ	O	O
kingdom	t238	9	kingdom	O	O	O	O	O	O	O	O	NN1	I-NP	kingdom	NN	t236:NMOD||t237:NMOD	O
from	t239	9	from	O	O	O	O	O	O	O	O	PRP	B-PP	from	IN	t242:PMOD	O
any	t240	9	any	O	O	O	O	O	O	O	O	DT0	B-NP	any	DT	O	O
new	t241	9	new	O	O	O	O	O	O	O	O	AJ0	I-NP	new	JJ	O	O
thrust	t242	9	thrust	e41	OCCURRENCE	NONE+NONE+POS	O	O	O	O	O	NN1	I-NP	thrust	NN	t240:NMOD||t241:NMOD||t243:NMOD	O
by	t243	9	by	O	O	O	O	O	O	O	O	PRP	B-PP	by	IN	t244:PMOD	O
Iraq	t244	9	Iraq	O	O	O	O	O	O	O	O	NP0	B-NP	iraq	NNP	O	O
.	t245	9	.	O	O	O	O	O	O	O	O	PUN	O	.	.	O	O

In	t246	10	in	O	O	O	O	O	O	O	O	PRP	B-PP	in	IN	t248:PMOD	O
a	t247	10	a	O	O	O	O	O	O	O	O	AT0	B-NP	a	DT	O	O
letter	t248	10	letter	O	O	O	O	O	O	O	O	NN1	I-NP	letter	NN	t247:NMOD||t249:NMOD	O
to	t249	10	to	O	O	O	O	O	O	O	O	PRP	B-PP	to	TO	t252:PMOD	O
President	t250	10	President	O	O	O	O	O	O	O	O	NP0	B-NP	president	NN	O	O
Hashemi	t251	10	Hashemi	O	O	O	O	O	O	O	O	NP0	I-NP	hashemi	NNP	O	O
Rafsanjani	t252	10	Rafsanjani	O	O	O	O	O	O	O	O	NP0	I-NP	rafsanjani	NNP	t250:TITLE||t251:NAME||t253:NMOD||t255:P||t256:APPO	O
of	t253	10	of	O	O	O	O	O	O	O	O	PRF	B-PP	of	IN	t254:PMOD	O
Iran	t254	10	Iran	O	O	O	O	O	O	O	O	NP0	B-NP	iran	NNP	O	O
,	t255	10	,	O	O	O	O	O	O	O	O	PUN	O	,	,	O	O
read	t256	10	read	e42	OCCURRENCE	PAST+NONE+POS	O	O	O	O	O	VVN	B-VP	read	VBN	t257:LGS	O
by	t257	10	by	O	O	O	O	O	O	O	O	PRP	B-PP	by	IN	t259:PMOD	O
a	t258	10	a	O	O	O	O	O	O	O	O	AT0	B-NP	a	DT	O	O
broadcaster	t259	10	broadcaster	O	O	O	O	O	O	O	O	NN1	I-NP	broadcaster	NN	t258:NMOD||t260:NMOD	O
over	t260	10	over	O	O	O	O	O	O	O	O	PRP	B-PP	over	IN	t262:PMOD	O
Baghdad	t261	10	Baghdad	O	O	O	O	O	O	O	O	NP0	B-NP	baghdad	NNP	O	O
radio	t262	10	radio	O	O	O	O	O	O	O	O	NN1	I-NP	radio	NN	t261:NMOD	O
,	t263	10	,	O	O	O	O	O	O	O	O	PUN	O	,	,	O	O
Saddam	t264	10	Saddam	O	O	O	O	O	O	O	O	NP0	B-NP	saddam	NNP	O	O
said	t265	10	say	e43	REPORTING	PAST+NONE+POS	O	O	O	O	O	VVD	B-VP	say	VBD	t246:LOC||t263:P||t264:SBJ||t267:OBJ||t282:P	mainVb
he	t266	10	he	O	O	O	O	O	O	O	O	PNP	B-NP	he	PRP	O	O
will	t267	10	will	O	O	O	O	O	O	O	O	VM0	B-VP	will	MD	t266:SBJ||t268:VC	O
begin	t268	10	begin	e44	ASPECTUAL	FUTURE+NONE+POS	O	O	O	O	O	VVI	I-VP	begin	VB	t269:OPRD||t274:TMP||t276:COORD	O
withdrawing	t269	10	withdraw	e45	OCCURRENCE	PRESPART+NONE+POS	O	O	O	O	O	VVG	I-VP	withdraw	VBG	t270:OBJ	O
troops	t270	10	troops	O	O	O	O	O	O	O	O	NN2	B-NP	troops	NNS	t271:NMOD	O
from	t271	10	from	O	O	O	O	O	O	O	O	PRP	B-PP	from	IN	t273:PMOD	O
Iranian	t272	10	iranian	O	O	O	O	O	O	O	O	AJ0	B-NP	iranian	JJ	O	O
territory	t273	10	territory	O	O	O	O	O	O	O	O	NN1	I-NP	territory	NN	t272:NMOD	O
on	t274	10	on	O	O	O	O	O	O	O	O	PRP	B-PP	on	IN	t275:PMOD	O
Friday	t275	10	Friday	O	O	O	tmx46	DATE	1990-08-10	O	O	NP0	B-NP	friday	NNP	O	O
and	t276	10	and	O	O	O	O	O	O	O	O	CJC	I-NP	and	CC	t277:CONJ	O
release	t277	10	release	e47	OCCURRENCE	FUTURE+NONE+POS	O	O	O	O	O	NN1	I-NP	release	VB	t279:OBJ	O
Iranian	t278	10	iranian	O	O	O	O	O	O	O	O	AJ0	I-NP	iranian	JJ	O	O
prisoners	t279	10	prisoner	O	O	O	O	O	O	O	O	NN2	I-NP	prisoner	NNS	t278:NMOD||t280:NMOD	O
of	t280	10	of	O	O	O	O	O	O	O	O	PRF	B-PP	of	IN	t281:PMOD	O
war	t281	10	war	O	O	O	O	O	O	O	O	NN1	B-NP	war	NN	O	O
.	t282	10	.	O	O	O	O	O	O	O	O	PUN	O	.	.	O	O

Iran	t283	11	Iran	O	O	O	O	O	O	O	O	NP0	B-NP	iran	NNP	O	O
said	t284	11	say	e48	REPORTING	PAST+NONE+POS	O	O	O	O	O	VVD	B-VP	say	VBD	t283:SBJ||t289:OBJ||t309:P	mainVb
an	t285	11	a	O	O	O	O	O	O	O	O	AT0	B-NP	an	DT	O	O
Iraqi	t286	11	iraqi	O	O	O	O	O	O	O	O	NP0	I-NP	iraqi	JJ	O	O
diplomatic	t287	11	diplomatic	O	O	O	O	O	O	O	O	AJ0	I-NP	diplomatic	JJ	O	O
delegation	t288	11	delegation	O	O	O	O	O	O	O	O	NN1	I-NP	delegation	NN	t285:NMOD||t286:NMOD||t287:NMOD	O
was	t289	11	be	O	O	O	O	O	O	O	O	VBD	B-VP	be	VBD	t288:SBJ||t290:PRD||t294:PRP	O
en	t290	11	en	O	O	O	O	O	O	O	O	AV0	B-ADJP	en	IN	t291:PMOD	O
route	t291	11	route	O	O	O	O	O	O	O	O	AJ0	I-ADJP	route	NN	t292:NMOD	O
to	t292	11	to	O	O	O	O	O	O	O	O	PRP	B-PP	to	TO	t293:PMOD	O
Tehran	t293	11	Tehran	O	O	O	O	O	O	O	O	NP0	B-NP	tehran	NNP	O	O
to	t294	11	to	O	O	O	O	O	O	O	O	TO0	B-VP	to	TO	t295:IM	O
deliver	t295	11	deliver	e49	OCCURRENCE	INFINITIVE+NONE+POS	O	O	O	O	O	VVI	I-VP	deliver	VB	t298:OBJ	O
Saddam	t296	11	Saddam	O	O	O	O	O	O	O	O	NP0	B-NP	saddam	NNP	t297:SUFFIX	O
's	t297	11	's	O	O	O	O	O	O	O	O	POS	B-NP	's	POS	O	O
message	t298	11	message	O	O	O	O	O	O	O	O	NN1	I-NP	message	NN	t296:NMOD||t299:P||t302:NMOD	O
,	t299	11	,	O	O	O	O	O	O	O	O	PUN	O	,	,	O	O
which	t300	11	which	O	O	O	O	O	O	O	O	DTQ	B-NP	which	WDT	t310:SBJ	O
it	t301	11	it	O	O	O	O	O	O	O	O	PNP	B-NP	it	PRP	O	O
said	t302	11	say	e50	REPORTING	PAST+NONE+POS	O	O	O	O	O	VVD	B-VP	say	VBD	t300:OBJ||t301:SBJ||t304:OBJ	O
it	t303	11	it	O	O	O	O	O	O	O	O	PNP	B-NP	it	PRP	O	O
would	t304	11	would	O	O	O	O	O	O	O	O	VM0	B-VP	would	MD	t303:SBJ||t305:VC	O
review	t305	11	review	e51	OCCURRENCE	NONE+NONE+POS	O	O	O	O	O	VVI	I-VP	review	VB	t306:OBJ||t307:ADV	O
"	t306	11	"	O	O	O	O	O	O	O	O	PUQ	O	"	PRP	O	O
with	t307	11	with	O	O	O	O	O	O	O	O	PRP	B-PP	with	IN	t308:PMOD	O
optimism	t308	11	optimism	O	O	O	O	O	O	O	O	NN1	B-NP	optimism	NN	O	O
.	t309	11	.	O	O	O	O	O	O	O	O	PUN	O	.	.	O	O
"	t310	11	"	O	O	O	O	O	O	O	O	PUQ	O	"	NN	O	O

Saddam	t311	12	Saddam	O	O	O	O	O	O	O	O	NP0	B-NP	saddam	NNP	O	O
appeared	t312	12	appear	e52	I_STATE	PAST+NONE+POS	O	O	O	O	O	VVD	B-VP	appear	VBD	t311:SBJ||t313:OPRD||t336:P	mainVb
to	t313	12	to	O	O	O	O	O	O	O	O	TO0	I-VP	to	TO	t314:IM	mainVb
accept	t314	12	accept	e53	I_ACTION	INFINITIVE+NONE+POS	O	O	O	O	O	VVI	I-VP	accept	VB	t318:OBJ	mainVb
a	t315	12	a	O	O	O	O	O	O	O	O	AT0	B-NP	a	DT	O	O
border	t316	12	border	O	O	O	O	O	O	O	O	NN1	I-NP	border	NN	O	O
demarcation	t317	12	demarcation	O	O	O	O	O	O	O	O	NN1	I-NP	demarcation	NN	O	O
treaty	t318	12	treaty	O	O	O	O	O	O	O	O	NN1	I-NP	treaty	NN	t315:NMOD||t316:NMOD||t317:NMOD||t320:NMOD	O
he	t319	12	he	O	O	O	O	O	O	O	O	PNP	B-NP	he	PRP	O	O
had	t320	12	have	O	O	O	O	O	O	O	O	VHD	B-VP	have	VBD	t319:SBJ||t321:VC	O
rejected	t321	12	reject	e54	OCCURRENCE	PAST+PERFECTIVE+POS	O	O	O	O	O	VVN	I-VP	reject	VBN	t322:LOC||t325:TMP	O
in	t322	12	in	O	O	O	O	O	O	O	O	PRP	B-PP	in	IN	t324:PMOD	O
peace	t323	12	peace	O	O	O	O	O	O	O	O	NN1	B-NP	peace	NN	O	O
talks	t324	12	talk	e55	OCCURRENCE	NONE+NONE+POS	O	O	O	O	O	NN2	I-NP	talks	NNS	t323:NMOD	O
following	t325	12	follow	O	O	O	O	O	O	O	O	VVG	B-PP	follow	VBG	t329:PMOD	O
the	t326	12	the	O	O	O	O	O	O	O	O	AT0	B-NP	the	DT	O	O
August	t327	12	August	O	O	O	tmx56	DATE	1988-08	O	O	NP0	I-NP	august	NNP	O	O
1988	t328	12	1988	O	O	O	tmx56	DATE	1988-08	O	O	CRD	I-NP	1988	CD	t327:NMOD	O
cease-fire	t329	12	cease-fire	e57	OCCURRENCE	NONE+NONE+POS	O	O	O	O	O	NN1	I-NP	cease-fire	NN	t326:NMOD||t328:NMOD||t330:NMOD	O
of	t330	12	of	O	O	O	O	O	O	O	O	PRF	B-PP	of	IN	t333:PMOD	O
the	t331	12	the	O	O	O	O	O	O	O	O	AT0	B-NP	the	DT	O	O
eight-year	t332	12	eight-year	O	O	O	tmx58	DURATION	P8Y	O	O	AJ0	I-NP	eight-year	JJ	O	O
war	t333	12	war	e59	OCCURRENCE	NONE+NONE+POS	O	O	O	O	O	NN1	I-NP	war	NN	t331:NMOD||t332:NMOD||t334:NMOD	O
with	t334	12	with	O	O	O	O	O	O	O	O	PRP	B-PP	with	IN	t335:PMOD	O
Iran	t335	12	Iran	O	O	O	O	O	O	O	O	NP0	B-NP	iran	NNP	O	O
.	t336	12	.	O	O	O	O	O	O	O	O	PUN	O	.	.	O	O

The	t337	13	the	O	O	O	O	O	O	O	O	AT0	B-NP	the	DT	O	O
move	t338	13	move	O	O	O	O	O	O	O	O	NN1	I-NP	move	NN	t337:NMOD	O
seemed	t339	13	seem	e60	I_STATE	PAST+NONE+POS	O	O	O	O	O	VVD	B-VP	seem	VBD	t338:SBJ||t340:OPRD||t360:COORD||t370:P	mainVb
aimed	t340	13	aim	e61	I_ACTION	PASTPART+NONE+POS	O	O	O	O	O	VVN	I-VP	aim	VBN	t341:ADV	mainVb
at	t341	13	at	O	O	O	O	O	O	O	O	PRP	B-PP	at	IN	t342:PMOD	O
heading	t342	13	head	e62	I_ACTION	NONE+NONE+POS	O	O	O	O	O	VVG	B-VP	head	VBG	t343:PRT||t345:OBJ	O
off	t343	13	off	O	O	O	O	O	O	O	O	AVP	B-PRT	off	RP	O	O
more	t344	13	more	O	O	O	O	O	O	O	O	AV0	B-NP	more	DT	O	O
trouble	t345	13	trouble	O	O	O	O	O	O	O	O	NN1	I-NP	trouble	NN	t344:NMOD||t346:NMOD	O
with	t346	13	with	O	O	O	O	O	O	O	O	PRP	B-PP	with	IN	t347:PMOD	O
Iran	t347	13	Iran	O	O	O	O	O	O	O	O	NP0	B-NP	iran	NNP	t348:P||t350:NMOD	O
,	t348	13	,	O	O	O	O	O	O	O	O	PUN	O	,	,	O	O
which	t349	13	which	O	O	O	O	O	O	O	O	DTQ	B-NP	which	WDT	O	O
had	t350	13	have	O	O	O	O	O	O	O	O	VHD	B-VP	have	VBD	t349:SBJ||t351:VC	O
condemned	t351	13	condemn	e63	OCCURRENCE	PAST+PERFECTIVE+POS	O	O	O	O	O	VVN	I-VP	condemn	VBN	t354:OBJ||t357:TMP	O
Iraq	t352	13	Iraq	O	O	O	O	O	O	O	O	NP0	B-NP	iraq	NNP	t353:SUFFIX	O
's	t353	13	's	O	O	O	O	O	O	O	O	POS	B-NP	's	POS	O	O
invasion	t354	13	invasion	e64	OCCURRENCE	NONE+NONE+POS	O	O	O	O	O	NN1	I-NP	invasion	NN	t352:NMOD||t355:NMOD	O
of	t355	13	of	O	O	O	O	O	O	O	O	PRF	B-PP	of	IN	t356:PMOD	O
Kuwait	t356	13	Kuwait	O	O	O	O	O	O	O	O	NP0	B-NP	kuwait	NNP	O	O
on	t357	13	on	O	O	O	O	O	O	O	O	PRP	B-PP	on	IN	t359:PMOD	O
Aug.	t358	13	Aug.	O	O	O	tmx65	DATE	1990-08-02	O	O	NP0	B-NP	aug.	NNP	O	O
2	t359	13	2	O	O	O	tmx65	DATE	1990-08-02	O	O	CRD	I-NP	2	CD	t358:NMOD	O
but	t360	13	but	O	O	O	O	O	O	O	O	CJC	O	but	CC	t361:COORD||t362:CONJ	O
also	t361	13	also	O	O	O	O	O	O	O	O	AV0	B-ADVP	also	RB	O	O
criticized	t362	13	criticize	e66	OCCURRENCE	PAST+PERFECTIVE+POS	O	O	O	O	O	VVD	B-VP	criticize	VBD	t365:OBJ	O
the	t363	13	the	O	O	O	O	O	O	O	O	AT0	B-NP	the	DT	O	O
multinational	t364	13	multinational	O	O	O	O	O	O	O	O	AJ0	I-NP	multinational	JJ	O	O
force	t365	13	force	O	O	O	O	O	O	O	O	NN1	I-NP	force	NN	t363:NMOD||t364:NMOD||t366:APPO	O
dispatched	t366	13	dispatch	e67	OCCURRENCE	PASTPART+NONE+POS	O	O	O	O	O	VVN	B-VP	dispatch	VBD	t367:DIR	O
to	t367	13	to	O	O	O	O	O	O	O	O	PRP	B-PP	to	TO	t369:PMOD	O
Saudi	t368	13	Saudi	O	O	O	O	O	O	O	O	NP0	B-NP	saudi	NNP	O	O
Arabia	t369	13	Arabia	O	O	O	O	O	O	O	O	NP0	I-NP	arabia	NNP	t368:NAME	O
.	t370	13	.	O	O	O	O	O	O	O	O	PUN	O	.	.	O	O

Saddam	t371	14	Saddam	O	O	O	O	O	O	O	O	NP0	B-NP	saddam	NNP	O	O
said	t372	14	say	e68	REPORTING	PAST+NONE+POS	O	O	O	O	O	VVD	B-VP	say	VBD	t371:SBJ||t374:OBJ||t397:P||t398:P	mainVb
he	t373	14	he	O	O	O	O	O	O	O	O	PNP	B-NP	he	PRP	O	O
sought	t374	14	seek	e69	I_ACTION	PAST+NONE+POS	O	O	O	O	O	VVD	B-VP	seek	VBD	t373:SBJ||t375:OPRD	O
to	t375	14	to	O	O	O	O	O	O	O	O	TO0	I-VP	to	TO	t376:IM||t377:IM	O
"	t376	14	"	O	O	O	O	O	O	O	O	PUQ	I-VP	"	VB	O	O
turn	t377	14	turn	e70	OCCURRENCE	INFINITIVE+NONE+POS	O	O	O	O	O	VVI	I-VP	turn	VB	t379:OBJ||t380:ADV	O
the	t378	14	the	O	O	O	O	O	O	O	O	AT0	B-NP	the	DT	O	O
gulf	t379	14	gulf	O	O	O	O	O	O	O	O	NN1	I-NP	gulf	NN	t378:NMOD	O
into	t380	14	into	O	O	O	O	O	O	O	O	PRP	B-PP	into	IN	t382:PMOD	O
a	t381	14	a	O	O	O	O	O	O	O	O	AT0	B-NP	a	DT	O	O
lake	t382	14	lake	O	O	O	O	O	O	O	O	NN1	I-NP	lake	NN	t381:NMOD||t383:NMOD||t385:APPO	O
of	t383	14	of	O	O	O	O	O	O	O	O	PRF	B-PP	of	IN	t384:PMOD	O
peace	t384	14	peace	O	O	O	O	O	O	O	O	NN1	B-NP	peace	NN	O	O
free	t385	14	free	O	O	O	O	O	O	O	O	AJ0	I-NP	free	JJ	t386:AMOD	O
of	t386	14	of	O	O	O	O	O	O	O	O	PRF	B-PP	of	IN	t388:PMOD	O
foreign	t387	14	foreign	O	O	O	O	O	O	O	O	AJ0	B-NP	foreign	JJ	O	O
fleets	t388	14	fleet	O	O	O	O	O	O	O	O	NN2	I-NP	fleet	NNS	t387:NMOD||t389:COORD||t392:NMOD	O
and	t389	14	and	O	O	O	O	O	O	O	O	CJC	I-NP	and	CC	t390:CONJ	O
forces	t390	14	force	O	O	O	O	O	O	O	O	NN2	I-NP	force	NNS	O	O
that	t391	14	that	O	O	O	O	O	O	O	O	CJT	B-NP	that	WDT	O	O
harbor	t392	14	harbor	e71	OCCURRENCE	PRESENT+NONE+POS	O	O	O	O	O	NN1	B-VP	harbor	VBP	t391:SBJ||t394:OBJ||t395:ADV	O
ill	t393	14	ill	O	O	O	O	O	O	O	O	AJ0	B-NP	ill	JJ	O	O
intentions	t394	14	intention	O	O	O	O	O	O	O	O	NN2	I-NP	intention	NNS	t393:NMOD	O
against	t395	14	against	O	O	O	O	O	O	O	O	PRP	B-PP	against	IN	t396:PMOD	O
us	t396	14	we	O	O	O	O	O	O	O	O	PNP	B-NP	us	PRP	O	O
.	t397	14	.	O	O	O	O	O	O	O	O	PUN	O	.	.	O	O
"	t398	14	"	O	O	O	O	O	O	O	O	PUQ	O	"	''	O	O

In	t399	15	in	O	O	O	O	O	O	O	O	PRP	B-PP	in	IN	t401:PMOD	O
other	t400	15	other	O	O	O	O	O	O	O	O	AJ0	B-NP	other	JJ	O	O
developments	t401	15	development	O	O	O	O	O	O	O	O	NN2	I-NP	development	NNS	t400:NMOD	O
:	t402	15	:	O	O	O	O	O	O	O	O	PUN	O	:	:	O	O
The	t403	15	the	O	O	O	O	O	O	O	O	AT0	B-NP	the	DT	O	O
Pentagon	t404	15	Pentagon	O	O	O	O	O	O	O	O	NN1	I-NP	pentagon	NNP	t403:NMOD	O
said	t405	15	say	e72	REPORTING	PAST+NONE+POS	O	O	O	O	O	VVD	B-VP	say	VBD	t399:LOC||t402:P||t404:SBJ||t406:OBJ||t436:P	mainVb
that	t406	15	that	O	O	O	O	O	O	O	O	CJT	B-SBAR	that	IN	t411:SUB	O
Defense	t407	15	Defense	O	O	O	O	O	O	O	O	NN1	B-NP	defense	NNP	O	O
Secretary	t408	15	Secretary	O	O	O	O	O	O	O	O	NN1	I-NP	secretary	NN	t407:NMOD||t410:APPO	O
Dick	t409	15	Dick	O	O	O	O	O	O	O	O	NP0	I-NP	dick	NNP	O	O
Cheney	t410	15	Cheney	O	O	O	O	O	O	O	O	NP0	I-NP	cheney	NNP	t409:NAME	O
is	t411	15	be	O	O	O	O	O	O	O	O	VBZ	B-VP	be	VBZ	t408:SBJ||t412:VC	O
considering	t412	15	consider	e73	I_STATE	PRESENT+PROGRESSIVE+POS	O	O	O	O	O	VVG	I-VP	consider	VBG	t413:OPRD	O
urging	t413	15	urge	e74	I_ACTION	PRESENT+PROGRESSIVE+POS	O	O	O	O	O	AJ0	B-NP	urge	VBG	t414:OBJ||t415:OPRD	O
Bush	t414	15	Bush	O	O	O	O	O	O	O	O	NP0	I-NP	bush	NNP	O	O
to	t415	15	to	O	O	O	O	O	O	O	O	TO0	B-VP	to	TO	t416:IM	O
order	t416	15	order	e75	I_ACTION	INFINITIVE+NONE+POS	O	O	O	O	O	VVI	I-VP	order	VB	t419:OBJ||t427:PRP	O
a	t417	15	a	O	O	O	O	O	O	O	O	AT0	B-NP	a	DT	O	O
national	t418	15	national	O	O	O	O	O	O	O	O	AJ0	I-NP	national	JJ	O	O
callup	t419	15	callup	e76	OCCURRENCE	NONE+NONE+POS	O	O	O	O	O	NN1	I-NP	callup	NN	t417:NMOD||t418:NMOD||t420:NMOD	O
of	t420	15	of	O	O	O	O	O	O	O	O	PRF	B-PP	of	IN	t423:PMOD	O
armed	t421	15	armed	O	O	O	O	O	O	O	O	AJ0	B-NP	arm	VBN	O	O
forces	t422	15	force	O	O	O	O	O	O	O	O	NN2	I-NP	force	NNS	O	O
reserves	t423	15	reserve	O	O	O	O	O	O	O	O	VVZ	B-VP	reserves	NNS	t421:NMOD||t422:NMOD||t424:NMOD	O
for	t424	15	for	O	O	O	O	O	O	O	O	PRP	B-PP	for	IN	t426:PMOD	O
active	t425	15	active	O	O	O	O	O	O	O	O	AJ0	B-NP	active	JJ	O	O
duty	t426	15	duty	O	O	O	O	O	O	O	O	NN1	I-NP	duty	NN	t425:NMOD	O
because	t427	15	because	O	O	O	O	O	O	cs77	O	PRP	B-PP	because	IN	t428:DEP||t430:PMOD	O
of	t428	15	of	O	O	O	O	O	O	cs77	O	PRP	B-PP	of	IN	O	O
the	t429	15	the	O	O	O	O	O	O	cs77	O	AT0	B-NP	the	DT	O	O
drain	t430	15	drain	e78	OCCURRENCE	NONE+NONE+POS	O	O	O	cs77	O	NN1	I-NP	drain	NN	t429:NMOD||t431:NMOD	O
on	t431	15	on	O	O	O	O	O	O	cs77	O	PRP	B-PP	on	IN	t432:PMOD	O
units	t432	15	unit	O	O	O	O	O	O	cs77	O	NN2	B-NP	unit	NNS	t433:APPO	O
sending	t433	15	send	e79	OCCURRENCE	PRESENT+PROGRESSIVE+POS	O	O	O	cs77	O	VVG	B-VP	send	VBG	t434:OBJ||t435:LOC	O
soldiers	t434	15	soldier	O	O	O	O	O	O	cs77	O	NN2	B-NP	soldier	NNS	O	O
abroad	t435	15	abroad	O	O	O	O	O	O	cs77	O	AV0	B-ADVP	abroad	RB	O	O
.	t436	15	.	O	O	O	O	O	O	cs77	O	PUN	O	.	.	O	O

Bush	t437	16	Bush	O	O	O	O	O	O	cs77	O	NP0	B-NP	bush	NNP	O	O
can	t438	16	can	O	O	O	O	O	O	cs77	O	VM0	B-VP	can	MD	t437:SBJ||t439:VC||t453:P	mainVb
call	t439	16	call	e80	OCCURRENCE	NONE+NONE+POS	O	O	O	cs77	O	VVI	I-VP	call	VB	t443:OBJ||t444:TMP||t449:ADV	mainVb
up	t440	16	up	O	O	O	O	O	O	cs77	O	PRP	B-PRT	up	IN	O	O
to	t441	16	to	O	O	O	O	O	O	cs77	O	PRP	B-PP	to	TO	O	O
200,000	t442	16	200,000	O	O	O	O	O	O	cs77	O	CRD	B-NP	200,000	CD	t440:DEP||t441:DEP	O
reservists	t443	16	reservist	O	O	O	O	O	O	cs77	O	NN2	I-NP	reservist	NNS	t442:NMOD	O
for	t444	16	for	O	O	O	O	O	O	cs77	O	PRP	B-PP	for	IN	t448:PMOD	O
up	t445	16	up	O	O	O	tmx81	DURATION	P180D	cs77	O	PRP	B-ADVP	up	IN	O	O
to	t446	16	to	O	O	O	tmx81	DURATION	P180D	cs77	O	PRP	B-PP	to	TO	O	O
180	t447	16	180	O	O	O	tmx81	DURATION	P180D	cs77	O	CRD	B-NP	180	CD	t445:DEP||t446:DEP	O
days	t448	16	day	O	O	O	tmx81	DURATION	P180D	cs77	O	NN2	I-NP	days	NNS	t447:NMOD	O
without	t449	16	without	O	O	O	O	O	O	cs77	O	PRP	B-PP	without	IN	t450:PMOD	O
seeking	t450	16	seek	e82	I_ACTION	PRESPART+NONE+NEG	O	O	O	cs77	O	VVG	B-VP	seek	VBG	t452:OBJ	O
congressional	t451	16	congressional	O	O	O	O	O	O	cs77	O	AJ0	B-NP	congressional	JJ	O	O
approval	t452	16	approval	O	O	O	O	O	O	cs77	O	NN1	I-NP	approval	NN	t451:NMOD	O
.	t453	16	.	O	O	O	O	O	O	cs77	O	PUN	O	.	.	O	O

Soviet	t454	17	Soviet	O	O	O	O	O	O	cs77	O	AJ0	B-NP	soviet	JJ	O	O
Foreign	t455	17	Foreign	O	O	O	O	O	O	cs77	O	AJ0	I-NP	foreign	NNP	O	O
Ministry	t456	17	Ministry	O	O	O	O	O	O	cs77	O	NN1	I-NP	ministry	NNP	t455:NAME	O
spokesman	t457	17	spokesman	O	O	O	O	O	O	cs77	O	NN1	I-NP	spokesman	NN	t454:NMOD||t456:NMOD||t459:APPO	O
Yuri	t458	17	Yuri	O	O	O	O	O	O	cs77	O	NP0	I-NP	yuri	NNP	O	O
Gremitskikh	t459	17	Gremitskikh	O	O	O	O	O	O	cs77	O	NP0	I-NP	gremitskikh	NNP	t458:NAME	O
said	t460	17	say	e83	REPORTING	PAST+NONE+POS	O	O	O	cs77	O	VVD	B-VP	say	VBD	t457:SBJ||t465:OBJ||t482:P	mainVb
special	t461	17	special	O	O	O	O	O	O	cs77	O	AJ0	B-NP	special	JJ	O	O
ambassador	t462	17	ambassador	O	O	O	O	O	O	cs77	O	NN1	I-NP	ambassador	NN	t461:NMOD||t464:APPO	O
Mikhail	t463	17	Mikhail	O	O	O	O	O	O	cs77	O	NP0	I-NP	mikhail	NNP	O	O
Sytenko	t464	17	Sytenko	O	O	O	O	O	O	cs77	O	NP0	I-NP	sytenko	NNP	t463:NAME	O
left	t465	17	leave	e84	OCCURRENCE	PAST+NONE+POS	O	O	O	cs77	O	VVD	B-VP	leave	VBD	t462:SBJ||t466:TMP||t467:ADV	O
Tuesday	t466	17	Tuesday	O	O	O	tmx85	DATE	1990-08-14	cs77	O	NP0	B-NP	tuesday	NNP	O	O
for	t467	17	for	O	O	O	O	O	O	cs77	O	PRP	B-PP	for	IN	t468:PMOD	O
consultations	t468	17	consultation	e86	OCCURRENCE	NONE+NONE+POS	O	O	O	cs77	O	NN2	B-NP	consultation	NNS	t469:NMOD	O
with	t469	17	with	O	O	O	O	O	O	cs77	O	PRP	B-PP	with	IN	t471:PMOD	O
the	t470	17	the	O	O	O	O	O	O	cs77	O	AT0	B-NP	the	DT	O	O
governments	t471	17	government	O	O	O	O	O	O	cs77	O	NN2	I-NP	government	NNS	t470:NMOD||t472:NMOD	O
of	t472	17	of	O	O	O	O	O	O	cs77	O	PRF	B-PP	of	IN	t473:PMOD	O
Syria	t473	17	Syria	O	O	O	O	O	O	cs77	O	NP0	B-NP	syria	NNP	t474:P||t475:COORD	O
,	t474	17	,	O	O	O	O	O	O	cs77	O	PUN	O	,	,	O	O
Jordan	t475	17	Jordan	O	O	O	O	O	O	cs77	O	NP0	B-NP	jordan	NNP	t476:P||t477:COORD	O
,	t476	17	,	O	O	O	O	O	O	cs77	O	PUN	O	,	,	O	O
Egypt	t477	17	Egypt	O	O	O	O	O	O	cs77	O	NP0	B-NP	egypt	NNP	t478:COORD	O
and	t478	17	and	O	O	O	O	O	O	cs77	O	CJC	O	and	CC	t481:CONJ	O
other	t479	17	other	O	O	O	O	O	O	cs77	O	AJ0	B-NP	other	JJ	O	O
Arab	t480	17	arab	O	O	O	O	O	O	cs77	O	NP0	I-NP	arab	JJ	O	O
countries	t481	17	country	O	O	O	O	O	O	cs77	O	NN2	I-NP	country	NNS	t479:NMOD||t480:NMOD	O
.	t482	17	.	O	O	O	O	O	O	cs77	O	PUN	O	.	.	O	O

Sytenko	t483	18	Sytenko	O	O	O	O	O	O	cs77	O	NP0	B-NP	sytenko	NNP	t484:P||t488:APPO||t493:P	O
,	t484	18	,	O	O	O	O	O	O	cs77	O	PUN	O	,	,	O	O
a	t485	18	a	O	O	O	O	O	O	cs77	O	AT0	B-NP	a	DT	O	O
former	t486	18	former	O	O	O	O	O	O	cs77	O	DT0	I-NP	former	JJ	O	O
deputy	t487	18	deputy	O	O	O	O	O	O	cs77	O	NN1	I-NP	deputy	NN	O	O
secretary-general	t488	18	secretary-general	O	O	O	O	O	O	cs77	O	NN1	I-NP	secretary-general	NN	t485:NMOD||t486:NMOD||t487:NMOD||t489:NMOD	O
of	t489	18	of	O	O	O	O	O	O	cs77	O	PRF	B-PP	of	IN	t492:PMOD	O
the	t490	18	the	O	O	O	O	O	O	cs77	O	AT0	B-NP	the	DT	O	O
United	t491	18	United	O	O	O	O	O	O	cs77	O	AJ0	I-NP	united	NNP	O	O
Nations	t492	18	Nations	O	O	O	O	O	O	cs77	O	NN2	I-NP	nation	NNP	t490:NMOD||t491:NAME	O
,	t493	18	,	O	O	O	O	O	O	cs77	O	PUN	O	,	,	O	O
is	t494	18	be	O	O	O	O	O	O	cs77	O	VBZ	B-VP	be	VBZ	t483:SBJ||t495:ADV||t496:VC	O
also	t495	18	also	O	O	O	O	O	O	cs77	O	AV0	I-VP	also	RB	O	O
expected	t496	18	expect	e87	OCCURRENCE	PRESENT+NONE+POS	O	O	O	cs77	O	VVN	I-VP	expect	VBN	t497:OPRD	O
to	t497	18	to	O	O	O	O	O	O	cs77	O	TO0	I-VP	to	TO	t498:IM	O
visit	t498	18	visit	e88	OCCURRENCE	INFINITIVE+NONE+POS	O	O	O	cs77	O	VVI	I-VP	visit	VB	t499:OBJ	O
Baghdad	t499	18	Baghdad	O	O	O	O	O	O	cs77	O	NP0	B-NP	baghdad	NNP	O	O
,	t500	18	,	O	O	O	O	O	O	cs77	O	PUN	O	,	,	O	O
Gremitskikh	t501	18	Gremitskikh	O	O	O	O	O	O	cs77	O	NP0	B-NP	gremitskikh	NNP	O	O
said	t502	18	say	e89	REPORTING	PAST+NONE+POS	O	O	O	cs77	O	VVD	B-VP	say	VBD	t494:OBJ||t500:P||t501:SBJ||t503:LOC||t508:TMP||t509:P	mainVb
at	t503	18	at	O	O	O	O	O	O	cs77	O	PRP	B-PP	at	IN	t507:PMOD	O
a	t504	18	a	O	O	O	O	O	O	cs77	O	AT0	B-NP	a	DT	O	O
regular	t505	18	regular	O	O	O	O	O	O	cs77	O	AJ0	I-NP	regular	JJ	O	O
news	t506	18	news	O	O	O	O	O	O	cs77	O	NN1	I-NP	news	NN	O	O
briefing	t507	18	briefing	e90	OCCURRENCE	NONE+NONE+POS	O	O	O	cs77	O	VVG	B-VP	briefing	NN	t504:NMOD||t505:NMOD||t506:NMOD	O
today	t508	18	today	O	O	O	tmx91	DATE	1990-08-15	cs77	O	AV0	B-NP	today	NN	O	O
.	t509	18	.	O	O	O	O	O	O	cs77	O	PUN	O	.	.	O	O

The	t510	19	the	O	O	O	O	O	O	cs77	O	AT0	B-NP	the	DT	O	O
outlook	t511	19	outlook	O	O	O	O	O	O	cs77	O	NN1	I-NP	outlook	NN	t510:NMOD	O
darkened	t512	19	darken	e92	OCCURRENCE	PAST+NONE+POS	O	O	O	cs77	O	VVN	B-VP	darken	VBD	t511:SBJ||t513:ADV||t533:P	mainVb
for	t513	19	for	O	O	O	O	O	O	cs77	O	PRP	B-PP	for	IN	t516:PMOD	O
about	t514	19	about	O	O	O	O	O	O	cs77	O	AV0	B-NP	about	CD	O	O
3,000	t515	19	3,000	O	O	O	O	O	O	cs77	O	CRD	I-NP	3,000	NN	t514:DEP	O
Americans	t516	19	Americans	O	O	O	O	O	O	cs77	O	NN2	I-NP	americans	JJ	t515:NMOD||t517:APPO	O
caught	t517	19	catch	e93	OCCURRENCE	PASTPART+NONE+POS	O	O	O	cs77	O	VVN	B-VP	catch	VBN	t518:LOC||t524:TMP	O
in	t518	19	in	O	O	O	O	O	O	cs77	O	PRP	B-PP	in	IN	t519:PMOD	O
Iraq	t519	19	Iraq	O	O	O	O	O	O	cs77	O	NP0	B-NP	iraq	NNP	t520:COORD	O
and	t520	19	and	O	O	O	O	O	O	cs77	O	CJC	I-NP	and	CC	t521:CONJ	O
Kuwait	t521	19	Kuwait	O	O	O	O	O	O	cs77	O	NP0	I-NP	kuwait	NNP	O	O
when	t522	19	when	O	O	O	O	O	O	cs77	O	CJS	B-ADVP	when	WRB	O	O
Saddam	t523	19	Saddam	O	O	O	O	O	O	cs77	O	NP0	B-NP	saddam	NNP	O	O
sent	t524	19	send	e94	OCCURRENCE	PAST+NONE+POS	O	O	O	cs77	O	VVD	B-VP	send	VBD	t522:TMP||t523:SBJ||t526:OBJ||t527:DIR	O
his	t525	19	he	O	O	O	O	O	O	cs77	O	DPS	B-NP	his	PRP$	O	O
forces	t526	19	force	O	O	O	O	O	O	cs77	O	NN2	I-NP	force	NNS	t525:NMOD	O
into	t527	19	into	O	O	O	O	O	O	cs77	O	PRP	B-PP	into	IN	t532:PMOD	O
the	t528	19	the	O	O	O	O	O	O	cs77	O	AT0	B-NP	the	DT	O	O
small	t529	19	small	O	O	O	O	O	O	cs77	O	AJ0	I-NP	small	JJ	O	O
,	t530	19	,	O	O	O	O	O	O	cs77	O	PUN	O	,	,	O	O
oil-rich	t531	19	oil-rich	O	O	O	O	O	O	cs77	O	AJ0	B-ADJP	oil-rich	JJ	O	O
sultanate	t532	19	sultanate	O	O	O	O	O	O	cs77	O	AJ0	I-ADJP	sultanate	NN	t528:NMOD||t529:NMOD||t530:P||t531:NMOD	O
.	t533	19	.	O	O	O	O	O	O	cs77	O	PUN	O	.	.	O	O

The	t534	20	the	O	O	O	O	O	O	cs77	O	AT0	B-NP	the	DT	O	O
Iraqi	t535	20	iraqi	O	O	O	O	O	O	cs77	O	NP0	I-NP	iraqi	JJ	O	O
ambassador	t536	20	ambassador	O	O	O	O	O	O	cs77	O	NN1	I-NP	ambassador	NN	t534:NMOD||t535:NMOD||t537:NMOD	O
to	t537	20	to	O	O	O	O	O	O	cs77	O	PRP	B-PP	to	TO	t538:PMOD	O
Greece	t538	20	Greece	O	O	O	O	O	O	cs77	O	NP0	B-NP	greece	NNP	O	O
said	t539	20	say	e95	REPORTING	PAST+NONE+POS	O	O	O	cs77	O	VVD	B-VP	say	VBD	t536:SBJ||t540:LOC||t548:OBJ||t565:P||t566:P	mainVb
in	t540	20	in	O	O	O	O	O	O	cs77	O	PRP	B-PP	in	IN	t541:PMOD	O
Athens	t541	20	Athens	O	O	O	O	O	O	cs77	O	NP0	B-NP	athens	NNP	O	O
the	t542	20	the	O	O	O	O	O	O	cs77	O	AT0	B-NP	the	DT	O	O
Americans	t543	20	Americans	O	O	O	O	O	O	cs77	O	NN2	I-NP	americans	JJ	t542:NMOD||t544:COORD	O
and	t544	20	and	O	O	O	O	O	O	cs77	O	CJC	O	and	CC	t547:CONJ	O
other	t545	20	other	O	O	O	O	O	O	cs77	O	AJ0	B-NP	other	JJ	O	O
stranded	t546	20	stranded	O	O	O	O	O	O	cs77	O	AJ0	I-NP	strand	VBN	O	O
foreigners	t547	20	foreigner	O	O	O	O	O	O	cs77	O	NN2	I-NP	foreigner	NNS	t545:NMOD||t546:NMOD	O
could	t548	20	could	O	O	O	O	O	O	cs77	O	VM0	B-VP	could	MD	t543:SBJ||t549:VC	O
leave	t549	20	leave	e96	OCCURRENCE	NONE+NONE+POS	O	O	O	cs77	O	VVI	I-VP	leave	VB	t550:OBJ||t552:TMP	O
"	t550	20	"	O	O	O	O	O	O	cs77	O	PUQ	B-NP	"	PRP	O	O
as	t551	20	as	O	O	O	O	O	O	cs77	O	CJS	B-PP	as	IN	O	O
soon	t552	20	soon	O	O	O	O	O	O	cs77	O	AV0	B-NP	soon	RB	t551:AMOD||t553:AMOD	O
as	t553	20	as	O	O	O	O	O	O	cs77	O	CJS	B-PP	as	IN	t563:SUB	O
the	t554	20	the	O	O	O	O	O	O	cs77	O	AT0	B-NP	the	DT	O	O
threats	t555	20	threat	O	O	O	O	O	O	cs77	O	NN2	I-NP	threat	NNS	t554:NMOD||t556:NMOD	O
from	t556	20	from	O	O	O	O	O	O	cs77	O	PRP	B-PP	from	IN	t559:PMOD	O
the	t557	20	the	O	O	O	O	O	O	cs77	O	AT0	B-NP	the	DT	O	O
United	t558	20	United	O	O	O	O	O	O	cs77	O	NP0	I-NP	united	NNP	O	O
States	t559	20	States	O	O	O	O	O	O	cs77	O	NP0	I-NP	state	NNPS	t557:NMOD||t558:NAME||t560:COORD	O
and	t560	20	and	O	O	O	O	O	O	cs77	O	CJC	O	and	CC	t562:CONJ	O
its	t561	20	its	O	O	O	O	O	O	cs77	O	DPS	B-NP	its	PRP$	O	O
allies	t562	20	ally	O	O	O	O	O	O	cs77	O	NN2	I-NP	allies	NNS	t561:NMOD	O
are	t563	20	be	O	O	O	O	O	O	cs77	O	VBB	B-VP	be	VBP	t555:SBJ||t564:VC	O
eliminated	t564	20	eliminate	e97	OCCURRENCE	PRESENT+NONE+POS	O	O	O	cs77	O	VVN	I-VP	eliminate	VBN	O	O
.	t565	20	.	O	O	O	O	O	O	cs77	O	PUN	O	.	.	O	O
"	t566	20	"	O	O	O	O	O	O	cs77	O	PUQ	O	"	:	O	O

ABC	t567	21	ABC	O	O	O	O	O	O	cs77	O	NP0	B-NP	abc	NNP	O	O
quoted	t568	21	quote	e98	REPORTING	PAST+NONE+POS	O	O	O	cs77	O	VVD	B-VP	quote	VBD	t567:SBJ||t573:OBJ||t576:ADV||t593:P	mainVb
an	t569	21	a	O	O	O	O	O	O	cs77	O	AT0	B-NP	an	DT	O	O
Iraqi	t570	21	iraqi	O	O	O	O	O	O	cs77	O	NP0	I-NP	iraqi	NNP	O	O
Foreign	t571	21	Foreign	O	O	O	O	O	O	cs77	O	AJ0	I-NP	foreign	NNP	O	O
Ministry	t572	21	Ministry	O	O	O	O	O	O	cs77	O	NN1	I-NP	ministry	NNP	t570:NAME||t571:NAME	O
official	t573	21	official	O	O	O	O	O	O	cs77	O	NN1	I-NP	official	NN	t569:NMOD||t572:NMOD||t574:LOC	O
in	t574	21	in	O	O	O	O	O	O	cs77	O	PRP	B-PP	in	IN	t575:PMOD	O
Baghdad	t575	21	Baghdad	O	O	O	O	O	O	cs77	O	NP0	B-NP	baghdad	NNP	O	O
as	t576	21	as	O	O	O	O	O	O	cs77	O	CJS	B-PP	as	IN	t577:PMOD	O
saying	t577	21	say	e99	REPORTING	PRESPART+NONE+POS	O	O	O	cs77	O	VVG	B-VP	say	VBG	t581:OBJ	O
Americans	t578	21	american	O	O	O	O	O	O	cs77	O	NN2	B-NP	americans	JJ	t579:LOC	O
in	t579	21	in	O	O	O	O	O	O	cs77	O	PRP	B-PP	in	IN	t580:PMOD	O
Iraq	t580	21	Iraq	O	O	O	O	O	O	cs77	O	NP0	B-NP	iraq	NNP	O	O
are	t581	21	be	O	O	O	O	O	O	cs77	O	VBB	B-VP	be	VBP	t578:SBJ||t583:PRD	O
"	t582	21	"	O	O	O	O	O	O	cs77	O	PUQ	B-NP	"	JJ	O	O
restrictees	t583	21	restrictee	O	O	O	O	O	O	cs77	O	NN2	I-NP	restrictee	NNS	t582:NMOD||t584:APPO||t586:NMOD	O
"	t584	21	"	O	O	O	O	O	O	cs77	O	PUQ	O	"	PRP	O	O
who	t585	21	who	O	O	O	O	O	O	cs77	O	PNQ	B-NP	who	WP	O	O
will	t586	21	will	O	O	O	O	O	O	cs77	O	VM0	B-VP	will	MD	t585:SBJ||t587:VC	O
stay	t587	21	stay	e100	STATE	FUTURE+NONE+POS	O	O	O	cs77	O	VVI	I-VP	stay	VB	t588:LOC||t589:TMP	O
there	t588	21	there	O	O	O	O	O	O	cs77	O	AV0	B-ADVP	there	RB	O	O
until	t589	21	until	O	O	O	O	O	O	cs77	O	CJS	B-SBAR	until	IN	t592:SUB	O
the	t590	21	the	O	O	O	O	O	O	cs77	O	AT0	B-NP	the	DT	O	O
crisis	t591	21	crisis	e101	OCCURRENCE	NONE+NONE+POS	O	O	O	cs77	O	NN1	I-NP	crisis	NN	t590:NMOD	O
ends	t592	21	end	e102	ASPECTUAL	FUTURE+NONE+POS	O	O	O	cs77	O	NN2	B-VP	end	VBZ	t591:SBJ	O
.	t593	21	.	O	O	O	O	O	O	cs77	O	PUN	O	.	.	O	O

The	t594	22	the	O	O	O	O	O	O	cs77	O	AT0	B-NP	the	DT	O	O
Soviet	t595	22	Soviet	O	O	O	O	O	O	cs77	O	AJ0	I-NP	soviet	JJ	O	O
Foreign	t596	22	Foreign	O	O	O	O	O	O	cs77	O	AJ0	I-NP	foreign	NNP	O	O
Ministry	t597	22	Ministry	O	O	O	O	O	O	cs77	O	NN1	I-NP	ministry	NNP	t594:NMOD||t595:NMOD||t596:NAME	O
said	t598	22	say	e103	REPORTING	PAST+NONE+POS	O	O	O	cs77	O	VVD	B-VP	say	VBD	t597:SBJ||t605:OBJ||t611:P	mainVb
Soviet	t599	22	soviet	O	O	O	O	O	O	cs77	O	AJ0	B-NP	soviet	JJ	O	O
women	t600	22	woman	O	O	O	O	O	O	cs77	O	NN2	I-NP	woman	NNS	t599:NMOD||t601:P||t602:COORD	O
,	t601	22	,	O	O	O	O	O	O	cs77	O	PUN	O	,	,	O	O
children	t602	22	child	O	O	O	O	O	O	cs77	O	NN2	B-NP	child	NNS	t603:COORD	O
and	t603	22	and	O	O	O	O	O	O	cs77	O	CJC	I-NP	and	CC	t604:CONJ	O
invalids	t604	22	invalid	O	O	O	O	O	O	cs77	O	NN2	I-NP	invalid	NNS	O	O
would	t605	22	would	O	O	O	O	O	O	cs77	O	VM0	B-VP	would	MD	t600:SBJ||t606:VC	O
be	t606	22	be	O	O	O	O	O	O	cs77	O	VBI	I-VP	be	VB	t607:VC	O
permitted	t607	22	permit	e104	I_ACTION	NONE+NONE+POS	O	O	O	cs77	O	VVN	I-VP	permit	VBN	t608:OPRD	O
to	t608	22	to	O	O	O	O	O	O	cs77	O	TO0	I-VP	to	TO	t609:IM	O
leave	t609	22	leave	e105	OCCURRENCE	INFINITIVE+NONE+POS	O	O	O	cs77	O	VVI	I-VP	leave	VB	t610:OBJ	O
Iraq	t610	22	Iraq	O	O	O	O	O	O	cs77	O	NP0	B-NP	iraq	NNP	O	O
.	t611	22	.	O	O	O	O	O	O	cs77	O	PUN	O	.	.	O	O

Spokesman	t612	23	spokesman	O	O	O	O	O	O	cs77	O	NP0	B-NP	spokesman	NNP	O	O
Yuri	t613	23	Yuri	O	O	O	O	O	O	cs77	O	NP0	I-NP	yuri	NNP	O	O
Gremitskikh	t614	23	Gremitskikh	O	O	O	O	O	O	cs77	O	NP0	I-NP	gremitskikh	NNP	t612:NAME||t613:NAME	O
said	t615	23	say	e106	REPORTING	PAST+PERFECTIVE+POS	O	O	O	cs77	O	VVD	B-VP	say	VBD	t614:SBJ||t622:OBJ||t640:P	mainVb
the	t616	23	the	O	O	O	O	O	O	cs77	O	AT0	B-NP	the	DT	O	O
first	t617	23	first	O	O	O	O	O	O	cs77	O	ORD	I-NP	first	JJ	O	O
group	t618	23	group	O	O	O	O	O	O	cs77	O	NN1	I-NP	group	NN	t616:NMOD||t617:NMOD||t619:NMOD	O
of	t619	23	of	O	O	O	O	O	O	cs77	O	PRF	B-PP	of	IN	t621:PMOD	O
230	t620	23	230	O	O	O	O	O	O	cs77	O	CRD	B-NP	230	CD	O	O
evacuees	t621	23	evacuee	O	O	O	O	O	O	cs77	O	NN2	I-NP	evacuee	NNS	t620:NMOD	O
was	t622	23	be	O	O	O	O	O	O	cs77	O	VBD	B-VP	be	VBD	t618:SBJ||t623:VC||t627:P||t628:COORD	O
assembling	t623	23	assemble	e107	OCCURRENCE	PAST+PROGRESSIVE+POS	O	O	O	cs77	O	VVG	I-VP	assemble	VBG	t624:LOC||t626:TMP	O
in	t624	23	in	O	O	O	O	O	O	cs77	O	PRP	B-PP	in	IN	t625:PMOD	O
Baghdad	t625	23	Baghdad	O	O	O	O	O	O	cs77	O	NP0	B-NP	baghdad	NNP	O	O
today	t626	23	today	O	O	O	tmx108	DATE	1990-08-15	cs77	O	AV0	B-NP	today	NN	O	O
,	t627	23	,	O	O	O	O	O	O	cs77	O	PUN	O	,	,	O	O
but	t628	23	but	O	O	O	O	O	O	cs77	O	CJC	O	but	CC	t631:CONJ	O
evacuation	t629	23	evacuation	O	O	O	O	O	O	cs77	O	NN1	B-NP	evacuation	NN	O	O
plans	t630	23	plan	O	O	O	O	O	O	cs77	O	NN2	I-NP	plan	NNS	t629:NMOD	O
were	t631	23	be	O	O	O	O	O	O	cs77	O	VBD	B-VP	be	VBD	t630:SBJ||t632:VC	O
hampered	t632	23	hamper	e109	OCCURRENCE	PAST+NONE+POS	O	O	O	cs77	O	VVN	I-VP	hamper	VBN	t633:LGS	O
by	t633	23	by	O	O	O	O	O	O	cs77	O	PRP	B-PP	by	IN	t635:PMOD	O
desert	t634	23	desert	O	O	O	O	O	O	cs77	O	NN1	B-NP	desert	NN	O	O
heat	t635	23	heat	O	O	O	O	O	O	cs77	O	NN1	I-NP	heat	NN	t634:NMOD||t636:COORD	O
and	t636	23	and	O	O	O	O	O	O	cs77	O	CJC	O	and	CC	t637:CONJ	O
lack	t637	23	lack	O	O	O	O	O	O	cs77	O	NN1	B-NP	lack	NN	t638:NMOD	O
of	t638	23	of	O	O	O	O	O	O	cs77	O	PRF	B-PP	of	IN	t639:PMOD	O
transportation	t639	23	transportation	O	O	O	O	O	O	cs77	O	NN1	B-NP	transportation	NN	O	O
.	t640	23	.	O	O	O	O	O	O	cs77	O	PUN	O	.	.	O	O

Nearly	t641	24	nearly	O	O	O	O	O	O	cs77	O	AV0	B-NP	nearly	CD	O	O
9,000	t642	24	9,000	O	O	O	O	O	O	cs77	O	CRD	I-NP	9,000	NN	t641:DEP	O
Soviets	t643	24	soviet	O	O	O	O	O	O	cs77	O	NN2	I-NP	soviets	NNS	t642:NMOD	O
were	t644	24	be	O	O	O	O	O	O	cs77	O	VBD	B-VP	be	VBD	t643:SBJ||t645:LOC-PRD||t657:P	mainVb
among	t645	24	among	O	O	O	O	O	O	cs77	O	PRP	B-PP	among	IN	t647:PMOD	O
the	t646	24	the	O	O	O	O	O	O	cs77	O	AT0	B-NP	the	DT	O	O
hundreds	t647	24	hundred	O	O	O	O	O	O	cs77	O	CRD	I-NP	hundred	NNS	t646:NMOD||t648:NMOD	O
of	t648	24	of	O	O	O	O	O	O	cs77	O	PRF	B-PP	of	IN	t649:PMOD	O
thousands	t649	24	thousand	O	O	O	O	O	O	cs77	O	CRD	B-NP	thousand	NNS	t650:NMOD	O
of	t650	24	of	O	O	O	O	O	O	cs77	O	PRF	B-PP	of	IN	t651:PMOD	O
foreigners	t651	24	foreigner	O	O	O	O	O	O	cs77	O	NN2	B-NP	foreigner	NNS	t652:APPO	O
trapped	t652	24	trap	e110	STATE	PASTPART+NONE+POS	O	O	O	cs77	O	VVN	B-VP	trap	VBN	t653:LOC	O
in	t653	24	in	O	O	O	O	O	O	cs77	O	PRP	B-PP	in	IN	t654:PMOD	O
Iraq	t654	24	Iraq	O	O	O	O	O	O	cs77	O	NP0	B-NP	iraq	NNP	t655:COORD	O
and	t655	24	and	O	O	O	O	O	O	cs77	O	CJC	I-NP	and	CC	t656:CONJ	O
Kuwait	t656	24	Kuwait	O	O	O	O	O	O	cs77	O	NP0	I-NP	kuwait	NNP	O	O
.	t657	24	.	O	O	O	O	O	O	cs77	O	PUN	O	.	.	O	O

Iraq	t658	25	Iraq	O	O	O	O	O	O	cs77	O	NP0	B-NP	iraq	NNP	O	O
has	t659	25	have	O	O	O	O	O	O	cs77	O	VHZ	B-VP	have	VBZ	t658:SBJ||t660:VC||t670:P||t671:COORD||t687:P	mainVb
agreed	t660	25	agree	e111	I_ACTION	PRESENT+PERFECTIVE+POS	O	O	O	cs77	O	VVN	I-VP	agree	VBN	t661:OPRD	mainVb
to	t661	25	to	O	O	O	O	O	O	cs77	O	TO0	I-VP	to	TO	t662:IM	mainVb
allow	t662	25	allow	e112	I_ACTION	INFINITIVE+NONE+POS	O	O	O	cs77	O	VVI	I-VP	allow	VB	t665:OBJ||t668:OPRD	mainVb
all	t663	25	all	O	O	O	O	O	O	cs77	O	DT0	B-NP	all	DT	O	O
880	t664	25	880	O	O	O	O	O	O	cs77	O	CRD	I-NP	880	CD	t663:NMOD	O
Soviets	t665	25	soviet	O	O	O	O	O	O	cs77	O	NN2	I-NP	soviets	NNS	t664:NMOD||t666:LOC	O
in	t666	25	in	O	O	O	O	O	O	cs77	O	PRP	B-PP	in	IN	t667:PMOD	O
Kuwait	t667	25	Kuwait	O	O	O	O	O	O	cs77	O	NP0	B-NP	kuwait	NNP	O	O
to	t668	25	to	O	O	O	O	O	O	cs77	O	TO0	B-VP	to	TO	t669:IM	O
leave	t669	25	leave	e113	OCCURRENCE	INFINITIVE+NONE+POS	O	O	O	cs77	O	VVI	I-VP	leave	VB	O	O
,	t670	25	,	O	O	O	O	O	O	cs77	O	PUN	O	,	,	O	O
but	t671	25	but	O	O	O	O	O	O	cs77	O	CJC	O	but	CC	t672:CONJ	O
only	t672	25	only	O	O	O	O	O	O	cs77	O	AV0	B-ADVP	only	RB	t673:COORD	O
by	t673	25	by	O	O	O	O	O	O	cs77	O	PRP	B-PP	by	IN	t677:PMOD||t680:COORD	O
a	t674	25	a	O	O	O	O	O	O	cs77	O	AT0	B-NP	a	DT	O	O
1,200-mile	t675	25	1,200-mile	O	O	O	O	O	O	cs77	O	AJ0	I-NP	1,200-mile	JJ	O	O
road	t676	25	road	O	O	O	O	O	O	cs77	O	NN1	I-NP	road	NN	O	O
route	t677	25	route	O	O	O	O	O	O	cs77	O	NN1	I-NP	route	NN	t674:NMOD||t675:NMOD||t676:NMOD||t678:NMOD	O
through	t678	25	through	O	O	O	O	O	O	cs77	O	PRP	B-PP	through	IN	t679:PMOD	O
Iraq	t679	25	Iraq	O	O	O	O	O	O	cs77	O	NP0	B-NP	iraq	NNP	O	O
and	t680	25	and	O	O	O	O	O	O	cs77	O	CJC	O	and	CC	t681:CONJ	O
to	t681	25	to	O	O	O	O	O	O	cs77	O	PRP	B-PP	to	TO	t686:PMOD	O
the	t682	25	the	O	O	O	O	O	O	cs77	O	AT0	B-NP	the	DT	O	O
Iraq	t683	25	Iraq	O	O	O	O	O	O	cs77	O	NP0	I-NP	iraq	NNP	O	O
-	t684	25	-	O	O	O	O	O	O	cs77	O	PUN	O	-	HYPH	O	O
Jordan	t685	25	Jordan	O	O	O	O	O	O	cs77	O	NP0	B-NP	jordan	NNP	t683:NAME||t684:NAME	O
border	t686	25	border	O	O	O	O	O	O	cs77	O	NN1	I-NP	border	NN	t682:NMOD||t685:NMOD	O
.	t687	25	.	O	O	O	O	O	O	cs77	O	PUN	O	.	.	O	O

The	t688	26	the	O	O	O	O	O	O	cs77	O	AT0	B-NP	the	DT	O	O
British	t689	26	British	O	O	O	O	O	O	cs77	O	AJ0	I-NP	british	NNP	O	O
Foreign	t690	26	Foreign	O	O	O	O	O	O	cs77	O	AJ0	I-NP	foreign	NNP	O	O
Office	t691	26	Office	O	O	O	O	O	O	cs77	O	NN1	I-NP	office	NNP	t688:NMOD||t689:NAME||t690:NAME	O
said	t692	26	say	e114	REPORTING	PAST+NONE+POS	O	O	O	cs77	O	VVD	B-VP	say	VBD	t691:SBJ||t697:OBJ||t701:P	mainVb
today	t693	26	today	O	O	O	tmx115	DATE	1990-08-15	cs77	O	AV0	B-NP	today	NN	O	O
conditions	t694	26	condition	O	O	O	O	O	O	cs77	O	NN2	I-NP	condition	NNS	t693:NMOD||t695:LOC	O
in	t695	26	in	O	O	O	O	O	O	cs77	O	PRP	B-PP	in	IN	t696:PMOD	O
Kuwait	t696	26	Kuwait	O	O	O	O	O	O	cs77	O	NP0	B-NP	kuwait	NNP	O	O
appear	t697	26	appear	e116	I_STATE	PRESENT+NONE+POS	O	O	O	cs77	O	VVB	B-VP	appear	VBP	t694:SBJ||t698:OPRD	O
to	t698	26	to	O	O	O	O	O	O	cs77	O	TO0	I-VP	to	TO	t699:IM	O
be	t699	26	be	O	O	O	O	O	O	cs77	O	VBI	I-VP	be	VB	t700:VC	O
deteriorating	t700	26	deteriorate	e117	OCCURRENCE	PRESENT+PROGRESSIVE+POS	O	O	O	cs77	O	VVG	I-VP	deteriorate	VBG	O	O
.	t701	26	.	O	O	O	O	O	O	cs77	O	PUN	O	.	.	O	O

There	t702	27	there	O	O	O	O	O	O	cs77	O	EX0	B-NP	there	EX	O	O
have	t703	27	have	O	O	O	O	O	O	cs77	O	VHB	B-VP	have	VBP	t702:SBJ||t704:VC||t709:COORD	O
been	t704	27	be	O	O	O	O	O	O	cs77	O	VBN	I-VP	be	VBN	t705:PRD	O
reports	t705	27	report	O	O	O	O	O	O	cs77	O	NN2	B-NP	report	NNS	t706:NMOD	O
of	t706	27	of	O	O	O	O	O	O	cs77	O	PRF	B-PP	of	IN	t708:PMOD	O
wholesale	t707	27	wholesale	O	O	O	O	O	O	cs77	O	AJ0	B-NP	wholesale	JJ	O	O
looting	t708	27	looting	O	O	O	O	O	O	cs77	O	NN1	I-NP	loot	NN	t707:NMOD	O
but	t709	27	but	O	O	O	O	O	O	cs77	O	CJC	I-NP	but	CC	t713:CONJ	O
food	t710	27	food	O	O	O	O	O	O	cs77	O	NN1	I-NP	food	NN	t711:COORD	O
and	t711	27	and	O	O	O	O	O	O	cs77	O	CJC	I-NP	and	CC	t712:CONJ	O
gasoline	t712	27	gasoline	O	O	O	O	O	O	cs77	O	NN1	I-NP	gasoline	NN	O	O
were	t713	27	be	O	O	O	O	O	O	cs77	O	VBD	B-VP	be	VBD	t710:SBJ||t714:ADV||t715:PRD	O
still	t714	27	still	O	O	O	O	O	O	cs77	O	AV0	B-ADVP	still	RB	O	O
available	t715	27	available	O	O	O	O	O	O	cs77	O	AJ0	B-ADJP	available	JJ	O	O
,	t716	27	,	O	O	O	O	O	O	cs77	O	PUN	O	,	,	O	O
said	t717	27	say	e118	REPORTING	PAST+NONE+POS	O	O	O	cs77	O	VVD	B-VP	say	VBD	t703:OBJ||t716:P||t719:SBJ||t727:P	mainVb
a	t718	27	a	O	O	O	O	O	O	cs77	O	AT0	B-NP	a	DT	O	O
spokesman	t719	27	spokesman	O	O	O	O	O	O	cs77	O	NN1	I-NP	spokesman	NN	t718:NMOD||t720:P||t724:NMOD	O
,	t720	27	,	O	O	O	O	O	O	cs77	O	PUN	O	,	,	O	O
who	t721	27	who	O	O	O	O	O	O	cs77	O	PNQ	B-NP	who	WP	O	O
by	t722	27	by	O	O	O	O	O	O	cs77	O	PRP	B-PP	by	IN	t723:PMOD	O
custom	t723	27	custom	O	O	O	O	O	O	cs77	O	NN1	B-NP	custom	NN	O	O
was	t724	27	be	O	O	O	O	O	O	cs77	O	VBD	B-VP	be	VBD	t721:SBJ||t722:ADV||t725:ADV||t726:VC	O
not	t725	27	not	O	O	O	O	O	O	cs77	O	XX0	I-VP	not	RB	O	O
identified	t726	27	identify	e119	OCCURRENCE	PAST+NONE+NEG	O	O	O	cs77	O	VVN	I-VP	identify	VBN	O	O
.	t727	27	.	O	O	O	O	O	O	cs77	O	PUN	O	.	.	O	O

Banks	t728	28	bank	O	O	O	O	O	O	cs77	O	NP0	B-NP	banks	NNS	O	O
remained	t729	28	remain	e120	ASPECTUAL	PAST+NONE+POS	O	O	O	cs77	O	VVD	B-VP	remain	VBD	t728:SBJ||t730:PRD||t731:P	mainVb
closed	t730	28	closed	e121	STATE	PASTPART+NONE+POS	O	O	O	cs77	O	VVN	I-VP	close	JJ	O	mainVb
.	t731	28	.	O	O	O	O	O	O	cs77	O	PUN	O	.	.	O	O

The	t732	29	the	O	O	O	O	O	O	cs77	O	AT0	B-NP	the	DT	O	O
Iraqi	t733	29	iraqi	O	O	O	O	O	O	cs77	O	NP0	I-NP	iraqi	JJ	O	O
ambassador	t734	29	ambassador	O	O	O	O	O	O	cs77	O	NN1	I-NP	ambassador	NN	t732:NMOD||t733:NMOD||t735:NMOD	O
to	t735	29	to	O	O	O	O	O	O	cs77	O	PRP	B-PP	to	TO	t736:PMOD	O
Venezuela	t736	29	Venezuela	O	O	O	O	O	O	cs77	O	NP0	B-NP	venezuela	NNP	O	O
said	t737	29	say	e122	REPORTING	PAST+NONE+POS	O	O	O	cs77	O	VVD	B-VP	say	VBD	t734:SBJ||t738:TMP||t740:OBJ||t769:P	mainVb
on	t738	29	on	O	O	O	O	O	O	cs77	O	PRP	B-PP	on	IN	t739:PMOD	O
Tuesday	t739	29	Tuesday	O	O	O	tmx123	DATE	1990-08-14	cs77	O	NP0	B-NP	tuesday	NNP	O	O
that	t740	29	that	O	O	O	O	O	O	cs77	O	CJT	B-SBAR	that	IN	t742:SUB	O
Iraq	t741	29	Iraq	O	O	O	O	O	O	cs77	O	NP0	B-NP	iraq	NNP	O	O
would	t742	29	would	O	O	O	O	O	O	cs77	O	VM0	B-VP	would	MD	t741:SBJ||t743:VC	O
retaliate	t743	29	retaliate	e124	OCCURRENCE	NONE+NONE+POS	O	O	O	cs77	O	VVI	I-VP	retaliate	VB	t744:ADV||t752:ADV	O
against	t744	29	against	O	O	O	O	O	O	cs77	O	PRP	B-PP	against	IN	t745:PMOD	O
Venezuela	t745	29	Venezuela	O	O	O	O	O	O	cs77	O	NP0	B-NP	venezuela	NNP	t746:COORD	O
and	t746	29	and	O	O	O	O	O	O	cs77	O	CJC	O	and	CC	t751:CONJ	O
other	t747	29	other	O	O	O	O	O	O	cs77	O	AJ0	B-NP	other	JJ	O	O
OPEC	t748	29	OPEC	O	O	O	O	O	O	cs77	O	NP0	I-NP	opec	NNP	O	O
oil	t749	29	oil	O	O	O	O	O	O	cs77	O	NN1	I-NP	oil	NN	O	O
cartel	t750	29	cartel	O	O	O	O	O	O	cs77	O	NN1	I-NP	cartel	NN	t749:NMOD	O
members	t751	29	member	O	O	O	O	O	O	cs77	O	NN2	I-NP	member	NNS	t747:NMOD||t748:NMOD||t750:NMOD	O
if	t752	29	if	O	O	O	O	O	O	cs77	O	CJS	B-SBAR	if	IN	t754:SUB	O
they	t753	29	they	O	O	O	O	O	O	cs77	O	PNP	B-NP	they	PRP	O	O
boost	t754	29	boost	e125	OCCURRENCE	PRESENT+NONE+POS	O	O	O	cs77	O	VVB	B-VP	boost	VBP	t753:SBJ||t756:OBJ||t757:PRP	O
oil	t755	29	oil	O	O	O	O	O	O	cs77	O	NN1	B-NP	oil	NN	O	O
production	t756	29	production	O	O	O	O	O	O	cs77	O	NN1	I-NP	production	NN	t755:NMOD	O
to	t757	29	to	O	O	O	O	O	O	cs77	O	TO0	B-VP	to	TO	t758:IM	O
fill	t758	29	fill	e126	OCCURRENCE	INFINITIVE+NONE+POS	O	O	O	cs77	O	VVI	I-VP	fill	VB	t760:OBJ	O
the	t759	29	the	O	O	O	O	O	O	cs77	O	AT0	B-NP	the	DT	O	O
gap	t760	29	gap	O	O	O	O	O	O	cs77	O	NN1	I-NP	gap	NN	t759:NMOD||t761:APPO	O
created	t761	29	create	e127	OCCURRENCE	PAST+PERFECTIVE+POS	O	O	O	cs77	O	VVN	B-VP	create	VBN	t762:LGS	O
by	t762	29	by	O	O	O	O	O	O	cs77	O	PRP	B-PP	by	IN	t764:PMOD	O
blocked	t763	29	block	O	O	O	O	O	O	cs77	O	AJ0	B-NP	block	VBN	O	O
supplies	t764	29	supplies	O	O	O	O	O	O	cs77	O	NN2	I-NP	supply	NNS	t763:NMOD||t765:NMOD	O
from	t765	29	from	O	O	O	O	O	O	cs77	O	PRP	B-PP	from	IN	t766:PMOD	O
Iraq	t766	29	Iraq	O	O	O	O	O	O	cs77	O	NP0	B-NP	iraq	NNP	t767:COORD	O
and	t767	29	and	O	O	O	O	O	O	cs77	O	CJC	I-NP	and	CC	t768:CONJ	O
Kuwait	t768	29	Kuwait	O	O	O	O	O	O	cs77	O	NP0	I-NP	kuwait	NNP	O	O
.	t769	29	.	O	O	O	O	O	O	cs77	O	PUN	O	.	.	O	O

With	t770	30	with	O	O	O	O	O	O	cs77	O	PRP	B-PP	with	IN	t774:SUB	O
Kuwait	t771	30	Kuwait	O	O	O	O	O	O	cs77	O	NP0	B-NP	kuwait	NNP	O	O
now	t772	30	now	O	O	O	tmx128	DATE	PRESENT_REF	cs77	O	AV0	B-ADVP	now	RB	O	O
"	t773	30	"	O	O	O	O	O	O	cs77	O	PUQ	B-VP	"	NNP	O	O
annexed	t774	30	annex	e129	STATE	NONE+NONE+POS	O	O	O	cs77	O	AJ0	B-ADJP	annex	VBD	t771:SBJ||t772:TMP||t773:SBJ	O
,	t775	30	,	O	O	O	O	O	O	cs77	O	PUN	O	,	,	O	O
"	t776	30	"	O	O	O	O	O	O	cs77	O	PUQ	O	"	NNP	O	O
Iraq	t777	30	Iraq	O	O	O	O	O	O	cs77	O	NP0	B-NP	iraq	NNP	t776:NAME	O
has	t778	30	have	O	O	O	O	O	O	cs77	O	VHZ	I-NP	have	VBZ	t770:ADV||t775:P||t777:SBJ||t779:OBJ||t789:P	mainVb
control	t779	30	control	O	O	O	O	O	O	cs77	O	NN1	I-NP	control	NN	t780:NMOD	O
of	t780	30	of	O	O	O	O	O	O	cs77	O	PRF	B-PP	of	IN	t782:PMOD	O
20	t781	30	20	O	O	O	O	O	O	cs77	O	CRD	B-NP	20	CD	O	O
percent	t782	30	percent	O	O	O	O	O	O	cs77	O	NN0	I-NP	percent	NN	t781:NMOD||t783:NMOD	O
of	t783	30	of	O	O	O	O	O	O	cs77	O	PRF	B-PP	of	IN	t788:PMOD	O
the	t784	30	the	O	O	O	O	O	O	cs77	O	AT0	B-NP	the	DT	O	O
world	t785	30	world	O	O	O	O	O	O	cs77	O	NN1	I-NP	world	NN	t784:NMOD||t786:SUFFIX	O
's	t786	30	's	O	O	O	O	O	O	cs77	O	POS	B-NP	's	POS	O	O
oil	t787	30	oil	O	O	O	O	O	O	cs77	O	NN1	I-NP	oil	NN	O	O
reserves	t788	30	reserve	O	O	O	O	O	O	cs77	O	NN2	I-NP	reserves	NNS	t785:NMOD||t787:NMOD	O
.	t789	30	.	O	O	O	O	O	O	cs77	O	PUN	O	.	.	O	O

A	t790	31	a	O	O	O	O	O	O	cs77	O	AT0	B-NP	a	DT	O	O
steep	t791	31	steep	O	O	O	O	O	O	cs77	O	AJ0	I-NP	steep	JJ	O	O
rise	t792	31	rise	e130	OCCURRENCE	NONE+NONE+POS	O	O	O	cs77	O	NN1	I-NP	rise	NN	t790:NMOD||t791:NMOD||t793:LOC	O
in	t793	31	in	O	O	O	O	O	O	cs77	O	PRP	B-PP	in	IN	t796:PMOD	O
world	t794	31	world	O	O	O	O	O	O	cs77	O	NN1	B-NP	world	NN	O	O
oil	t795	31	oil	O	O	O	O	O	O	cs77	O	NN1	I-NP	oil	NN	O	O
prices	t796	31	price	O	O	O	O	O	O	cs77	O	NN2	I-NP	price	NNS	t794:NMOD||t795:NMOD	O
followed	t797	31	follow	O	O	O	O	O	O	cs77	O	VVD	B-VP	follow	VBD	t792:SBJ||t800:OBJ||t801:P	mainVb
the	t798	31	the	O	O	O	O	O	O	cs77	O	AT0	B-NP	the	DT	O	O
Kuwait	t799	31	Kuwait	O	O	O	O	O	O	cs77	O	NP0	I-NP	kuwait	NNP	O	O
invasion	t800	31	invasion	e131	OCCURRENCE	NONE+NONE+POS	O	O	O	cs77	O	NN1	I-NP	invasion	NN	t798:NMOD||t799:NMOD	O
.	t801	31	.	O	O	O	O	O	O	cs77	O	PUN	O	.	.	O	O

The	t802	32	the	O	O	O	O	O	O	cs77	O	AT0	B-NP	the	DT	O	O
U.N.	t803	32	U.N.	O	O	O	O	O	O	cs77	O	NP0	I-NP	u.n.	NNP	O	O
Security	t804	32	Security	O	O	O	O	O	O	cs77	O	NN1	I-NP	security	NNP	O	O
Council	t805	32	Council	O	O	O	O	O	O	cs77	O	NN1	I-NP	council	NNP	t802:NMOD||t803:NAME||t804:NAME	O
on	t806	32	on	O	O	O	O	O	O	cs77	O	PRP	B-PP	on	IN	t808:PMOD	O
Aug.	t807	32	Aug.	O	O	O	tmx132	DATE	1990-08-06	cs77	O	NP0	B-NP	aug.	NNP	O	O
6	t808	32	6	O	O	O	tmx132	DATE	1990-08-06	cs77	O	CRD	I-NP	6	CD	t807:NMOD	O
ordered	t809	32	order	e133	I_ACTION	PAST+NONE+POS	O	O	O	cs77	O	VVD	B-VP	order	VBD	t805:SBJ||t806:TMP||t812:OBJ||t822:P	mainVb
a	t810	32	a	O	O	O	O	O	O	cs77	O	AT0	B-NP	a	DT	O	O
global	t811	32	global	O	O	O	O	O	O	cs77	O	AJ0	I-NP	global	JJ	O	O
embargo	t812	32	embargo	e134	OCCURRENCE	NONE+NONE+POS	O	O	O	cs77	O	NN1	I-NP	embargo	NN	t810:NMOD||t811:NMOD||t813:NMOD	O
on	t813	32	on	O	O	O	O	O	O	cs77	O	PRP	B-PP	on	IN	t814:PMOD	O
trade	t814	32	trade	O	O	O	O	O	O	cs77	O	NN1	B-NP	trade	NN	t815:NMOD||t817:NMOD	O
with	t815	32	with	O	O	O	O	O	O	cs77	O	PRP	B-PP	with	IN	t816:PMOD	O
Iraq	t816	32	Iraq	O	O	O	O	O	O	cs77	O	NP0	B-NP	iraq	NNP	O	O
as	t817	32	as	O	O	O	O	O	O	cs135	O	AV0	B-ADVP	as	IN	t818:PMOD	O
punishment	t818	32	punishment	O	O	O	O	O	O	cs135	O	NN1	B-VP	punishment	NN	t819:NMOD	O
for	t819	32	for	O	O	O	O	O	O	cs135	O	PRP	B-PP	for	IN	t820:PMOD	O
seizing	t820	32	seize	e136	OCCURRENCE	NONE+NONE+POS	O	O	O	cs135	O	VVG	B-VP	seize	VBG	t821:OBJ	O
Kuwait	t821	32	Kuwait	O	O	O	O	O	O	cs135	O	NP0	B-NP	kuwait	NNP	O	O
.	t822	32	.	O	O	O	O	O	O	cs135	O	PUN	O	.	.	O	O

Bush	t823	33	Bush	O	O	O	O	O	O	cs135	O	NP0	B-NP	bush	NNP	O	O
then	t824	33	then	O	O	O	O	O	O	cs135	O	AV0	B-ADVP	then	RB	O	O
sent	t825	33	send	e137	OCCURRENCE	PAST+NONE+POS	O	O	O	cs135	O	VVD	B-VP	send	VBD	t823:SBJ||t824:TMP||t827:OBJ||t830:DTV||t833:P||t834:ADV||t849:P	mainVb
U.S.	t826	33	U.S.	O	O	O	O	O	O	cs135	O	NP0	B-NP	u.s.	NNP	O	O
troops	t827	33	troops	O	O	O	O	O	O	cs135	O	NN2	I-NP	troops	NNS	t826:NMOD||t828:COORD	O
and	t828	33	and	O	O	O	O	O	O	cs135	O	CJC	O	and	CC	t829:CONJ	O
planes	t829	33	plane	O	O	O	O	O	O	cs135	O	NN2	B-NP	plane	NNS	O	O
to	t830	33	to	O	O	O	O	O	O	cs135	O	PRP	B-PP	to	TO	t832:PMOD	O
Saudi	t831	33	Saudi	O	O	O	O	O	O	cs135	O	NP0	B-NP	saudi	NNP	O	O
Arabia	t832	33	Arabia	O	O	O	O	O	O	cs135	O	NP0	I-NP	arabia	NNP	t831:NAME	O
,	t833	33	,	O	O	O	O	O	O	cs135	O	PUN	O	,	,	O	O
saying	t834	33	say	e138	REPORTING	PRESPART+NONE+POS	O	O	O	cs135	O	VVG	B-VP	say	VBG	t841:OBJ	O
Iraqi	t835	33	iraqi	O	O	O	O	O	O	cs135	O	NP0	B-NP	iraqi	JJ	O	O
troops	t836	33	troops	O	O	O	O	O	O	cs135	O	NN2	I-NP	troops	NNS	t835:NMOD||t837:APPO	O
massed	t837	33	mass	e139	OCCURRENCE	PAST+NONE+POS	O	O	O	cs135	O	VVN	B-VP	mass	VBD	t838:LOC||t839:LOC	O
nearby	t838	33	nearby	O	O	O	O	O	O	cs135	O	AV0	B-ADVP	nearby	RB	O	O
in	t839	33	in	O	O	O	O	O	O	cs135	O	PRP	B-PP	in	IN	t840:PMOD	O
Kuwait	t840	33	Kuwait	O	O	O	O	O	O	cs135	O	NP0	B-NP	kuwait	NNP	O	O
threatened	t841	33	threaten	e140	OCCURRENCE	PAST+NONE+POS	O	O	O	cs135	O	VVD	B-VP	threaten	VBD	t836:SBJ||t843:OBJ	O
Saudi	t842	33	Saudi	O	O	O	O	O	O	cs135	O	NP0	B-NP	saudi	NNP	O	O
Arabia	t843	33	Arabia	O	O	O	O	O	O	cs135	O	NP0	I-NP	arabia	NNP	t842:NAME||t844:COORD	O
and	t844	33	and	O	O	O	O	O	O	cs135	O	CJC	O	and	CC	t848:CONJ	O
its	t845	33	its	O	O	O	O	O	O	cs135	O	DPS	B-NP	its	PRP$	O	O
vast	t846	33	vast	O	O	O	O	O	O	cs135	O	AJ0	I-NP	vast	JJ	O	O
oil	t847	33	oil	O	O	O	O	O	O	cs135	O	NN1	I-NP	oil	NN	O	O
reserves	t848	33	reserve	O	O	O	O	O	O	cs135	O	NN2	I-NP	reserves	NNS	t845:NMOD||t846:NMOD||t847:NMOD	O
.	t849	33	.	O	O	O	O	O	O	cs135	O	PUN	O	.	.	O	O

Twelve	t850	34	twelve	O	O	O	O	O	O	cs135	O	CRD	B-NP	twelve	CD	O	O
Arab	t851	34	Arab	O	O	O	O	O	O	cs135	O	NP0	I-NP	arab	NNP	O	O
League	t852	34	League	O	O	O	O	O	O	cs135	O	NP0	I-NP	league	NNP	t851:NAME	O
nations	t853	34	nation	O	O	O	O	O	O	cs135	O	NN2	I-NP	nation	NNS	t850:NMOD||t852:NMOD	O
voted	t854	34	vote	e141	OCCURRENCE	PAST+NONE+POS	O	O	O	cs135	O	VVN	B-VP	vote	VBD	t853:SBJ||t855:ADV||t859:OPRD||t863:P||t864:ADV||t873:P||t874:ADV||t884:P	mainVb
for	t855	34	for	O	O	O	O	O	O	cs135	O	PRP	B-PP	for	IN	t858:PMOD	O
an	t856	34	a	O	O	O	O	O	O	cs135	O	AT0	B-NP	an	DT	O	O
Arab	t857	34	Arab	O	O	O	O	O	O	cs135	O	NP0	I-NP	arab	JJ	O	O
force	t858	34	force	O	O	O	O	O	O	cs135	O	NN1	I-NP	force	NN	t856:NMOD||t857:NMOD	O
to	t859	34	to	O	O	O	O	O	O	cs135	O	TO0	B-VP	to	TO	t860:IM	O
protect	t860	34	protect	e142	OCCURRENCE	INFINITIVE+NONE+POS	O	O	O	cs135	O	VVI	I-VP	protect	VB	t862:OBJ	O
Saudi	t861	34	Saudi	O	O	O	O	O	O	cs135	O	NP0	B-NP	saudi	NNP	O	O
Arabia	t862	34	Arabia	O	O	O	O	O	O	cs135	O	NP0	I-NP	arabia	NNP	t861:NAME	O
,	t863	34	,	O	O	O	O	O	O	cs135	O	PUN	O	,	,	O	O
with	t864	34	with	O	O	O	O	O	O	cs135	O	PRP	B-PP	with	IN	t866:PMOD	O
the	t865	34	the	O	O	O	O	O	O	cs135	O	AT0	B-NP	the	DT	O	O
vanguard	t866	34	vanguard	O	O	O	O	O	O	cs135	O	NN1	I-NP	vanguard	NN	t865:NMOD||t867:NMOD	O
of	t867	34	of	O	O	O	O	O	O	cs135	O	PRF	B-PP	of	IN	t872:PMOD	O
Syria	t868	34	Syria	O	O	O	O	O	O	cs135	O	NP0	B-NP	syria	NNP	t869:SUFFIX	O
's	t869	34	's	O	O	O	O	O	O	cs135	O	POS	B-NP	's	POS	O	O
contingent	t870	34	contingent	O	O	O	O	O	O	cs135	O	NN1	I-NP	contingent	JJ	t871:AMOD	O
arriving	t871	34	arrive	e143	OCCURRENCE	PRESPART+NONE+POS	O	O	O	cs135	O	VVG	B-VP	arrive	VBG	O	O
Tuesday	t872	34	Tuesday	O	O	O	tmx144	DATE	1990-08-07	cs135	O	NP0	B-NP	tuesday	NNP	t868:NMOD||t870:NMOD	O
,	t873	34	,	O	O	O	O	O	O	cs135	O	PUN	O	,	,	O	O
according	t874	34	accord	e145	REPORTING	PRESPART+NONE+POS	O	O	O	cs135	O	PRP	B-PP	accord	VBG	t875:PMOD	O
to	t875	34	to	O	O	O	O	O	O	cs135	O	PRP	B-PP	to	TO	t877:PMOD	O
diplomatic	t876	34	diplomatic	O	O	O	O	O	O	cs135	O	AJ0	B-NP	diplomatic	JJ	O	O
sources	t877	34	source	O	O	O	O	O	O	cs135	O	NN2	I-NP	source	NNS	t876:NMOD||t878:LOC	O
in	t878	34	in	O	O	O	O	O	O	cs135	O	PRP	B-PP	in	IN	t879:PMOD	O
Riyadh	t879	34	Riyadh	O	O	O	O	O	O	cs135	O	NP0	B-NP	riyadh	NNP	t880:P||t883:APPO	O
,	t880	34	,	O	O	O	O	O	O	cs135	O	PUN	O	,	,	O	O
the	t881	34	the	O	O	O	O	O	O	cs135	O	AT0	B-NP	the	DT	O	O
Saudi	t882	34	saudi	O	O	O	O	O	O	cs135	O	NP0	I-NP	saudi	JJ	O	O
capital	t883	34	capital	O	O	O	O	O	O	cs135	O	NN1	I-NP	capital	NN	t881:NMOD||t882:NMOD	O
.	t884	34	.	O	O	O	O	O	O	cs135	O	PUN	O	.	.	O	O

Egyptian	t885	35	egyptian	O	O	O	O	O	O	cs135	O	AJ0	B-NP	egyptian	JJ	t886:COORD	O
and	t886	35	and	O	O	O	O	O	O	cs135	O	CJC	I-NP	and	CC	t887:CONJ	O
Moroccan	t887	35	moroccan	O	O	O	O	O	O	cs135	O	AJ0	I-NP	moroccan	JJ	O	O
troops	t888	35	troops	O	O	O	O	O	O	cs135	O	NN2	I-NP	troops	NNS	t885:NMOD	O
are	t889	35	be	O	O	O	O	O	O	cs135	O	VBB	B-VP	be	VBP	t888:SBJ||t890:TMP||t891:LOC-PRD||t892:P	mainVb
already	t890	35	already	O	O	O	O	O	O	cs135	O	AV0	B-ADVP	already	RB	O	O
there	t891	35	there	e146	STATE	PRESENT+NONE+POS	O	O	O	cs135	O	AV0	I-ADVP	there	RB	O	O
.	t892	35	.	O	O	O	O	O	O	cs135	O	PUN	O	.	.	O	O

The	t893	36	the	O	O	O	O	O	O	cs135	O	AT0	B-NP	the	DT	O	O
predominantly	t894	36	predominantly	O	O	O	O	O	O	cs135	O	AJ0	I-NP	predominantly	RB	O	O
Moslem	t895	36	Moslem	O	O	O	O	O	O	cs135	O	NP0	I-NP	moslem	JJ	t894:AMOD	O
nation	t896	36	nation	O	O	O	O	O	O	cs135	O	NN1	I-NP	nation	NN	t893:NMOD||t895:NMOD||t897:NMOD	O
of	t897	36	of	O	O	O	O	O	O	cs135	O	PRF	B-PP	of	IN	t898:PMOD	O
Bangladesh	t898	36	Bangladesh	O	O	O	O	O	O	cs135	O	NP0	B-NP	bangladesh	NNP	O	O
said	t899	36	say	e147	REPORTING	PAST+NONE+POS	O	O	O	cs135	O	VVD	B-VP	say	VBD	t896:SBJ||t900:TMP||t903:OBJ||t910:P	mainVb
today	t900	36	today	O	O	O	tmx148	DATE	1990-08-15	cs135	O	AV0	B-NP	today	NN	O	O
its	t901	36	its	O	O	O	O	O	O	cs135	O	DPS	I-NP	its	PRP$	O	O
troops	t902	36	troops	O	O	O	O	O	O	cs135	O	NN2	I-NP	troops	NNS	t901:NMOD	O
would	t903	36	would	O	O	O	O	O	O	cs135	O	VM0	B-VP	would	MD	t902:SBJ||t904:VC	O
join	t904	36	join	e149	OCCURRENCE	NONE+PERFECTIVE+POS	O	O	O	cs135	O	VVI	I-VP	join	VB	t906:OBJ	O
multinational	t905	36	multinational	O	O	O	O	O	O	cs135	O	AJ0	B-NP	multinational	JJ	O	O
forces	t906	36	force	O	O	O	O	O	O	cs135	O	NN2	I-NP	force	NNS	t905:NMOD||t907:LOC	O
in	t907	36	in	O	O	O	O	O	O	cs135	O	PRP	B-PP	in	IN	t909:PMOD	O
Saudi	t908	36	Saudi	O	O	O	O	O	O	cs135	O	NP0	B-NP	saudi	NNP	O	O
Arabia	t909	36	Arabia	O	O	O	O	O	O	cs135	O	NP0	I-NP	arabia	NNP	t908:NAME	O
.	t910	36	.	O	O	O	O	O	O	cs135	O	PUN	O	.	.	O	O

The	t911	37	the	O	O	O	O	O	O	cs135	O	AT0	B-NP	the	DT	O	O
size	t912	37	size	O	O	O	O	O	O	cs135	O	NN1	I-NP	size	NN	t911:NMOD||t913:NMOD	O
of	t913	37	of	O	O	O	O	O	O	cs135	O	PRF	B-PP	of	IN	t915:PMOD	O
the	t914	37	the	O	O	O	O	O	O	cs135	O	AT0	B-NP	the	DT	O	O
contingent	t915	37	contingent	O	O	O	O	O	O	cs135	O	NN1	I-NP	contingent	NN	t914:NMOD	O
was	t916	37	be	O	O	O	O	O	O	cs135	O	VBD	B-VP	be	VBD	t912:SBJ||t917:ADV||t918:VC||t919:P	mainVb
not	t917	37	not	O	O	O	O	O	O	cs135	O	XX0	I-VP	not	RB	O	mainVb
disclosed	t918	37	disclose	e150	REPORTING	PAST+NONE+NEG	O	O	O	cs135	O	VVN	I-VP	disclose	VBN	O	mainVb
.	t919	37	.	O	O	O	O	O	O	cs135	O	PUN	O	.	.	O	O

Turkey	t920	38	Turkey	O	O	O	O	O	O	cs135	O	NP0	B-NP	turkey	NNP	t921:COORD	O
and	t921	38	and	O	O	O	O	O	O	cs135	O	CJC	I-NP	and	CC	t923:CONJ	O
Saudi	t922	38	Saudi	O	O	O	O	O	O	cs135	O	NP0	I-NP	saudi	NNP	O	O
Arabia	t923	38	Arabia	O	O	O	O	O	O	cs135	O	NP0	I-NP	arabia	NNP	t922:NAME||t924:NMOD	O
in	t924	38	in	O	O	O	O	O	O	cs135	O	PRP	B-PP	in	IN	t925:PMOD	O
effect	t925	38	effect	O	O	O	O	O	O	cs135	O	NN1	B-NP	effect	NN	O	O
shut	t926	38	shut	e151	OCCURRENCE	PAST+NONE+POS	O	O	O	cs135	O	VVD	B-VP	shut	VBD	t920:SBJ||t927:PRT||t932:OBJ||t933:ADV||t936:P||t937:COORD||t950:P	mainVb
down	t927	38	down	O	O	O	O	O	O	cs135	O	AVP	B-PRT	down	RP	O	O
Iraq	t928	38	Iraq	O	O	O	O	O	O	cs135	O	NP0	B-NP	iraq	NNP	t929:SUFFIX	O
's	t929	38	's	O	O	O	O	O	O	cs135	O	POS	B-NP	's	POS	O	O
major	t930	38	major	O	O	O	O	O	O	cs135	O	AJ0	I-NP	major	JJ	O	O
oil	t931	38	oil	O	O	O	O	O	O	cs135	O	NN1	I-NP	oil	NN	O	O
outlets	t932	38	outlet	O	O	O	O	O	O	cs135	O	NN2	I-NP	outlet	NNS	t928:NMOD||t930:NMOD||t931:NMOD	O
through	t933	38	through	O	O	O	O	O	O	cs135	O	PRP	B-PP	through	IN	t935:PMOD	O
those	t934	38	those	O	O	O	O	O	O	cs135	O	DT0	B-NP	those	DT	O	O
countries	t935	38	country	O	O	O	O	O	O	cs135	O	NN2	I-NP	country	NNS	t934:NMOD	O
,	t936	38	,	O	O	O	O	O	O	cs135	O	PUN	O	,	,	O	O
but	t937	38	but	O	O	O	O	O	O	cs135	O	CJC	O	but	CC	t948:CONJ	O
according	t938	38	accord	e152	REPORTING	PRESPART+NONE+POS	O	O	O	cs135	O	PRP	B-PP	accord	VBG	t939:PMOD	O
to	t939	38	to	O	O	O	O	O	O	cs135	O	PRP	B-PP	to	TO	t941:PMOD	O
Jordanian	t940	38	jordanian	O	O	O	O	O	O	cs135	O	AJ0	B-NP	jordanian	JJ	O	O
officials	t941	38	official	O	O	O	O	O	O	cs135	O	NN2	I-NP	official	NNS	t940:NMOD	O
,	t942	38	,	O	O	O	O	O	O	cs135	O	PUN	O	,	,	O	O
a	t943	38	a	O	O	O	O	O	O	cs135	O	AT0	B-NP	a	DT	O	O
smaller	t944	38	smaller	O	O	O	O	O	O	cs135	O	AJC	I-NP	smaller	JJR	O	O
line	t945	38	line	O	O	O	O	O	O	cs135	O	NN1	I-NP	line	NN	t943:NMOD||t944:NMOD||t946:NMOD	O
into	t946	38	into	O	O	O	O	O	O	cs135	O	PRP	B-PP	into	IN	t947:PMOD	O
Jordan	t947	38	Jordan	O	O	O	O	O	O	cs135	O	NP0	B-NP	jordan	NNP	O	O
remained	t948	38	remain	e153	I_STATE	PAST+NONE+POS	O	O	O	cs135	O	VVD	B-VP	remain	VBD	t938:ADV||t942:P||t945:SBJ||t949:OPRD	O
operating	t949	38	operating	e154	OCCURRENCE	PRESPART+NONE+POS	O	O	O	cs135	O	VVG	I-VP	operate	VBG	O	O
.	t950	38	.	O	O	O	O	O	O	cs135	O	PUN	O	.	.	O	O

Truckloads	t951	39	truckload	O	O	O	O	O	O	cs135	O	NN2	B-NP	truckloads	NNS	t952:NMOD	O
of	t952	39	of	O	O	O	O	O	O	cs135	O	PRF	B-PP	of	IN	t953:PMOD	O
goods	t953	39	goods	O	O	O	O	O	O	cs135	O	NN2	B-NP	good	NNS	t954:APPO	O
rolled	t954	39	roll	e155	OCCURRENCE	PAST+NONE+POS	O	O	O	cs135	O	VVN	B-VP	roll	VBN	t955:DIR||t957:ADV||t959:LOC	O
into	t955	39	into	O	O	O	O	O	O	cs135	O	PRP	B-PP	into	IN	t956:PMOD	O
Iraq	t956	39	Iraq	O	O	O	O	O	O	cs135	O	NP0	B-NP	iraq	NNP	O	O
from	t957	39	from	O	O	O	O	O	O	cs135	O	PRP	B-PP	from	IN	t958:PMOD	O
Jordan	t958	39	Jordan	O	O	O	O	O	O	cs135	O	NP0	B-NP	jordan	NNP	O	O
on	t959	39	on	O	O	O	O	O	O	cs135	O	PRP	B-PP	on	IN	t963:PMOD	O
Tuesday	t960	39	Tuesday	O	O	O	tmx156	DATE	1990-08-07	cs135	O	NP0	B-NP	tuesday	NNP	t961:COORD	O
and	t961	39	and	O	O	O	O	O	O	cs135	O	CJC	I-NP	and	CC	t962:CONJ	O
Iraqi-bound	t962	39	iraqi-bound	O	O	O	O	O	O	cs135	O	NP0	I-NP	iraqi-bound	NNP	O	O
cargo	t963	39	cargo	O	O	O	O	O	O	cs135	O	NN1	I-NP	cargo	NN	t960:NMOD	O
was	t964	39	be	O	O	O	O	O	O	cs135	O	VBD	B-VP	be	VBD	t951:SBJ||t965:VC||t978:P	mainVb
unloaded	t965	39	unloaded	e157	OCCURRENCE	PAST+NONE+POS	O	O	O	cs135	O	VVN	I-VP	unload	VBN	t966:ADV||t968:LOC||t974:ADV	mainVb
from	t966	39	from	O	O	O	O	O	O	cs135	O	PRP	B-PP	from	IN	t967:PMOD	O
ships	t967	39	ship	O	O	O	O	O	O	cs135	O	NN2	B-NP	ship	NNS	O	O
at	t968	39	at	O	O	O	O	O	O	cs135	O	PRP	B-PP	at	IN	t973:PMOD	O
the	t969	39	the	O	O	O	O	O	O	cs135	O	AT0	B-NP	the	DT	O	O
Red	t970	39	Red	O	O	O	O	O	O	cs135	O	AJ0	I-NP	red	NNP	O	O
Sea	t971	39	Sea	O	O	O	O	O	O	cs135	O	NN1	I-NP	sea	NNP	t970:NAME	O
port	t972	39	port	O	O	O	O	O	O	cs135	O	NN1	I-NP	port	NN	O	O
ofAqaba	t973	39	ofaqaba	O	O	O	O	O	O	cs135	O	NN1	I-NP	ofaqaba	NN	t969:NMOD||t971:NMOD||t972:NMOD	O
despite	t974	39	despite	O	O	O	O	O	O	cs135	O	PRP	B-PP	despite	IN	t977:PMOD	O
the	t975	39	the	O	O	O	O	O	O	cs135	O	AT0	B-NP	the	DT	O	O
U.N.-ordered	t976	39	u.n.-ordered	O	O	O	O	O	O	cs135	O	AJ0	I-NP	u.n.-ordered	NNP	O	O
sanctions	t977	39	sanction	e158	OCCURRENCE	NONE+NONE+POS	O	O	O	cs135	O	NN2	I-NP	sanction	NNS	t975:NMOD||t976:NMOD	O
.	t978	39	.	O	O	O	O	O	O	cs135	O	PUN	O	.	.	O	O

King	t979	40	King	O	O	O	O	O	O	cs135	O	NP0	B-NP	king	NNP	O	O
Hussein	t980	40	Hussein	O	O	O	O	O	O	cs135	O	NP0	I-NP	hussein	NNP	t979:TITLE	O
was	t981	40	be	O	O	O	O	O	O	cs135	O	VBD	B-VP	be	VBD	t980:SBJ||t983:VC||t992:P||t993:ADV||t999:P	mainVb
reportedly	t982	40	reportedly	O	O	O	O	O	O	cs135	O	AV0	I-VP	reportedly	RB	O	mainVb
carrying	t983	40	carry	e159	OCCURRENCE	PAST+PROGRESSIVE+POS	O	O	O	cs135	O	VVG	I-VP	carry	VBG	t982:ADV||t985:OBJ||t986:DTV||t988:DIR	mainVb
a	t984	40	a	O	O	O	O	O	O	cs135	O	AT0	B-NP	a	DT	O	O
message	t985	40	message	O	O	O	O	O	O	cs135	O	NN1	I-NP	message	NN	t984:NMOD	O
to	t986	40	to	O	O	O	O	O	O	cs135	O	PRP	B-PP	to	TO	t987:PMOD	O
Bush	t987	40	Bush	O	O	O	O	O	O	cs135	O	NP0	B-NP	bush	NNP	O	O
from	t988	40	from	O	O	O	O	O	O	cs135	O	PRP	B-PP	from	IN	t991:PMOD	O
Iraq	t989	40	Iraq	O	O	O	O	O	O	cs135	O	NP0	B-NP	iraq	NNP	t990:SUFFIX	O
's	t990	40	's	O	O	O	O	O	O	cs135	O	POS	B-NP	's	POS	O	O
Saddam	t991	40	Saddam	O	O	O	O	O	O	cs135	O	NP0	I-NP	saddam	NNP	t989:NMOD	O
,	t992	40	,	O	O	O	O	O	O	cs135	O	PUN	O	,	,	O	O
with	t993	40	with	O	O	O	O	O	O	cs135	O	PRP	B-PP	with	IN	t994:PMOD||t997:PMOD	O
whom	t994	40	whom	O	O	O	O	O	O	cs135	O	PNQ	B-NP	whom	WP	O	O
the	t995	40	the	O	O	O	O	O	O	cs135	O	AT0	B-NP	the	DT	O	O
king	t996	40	king	O	O	O	O	O	O	cs135	O	NN1	I-NP	king	NN	t995:NMOD	O
met	t997	40	meet	e160	OCCURRENCE	PAST+PERFECTIVE+POS	O	O	O	cs135	O	VVD	B-VP	meet	VBD	t996:SBJ||t998:TMP	O
Monday	t998	40	Monday	O	O	O	tmx161	DATE	1990-08-06	cs135	O	NP0	B-NP	monday	NNP	O	O
.	t999	40	.	O	O	O	O	O	O	cs135	O	PUN	O	.	.	O	O

The	t1000	41	the	O	O	O	O	O	O	cs135	O	AT0	B-NP	the	DT	O	O
monarch	t1001	41	monarch	O	O	O	O	O	O	cs135	O	NN1	I-NP	monarch	NN	t1000:NMOD	O
will	t1002	41	will	O	O	O	O	O	O	cs135	O	VM0	B-VP	will	MD	t1001:SBJ||t1003:VC||t1011:P	mainVb
meet	t1003	41	meet	e162	OCCURRENCE	FUTURE+PERFECTIVE+POS	O	O	O	cs135	O	VVI	I-VP	meet	VB	t1004:OBJ||t1005:TMP	mainVb
Bush	t1004	41	Bush	O	O	O	O	O	O	cs135	O	NP0	B-NP	bush	NNP	O	O
on	t1005	41	on	O	O	O	O	O	O	cs135	O	PRP	B-PP	on	IN	t1006:PMOD	O
Thursday	t1006	41	Thursday	O	O	O	tmx163	DATE	1990-08-09	cs135	O	NP0	B-NP	thursday	NNP	t1007:LOC	O
in	t1007	41	in	O	O	O	O	O	O	cs135	O	PRP	B-PP	in	IN	t1010:PMOD	O
Kennebunkport	t1008	41	Kennebunkport	O	O	O	O	O	O	cs135	O	NP0	B-NP	kennebunkport	NNP	O	O
,	t1009	41	,	O	O	O	O	O	O	cs135	O	PUN	O	,	,	O	O
Maine	t1010	41	Maine	O	O	O	O	O	O	cs135	O	NP0	B-NP	maine	NNP	t1008:NMOD||t1009:P	O
.	t1011	41	.	O	O	O	O	O	O	cs135	O	PUN	O	.	.	O	O

Crown	t1012	42	Crown	O	O	O	O	O	O	cs135	O	NP0	B-NP	crown	NNP	O	O
Prince	t1013	42	Prince	O	O	O	O	O	O	cs135	O	NP0	I-NP	prince	NNP	O	O
Hassan	t1014	42	Hassan	O	O	O	O	O	O	cs135	O	NP0	I-NP	hassan	NNP	t1012:NAME||t1013:NAME||t1015:P||t1019:APPO||t1023:P	O
,	t1015	42	,	O	O	O	O	O	O	cs135	O	PUN	O	,	,	O	O
King	t1016	42	King	O	O	O	O	O	O	cs135	O	NP0	B-NP	king	NNP	O	O
Hussein	t1017	42	Hussein	O	O	O	O	O	O	cs135	O	NP0	I-NP	hussein	NNP	t1016:TITLE||t1018:SUFFIX	O
's	t1018	42	's	O	O	O	O	O	O	cs135	O	POS	B-NP	's	POS	O	O
brother	t1019	42	brother	O	O	O	O	O	O	cs135	O	NN1	I-NP	brother	NN	t1017:NMOD||t1020:COORD	O
and	t1020	42	and	O	O	O	O	O	O	cs135	O	CJC	O	and	CC	t1022:CONJ	O
political	t1021	42	political	O	O	O	O	O	O	cs135	O	AJ0	B-NP	political	JJ	O	O
adviser	t1022	42	adviser	O	O	O	O	O	O	cs135	O	NN1	I-NP	adviser	NN	t1021:NMOD	O
,	t1023	42	,	O	O	O	O	O	O	cs135	O	PUN	O	,	,	O	O
was	t1024	42	be	O	O	O	O	O	O	cs135	O	VBD	B-VP	be	VBD	t1014:SBJ||t1025:VC||t1037:P	mainVb
asked	t1025	42	ask	e164	OCCURRENCE	PAST+NONE+POS	O	O	O	cs135	O	VVN	I-VP	ask	VBN	t1026:TMP||t1027:ADV	mainVb
today	t1026	42	today	O	O	O	tmx165	DATE	1990-08-15	cs135	O	AV0	B-NP	today	NN	O	O
about	t1027	42	about	O	O	O	O	O	O	cs135	O	PRP	B-PP	about	IN	t1029:PMOD	O
the	t1028	42	the	O	O	O	O	O	O	cs135	O	AT0	B-NP	the	DT	O	O
message	t1029	42	message	O	O	O	O	O	O	cs135	O	NN1	I-NP	message	NN	t1028:NMOD||t1032:NMOD	O
the	t1030	42	the	O	O	O	O	O	O	cs135	O	AT0	B-NP	the	DT	O	O
king	t1031	42	king	O	O	O	O	O	O	cs135	O	NN1	I-NP	king	NN	t1030:NMOD	O
was	t1032	42	be	O	O	O	O	O	O	cs135	O	VBD	B-VP	be	VBD	t1031:SBJ||t1033:VC	O
said	t1033	42	say	e166	REPORTING	PAST+PERFECTIVE+POS	O	O	O	cs135	O	VVN	I-VP	say	VBN	t1034:OPRD	O
to	t1034	42	to	O	O	O	O	O	O	cs135	O	TO0	I-VP	to	TO	t1035:IM	O
be	t1035	42	be	O	O	O	O	O	O	cs135	O	VBI	I-VP	be	VB	t1036:VC	O
carrying	t1036	42	carry	e167	OCCURRENCE	PRESENT+PROGRESSIVE+POS	O	O	O	cs135	O	VVG	I-VP	carry	VBG	O	O
.	t1037	42	.	O	O	O	O	O	O	cs135	O	PUN	O	.	.	O	O

In	t1038	43	in	O	O	O	O	O	O	cs135	O	PRP	B-PP	in	IN	t1040:PMOD	O
an	t1039	43	a	O	O	O	O	O	O	cs135	O	AT0	B-NP	an	DT	O	O
interview	t1040	43	interview	e168	OCCURRENCE	NONE+NONE+POS	O	O	O	cs135	O	NN1	I-NP	interview	NN	t1039:NMOD||t1041:NMOD||t1043:NMOD	O
from	t1041	43	from	O	O	O	O	O	O	cs135	O	PRP	B-PP	from	IN	t1042:PMOD	O
Jordan	t1042	43	Jordan	O	O	O	O	O	O	cs135	O	NP0	B-NP	jordan	NNP	O	O
on	t1043	43	on	O	O	O	O	O	O	cs135	O	PRP	B-PP	on	IN	t1044:PMOD	O
ABC	t1044	43	ABC	O	O	O	O	O	O	cs135	O	NP0	B-NP	abc	NNP	O	O
,	t1045	43	,	O	O	O	O	O	O	cs135	O	PUN	O	,	,	O	O
he	t1046	43	he	O	O	O	O	O	O	cs135	O	PNP	B-NP	he	PRP	O	O
declined	t1047	43	decline	e169	I_ACTION	PAST+NONE+POS	O	O	O	cs135	O	VVD	B-VP	decline	VBD	t1038:LOC||t1045:P||t1046:SBJ||t1048:OPRD||t1051:P||t1052:COORD||t1083:P||t1084:P	mainVb
to	t1048	43	to	O	O	O	O	O	O	cs135	O	TO0	I-VP	to	TO	t1049:IM	mainVb
discuss	t1049	43	discuss	e170	OCCURRENCE	INFINITIVE+NONE+POS	O	O	O	cs135	O	VVI	I-VP	discuss	VB	t1050:OBJ	mainVb
details	t1050	43	detail	O	O	O	O	O	O	cs135	O	NN2	B-NP	details	NNS	O	O
,	t1051	43	,	O	O	O	O	O	O	cs135	O	PUN	O	,	,	O	O
but	t1052	43	but	O	O	O	O	O	O	cs135	O	CJC	O	but	CC	t1053:CONJ	O
said	t1053	43	say	e171	REPORTING	PAST+NONE+POS	O	O	O	cs135	O	VVD	B-VP	say	VBD	t1054:P||t1057:OBJ	O
:	t1054	43	:	O	O	O	O	O	O	cs135	O	PUN	O	:	:	O	O
"	t1055	43	"	O	O	O	O	O	O	cs135	O	PUQ	O	"	NN	O	O
I	t1056	43	I	O	O	O	O	O	O	cs135	O	PNP	B-NP	i	PRP	O	O
do	t1057	43	do	O	O	O	O	O	O	cs135	O	VDB	B-VP	do	VBP	t1056:SBJ||t1058:ADV||t1059:VC	O
n't	t1058	43	not	O	O	O	O	O	O	cs135	O	XX0	I-VP	not	RB	O	O
think	t1059	43	think	e172	I_STATE	PRESENT+NONE+NEG	O	O	O	cs135	O	VVI	I-VP	think	VB	t1055:OBJ||t1060:OBJ	O
that	t1060	43	that	O	O	O	O	O	O	cs135	O	CJT	B-SBAR	that	IN	t1063:SUB	O
his	t1061	43	he	O	O	O	O	O	O	cs135	O	DPS	B-NP	his	PRP$	O	O
majesty	t1062	43	majesty	O	O	O	O	O	O	cs135	O	NN1	I-NP	majesty	NN	t1061:NMOD	O
would	t1063	43	would	O	O	O	O	O	O	cs135	O	VM0	B-VP	would	MD	t1062:SBJ||t1064:VC	O
be	t1064	43	be	O	O	O	O	O	O	cs135	O	VBI	I-VP	be	VB	t1065:VC	O
traveling	t1065	43	travel	e173	OCCURRENCE	NONE+PROGRESSIVE+POS	O	O	O	cs135	O	VVG	I-VP	travel	VBG	t1066:ADV||t1070:ADV	O
at	t1066	43	at	O	O	O	O	O	O	cs135	O	PRP	B-PP	at	IN	t1069:PMOD	O
this	t1067	43	this	O	O	O	tmx174	DATE	PRESENT_REF	cs135	O	DT0	B-NP	this	DT	O	O
crucial	t1068	43	crucial	O	O	O	tmx174	DATE	PRESENT_REF	cs135	O	AJ0	I-NP	crucial	JJ	O	O
moment	t1069	43	moment	O	O	O	tmx174	DATE	PRESENT_REF	cs135	O	NN1	I-NP	moment	NN	t1067:NMOD||t1068:NMOD	O
if	t1070	43	if	O	O	O	O	O	O	cs135	O	CJS	B-SBAR	if	IN	t1074:SUB	O
the	t1071	43	the	O	O	O	O	O	O	cs135	O	AT0	B-NP	the	DT	O	O
Iraqi	t1072	43	iraqi	O	O	O	O	O	O	cs135	O	NP0	I-NP	iraqi	JJ	O	O
leadership	t1073	43	leadership	O	O	O	O	O	O	cs135	O	NN1	I-NP	leadership	NN	t1071:NMOD||t1072:NMOD	O
did	t1074	43	do	O	O	O	O	O	O	cs135	O	VDD	B-VP	do	VBD	t1073:SBJ||t1075:ADV||t1076:VC	O
not	t1075	43	not	O	O	O	O	O	O	cs135	O	XX0	I-VP	not	RB	O	O
have	t1076	43	have	O	O	O	O	O	O	cs135	O	VHI	I-VP	have	VB	t1079:OBJ	O
a	t1077	43	a	O	O	O	O	O	O	cs135	O	AT0	B-NP	a	DT	O	O
rational	t1078	43	rational	O	O	O	O	O	O	cs135	O	AJ0	I-NP	rational	JJ	O	O
approach	t1079	43	approach	O	O	O	O	O	O	cs135	O	NN1	I-NP	approach	NN	t1077:NMOD||t1078:NMOD||t1080:NMOD	O
to	t1080	43	to	O	O	O	O	O	O	cs135	O	PRP	B-PP	to	TO	t1082:PMOD	O
the	t1081	43	the	O	O	O	O	O	O	cs135	O	AT0	B-NP	the	DT	O	O
future	t1082	43	future	O	O	O	O	O	O	cs135	O	NN1	I-NP	future	NN	t1081:NMOD	O
.	t1083	43	.	O	O	O	O	O	O	cs135	O	PUN	O	.	.	O	O
"	t1084	43	"	O	O	O	O	O	O	cs135	O	PUQ	O	"	''	O	O

A	t1085	44	a	O	O	O	O	O	O	cs135	O	ZZ0	B-NP	a	DT	O	O
CBS	t1086	44	CBS	O	O	O	O	O	O	cs135	O	NP0	I-NP	cbs	NNP	O	O
News	t1087	44	News	O	O	O	O	O	O	cs135	O	NN1	I-NP	news	NNP	t1086:NAME	O
report	t1088	44	report	O	O	O	O	O	O	cs135	O	NN1	I-NP	report	NN	t1085:NMOD||t1087:NMOD||t1089:APPO	O
citing	t1089	44	cite	e175	REPORTING	PRESPART+NONE+POS	O	O	O	cs135	O	VVG	B-VP	cite	VBG	t1092:OBJ	O
unidentified	t1090	44	unidentified	O	O	O	O	O	O	cs135	O	AJ0	B-NP	unidentified	JJ	O	O
Jordanian	t1091	44	jordanian	O	O	O	O	O	O	cs135	O	AJ0	I-NP	jordanian	JJ	O	O
sources	t1092	44	source	O	O	O	O	O	O	cs135	O	NN2	I-NP	source	NNS	t1090:NMOD||t1091:NMOD	O
said	t1093	44	say	e176	REPORTING	PAST+NONE+POS	O	O	O	cs135	O	VVD	B-VP	say	VBD	t1088:SBJ||t1094:OBJ||t1113:P	mainVb
that	t1094	44	that	O	O	O	O	O	O	cs135	O	CJT	B-SBAR	that	IN	t1098:SUB	O
Saddam	t1095	44	Saddam	O	O	O	O	O	O	cs135	O	NP0	B-NP	saddam	NNP	t1096:SUFFIX	O
's	t1096	44	's	O	O	O	O	O	O	cs135	O	POS	B-NP	's	POS	O	O
message	t1097	44	message	O	O	O	O	O	O	cs135	O	NN1	I-NP	message	NN	t1095:NMOD	O
called	t1098	44	call	e177	OCCURRENCE	PAST+NONE+POS	O	O	O	cs135	O	VVN	B-VP	call	VBD	t1097:SBJ||t1099:ADV	O
for	t1099	44	for	O	O	O	O	O	O	cs135	O	PRP	B-PP	for	IN	t1102:PMOD	O
an	t1100	44	a	O	O	O	O	O	O	cs135	O	AT0	B-NP	an	DT	O	O
international	t1101	44	international	O	O	O	O	O	O	cs135	O	AJ0	I-NP	international	JJ	O	O
conference	t1102	44	conference	O	O	O	O	O	O	cs135	O	NN1	I-NP	conference	NN	t1100:NMOD||t1101:NMOD||t1103:NMOD	O
to	t1103	44	to	O	O	O	O	O	O	cs135	O	TO0	B-VP	to	TO	t1104:IM	O
be	t1104	44	be	O	O	O	O	O	O	cs135	O	VBI	I-VP	be	VB	t1105:VC	O
convened	t1105	44	convene	e178	OCCURRENCE	FUTURE+NONE+POS	O	O	O	cs135	O	VVN	I-VP	convene	VBN	t1106:OPRD	O
to	t1106	44	to	O	O	O	O	O	O	cs135	O	TO0	I-VP	to	TO	t1107:IM	O
discuss	t1107	44	discuss	e179	OCCURRENCE	INFINITIVE+NONE+POS	O	O	O	cs135	O	VVI	I-VP	discuss	VB	t1110:OBJ	O
an	t1108	44	a	O	O	O	O	O	O	cs135	O	AT0	B-NP	an	DT	O	O
Iraqi	t1109	44	iraqi	O	O	O	O	O	O	cs135	O	NP0	I-NP	iraqi	JJ	O	O
withdrawal	t1110	44	withdrawal	e180	OCCURRENCE	NONE+NONE+POS	O	O	O	cs135	O	NN1	I-NP	withdrawal	NN	t1108:NMOD||t1109:NMOD||t1111:NMOD	O
from	t1111	44	from	O	O	O	O	O	O	cs135	O	PRP	B-PP	from	IN	t1112:PMOD	O
Kuwait	t1112	44	Kuwait	O	O	O	O	O	O	cs135	O	NP0	B-NP	kuwait	NNP	O	O
.	t1113	44	.	O	O	O	O	O	O	cs135	O	PUN	O	.	.	O	O

In	t1114	45	in	O	O	O	O	O	O	cs181	O	PRP	B-PP	in	IN	t1115:PMOD	O
exchange	t1115	45	exchange	O	O	O	O	O	O	cs181	O	NN1	B-NP	exchange	NN	O	O
,	t1116	45	,	O	O	O	O	O	O	cs181	O	PUN	O	,	,	O	O
the	t1117	45	the	O	O	O	O	O	O	cs181	O	AT0	B-NP	the	DT	O	O
buildup	t1118	45	buildup	e182	OCCURRENCE	NONE+NONE+POS	O	O	O	cs181	O	NN1	I-NP	buildup	NN	t1117:NMOD||t1119:NMOD||t1122:LOC	O
of	t1119	45	of	O	O	O	O	O	O	cs181	O	PRF	B-PP	of	IN	t1121:PMOD	O
U.S.	t1120	45	U.S.	O	O	O	O	O	O	cs181	O	NP0	B-NP	u.s.	NNP	O	O
forces	t1121	45	force	O	O	O	O	O	O	cs181	O	NN2	I-NP	force	NNS	t1120:NMOD	O
in	t1122	45	in	O	O	O	O	O	O	cs181	O	PRP	B-PP	in	IN	t1124:PMOD	O
the	t1123	45	the	O	O	O	O	O	O	cs181	O	AT0	B-NP	the	DT	O	O
region	t1124	45	region	O	O	O	O	O	O	cs181	O	NN1	I-NP	region	NN	t1123:NMOD	O
would	t1125	45	would	O	O	O	O	O	O	cs181	O	VM0	B-VP	would	MD	t1114:ADV||t1116:P||t1118:SBJ||t1126:VC||t1127:P	mainVb
halt	t1126	45	halt	e183	OCCURRENCE	NONE+NONE+POS	O	O	O	cs181	O	VVI	I-VP	halt	VB	O	mainVb
.	t1127	45	.	O	O	O	O	O	O	cs181	O	PUN	O	.	.	O	O

Bush	t1128	46	Bush	O	O	O	O	O	O	cs181	O	NP0	B-NP	bush	NNP	O	O
,	t1129	46	,	O	O	O	O	O	O	cs181	O	PUN	O	,	,	O	O
however	t1130	46	however	O	O	O	O	O	O	cs181	O	AV0	B-ADVP	however	RB	O	O
,	t1131	46	,	O	O	O	O	O	O	cs181	O	PUN	O	,	,	O	O
says	t1132	46	say	e184	REPORTING	PRESENT+NONE+POS	O	O	O	cs181	O	VVZ	B-VP	say	VBZ	t1128:SBJ||t1129:P||t1130:ADV||t1131:P||t1134:OBJ||t1158:P	mainVb
he	t1133	46	he	O	O	O	O	O	O	cs181	O	PNP	B-NP	he	PRP	O	O
sees	t1134	46	see	e185	PERCEPTION	PRESENT+NONE+POS	O	O	O	cs181	O	VVZ	B-VP	see	VBZ	t1133:SBJ||t1137:OBJ	O
no	t1135	46	no	O	O	O	O	O	O	cs181	O	AT0	B-NP	no	DT	O	O
short-term	t1136	46	short-term	O	O	O	O	O	O	cs181	O	AJ0	I-NP	short-term	JJ	O	O
hope	t1137	46	hope	O	O	O	O	O	O	cs181	O	NN1	I-NP	hope	NN	t1135:NMOD||t1136:NMOD||t1138:NMOD	O
for	t1138	46	for	O	O	O	O	O	O	cs181	O	PRP	B-PP	for	IN	t1141:PMOD	O
a	t1139	46	a	O	O	O	O	O	O	cs181	O	AT0	B-NP	a	DT	O	O
diplomatic	t1140	46	diplomatic	O	O	O	O	O	O	cs181	O	AJ0	I-NP	diplomatic	JJ	O	O
solution	t1141	46	solution	O	O	O	O	O	O	cs181	O	NN1	I-NP	solution	NN	t1139:NMOD||t1140:NMOD||t1142:NMOD||t1149:LOC	O
to	t1142	46	to	O	O	O	O	O	O	cs181	O	PRP	B-PP	to	TO	t1146:PMOD	O
the	t1143	46	the	O	O	O	O	O	O	cs181	O	AT0	B-NP	the	DT	O	O
gulf	t1144	46	gulf	O	O	O	O	O	O	cs181	O	NN1	I-NP	gulf	NN	O	O
crisis	t1145	46	crisis	e186	OCCURRENCE	NONE+NONE+POS	O	O	O	cs181	O	NN1	I-NP	crisis	NN	t1144:NMOD	O
_	t1146	46	_	O	O	O	O	O	O	cs181	O	UNC	I-NP	_	NN	t1143:NMOD||t1145:NMOD	O
at	t1147	46	at	O	O	O	O	O	O	cs181	O	AV0	B-ADVP	at	IN	t1148:AMOD	O
least	t1148	46	least	O	O	O	O	O	O	cs181	O	AV0	B-ADVP	least	JJS	O	O
until	t1149	46	until	O	O	O	O	O	O	cs181	O	PRP	B-PP	until	IN	t1147:SUB||t1152:SUB	O
economic	t1150	46	economic	O	O	O	O	O	O	cs181	O	AJ0	B-NP	economic	JJ	O	O
sanctions	t1151	46	sanction	e187	OCCURRENCE	NONE+NONE+POS	O	O	O	cs181	O	NN2	I-NP	sanction	NNS	t1150:NMOD	O
force	t1152	46	force	e188	OCCURRENCE	NONE+NONE+POS	O	O	O	cs181	O	NN1	I-NP	force	NN	t1151:NMOD||t1153:OBJ||t1154:OPRD	O
Saddam	t1153	46	Saddam	O	O	O	O	O	O	cs181	O	NP0	I-NP	saddam	NNP	O	O
to	t1154	46	to	O	O	O	O	O	O	cs181	O	TO0	B-VP	to	TO	t1155:IM	O
withdraw	t1155	46	withdraw	e189	OCCURRENCE	NONE+NONE+POS	O	O	O	cs181	O	VVI	I-VP	withdraw	VB	t1157:OBJ	O
his	t1156	46	he	O	O	O	O	O	O	cs181	O	DPS	B-NP	his	PRP$	O	O
army	t1157	46	army	O	O	O	O	O	O	cs181	O	NN1	I-NP	army	NN	t1156:NMOD	O
.	t1158	46	.	O	O	O	O	O	O	cs181	O	PUN	O	.	.	O	O

Bush	t1159	47	Bush	O	O	O	O	O	O	cs181	O	NP0	B-NP	bush	NNP	O	O
held	t1160	47	hold	e190	OCCURRENCE	PAST+NONE+POS	O	O	O	cs181	O	VVD	B-VP	hold	VBD	t1159:SBJ||t1161:PRT||t1163:OBJ||t1169:ADV||t1176:P	mainVb
out	t1161	47	out	O	O	O	O	O	O	cs181	O	AVP	B-PRT	out	RP	O	O
the	t1162	47	the	O	O	O	O	O	O	cs181	O	AT0	B-NP	the	DT	O	O
prospect	t1163	47	prospect	O	O	O	O	O	O	cs181	O	NN1	I-NP	prospect	NN	t1162:NMOD||t1164:NMOD	O
of	t1164	47	of	O	O	O	O	O	O	cs181	O	PRF	B-PP	of	IN	t1166:PMOD	O
more	t1165	47	more	O	O	O	O	O	O	cs181	O	AV0	B-NP	more	DT	O	O
aid	t1166	47	aid	O	O	O	O	O	O	cs181	O	AJ0	I-NP	aid	NN	t1165:NMOD||t1167:NMOD	O
to	t1167	47	to	O	O	O	O	O	O	cs181	O	PRP	B-PP	to	TO	t1168:PMOD	O
Jordan	t1168	47	Jordan	O	O	O	O	O	O	cs181	O	NP0	B-NP	jordan	NNP	O	O
if	t1169	47	if	O	O	O	O	O	O	cs181	O	CJS	B-SBAR	if	IN	t1171:SUB	O
it	t1170	47	it	O	O	O	O	O	O	cs181	O	PNP	B-NP	it	PRP	O	O
cooperates	t1171	47	cooperate	e191	OCCURRENCE	PRESENT+NONE+POS	O	O	O	cs181	O	VVZ	B-VP	cooperate	VBZ	t1170:SBJ||t1172:ADV	O
with	t1172	47	with	O	O	O	O	O	O	cs181	O	PRP	B-PP	with	IN	t1175:PMOD	O
the	t1173	47	the	O	O	O	O	O	O	cs181	O	AT0	B-NP	the	DT	O	O
trade	t1174	47	trade	O	O	O	O	O	O	cs181	O	NN1	I-NP	trade	NN	O	O
embargo	t1175	47	embargo	O	O	O	O	O	O	cs181	O	NN1	I-NP	embargo	NN	t1173:NMOD||t1174:NMOD	O
.	t1176	47	.	O	O	O	O	O	O	cs181	O	PUN	O	.	.	O	O

On	t1177	48	on	O	O	O	O	O	O	cs181	O	PRP	B-PP	on	IN	t1178:PMOD	O
Tuesday	t1178	48	Tuesday	O	O	O	tmx192	DATE	1990-08-07	cs181	O	NP0	B-NP	tuesday	NNP	O	O
,	t1179	48	,	O	O	O	O	O	O	cs181	O	PUN	O	,	,	O	O
the	t1180	48	the	O	O	O	O	O	O	cs181	O	AT0	B-NP	the	DT	O	O
United	t1181	48	United	O	O	O	O	O	O	cs181	O	NP0	I-NP	united	NNP	O	O
States	t1182	48	States	O	O	O	O	O	O	cs181	O	NP0	I-NP	state	NNPS	t1180:NMOD||t1181:NAME||t1183:COORD	O
and	t1183	48	and	O	O	O	O	O	O	cs181	O	CJC	O	and	CC	t1185:CONJ	O
Soviet	t1184	48	Soviet	O	O	O	O	O	O	cs181	O	AJ0	B-NP	soviet	NNP	O	O
Union	t1185	48	Union	O	O	O	O	O	O	cs181	O	NN1	I-NP	union	NNP	t1184:NAME	O
conferred	t1186	48	confer	e193	OCCURRENCE	PAST+NONE+POS	O	O	O	cs181	O	VVD	B-VP	confer	VBD	t1177:TMP||t1179:P||t1182:SBJ||t1187:LOC||t1189:ADV||t1200:P	mainVb
in	t1187	48	in	O	O	O	O	O	O	cs181	O	PRP	B-PP	in	IN	t1188:PMOD	O
Washington	t1188	48	Washington	O	O	O	O	O	O	cs181	O	NP0	B-NP	washington	NNP	O	O
on	t1189	48	on	O	O	O	O	O	O	cs181	O	PRP	B-PP	on	IN	t1190:PMOD	O
putting	t1190	48	put	e194	OCCURRENCE	NONE+NONE+POS	O	O	O	cs181	O	VVG	B-VP	put	VBG	t1194:OBJ||t1195:LOC	O
an	t1191	48	a	O	O	O	O	O	O	cs181	O	AT0	B-NP	an	DT	O	O
anti-Iraq	t1192	48	anti-iraq	O	O	O	O	O	O	cs181	O	AJ0	I-NP	anti-iraq	JJ	O	O
naval	t1193	48	naval	O	O	O	O	O	O	cs181	O	AJ0	I-NP	naval	JJ	O	O
blockade	t1194	48	blockade	e195	OCCURRENCE	NONE+NONE+POS	O	O	O	cs181	O	NN1	I-NP	blockade	NN	t1191:NMOD||t1192:NMOD||t1193:NMOD	O
under	t1195	48	under	O	O	O	O	O	O	cs181	O	PRP	B-PP	under	IN	t1199:PMOD	O
a	t1196	48	a	O	O	O	O	O	O	cs181	O	AT0	B-NP	a	DT	O	O
United	t1197	48	United	O	O	O	O	O	O	cs181	O	AJ0	I-NP	united	NNP	O	O
Nations	t1198	48	Nations	O	O	O	O	O	O	cs181	O	NN2	I-NP	nation	NNPS	t1197:NAME	O
umbrella	t1199	48	umbrella	O	O	O	O	O	O	cs181	O	NN1	I-NP	umbrella	NN	t1196:NMOD||t1198:NMOD	O
.	t1200	48	.	O	O	O	O	O	O	cs181	O	PUN	O	.	.	O	O

The	t1201	49	the	O	O	O	O	O	O	cs181	O	AT0	B-NP	the	DT	O	O
United	t1202	49	United	O	O	O	O	O	O	cs181	O	NP0	I-NP	united	NNP	O	O
States	t1203	49	States	O	O	O	O	O	O	cs181	O	NP0	I-NP	state	NNPS	t1201:NMOD||t1202:NAME	O
has	t1204	49	have	O	O	O	O	O	O	cs181	O	VHZ	B-VP	have	VBZ	t1203:SBJ||t1205:VC||t1233:P	mainVb
provided	t1205	49	provide	e196	OCCURRENCE	PRESENT+PERFECTIVE+POS	O	O	O	cs181	O	VVN	I-VP	provide	VBN	t1206:OBJ||t1211:TMP||t1213:PRP||t1217:P||t1218:ADV	mainVb
most	t1206	49	most	O	O	O	O	O	O	cs181	O	DT0	B-NP	most	DT	t1207:NMOD	O
of	t1207	49	of	O	O	O	O	O	O	cs181	O	PRF	B-PP	of	IN	t1210:PMOD	O
the	t1208	49	the	O	O	O	O	O	O	cs181	O	AT0	B-NP	the	DT	O	O
naval	t1209	49	naval	O	O	O	O	O	O	cs181	O	AJ0	I-NP	naval	JJ	O	O
vessels	t1210	49	vessel	O	O	O	O	O	O	cs181	O	NN2	I-NP	vessel	NNS	t1208:NMOD||t1209:NMOD	O
so	t1211	49	so	O	O	O	O	O	O	cs181	O	AV0	B-ADVP	so	RB	t1212:AMOD	O
far	t1212	49	far	O	O	O	O	O	O	cs181	O	AV0	I-ADVP	far	RB	O	O
to	t1213	49	to	O	O	O	O	O	O	cs181	O	TO0	B-VP	to	TO	t1214:IM	O
block	t1214	49	block	O	O	O	O	O	O	cs181	O	VVI	I-VP	block	VB	t1216:OBJ	O
Iraqi	t1215	49	iraqi	O	O	O	O	O	O	cs181	O	NP0	B-NP	iraqi	JJ	O	O
trade	t1216	49	trade	O	O	O	O	O	O	cs181	O	NN1	I-NP	trade	NN	t1215:NMOD	O
,	t1217	49	,	O	O	O	O	O	O	cs181	O	PUN	O	,	,	O	O
with	t1218	49	with	O	O	O	O	O	O	cs181	O	PRP	B-PP	with	IN	t1229:PMOD	O
Britain	t1219	49	Britain	O	O	O	O	O	O	cs181	O	NP0	B-NP	britain	NNP	t1220:P||t1222:COORD	O
,	t1220	49	,	O	O	O	O	O	O	cs181	O	PUN	O	,	,	O	O
West	t1221	49	West	O	O	O	O	O	O	cs181	O	NP0	B-NP	west	NNP	O	O
Germany	t1222	49	Germany	O	O	O	O	O	O	cs181	O	NP0	I-NP	germany	NNP	t1221:NAME||t1223:COORD	O
and	t1223	49	and	O	O	O	O	O	O	cs181	O	CJC	O	and	CC	t1224:CONJ	O
Australia	t1224	49	Australia	O	O	O	O	O	O	cs181	O	NP0	B-NP	australia	NNP	t1225:LOC	O
among	t1225	49	among	O	O	O	O	O	O	cs181	O	PRP	B-PP	among	IN	t1228:PMOD	O
the	t1226	49	the	O	O	O	O	O	O	cs181	O	AT0	B-NP	the	DT	O	O
other	t1227	49	other	O	O	O	O	O	O	cs181	O	AJ0	I-NP	other	JJ	O	O
nations	t1228	49	nation	O	O	O	O	O	O	cs181	O	NN2	I-NP	nation	NNS	t1226:NMOD||t1227:NMOD	O
lending	t1229	49	lend	e197	OCCURRENCE	PRESPART+NONE+POS	O	O	O	cs181	O	VVG	B-VP	lending	VBG	t1219:SBJ||t1230:OBJ	O
support	t1230	49	support	O	O	O	O	O	O	cs181	O	NN1	B-NP	support	NN	t1231:LOC	O
at	t1231	49	at	O	O	O	O	O	O	cs181	O	PRP	B-PP	at	IN	t1232:PMOD	O
sea	t1232	49	sea	O	O	O	O	O	O	cs181	O	NN1	B-NP	sea	NN	O	O
.	t1233	49	.	O	O	O	O	O	O	cs181	O	PUN	O	.	.	O	O

The	t1234	50	the	O	O	O	O	O	O	cs181	O	AT0	B-NP	the	DT	O	O
embargo	t1235	50	embargo	e198	OCCURRENCE	NONE+NONE+POS	O	O	O	cs181	O	NN1	I-NP	embargo	NN	t1234:NMOD	O
is	t1236	50	be	O	O	O	O	O	O	cs181	O	VBZ	B-VP	be	VBZ	t1235:SBJ||t1237:VC||t1255:P	mainVb
meant	t1237	50	mean	e199	I_STATE	PRESENT+NONE+POS	O	O	O	cs181	O	VVN	I-VP	mean	VBN	t1238:OPRD	mainVb
to	t1238	50	to	O	O	O	O	O	O	cs181	O	PRP	B-PP	to	TO	t1239:IM	O
cripple	t1239	50	cripple	e200	OCCURRENCE	INFINITIVE+NONE+POS	O	O	O	cs181	O	NN1	B-NP	cripple	VB	t1240:OBJ||t1241:MNR	O
Iraq	t1240	50	Iraq	O	O	O	O	O	O	cs181	O	NP0	I-NP	iraq	NNP	O	O
by	t1241	50	by	O	O	O	O	O	O	cs201	O	PRP	B-PP	by	IN	t1242:PMOD	O
cutting	t1242	50	cut	e202	OCCURRENCE	PRESENT+PROGRESSIVE+POS	O	O	O	cs201	O	VVG	B-VP	cut	VBG	t1243:PRT||t1245:OBJ	O
off	t1243	50	off	O	O	O	O	O	O	cs201	O	AVP	B-PRT	off	RP	O	O
its	t1244	50	its	O	O	O	O	O	O	cs201	O	DPS	B-NP	its	PRP$	O	O
exports	t1245	50	export	O	O	O	O	O	O	cs201	O	NN2	I-NP	export	NNS	t1244:NMOD||t1246:NMOD	O
of	t1246	50	of	O	O	O	O	O	O	cs201	O	PRF	B-PP	of	IN	t1247:PMOD	O
oil	t1247	50	oil	O	O	O	O	O	O	cs201	O	NN1	B-NP	oil	NN	t1248:COORD	O
and	t1248	50	and	O	O	O	O	O	O	cs201	O	CJC	I-NP	and	CC	t1249:CONJ	O
imports	t1249	50	import	O	O	O	O	O	O	cs201	O	NN2	I-NP	import	NNS	t1250:NMOD	O
of	t1250	50	of	O	O	O	O	O	O	cs201	O	PRF	B-PP	of	IN	t1251:PMOD	O
food	t1251	50	food	O	O	O	O	O	O	cs201	O	NN1	B-NP	food	NN	t1252:COORD	O
and	t1252	50	and	O	O	O	O	O	O	cs201	O	CJC	O	and	CC	t1254:CONJ	O
military	t1253	50	military	O	O	O	O	O	O	cs201	O	AJ0	B-NP	military	JJ	O	O
supplies	t1254	50	supplies	O	O	O	O	O	O	cs201	O	NN2	I-NP	supply	NNS	t1253:NMOD	O
.	t1255	50	.	O	O	O	O	O	O	cs201	O	PUN	O	.	.	O	O

Iraq	t1256	51	Iraq	O	O	O	O	O	O	cs201	O	NP0	B-NP	iraq	NNP	O	O
imports	t1257	51	import	e203	OCCURRENCE	PRESENT+NONE+POS	O	O	O	cs201	O	VVZ	B-VP	import	VBZ	t1256:SBJ||t1258:ADV||t1263:P	mainVb
about	t1258	51	about	O	O	O	O	O	O	cs201	O	PRP	B-NP	about	IN	t1259:PMOD	O
three-quarters	t1259	51	three-quarter	O	O	O	O	O	O	cs201	O	CRD	I-NP	three-quarters	NNS	t1260:NMOD	O
of	t1260	51	of	O	O	O	O	O	O	cs201	O	PRF	B-PP	of	IN	t1262:PMOD	O
its	t1261	51	its	O	O	O	O	O	O	cs201	O	DPS	B-NP	its	PRP$	O	O
foodstuffs	t1262	51	foodstuff	O	O	O	O	O	O	cs201	O	NN2	I-NP	foodstuff	NNS	t1261:NMOD	O
.	t1263	51	.	O	O	O	O	O	O	cs201	O	PUN	O	.	.	O	O

U.S.	t1264	52	U.S.	O	O	O	O	O	O	cs201	O	NP0	B-NP	u.s.	NNP	O	O
allies	t1265	52	ally	O	O	O	O	O	O	cs201	O	NN2	I-NP	allies	NNS	t1264:NMOD||t1266:COORD	O
and	t1266	52	and	O	O	O	O	O	O	cs201	O	CJC	O	and	CC	t1269:CONJ	O
other	t1267	52	other	O	O	O	O	O	O	cs201	O	AJ0	B-NP	other	JJ	O	O
U.N.	t1268	52	U.N.	O	O	O	O	O	O	cs201	O	NP0	I-NP	u.n.	NNP	O	O
members	t1269	52	member	O	O	O	O	O	O	cs201	O	NN2	I-NP	member	NNS	t1267:NMOD||t1268:NMOD	O
have	t1270	52	have	O	O	O	O	O	O	cs201	O	VHB	B-VP	have	VBP	t1265:SBJ||t1271:VC||t1286:P	mainVb
objected	t1271	52	object	e204	OCCURRENCE	PRESENT+PERFECTIVE+POS	O	O	O	cs201	O	VVN	I-VP	object	VBN	t1272:OBJ	mainVb
that	t1272	52	that	O	O	O	O	O	O	cs201	O	CJT	B-SBAR	that	IN	t1278:SUB	O
the	t1273	52	the	O	O	O	O	O	O	cs201	O	AT0	B-NP	the	DT	O	O
Security	t1274	52	Security	O	O	O	O	O	O	cs201	O	NN1	I-NP	security	NNP	O	O
Council	t1275	52	Council	O	O	O	O	O	O	cs201	O	NN1	I-NP	council	NNP	t1274:NAME	O
embargo	t1276	52	embargo	O	O	O	O	O	O	cs201	O	NN1	I-NP	embargo	NN	O	O
resolution	t1277	52	resolution	e205	OCCURRENCE	NONE+NONE+POS	O	O	O	cs201	O	NN1	I-NP	resolution	NN	t1273:NMOD||t1275:NMOD||t1276:NMOD	O
did	t1278	52	do	O	O	O	O	O	O	cs201	O	VDD	B-VP	do	VBD	t1277:SBJ||t1279:ADV||t1280:ADV||t1281:VC	O
not	t1279	52	not	O	O	O	O	O	O	cs201	O	XX0	I-VP	not	RB	O	O
specifically	t1280	52	specifically	O	O	O	O	O	O	cs201	O	AV0	I-VP	specifically	RB	O	O
authorize	t1281	52	authorize	e206	OCCURRENCE	PAST+PERFECTIVE+NEG	O	O	O	cs201	O	VVI	I-VP	authorize	VB	t1285:OBJ	O
such	t1282	52	such	O	O	O	O	O	O	cs201	O	DT0	B-NP	such	PDT	O	O
a	t1283	52	a	O	O	O	O	O	O	cs201	O	AT0	I-NP	a	DT	O	O
naval	t1284	52	naval	O	O	O	O	O	O	cs201	O	AJ0	I-NP	naval	JJ	O	O
operation	t1285	52	operation	e207	OCCURRENCE	NONE+NONE+POS	O	O	O	cs201	O	NN1	I-NP	operation	NN	t1282:NMOD||t1283:NMOD||t1284:NMOD	O
.	t1286	52	.	O	O	O	O	O	O	cs201	O	PUN	O	.	.	O	O
