DCT_1989-10-30	O	O	O	O	O	O	tmx0	DATE	1989-10-30	O	O	NP0	B-NP	dct_1989-10-30	LS	O	O

Crossland	t1	1	Crossland	O	O	O+O+O	O	O	O	O	O	NP0	B-NP	crossland	NNP	O	O
Savings	t2	1	Savings	O	O	O+O+O	O	O	O	O	O	NP0	I-NP	savings	NNPS	O	O
Bank	t3	1	Bank	O	O	O+O+O	O	O	O	O	O	NP0	I-NP	bank	NNP	t1:NAME||t2:NAME||t4:SUFFIX	O
's	t4	1	's	O	O	O+O+O	O	O	O	O	O	POS	B-NP	's	POS	O	O
stock	t5	1	stock	O	O	O+O+O	O	O	O	O	O	NN1	I-NP	stock	NN	t3:NMOD	O
plummeted	t6	1	plummet	e1	OCCURRENCE	PAST+NONE+POS	O	O	O	O	O	VVD	B-VP	plummet	VBD	t5:SBJ||t7:TMP||t35:P	mainVb
after	t7	1	after	O	O	O	O	O	O	O	O	PRP	B-PP	after	IN	t9:SUB	O
management	t8	1	management	O	O	O	O	O	O	O	O	NN1	B-NP	management	NN	O	O
recommended	t9	1	recommend	e2	I_ACTION	PAST+NONE+POS	O	O	O	O	O	VVD	B-VP	recommend	VBD	t8:SBJ||t11:OBJ||t22:PRP	O
a	t10	1	a	O	O	O	O	O	O	O	O	AT0	B-NP	a	DT	O	O
suspension	t11	1	suspension	e3	OCCURRENCE	NONE+NONE+POS	O	O	O	O	O	NN1	I-NP	suspension	NN	t10:NMOD||t12:NMOD	O
of	t12	1	of	O	O	O	O	O	O	O	O	PRF	B-PP	of	IN	t14:PMOD	O
dividend	t13	1	dividend	O	O	O	O	O	O	O	O	NN1	B-NP	dividend	NN	O	O
payments	t14	1	payment	O	O	O	O	O	O	O	O	NN2	I-NP	payment	NNS	t13:NMOD||t15:NMOD	O
on	t15	1	on	O	O	O	O	O	O	O	O	PRP	B-PP	on	IN	t21:PMOD	O
both	t16	1	both	O	O	O	O	O	O	O	O	DT0	B-NP	both	DT	O	O
its	t17	1	its	O	O	O	O	O	O	O	O	DPS	I-NP	its	PRP$	O	O
common	t18	1	common	O	O	O	O	O	O	O	O	AJ0	I-NP	common	JJ	t19:COORD	O
and	t19	1	and	O	O	O	O	O	O	O	O	CJC	I-NP	and	CC	t20:CONJ	O
preferred	t20	1	preferred	O	O	O	O	O	O	O	O	AJ0	I-NP	prefer	VBN	O	O
stock	t21	1	stock	O	O	O	O	O	O	O	O	NN1	I-NP	stock	NN	t16:NMOD||t17:NMOD||t18:NMOD	O
because	t22	1	because	O	O	O	O	O	O	cs4	O	CJS	B-SBAR	because	IN	t24:SUB	O
Crossland	t23	1	Crossland	O	O	O	O	O	O	cs4	O	NP0	B-NP	crossland	NNP	O	O
may	t24	1	may	O	O	O	O	O	O	cs4	O	VM0	B-VP	may	MD	t23:SBJ||t25:ADV||t26:VC	O
not	t25	1	not	O	O	O	O	O	O	cs4	O	XX0	I-VP	not	RB	O	O
meet	t26	1	meet	e5	I_STATE	NONE+NONE+NEG	O	O	O	cs4	O	VVI	I-VP	meet	VB	t31:OBJ	O
the	t27	1	the	O	O	O	O	O	O	cs4	O	AT0	B-NP	the	DT	O	O
new	t28	1	new	O	O	O	O	O	O	cs4	O	AJ0	I-NP	new	JJ	O	O
government	t29	1	government	O	O	O	O	O	O	cs4	O	NN1	I-NP	government	NN	O	O
capital	t30	1	capital	O	O	O	O	O	O	cs4	O	NN1	I-NP	capital	NN	O	O
criteria	t31	1	criterion	O	O	O	O	O	O	cs4	O	NN2	I-NP	criterion	NNS	t27:NMOD||t28:NMOD||t29:NMOD||t30:NMOD||t32:APPO	O
effective	t32	1	effective	O	O	O	O	O	O	cs4	O	AJ0	B-ADJP	effective	JJ	t34:TMP	O
Dec.	t33	1	Dec.	O	O	O	tmx6	DATE	1989-12-07	cs4	O	NP0	B-NP	dec.	NNP	O	O
7	t34	1	7	O	O	O	tmx6	DATE	1989-12-07	cs4	O	CRD	I-NP	7	CD	t33:NMOD	O
.	t35	1	.	O	O	O	O	O	O	cs4	O	PUN	O	.	.	O	O

In	t36	2	in	O	O	O	O	O	O	cs4	O	PRP	B-PP	in	IN	t38:PMOD	O
composite	t37	2	composite	O	O	O	O	O	O	cs4	O	AJ0	B-NP	composite	JJ	O	O
trading	t38	2	trading	O	O	O	O	O	O	cs4	O	NN1	I-NP	trading	NN	t37:NMOD	O
on	t39	2	on	O	O	O	O	O	O	cs4	O	PRP	B-PP	on	IN	t44:PMOD	O
the	t40	2	the	O	O	O	O	O	O	cs4	O	AT0	B-NP	the	DT	O	O
New	t41	2	New	O	O	O	O	O	O	cs4	O	NP0	I-NP	new	NNP	O	O
York	t42	2	York	O	O	O	O	O	O	cs4	O	NP0	I-NP	york	NNP	t41:NAME	O
Stock	t43	2	Stock	O	O	O	O	O	O	cs4	O	NP0	I-NP	stock	NNP	O	O
Exchange	t44	2	Exchange	O	O	O	O	O	O	cs4	O	NP0	I-NP	exchange	NNP	t40:NMOD||t42:NMOD||t43:NAME	O
Friday	t45	2	Friday	O	O	O	tmx7	DATE	1989-10-27	cs4	O	NP0	B-NP	friday	NNP	O	O
,	t46	2	,	O	O	O	O	O	O	cs4	O	PUN	O	,	,	O	O
Crossland	t47	2	Crossland	O	O	O	O	O	O	cs4	O	NP0	B-NP	crossland	NNP	O	O
closed	t48	2	close	e8	OCCURRENCE	PAST+NONE+POS	O	O	O	cs4	O	VVD	B-VP	close	VBD	t36:LOC||t39:LOC||t45:TMP||t46:P||t47:SBJ||t49:ADV||t52:P||t53:ADV||t61:P	mainVb
at	t49	2	at	O	O	O	O	O	O	cs4	O	PRP	B-PP	at	IN	t50:PMOD	O
$	t50	2	$	O	O	O	O	O	O	cs4	O	NN1	B-NP	$	$	t51:NMOD	O
5.25	t51	2	5.25	O	O	O	O	O	O	cs4	O	CRD	I-NP	5.25	CD	O	O
,	t52	2	,	O	O	O	O	O	O	cs4	O	PUN	O	,	,	O	O
down	t53	2	down	O	O	O	O	O	O	cs4	O	AVP	B-ADVP	down	IN	t54:AMOD	O
$	t54	2	$	O	O	O	O	O	O	cs4	O	CRD	B-NP	$	$	t55:NMOD||t56:P||t60:APPO	O
1.875	t55	2	1.875	O	O	O	O	O	O	cs4	O	CRD	I-NP	1.875	CD	O	O
,	t56	2	,	O	O	O	O	O	O	cs4	O	PUN	O	,	,	O	O
a	t57	2	a	O	O	O	O	O	O	cs4	O	AT0	B-NP	a	DT	O	O
26	t58	2	26	O	O	O	O	O	O	cs4	O	CRD	I-NP	26	CD	O	O
%	t59	2	%	O	O	O	O	O	O	cs4	O	UNC	I-NP	%	NN	t58:NMOD	O
decline	t60	2	decline	O	O	O	O	O	O	cs4	O	NN1	I-NP	decline	NN	t57:NMOD||t59:NMOD	O
.	t61	2	.	O	O	O	O	O	O	cs4	O	PUN	O	.	.	O	O

A	t62	3	a	O	O	O	O	O	O	cs4	O	AT0	B-NP	a	DT	O	O
spokesman	t63	3	spokesman	O	O	O	O	O	O	cs4	O	NN1	I-NP	spokesman	NN	t62:NMOD	O
said	t64	3	say	e9	REPORTING	PAST+NONE+POS	O	O	O	cs4	O	VVD	B-VP	say	VBD	t63:SBJ||t68:OBJ||t112:P	mainVb
the	t65	3	the	O	O	O	O	O	O	cs4	O	AT0	B-NP	the	DT	O	O
savings	t66	3	savings	O	O	O	O	O	O	cs4	O	NN2	I-NP	savings	NNS	O	O
bank	t67	3	bank	O	O	O	O	O	O	cs4	O	VVB	B-VP	bank	NN	t65:NMOD||t66:NMOD	O
may	t68	3	may	O	O	O	O	O	O	cs4	O	VM0	B-VP	may	MD	t67:SBJ||t69:ADV||t70:VC	O
not	t69	3	not	O	O	O	O	O	O	cs4	O	XX0	I-VP	not	RB	O	O
qualify	t70	3	qualify	e10	I_STATE	NONE+NONE+NEG	O	O	O	cs4	O	VVI	I-VP	qualify	VB	t71:ADV||t75:PRP	O
for	t71	3	for	O	O	O	O	O	O	cs4	O	PRP	B-PP	for	IN	t74:PMOD	O
the	t72	3	the	O	O	O	O	O	O	cs4	O	AT0	B-NP	the	DT	O	O
capital	t73	3	capital	O	O	O	O	O	O	cs4	O	NN1	I-NP	capital	NN	O	O
requirements	t74	3	requirement	O	O	O	O	O	O	cs4	O	NN2	I-NP	requirement	NNS	t72:NMOD||t73:NMOD	O
because	t75	3	because	O	O	O	O	O	O	cs11	O	CJS	B-SBAR	because	IN	t76:P||t89:SUB	O
,	t76	3	,	O	O	O	O	O	O	cs11	O	PUN	O	,	,	O	O
under	t77	3	under	O	O	O	O	O	O	cs11	O	PRP	B-PP	under	IN	t80:PMOD	O
the	t78	3	the	O	O	O	O	O	O	cs11	O	AT0	B-NP	the	DT	O	O
proposed	t79	3	propose	O	O	O	O	O	O	cs11	O	AJ0	I-NP	propose	VBN	O	O
guidelines	t80	3	guideline	O	O	O	O	O	O	cs11	O	NN2	I-NP	guideline	NNS	t78:NMOD||t79:NMOD	O
,	t81	3	,	O	O	O	O	O	O	cs11	O	PUN	O	,	,	O	O
its	t82	3	its	O	O	O	O	O	O	cs11	O	DPS	B-NP	its	PRP$	O	O
$	t83	3	$	O	O	O	O	O	O	cs11	O	CRD	I-NP	$	$	t82:NMOD||t84:DEP||t85:DEP||t86:NMOD	O
380	t84	3	380	O	O	O	O	O	O	cs11	O	CRD	I-NP	380	CD	O	O
million	t85	3	million	O	O	O	O	O	O	cs11	O	CRD	I-NP	million	CD	O	O
of	t86	3	of	O	O	O	O	O	O	cs11	O	PRF	B-PP	of	IN	t88:PMOD	O
preferred	t87	3	preferred	O	O	O	O	O	O	cs11	O	AJ0	B-NP	prefer	VBN	O	O
stock	t88	3	stock	O	O	O	O	O	O	cs11	O	NN1	I-NP	stock	NN	t87:NMOD	O
does	t89	3	do	O	O	O	O	O	O	cs11	O	VDZ	B-VP	do	VBZ	t77:LOC||t81:P||t83:SBJ||t90:ADV||t91:VC	O
n't	t90	3	not	O	O	O	O	O	O	cs11	O	XX0	I-VP	not	RB	O	O
meet	t91	3	meet	e12	I_STATE	PRESENT+NONE+NEG	O	O	O	cs11	O	VVI	I-VP	meet	VB	t97:OBJ	O
the	t92	3	the	O	O	O	O	O	O	cs11	O	AT0	B-NP	the	DT	O	O
"	t93	3	"	O	O	O	O	O	O	cs11	O	PUQ	I-NP	"	NN	O	O
core	t94	3	core	O	O	O	O	O	O	cs11	O	NN1	I-NP	core	NN	t93:NMOD	O
capital	t95	3	capital	O	O	O	O	O	O	cs11	O	NN1	I-NP	capital	NN	O	O
"	t96	3	"	O	O	O	O	O	O	cs11	O	PUQ	B-NP	"	NN	t95:NMOD	O
criteria	t97	3	criterion	O	O	O	O	O	O	cs11	O	NN2	I-NP	criterion	NNS	t92:NMOD||t94:NMOD||t96:NMOD||t98:APPO	O
outlined	t98	3	outline	O	O	O	O	O	O	cs11	O	VVD	B-VP	outline	VBN	t99:LOC	O
under	t99	3	under	O	O	O	O	O	O	cs11	O	PRP	B-PP	under	IN	t109:PMOD	O
the	t100	3	the	O	O	O	O	O	O	cs11	O	AT0	B-NP	the	DT	O	O
new	t101	3	new	O	O	O	O	O	O	cs11	O	AJ0	I-NP	new	JJ	O	O
Financial	t102	3	Financial	O	O	O	O	O	O	cs11	O	AJ0	I-NP	financial	NN	O	O
Institutions	t103	3	Institutions	O	O	O	O	O	O	cs11	O	NN2	I-NP	institution	NNPS	t102:NMOD	O
Reform	t104	3	Reform	O	O	O	O	O	O	cs11	O	NN1	I-NP	reform	NNP	t105:P||t106:COORD	O
,	t105	3	,	O	O	O	O	O	O	cs11	O	PUN	O	,	,	O	O
Recovery	t106	3	Recovery	O	O	O	O	O	O	cs11	O	NN1	B-NP	recovery	NNP	t107:COORD	O
and	t107	3	and	O	O	O	O	O	O	cs11	O	CJC	I-NP	and	CC	t108:CONJ	O
Enforcement	t108	3	Enforcement	O	O	O	O	O	O	cs11	O	NN1	I-NP	enforcement	NNP	O	O
Act	t109	3	Act	O	O	O	O	O	O	cs11	O	NN1	I-NP	act	NNP	t100:NMOD||t101:NMOD||t103:NAME||t104:NAME||t110:NMOD	O
of	t110	3	of	O	O	O	O	O	O	cs11	O	PRF	B-PP	of	IN	t111:PMOD	O
1989	t111	3	1989	O	O	O	tmx13	DATE	1989	cs11	O	CRD	B-NP	1989	CD	O	O
.	t112	3	.	O	O	O	O	O	O	cs11	O	PUN	O	.	.	O	O

He	t113	4	he	O	O	O	O	O	O	cs11	O	PNP	B-NP	he	PRP	O	O
added	t114	4	add	e14	REPORTING	PAST+NONE+POS	O	O	O	cs11	O	VVD	B-VP	add	VBD	t113:SBJ||t115:OBJ||t132:P	mainVb
that	t115	4	that	O	O	O	O	O	O	cs11	O	CJT	B-SBAR	that	IN	t124:SUB	O
final	t116	4	final	O	O	O	O	O	O	cs11	O	AJ0	B-NP	final	JJ	O	O
guidelines	t117	4	guideline	O	O	O	O	O	O	cs11	O	NN2	I-NP	guideline	NNS	t116:NMOD	O
to	t118	4	to	O	O	O	O	O	O	cs11	O	TO0	B-VP	to	TO	t117:SBJ||t119:IM	O
be	t119	4	be	O	O	O	O	O	O	cs11	O	VBI	I-VP	be	VB	t120:VC	O
published	t120	4	publish	e15	OCCURRENCE	INFINITIVE+NONE+POS	O	O	O	cs11	O	VVN	I-VP	publish	VBN	t121:TMP	O
in	t121	4	in	O	O	O	O	O	O	cs11	O	PRP	B-PP	in	IN	t123:PMOD	O
early	t122	4	early	O	O	O	tmx16	DATE	1989-11	cs11	O	AJ0	B-NP	early	JJ	O	O
November	t123	4	November	O	O	O	tmx16	DATE	1989-11	cs11	O	NP0	I-NP	november	NNP	t122:NMOD	O
will	t124	4	will	O	O	O	O	O	O	cs11	O	VM0	B-VP	will	MD	t118:SBJ||t125:VC	O
determine	t125	4	determine	e17	OCCURRENCE	FUTURE+NONE+POS	O	O	O	cs11	O	VVI	I-VP	determine	VB	t126:OBJ	O
whether	t126	4	whether	O	O	O	O	O	O	cs11	O	CJS	B-SBAR	whether	IN	t129:SUB	O
the	t127	4	the	O	O	O	O	O	O	cs11	O	AT0	B-NP	the	DT	O	O
bank	t128	4	bank	O	O	O	O	O	O	cs11	O	NN1	I-NP	bank	NN	t127:NMOD	O
is	t129	4	be	O	O	O	O	O	O	cs11	O	VBZ	B-VP	be	VBZ	t128:SBJ||t130:PRD	O
in	t130	4	in	O	O	O	O	O	O	cs11	O	PRP	B-PP	in	IN	t131:PMOD	O
compliance	t131	4	compliance	O	O	O	O	O	O	cs11	O	NN1	B-NP	compliance	NN	O	O
.	t132	4	.	O	O	O	O	O	O	cs11	O	PUN	O	.	.	O	O

Crossland	t133	5	Crossland	O	O	O	O	O	O	cs11	O	NP0	B-NP	crossland	NNP	O	O
said	t134	5	say	e18	REPORTING	PAST+NONE+POS	O	O	O	cs11	O	VVD	B-VP	say	VBD	t133:SBJ||t136:OBJ||t151:P	mainVb
it	t135	5	it	O	O	O	O	O	O	cs11	O	PNP	B-NP	it	PRP	O	O
retained	t136	5	retain	e19	OCCURRENCE	PAST+NONE+POS	O	O	O	cs11	O	VVD	B-VP	retain	VBD	t135:SBJ||t139:OBJ	O
three	t137	5	three	O	O	O	O	O	O	cs11	O	CRD	B-NP	three	CD	O	O
investment	t138	5	investment	O	O	O	O	O	O	cs11	O	NN1	I-NP	investment	NN	O	O
bankers	t139	5	banker	O	O	O	O	O	O	cs11	O	NN2	I-NP	banker	NNS	t137:NMOD||t138:NMOD||t140:NMOD	O
to	t140	5	to	O	O	O	O	O	O	cs11	O	TO0	B-VP	to	TO	t141:IM	O
assist	t141	5	assist	e20	I_ACTION	INFINITIVE+NONE+POS	O	O	O	cs11	O	VVI	I-VP	assist	VB	t142:OBJ||t143:LOC	O
it	t142	5	it	O	O	O	O	O	O	cs11	O	PNP	B-NP	it	PRP	O	O
in	t143	5	in	O	O	O	O	O	O	cs11	O	PRP	B-PP	in	IN	t144:PMOD	O
developing	t144	5	develop	e21	I_ACTION	PRESPART+NONE+POS	O	O	O	cs11	O	VVG	B-VP	develop	VBG	t145:COORD||t150:OBJ	O
and	t145	5	and	O	O	O	O	O	O	cs11	O	CJC	I-VP	and	CC	t146:CONJ	O
implementing	t146	5	implement	e22	I_ACTION	PRESPART+NONE+POS	O	O	O	cs11	O	VVG	I-VP	implement	VBG	O	O
a	t147	5	a	O	O	O	O	O	O	cs11	O	AT0	B-NP	a	DT	O	O
financial	t148	5	financial	O	O	O	O	O	O	cs11	O	AJ0	I-NP	financial	JJ	O	O
restructuring	t149	5	restructuring	O	O	O	O	O	O	cs11	O	NN1	I-NP	restructuring	NN	t148:NMOD	O
plan	t150	5	plan	O	O	O	O	O	O	cs11	O	NN1	I-NP	plan	NN	t147:NMOD||t149:NMOD	O
.	t151	5	.	O	O	O	O	O	O	cs11	O	PUN	O	.	.	O	O

It	t152	6	it	O	O	O	O	O	O	cs11	O	PNP	B-NP	it	PRP	O	O
would	t153	6	would	O	O	O	O	O	O	cs11	O	VM0	B-VP	would	MD	t152:SBJ||t154:ADV||t155:VC||t158:P	mainVb
n't	t154	6	not	O	O	O	O	O	O	cs11	O	XX0	I-VP	not	RB	O	mainVb
identify	t155	6	identify	e23	OCCURRENCE	NONE+NONE+NEG	O	O	O	cs11	O	VVI	I-VP	identify	VB	t157:OBJ	mainVb
the	t156	6	the	O	O	O	O	O	O	cs11	O	AT0	B-NP	the	DT	O	O
bankers	t157	6	banker	O	O	O	O	O	O	cs11	O	NN2	I-NP	banker	NNS	t156:NMOD	O
.	t158	6	.	O	O	O	O	O	O	cs11	O	PUN	O	.	.	O	O

Additionally	t159	7	additionally	O	O	O	O	O	O	cs11	O	AV0	B-ADVP	additionally	RB	O	O
,	t160	7	,	O	O	O	O	O	O	cs11	O	PUN	O	,	,	O	O
Crossland	t161	7	Crossland	O	O	O	O	O	O	cs11	O	NP0	B-NP	crossland	NNP	O	O
reported	t162	7	report	e24	REPORTING	PAST+NONE+POS	O	O	O	cs11	O	VVD	B-VP	report	VBD	t159:ADV||t160:P||t161:SBJ||t165:OBJ||t195:P	mainVb
a	t163	7	a	O	O	O	O	O	O	cs11	O	AT0	B-NP	a	DT	O	O
third-quarter	t164	7	third-quarter	O	O	O	tmx25	DATE	1989-Q3	cs11	O	NN1	I-NP	third-quarter	NN	O	O
loss	t165	7	loss	e26	STATE	NONE+NONE+POS	O	O	O	cs11	O	NN1	I-NP	loss	NN	t163:NMOD||t164:NMOD||t166:NMOD	O
of	t166	7	of	O	O	O	O	O	O	cs11	O	PRF	B-PP	of	IN	t167:PMOD	O
$	t167	7	$	O	O	O	O	O	O	cs11	O	NN0	B-NP	$	$	t168:DEP||t169:DEP||t170:P||t171:COORD||t176:P||t177:NMOD	O
175.5	t168	7	175.5	O	O	O	O	O	O	cs11	O	CRD	I-NP	175.5	CD	O	O
million	t169	7	million	O	O	O	O	O	O	cs11	O	CRD	I-NP	million	CD	O	O
,	t170	7	,	O	O	O	O	O	O	cs11	O	PUN	O	,	,	O	O
or	t171	7	or	O	O	O	O	O	O	cs11	O	CJC	O	or	CC	t172:CONJ	O
$	t172	7	$	O	O	O	O	O	O	cs11	O	CRD	B-NP	$	$	t173:NMOD||t175:ADV	O
13.44	t173	7	13.44	O	O	O	O	O	O	cs11	O	CRD	I-NP	13.44	CD	O	O
a	t174	7	a	O	O	O	O	O	O	cs11	O	AT0	B-NP	a	DT	O	O
share	t175	7	share	O	O	O	O	O	O	cs11	O	NN1	I-NP	share	NN	t174:NMOD	O
,	t176	7	,	O	O	O	O	O	O	cs11	O	PUN	O	,	,	O	O
compared	t177	7	compare	O	O	O	O	O	O	cs11	O	VVN	B-PP	compare	VBN	t178:PMOD	O
with	t178	7	with	O	O	O	O	O	O	cs11	O	PRP	B-PP	with	IN	t180:PMOD	O
net	t179	7	net	O	O	O	O	O	O	cs11	O	AJ0	B-NP	net	JJ	O	O
income	t180	7	income	O	O	O	O	O	O	cs11	O	NN1	I-NP	income	NN	t179:NMOD||t181:NMOD||t194:TMP	O
of	t181	7	of	O	O	O	O	O	O	cs11	O	PRF	B-PP	of	IN	t182:PMOD	O
$	t182	7	$	O	O	O	O	O	O	cs11	O	NN0	B-NP	$	$	t183:DEP||t184:DEP||t185:P||t186:COORD||t191:P	O
27.1	t183	7	27.1	O	O	O	O	O	O	cs11	O	CRD	I-NP	27.1	CD	O	O
million	t184	7	million	O	O	O	O	O	O	cs11	O	CRD	I-NP	million	CD	O	O
,	t185	7	,	O	O	O	O	O	O	cs11	O	PUN	O	,	,	O	O
or	t186	7	or	O	O	O	O	O	O	cs11	O	CJC	O	or	CC	t187:CONJ	O
$	t187	7	$	O	O	O	O	O	O	cs11	O	CRD	B-NP	$	$	t188:NMOD||t190:ADV	O
1.16	t188	7	1.16	O	O	O	O	O	O	cs11	O	CRD	I-NP	1.16	CD	O	O
a	t189	7	a	O	O	O	O	O	O	cs11	O	AT0	B-NP	a	DT	O	O
share	t190	7	share	O	O	O	O	O	O	cs11	O	NN1	I-NP	share	NN	t189:NMOD	O
,	t191	7	,	O	O	O	O	O	O	cs11	O	PUN	O	,	,	O	O
a	t192	7	a	O	O	O	tmx27	DATE	1988-Q3	cs11	O	AT0	B-NP	a	DT	O	O
year	t193	7	year	O	O	O	tmx27	DATE	1988-Q3	cs11	O	NN1	I-NP	year	NN	t192:NMOD	O
ago	t194	7	ago	O	O	O	tmx27	DATE	1988-Q3	cs11	O	AV0	B-ADVP	ago	RB	t193:AMOD	O
.	t195	7	.	O	O	O	O	O	O	cs11	O	PUN	O	.	.	O	O

A	t196	8	a	O	O	O	O	O	O	cs11	O	AT0	B-NP	a	DT	O	O
major	t197	8	major	O	O	O	O	O	O	cs11	O	AJ0	I-NP	major	JJ	O	O
factor	t198	8	factor	O	O	O	O	O	O	cs11	O	NN1	I-NP	factor	NN	t196:NMOD||t197:NMOD||t199:LOC	O
in	t199	8	in	O	O	O	O	O	O	cs11	O	PRP	B-PP	in	IN	t202:PMOD	O
the	t200	8	the	O	O	O	O	O	O	cs11	O	AT0	B-NP	the	DT	O	O
third-quarter	t201	8	third-quarter	O	O	O	tmx28	DATE	1989-Q3	cs11	O	AJC	I-NP	third-quarter	NN	O	O
loss	t202	8	loss	e29	STATE	NONE+NONE+POS	O	O	O	cs11	O	NN1	I-NP	loss	NN	t200:NMOD||t201:NMOD	O
was	t203	8	be	O	O	O	O	O	O	cs11	O	VBD	B-VP	be	VBD	t198:SBJ||t205:PRD||t212:P	mainVb
the	t204	8	the	O	O	O	O	O	O	cs11	O	AT0	B-NP	the	DT	O	O
write-down	t205	8	write-down	O	O	O	O	O	O	cs11	O	NN1	I-NP	write-down	NN	t204:NMOD||t206:NMOD	O
of	t206	8	of	O	O	O	O	O	O	cs11	O	PRF	B-PP	of	IN	t207:PMOD	O
$	t207	8	$	O	O	O	O	O	O	cs11	O	NN0	B-NP	$	$	t208:DEP||t209:DEP||t210:NMOD	O
143.6	t208	8	143.6	O	O	O	O	O	O	cs11	O	CRD	I-NP	143.6	CD	O	O
million	t209	8	million	O	O	O	O	O	O	cs11	O	CRD	I-NP	million	CD	O	O
of	t210	8	of	O	O	O	O	O	O	cs11	O	PRF	B-PP	of	IN	t211:PMOD	O
goodwill	t211	8	goodwill	O	O	O	O	O	O	cs11	O	NN1	B-NP	goodwill	NN	O	O
.	t212	8	.	O	O	O	O	O	O	cs11	O	PUN	O	.	.	O	O

The	t213	9	the	O	O	O	O	O	O	cs11	O	AT0	B-NP	the	DT	O	O
spokesman	t214	9	spokesman	O	O	O	O	O	O	cs11	O	NN1	I-NP	spokesman	NN	t213:NMOD	O
said	t215	9	say	e30	REPORTING	PAST+NONE+POS	O	O	O	cs11	O	VVD	B-VP	say	VBD	t214:SBJ||t216:OBJ||t241:P	mainVb
that	t216	9	that	O	O	O	O	O	O	cs11	O	CJT	B-SBAR	that	IN	t220:SUB	O
the	t217	9	the	O	O	O	O	O	O	cs11	O	AT0	B-NP	the	DT	O	O
proposed	t218	9	propose	O	O	O	O	O	O	cs11	O	AJ0	I-NP	propose	VBN	O	O
guidelines	t219	9	guideline	e31	OCCURRENCE	NONE+NONE+POS	O	O	O	cs11	O	NN2	I-NP	guideline	NNS	t217:NMOD||t218:NMOD	O
caused	t220	9	cause	e32	OCCURRENCE	PAST+NONE+POS	O	O	O	cs11	O	VVN	B-VP	cause	VBD	t219:SBJ||t221:OBJ||t222:OPRD	O
Crossland	t221	9	Crossland	O	O	O	O	O	O	cs11	O	NP0	B-NP	crossland	NNP	O	O
to	t222	9	to	O	O	O	O	O	O	cs11	O	TO0	B-VP	to	TO	t223:IM||t227:COORD	O
revise	t223	9	revise	e33	OCCURRENCE	INFINITIVE+NONE+POS	O	O	O	cs11	O	VVI	I-VP	revise	VB	t226:OBJ	O
its	t224	9	its	O	O	O	O	O	O	cs11	O	DPS	B-NP	its	PRP$	O	O
business	t225	9	business	O	O	O	O	O	O	cs11	O	NN1	I-NP	business	NN	O	O
objectives	t226	9	objective	O	O	O	O	O	O	cs11	O	NN2	I-NP	objective	NNS	t224:NMOD||t225:NMOD	O
and	t227	9	and	O	O	O	O	O	O	cs11	O	CJC	O	and	CC	t228:P||t231:CONJ	O
,	t228	9	,	O	O	O	O	O	O	cs11	O	PUN	O	,	,	O	O
consequently	t229	9	consequently	O	O	O	O	O	O	cs34	O	AV0	B-ADVP	consequently	RB	O	O
,	t230	9	,	O	O	O	O	O	O	cs34	O	PUN	O	,	,	O	O
to	t231	9	to	O	O	O	O	O	O	cs34	O	TO0	B-VP	to	TO	t229:ADV||t230:P||t232:IM	O
write	t232	9	write	e35	OCCURRENCE	INFINITIVE+NONE+POS	O	O	O	cs34	O	VVI	I-VP	write	VB	t233:PRT||t236:OBJ	O
down	t233	9	down	O	O	O	O	O	O	cs34	O	AVP	B-PRT	down	RP	O	O
the	t234	9	the	O	O	O	O	O	O	cs34	O	AT0	B-NP	the	DT	O	O
asset	t235	9	asset	O	O	O	O	O	O	cs34	O	NN1	I-NP	asset	NN	O	O
value	t236	9	value	O	O	O	O	O	O	cs34	O	NN1	I-NP	value	NN	t234:NMOD||t235:NMOD||t237:NMOD	O
of	t237	9	of	O	O	O	O	O	O	cs34	O	PRF	B-PP	of	IN	t240:PMOD	O
some	t238	9	some	O	O	O	O	O	O	cs34	O	DT0	B-NP	some	DT	O	O
previous	t239	9	previous	O	O	O	O	O	O	cs34	O	AJ0	I-NP	previous	JJ	O	O
acquisitions	t240	9	acquisition	O	O	O	O	O	O	cs34	O	NN2	I-NP	acquisition	NNS	t238:NMOD||t239:NMOD	O
.	t241	9	.	O	O	O	O	O	O	cs34	O	PUN	O	.	.	O	O

Crossland	t242	10	Crossland	O	O	O	O	O	O	cs34	O	NP0	B-NP	crossland	NNP	O	O
recorded	t243	10	record	e36	I_ACTION	PAST+NONE+POS	O	O	O	cs34	O	VVD	B-VP	record	VBD	t242:SBJ||t246:OBJ||t253:TMP||t257:P	mainVb
an	t244	10	a	O	O	O	O	O	O	cs34	O	AT0	B-NP	an	DT	O	O
additional	t245	10	additional	O	O	O	O	O	O	cs34	O	AJ0	I-NP	additional	JJ	O	O
$	t246	10	$	O	O	O	O	O	O	cs34	O	CRD	I-NP	$	$	t244:NMOD||t245:NMOD||t247:DEP||t248:DEP||t249:NMOD	O
20	t247	10	20	O	O	O	O	O	O	cs34	O	CRD	I-NP	20	CD	O	O
million	t248	10	million	O	O	O	O	O	O	cs34	O	CRD	I-NP	million	CD	O	O
in	t249	10	in	O	O	O	O	O	O	cs34	O	PRP	B-PP	in	IN	t252:PMOD	O
loan	t250	10	loan	O	O	O	O	O	O	cs34	O	NN1	B-NP	loan	NN	O	O
loss	t251	10	loss	O	O	O	O	O	O	cs34	O	NN1	I-NP	loss	NN	t250:NMOD	O
reserves	t252	10	reserve	O	O	O	O	O	O	cs34	O	VVZ	B-VP	reserves	NNS	t251:NMOD	O
in	t253	10	in	O	O	O	O	O	O	cs34	O	PRP	B-PP	in	IN	t256:PMOD	O
the	t254	10	the	O	O	O	tmx37	DATE	1989-Q3	cs34	O	AT0	B-NP	the	DT	O	O
third	t255	10	third	O	O	O	tmx37	DATE	1989-Q3	cs34	O	ORD	I-NP	third	JJ	O	O
quarter	t256	10	quarter	O	O	O	tmx37	DATE	1989-Q3	cs34	O	NN1	I-NP	quarter	NN	t254:NMOD||t255:NMOD	O
.	t257	10	.	O	O	O	O	O	O	cs34	O	PUN	O	.	.	O	O

Net	t258	11	net	O	O	O	O	O	O	cs34	O	NP0	B-NP	net	JJ	O	O
interest	t259	11	interest	O	O	O	O	O	O	cs34	O	NN1	I-NP	interest	NN	O	O
income	t260	11	income	O	O	O	O	O	O	cs34	O	NN1	I-NP	income	NN	t258:NMOD||t259:NMOD||t261:NMOD	O
for	t261	11	for	O	O	O	O	O	O	cs34	O	PRP	B-PP	for	IN	t264:PMOD	O
the	t262	11	the	O	O	O	tmx38	DATE	1989-Q3	cs34	O	AT0	B-NP	the	DT	O	O
third	t263	11	third	O	O	O	tmx38	DATE	1989-Q3	cs34	O	ORD	I-NP	third	JJ	O	O
quarter	t264	11	quarter	O	O	O	tmx38	DATE	1989-Q3	cs34	O	NN1	I-NP	quarter	NN	t262:NMOD||t263:NMOD	O
declined	t265	11	decline	O	O	O	O	O	O	cs34	O	VVD	B-VP	decline	VBD	t260:SBJ||t266:DIR||t270:DIR||t277:P	mainVb
to	t266	11	to	O	O	O	O	O	O	cs34	O	PRP	B-PP	to	TO	t267:PMOD	O
$	t267	11	$	O	O	O	O	O	O	cs34	O	CRD	B-NP	$	$	t268:DEP||t269:DEP	O
35.6	t268	11	35.6	O	O	O	O	O	O	cs34	O	CRD	I-NP	35.6	CD	O	O
million	t269	11	million	O	O	O	O	O	O	cs34	O	CRD	I-NP	million	CD	O	O
from	t270	11	from	O	O	O	O	O	O	cs34	O	PRP	B-PP	from	IN	t271:PMOD||t276:TMP	O
$	t271	11	$	O	O	O	O	O	O	cs34	O	ZZ0	B-NP	$	$	t272:DEP||t273:DEP	O
70.1	t272	11	70.1	O	O	O	O	O	O	cs34	O	CRD	I-NP	70.1	CD	O	O
million	t273	11	million	O	O	O	O	O	O	cs34	O	CRD	I-NP	million	CD	O	O
a	t274	11	a	O	O	O	tmx39	DATE	1988-Q3	cs34	O	AT0	B-NP	a	DT	O	O
year	t275	11	year	O	O	O	tmx39	DATE	1988-Q3	cs34	O	NN1	I-NP	year	NN	t274:NMOD	O
ago	t276	11	ago	O	O	O	tmx39	DATE	1988-Q3	cs34	O	AV0	B-ADVP	ago	RB	t275:AMOD	O
.	t277	11	.	O	O	O	O	O	O	cs34	O	PUN	O	.	.	O	O

However	t278	12	however	O	O	O	O	O	O	cs34	O	AV0	B-ADVP	however	RB	O	O
,	t279	12	,	O	O	O	O	O	O	cs34	O	PUN	O	,	,	O	O
non-interest	t280	12	non-interest	O	O	O	O	O	O	cs34	O	AJS	B-NP	non-interest	JJS	O	O
income	t281	12	income	O	O	O	O	O	O	cs34	O	NN1	I-NP	income	NN	t280:NMOD	O
rose	t282	12	rise	e40	OCCURRENCE	PAST+NONE+POS	O	O	O	cs34	O	VVD	B-VP	rise	VBD	t278:ADV||t279:P||t281:SBJ||t283:DIR||t287:DIR||t291:P	mainVb
to	t283	12	to	O	O	O	O	O	O	cs34	O	PRP	B-PP	to	TO	t284:PMOD	O
$	t284	12	$	O	O	O	O	O	O	cs34	O	CRD	B-NP	$	$	t285:DEP||t286:DEP	O
23.5	t285	12	23.5	O	O	O	O	O	O	cs34	O	CRD	I-NP	23.5	CD	O	O
million	t286	12	million	O	O	O	O	O	O	cs34	O	CRD	I-NP	million	CD	O	O
from	t287	12	from	O	O	O	O	O	O	cs34	O	PRP	B-PP	from	IN	t288:PMOD	O
$	t288	12	$	O	O	O	O	O	O	cs34	O	ZZ0	B-NP	$	$	t289:DEP||t290:DEP	O
22	t289	12	22	O	O	O	O	O	O	cs34	O	CRD	I-NP	22	CD	O	O
million	t290	12	million	O	O	O	O	O	O	cs34	O	CRD	I-NP	million	CD	O	O
.	t291	12	.	O	O	O	O	O	O	cs34	O	PUN	O	.	.	O	O

Third-quarter	t292	13	third-quarter	O	O	O	tmx41	DATE	1989-Q3	cs34	O	NP0	B-NP	third-quarter	JJ	O	O
loan	t293	13	loan	O	O	O	O	O	O	cs34	O	NN1	I-NP	loan	NN	O	O
originations	t294	13	origination	O	O	O	O	O	O	cs34	O	NN2	I-NP	origination	NNS	t292:NMOD||t293:NMOD	O
dropped	t295	13	drop	e42	OCCURRENCE	PAST+NONE+POS	O	O	O	cs34	O	VVD	B-VP	drop	VBD	t294:SBJ||t296:MNR||t297:DIR||t301:DIR||t308:P	mainVb
sharply	t296	13	sharply	O	O	O	O	O	O	cs34	O	AV0	B-ADVP	sharply	RB	O	O
to	t297	13	to	O	O	O	O	O	O	cs34	O	PRP	B-PP	to	TO	t298:PMOD	O
$	t298	13	$	O	O	O	O	O	O	cs34	O	NN0	B-NP	$	$	t299:DEP||t300:DEP	O
663	t299	13	663	O	O	O	O	O	O	cs34	O	CRD	I-NP	663	CD	O	O
million	t300	13	million	O	O	O	O	O	O	cs34	O	CRD	I-NP	million	CD	O	O
from	t301	13	from	O	O	O	O	O	O	cs34	O	PRP	B-PP	from	IN	t302:PMOD||t307:TMP	O
$	t302	13	$	O	O	O	O	O	O	cs34	O	ZZ0	B-NP	$	$	t303:DEP||t304:DEP	O
1	t303	13	1	O	O	O	O	O	O	cs34	O	CRD	I-NP	1	CD	O	O
billion	t304	13	billion	O	O	O	O	O	O	cs34	O	CRD	I-NP	billion	CD	O	O
a	t305	13	a	O	O	O	tmx43	DATE	1988-Q3	cs34	O	AT0	B-NP	a	DT	O	O
year	t306	13	year	O	O	O	tmx43	DATE	1988-Q3	cs34	O	NN1	I-NP	year	NN	t305:NMOD	O
ago	t307	13	ago	O	O	O	tmx43	DATE	1988-Q3	cs34	O	AV0	B-ADVP	ago	RB	t306:AMOD	O
.	t308	13	.	O	O	O	O	O	O	cs34	O	PUN	O	.	.	O	O

Standard	t309	14	standard	O	O	O	O	O	O	cs34	O	NP0	B-NP	standard	JJ	O	O
amp	t310	14	amp	O	O	O	O	O	O	cs34	O	NN1	I-NP	amp	CC	O	O
Poor	t311	14	Poor	O	O	O	O	O	O	cs34	O	NP0	I-NP	poor	NN	t309:NAME||t310:NAME||t312:NMOD||t313:POSTHON	O
's	t312	14	's	O	O	O	O	O	O	cs34	O	POS	B-NP	's	POS	O	O
Corp.	t313	14	Corp.	O	O	O	O	O	O	cs34	O	NN1	I-NP	corp.	NNP	O	O
lowered	t314	14	lower	e44	OCCURRENCE	PAST+NONE+POS	O	O	O	cs34	O	VVD	B-VP	lower	VBD	t311:SBJ||t316:OBJ||t326:COORD||t335:P	mainVb
the	t315	14	the	O	O	O	O	O	O	cs34	O	AT0	B-NP	the	DT	O	O
rating	t316	14	rating	O	O	O	O	O	O	cs34	O	NN1	I-NP	rating	NN	t315:NMOD||t317:NMOD	O
on	t317	14	on	O	O	O	O	O	O	cs34	O	PRP	B-PP	on	IN	t321:PMOD	O
Crossland	t318	14	Crossland	O	O	O	O	O	O	cs34	O	NP0	B-NP	crossland	NNP	t319:SUFFIX	O
's	t319	14	's	O	O	O	O	O	O	cs34	O	POS	B-NP	's	POS	O	O
preferred	t320	14	preferred	O	O	O	O	O	O	cs34	O	AJ0	I-NP	prefer	VBN	O	O
stock	t321	14	stock	O	O	O	O	O	O	cs34	O	NN1	I-NP	stock	NN	t318:NMOD||t320:NMOD||t322:NMOD	O
to	t322	14	to	O	O	O	O	O	O	cs34	O	PRP	B-PP	to	TO	t323:IM	O
double-C	t323	14	double-c	O	O	O	O	O	O	cs34	O	NN0	B-NP	double-c	VB	t324:ADV	O
from	t324	14	from	O	O	O	O	O	O	cs34	O	PRP	B-PP	from	IN	t325:PMOD	O
single-B-minus	t325	14	single-b-minus	O	O	O	O	O	O	cs34	O	NN0	B-NP	single-b-minus	JJ	O	O
and	t326	14	and	O	O	O	O	O	O	cs34	O	CJC	O	and	CC	t327:CONJ	O
placed	t327	14	place	e45	OCCURRENCE	PAST+NONE+POS	O	O	O	cs34	O	VVD	B-VP	place	VBD	t328:OBJ||t329:ADV||t331:ADV	O
it	t328	14	it	O	O	O	O	O	O	cs34	O	PNP	B-NP	it	PRP	O	O
on	t329	14	on	O	O	O	O	O	O	cs34	O	PRP	B-PP	on	IN	t330:PMOD	O
CreditWatch	t330	14	CreditWatch	O	O	O	O	O	O	cs34	O	NP0	B-NP	creditwatch	NNP	O	O
for	t331	14	for	O	O	O	O	O	O	cs34	O	PRP	B-PP	for	IN	t334:PMOD	O
possible	t332	14	possible	O	O	O	O	O	O	cs34	O	AJ0	B-NP	possible	JJ	O	O
further	t333	14	further	O	O	O	O	O	O	cs34	O	AV0	I-NP	further	JJ	O	O
downgrade	t334	14	downgrade	O	O	O	O	O	O	cs34	O	AJ0	I-NP	downgrade	NN	t332:NMOD||t333:NMOD	O
.	t335	14	.	O	O	O	O	O	O	cs34	O	PUN	O	.	.	O	O

It	t336	15	it	O	O	O	O	O	O	cs34	O	PNP	B-NP	it	PRP	O	O
also	t337	15	also	O	O	O	O	O	O	cs34	O	AV0	B-ADVP	also	RB	O	O
placed	t338	15	place	e46	OCCURRENCE	PAST+NONE+POS	O	O	O	cs34	O	VVD	B-VP	place	VBD	t336:SBJ||t337:ADV||t339:ADV||t341:ADV||t345:OBJ||t369:P	mainVb
on	t339	15	on	O	O	O	O	O	O	cs34	O	PRP	B-PP	on	IN	t340:PMOD	O
CreditWatch	t340	15	CreditWatch	O	O	O	O	O	O	cs34	O	NP0	B-NP	creditwatch	NNP	O	O
for	t341	15	for	O	O	O	O	O	O	cs34	O	PRP	B-PP	for	IN	t343:PMOD	O
possible	t342	15	possible	O	O	O	O	O	O	cs34	O	AJ0	B-NP	possible	JJ	O	O
downgrade	t343	15	downgrade	O	O	O	O	O	O	cs34	O	NN1	I-NP	downgrade	NN	t342:NMOD	O
other	t344	15	other	O	O	O	O	O	O	cs34	O	AJ0	I-NP	other	JJ	O	O
securities	t345	15	security	O	O	O	O	O	O	cs34	O	NN2	I-NP	security	NNS	t344:NMOD||t346:P||t347:NMOD	O
,	t346	15	,	O	O	O	O	O	O	cs34	O	PUN	O	,	,	O	O
including	t347	15	include	O	O	O	O	O	O	cs34	O	PRP	B-PP	include	VBG	t352:PMOD	O
the	t348	15	the	O	O	O	O	O	O	cs34	O	AT0	B-NP	the	DT	O	O
double-B-minus	t349	15	double-b-minus	O	O	O	O	O	O	cs34	O	UNC	I-NP	double-b-minus	NNP	t350:COORD	O
/	t350	15	/	O	O	O	O	O	O	cs34	O	UNC	I-NP	/	:	t351:CONJ	O
B	t351	15	b	O	O	O	O	O	O	cs34	O	ZZ0	I-NP	b	NNP	O	O
rating	t352	15	rating	O	O	O	O	O	O	cs34	O	NN1	I-NP	rating	NN	t348:NMOD||t349:NMOD||t353:NMOD||t359:COORD	O
of	t353	15	of	O	O	O	O	O	O	cs34	O	PRF	B-PP	of	IN	t356:PMOD	O
Crossland	t354	15	Crossland	O	O	O	O	O	O	cs34	O	NP0	B-NP	crossland	NNP	t355:SUFFIX	O
's	t355	15	's	O	O	O	O	O	O	cs34	O	POS	B-NP	's	POS	O	O
certificates	t356	15	certificate	O	O	O	O	O	O	cs34	O	NN2	I-NP	certificate	NNS	t354:NMOD||t357:NMOD	O
of	t357	15	of	O	O	O	O	O	O	cs34	O	PRF	B-PP	of	IN	t358:PMOD	O
deposit	t358	15	deposit	O	O	O	O	O	O	cs34	O	NN1	B-NP	deposit	NN	O	O
and	t359	15	and	O	O	O	O	O	O	cs34	O	CJC	O	and	CC	t362:CONJ	O
the	t360	15	the	O	O	O	O	O	O	cs34	O	AT0	B-NP	the	DT	O	O
single-B	t361	15	single-b	O	O	O	O	O	O	cs34	O	AJ0	I-NP	single-b	JJ	O	O
rating	t362	15	rating	O	O	O	O	O	O	cs34	O	NN1	I-NP	rating	NN	t360:NMOD||t361:NMOD||t363:NMOD	O
of	t363	15	of	O	O	O	O	O	O	cs34	O	PRF	B-PP	of	IN	t368:PMOD	O
its	t364	15	its	O	O	O	O	O	O	cs34	O	DPS	B-NP	its	PRP$	O	O
senior	t365	15	senior	O	O	O	O	O	O	cs34	O	AJ0	I-NP	senior	JJ	O	O
subordinated	t366	15	subordinated	O	O	O	O	O	O	cs34	O	AJ0	I-NP	subordinate	VBN	O	O
capital	t367	15	capital	O	O	O	O	O	O	cs34	O	NN1	I-NP	capital	NN	O	O
notes	t368	15	note	O	O	O	O	O	O	cs34	O	NN2	I-NP	note	NNS	t364:NMOD||t365:NMOD||t366:NMOD||t367:NMOD	O
.	t369	15	.	O	O	O	O	O	O	cs34	O	PUN	O	.	.	O	O

About	t370	16	about	O	O	O	O	O	O	cs34	O	AV0	B-NP	about	IN	O	O
$	t371	16	$	O	O	O	O	O	O	cs34	O	CRD	I-NP	$	$	t370:DEP||t372:DEP||t373:DEP||t374:NMOD	O
518	t372	16	518	O	O	O	O	O	O	cs34	O	CRD	I-NP	518	CD	O	O
million	t373	16	million	O	O	O	O	O	O	cs34	O	CRD	I-NP	million	CD	O	O
of	t374	16	of	O	O	O	O	O	O	cs34	O	PRF	B-PP	of	IN	t375:PMOD	O
debt	t375	16	debt	O	O	O	O	O	O	cs34	O	NN1	B-NP	debt	NN	O	O
is	t376	16	be	O	O	O	O	O	O	cs34	O	VBZ	B-VP	be	VBZ	t371:SBJ||t377:VC||t378:P	mainVb
affected	t377	16	affect	O	O	O	O	O	O	cs34	O	VVN	I-VP	affect	VBN	O	mainVb
.	t378	16	.	O	O	O	O	O	O	cs34	O	PUN	O	.	.	O	O
