DCT_1989-10-26	O	O	O	O	O	O	tmx0	DATE	1989-10-26	O	O	NP0	B-NP	dct_1989-10-26	LS	O	O

Du	t1	1	Du	O	O	O+O+O	O	O	O	O	O	NP0	B-NP	du	NNP	O	O
Pont	t2	1	Pont	O	O	O+O+O	O	O	O	O	O	NP0	I-NP	pont	NNP	t1:NAME||t3:POSTHON	O
Co.	t3	1	Co.	O	O	O+O+O	O	O	O	O	O	NP0	I-NP	co.	NNP	O	O
reported	t4	1	report	e1	REPORTING	PAST+NONE+POS	O	O	O	O	O	VVD	B-VP	report	VBD	t2:SBJ||t5:OBJ||t34:P	mainVb
that	t5	1	that	O	O	O	O	O	O	O	O	CJT	B-SBAR	that	IN	t8:SUB	O
third-quarter	t6	1	third-quarter	O	O	O	tmx2	DATE	1989-Q3	O	O	NN1	B-NP	third-quarter	JJ	O	O
profit	t7	1	profit	O	O	O	O	O	O	O	O	NN1	I-NP	profit	NN	t6:NMOD	O
grew	t8	1	grow	e3	OCCURRENCE	PAST+NONE+POS	O	O	O	O	O	VVD	B-VP	grow	VBD	t7:SBJ||t12:EXT||t13:DIR||t17:ADV	O
a	t9	1	a	O	O	O	O	O	O	O	O	AT0	B-NP	a	DT	O	O
robust	t10	1	robust	O	O	O	O	O	O	O	O	AJ0	I-NP	robust	JJ	O	O
19	t11	1	19	O	O	O	O	O	O	O	O	CRD	I-NP	19	CD	O	O
%	t12	1	%	O	O	O	O	O	O	O	O	UNC	I-NP	%	NN	t9:NMOD||t10:NMOD||t11:NMOD	O
from	t13	1	from	O	O	O	O	O	O	O	O	PRP	B-PP	from	IN	t16:TMP	O
a	t14	1	a	O	O	O	tmx4	DATE	1988-Q3	O	O	AT0	B-NP	a	DT	O	O
year	t15	1	year	O	O	O	tmx4	DATE	1988-Q3	O	O	NN1	I-NP	year	NN	t14:NMOD	O
ago	t16	1	ago	O	O	O	tmx4	DATE	1988-Q3	O	O	AV0	B-ADVP	ago	IN	t15:AMOD	O
on	t17	1	on	O	O	O	O	O	O	O	O	PRP	B-PP	on	IN	t19:PMOD	O
the	t18	1	the	O	O	O	O	O	O	O	O	AT0	B-NP	the	DT	O	O
strength	t19	1	strength	O	O	O	O	O	O	O	O	NN1	I-NP	strength	NN	t18:NMOD||t20:NMOD	O
of	t20	1	of	O	O	O	O	O	O	O	O	PRF	B-PP	of	IN	t24:PMOD	O
the	t21	1	the	O	O	O	O	O	O	O	O	AT0	B-NP	the	DT	O	O
company	t22	1	company	O	O	O	O	O	O	O	O	NN1	I-NP	company	NN	t21:NMOD||t23:SUFFIX	O
's	t23	1	's	O	O	O	O	O	O	O	O	POS	B-NP	's	POS	O	O
operations	t24	1	operation	e5	OCCURRENCE	NONE+NONE+POS	O	O	O	O	O	NN2	I-NP	operations	NNS	t22:NMOD||t25:LOC	O
in	t25	1	in	O	O	O	O	O	O	O	O	PRP	B-PP	in	IN	t27:PMOD||t30:P||t31:COORD	O
various	t26	1	various	O	O	O	O	O	O	O	O	AJ0	B-NP	various	JJ	O	O
chemicals	t27	1	chemical	O	O	O	O	O	O	O	O	NN2	I-NP	chemical	NNS	t26:NMOD||t28:COORD	O
and	t28	1	and	O	O	O	O	O	O	O	O	CJC	I-NP	and	CC	t29:CONJ	O
fibers	t29	1	fiber	O	O	O	O	O	O	O	O	NN2	I-NP	fiber	NNS	O	O
,	t30	1	,	O	O	O	O	O	O	O	O	PUN	O	,	,	O	O
and	t31	1	and	O	O	O	O	O	O	O	O	CJC	O	and	CC	t32:CONJ	O
in	t32	1	in	O	O	O	O	O	O	O	O	PRP	B-PP	in	IN	t33:PMOD	O
petroleum	t33	1	petroleum	O	O	O	O	O	O	O	O	NN1	B-NP	petroleum	NN	O	O
.	t34	1	.	O	O	O	O	O	O	O	O	PUN	O	.	.	O	O

Du	t35	2	Du	O	O	O	O	O	O	O	O	NP0	B-NP	du	NNP	O	O
Pont	t36	2	Pont	O	O	O	O	O	O	O	O	NP0	I-NP	pont	NNP	t35:NAME	O
also	t37	2	also	O	O	O	O	O	O	O	O	AV0	B-ADVP	also	RB	O	O
raised	t38	2	raise	e6	OCCURRENCE	PAST+NONE+POS	O	O	O	O	O	VVD	B-VP	raise	VBD	t36:SBJ||t37:ADV||t41:OBJ||t42:DIR||t47:DIR||t50:P||t52:ADV||t66:P	mainVb
its	t39	2	its	O	O	O	O	O	O	O	O	DPS	B-NP	its	PRP$	O	O
quarterly	t40	2	quarterly	O	O	O	O	O	O	O	O	AJ0	I-NP	quarterly	JJ	O	O
dividend	t41	2	dividend	O	O	O	O	O	O	O	O	NN1	I-NP	dividend	NN	t39:NMOD||t40:NMOD	O
to	t42	2	to	O	O	O	O	O	O	O	O	PRP	B-PP	to	TO	t43:PMOD	O
$	t43	2	$	O	O	O	O	O	O	O	O	NN0	B-NP	$	$	t44:NMOD||t46:ADV	O
1.20	t44	2	1.20	O	O	O	O	O	O	O	O	CRD	I-NP	1.20	CD	O	O
a	t45	2	a	O	O	O	O	O	O	O	O	AT0	B-NP	a	DT	O	O
share	t46	2	share	O	O	O	O	O	O	O	O	NN1	I-NP	share	NN	t45:NMOD	O
from	t47	2	from	O	O	O	O	O	O	O	O	PRP	B-PP	from	IN	t48:PMOD	O
$	t48	2	$	O	O	O	O	O	O	O	O	ZZ0	B-NP	$	$	t49:NMOD	O
1.05	t49	2	1.05	O	O	O	O	O	O	O	O	CRD	I-NP	1.05	CD	O	O
,	t50	2	,	O	O	O	O	O	O	O	O	PUN	O	,	,	O	O
a	t51	2	a	O	O	O	O	O	O	O	O	AT0	B-NP	a	DT	O	O
change	t52	2	change	e7	OCCURRENCE	NONE+NONE+POS	O	O	O	O	O	NN1	I-NP	change	NN	t51:NMOD||t54:NMOD	O
that	t53	2	that	O	O	O	O	O	O	O	O	CJT	B-NP	that	WDT	O	O
will	t54	2	will	O	O	O	O	O	O	O	O	VM0	B-VP	will	MD	t53:SBJ||t55:VC	O
increase	t55	2	increase	e8	OCCURRENCE	FUTURE+NONE+POS	O	O	O	O	O	VVI	I-VP	increase	VB	t58:OBJ||t61:EXT	O
the	t56	2	the	O	O	O	O	O	O	O	O	AT0	B-NP	the	DT	O	O
annualized	t57	2	annualize	O	O	O	O	O	O	O	O	AJ0	I-NP	annualized	VBN	O	O
payout	t58	2	payout	O	O	O	O	O	O	O	O	NN1	I-NP	payout	NN	t56:NMOD||t57:NMOD||t59:NMOD	O
to	t59	2	to	O	O	O	O	O	O	O	O	PRP	B-PP	to	TO	t60:PMOD	O
shareholders	t60	2	shareholder	O	O	O	O	O	O	O	O	NN2	B-NP	shareholder	NNS	O	O
by	t61	2	by	O	O	O	O	O	O	O	O	PRP	B-PP	by	IN	t63:PMOD	O
some	t62	2	some	O	O	O	O	O	O	O	O	DT0	B-NP	some	DT	O	O
$	t63	2	$	O	O	O	O	O	O	O	O	CRD	I-NP	$	$	t62:DEP||t64:DEP||t65:DEP	O
140	t64	2	140	O	O	O	O	O	O	O	O	CRD	I-NP	140	CD	O	O
million	t65	2	million	O	O	O	O	O	O	O	O	CRD	I-NP	million	CD	O	O
.	t66	2	.	O	O	O	O	O	O	O	O	PUN	O	.	.	O	O

Du	t67	3	Du	O	O	O	O	O	O	O	O	NP0	B-NP	du	NNP	O	O
Pont	t68	3	Pont	O	O	O	O	O	O	O	O	NP0	I-NP	pont	NNP	t67:NAME	O
,	t69	3	,	O	O	O	O	O	O	O	O	PUN	O	,	,	O	O
unlike	t70	3	unlike	O	O	O	O	O	O	O	O	PRP	B-PP	unlike	IN	t71:PMOD	O
companies	t71	3	company	O	O	O	O	O	O	O	O	NN2	B-NP	company	NNS	t72:APPO	O
hurt	t72	3	hurt	e9	STATE	PASTPART+NONE+POS	O	O	O	O	O	VVD	B-VP	hurt	VBN	t73:MNR||t74:LGS	O
badly	t73	3	badly	O	O	O	O	O	O	O	O	AV0	B-ADVP	badly	RB	O	O
by	t74	3	by	O	O	O	O	O	O	cs10	O	PRP	B-PP	by	IN	t77:PMOD	O
sharp	t75	3	sharp	O	O	O	O	O	O	cs10	O	AJ0	B-NP	sharp	JJ	O	O
price	t76	3	price	O	O	O	O	O	O	cs10	O	NN1	I-NP	price	NN	O	O
declines	t77	3	decline	e11	OCCURRENCE	NONE+NONE+POS	O	O	O	cs10	O	VVZ	I-NP	decline	NNS	t75:NMOD||t76:NMOD||t78:NMOD	O
for	t78	3	for	O	O	O	O	O	O	cs10	O	PRP	B-PP	for	IN	t80:PMOD	O
basic	t79	3	basic	O	O	O	O	O	O	cs10	O	AJ0	B-NP	basic	JJ	O	O
chemicals	t80	3	chemical	O	O	O	O	O	O	cs10	O	NN2	I-NP	chemical	NNS	t79:NMOD||t81:COORD	O
and	t81	3	and	O	O	O	O	O	O	cs10	O	CJC	I-NP	and	CC	t82:CONJ	O
plastics	t82	3	plastic	O	O	O	O	O	O	cs10	O	NN2	I-NP	plastic	NNS	O	O
,	t83	3	,	O	O	O	O	O	O	cs10	O	PUN	O	,	,	O	O
is	t84	3	be	O	O	O	O	O	O	cs10	O	VBZ	B-VP	be	VBZ	t68:SBJ||t69:P||t70:ADV||t83:P||t85:VC||t92:P	mainVb
benefiting	t85	3	benefit	e12	OCCURRENCE	PRESENT+PROGRESSIVE+POS	O	O	O	cs10	O	VVG	I-VP	benefit	VBG	t86:ADV	mainVb
from	t86	3	from	O	O	O	O	O	O	cs10	O	PRP	B-PP	from	IN	t89:PMOD	O
its	t87	3	its	O	O	O	O	O	O	cs10	O	DPS	B-NP	its	PRP$	O	O
broad	t88	3	broad	O	O	O	O	O	O	cs10	O	AJ0	I-NP	broad	JJ	O	O
range	t89	3	range	O	O	O	O	O	O	cs10	O	NN1	I-NP	range	NN	t87:NMOD||t88:NMOD||t90:NMOD	O
of	t90	3	of	O	O	O	O	O	O	cs10	O	PRF	B-PP	of	IN	t91:PMOD	O
businesses	t91	3	business	O	O	O	O	O	O	cs10	O	NN2	B-NP	business	NNS	O	O
.	t92	3	.	O	O	O	O	O	O	cs10	O	PUN	O	.	.	O	O

The	t93	4	the	O	O	O	O	O	O	cs10	O	AT0	B-NP	the	DT	O	O
profit	t94	4	profit	O	O	O	O	O	O	cs10	O	NN1	I-NP	profit	NN	O	O
gain	t95	4	gain	O	O	O	O	O	O	cs10	O	NN1	I-NP	gain	NN	t93:NMOD||t94:NMOD	O
was	t96	4	be	O	O	O	O	O	O	cs10	O	VBD	B-VP	be	VBD	t95:SBJ||t97:VC||t134:P	mainVb
made	t97	4	make	e13	OCCURRENCE	PAST+NONE+POS	O	O	O	cs10	O	VVN	I-VP	make	VBN	t98:ADV	mainVb
despite	t98	4	despite	O	O	O	O	O	O	cs10	O	PRP	B-PP	despite	IN	t100:PMOD	O
a	t99	4	a	O	O	O	O	O	O	cs10	O	AT0	B-NP	a	DT	O	O
weakening	t100	4	weakening	e14	OCCURRENCE	NONE+NONE+POS	O	O	O	cs10	O	NN1	I-NP	weakening	NN	t99:NMOD||t101:LOC||t113:P||t114:COORD	O
in	t101	4	in	O	O	O	O	O	O	cs10	O	PRP	B-PP	in	IN	t104:PMOD	O
the	t102	4	the	O	O	O	O	O	O	cs10	O	AT0	B-NP	the	DT	O	O
housing	t103	4	housing	O	O	O	O	O	O	cs10	O	NN1	I-NP	housing	NN	O	O
market	t104	4	market	O	O	O	O	O	O	cs10	O	NN1	I-NP	market	NN	t102:NMOD||t103:NMOD||t105:P||t110:NMOD	O
,	t105	4	,	O	O	O	O	O	O	cs10	O	PUN	O	,	,	O	O
for	t106	4	for	O	O	O	O	O	O	cs10	O	PRP	B-PP	for	IN	t107:PMOD	O
which	t107	4	which	O	O	O	O	O	O	cs10	O	DTQ	B-NP	which	WDT	O	O
the	t108	4	the	O	O	O	O	O	O	cs10	O	AT0	B-NP	the	DT	O	O
company	t109	4	company	O	O	O	O	O	O	cs10	O	NN1	I-NP	company	NN	t108:NMOD	O
is	t110	4	be	O	O	O	O	O	O	cs10	O	VBZ	B-VP	be	VBZ	t109:SBJ||t112:PRD	O
a	t111	4	a	O	O	O	O	O	O	cs10	O	AT0	B-NP	a	DT	O	O
supplier	t112	4	supplier	O	O	O	O	O	O	cs10	O	NN1	I-NP	supplier	NN	t106:NMOD||t111:NMOD	O
,	t113	4	,	O	O	O	O	O	O	cs10	O	PUN	O	,	,	O	O
and	t114	4	and	O	O	O	O	O	O	cs10	O	CJC	O	and	CC	t116:CONJ	O
a	t115	4	a	O	O	O	O	O	O	cs10	O	AT0	B-NP	a	DT	O	O
strengthening	t116	4	strengthening	e15	OCCURRENCE	NONE+NONE+POS	O	O	O	cs10	O	NN1	I-NP	strengthening	NN	t115:NMOD||t117:LOC||t120:P||t122:NMOD	O
in	t117	4	in	O	O	O	O	O	O	cs10	O	PRP	B-PP	in	IN	t119:PMOD	O
the	t118	4	the	O	O	O	O	O	O	cs10	O	AT0	B-NP	the	DT	O	O
dollar	t119	4	dollar	O	O	O	O	O	O	cs10	O	NN1	I-NP	dollar	NN	t118:NMOD	O
,	t120	4	,	O	O	O	O	O	O	cs10	O	PUN	O	,	,	O	O
which	t121	4	which	O	O	O	O	O	O	cs10	O	DTQ	B-NP	which	WDT	O	O
lowers	t122	4	lower	e16	OCCURRENCE	PRESENT+NONE+POS	O	O	O	cs10	O	VVZ	B-VP	lower	VBZ	t121:SBJ||t124:OBJ	O
the	t123	4	the	O	O	O	O	O	O	cs10	O	AT0	B-NP	the	DT	O	O
value	t124	4	value	O	O	O	O	O	O	cs10	O	NN1	I-NP	value	NN	t123:NMOD||t125:NMOD||t130:NMOD	O
of	t125	4	of	O	O	O	O	O	O	cs10	O	PRF	B-PP	of	IN	t127:PMOD	O
overseas	t126	4	overseas	O	O	O	O	O	O	cs10	O	AJ0	B-NP	overseas	JJ	O	O
earnings	t127	4	earnings	O	O	O	O	O	O	cs10	O	NN2	I-NP	earnings	NNS	t126:NMOD	O
when	t128	4	when	O	O	O	O	O	O	cs10	O	CJS	B-ADVP	when	WRB	O	O
they	t129	4	they	O	O	O	O	O	O	cs10	O	PNP	B-NP	they	PRP	O	O
are	t130	4	be	O	O	O	O	O	O	cs10	O	VBB	B-VP	be	VBP	t129:SBJ||t131:VC	O
translated	t131	4	translate	O	O	O	O	O	O	cs10	O	VVN	I-VP	translate	VBN	t128:TMP||t132:ADV	O
into	t132	4	into	O	O	O	O	O	O	cs10	O	PRP	B-PP	into	IN	t133:PMOD	O
dollars	t133	4	dollar	O	O	O	O	O	O	cs10	O	NN2	B-NP	dollar	NNS	O	O
.	t134	4	.	O	O	O	O	O	O	cs10	O	PUN	O	.	.	O	O

The	t135	5	the	O	O	O	O	O	O	cs10	O	AT0	B-NP	the	DT	O	O
Wilmington	t136	5	Wilmington	O	O	O	O	O	O	cs10	O	NP0	I-NP	wilmington	NNP	O	O
,	t137	5	,	O	O	O	O	O	O	cs10	O	PUN	O	,	,	O	O
Del.	t138	5	Del.	O	O	O	O	O	O	cs10	O	NP0	B-NP	del.	NNP	t136:NAME||t137:P||t139:P	O
,	t139	5	,	O	O	O	O	O	O	cs10	O	PUN	O	,	,	O	O
company	t140	5	company	O	O	O	O	O	O	cs10	O	NN1	B-NP	company	NN	t135:NMOD||t138:LOC	O
reported	t141	5	report	e17	REPORTING	PAST+NONE+POS	O	O	O	cs10	O	VVD	B-VP	report	VBD	t140:SBJ||t142:OBJ||t162:P	mainVb
net	t142	5	net	O	O	O	O	O	O	cs10	O	NN1	B-NP	net	NN	t143:NMOD||t153:P||t155:NMOD	O
of	t143	5	of	O	O	O	O	O	O	cs10	O	PRF	B-PP	of	IN	t144:PMOD	O
$	t144	5	$	O	O	O	O	O	O	cs10	O	NN0	B-NP	$	$	t145:DEP||t146:DEP||t147:P||t148:COORD	O
547	t145	5	547	O	O	O	O	O	O	cs10	O	CRD	I-NP	547	CD	O	O
million	t146	5	million	O	O	O	O	O	O	cs10	O	CRD	I-NP	million	CD	O	O
,	t147	5	,	O	O	O	O	O	O	cs10	O	PUN	O	,	,	O	O
or	t148	5	or	O	O	O	O	O	O	cs10	O	CJC	O	or	CC	t149:CONJ	O
$	t149	5	$	O	O	O	O	O	O	cs10	O	CRD	B-NP	$	$	t150:NMOD||t152:ADV	O
2.36	t150	5	2.36	O	O	O	O	O	O	cs10	O	CRD	I-NP	2.36	CD	O	O
a	t151	5	a	O	O	O	O	O	O	cs10	O	AT0	B-NP	a	DT	O	O
share	t152	5	share	O	O	O	O	O	O	cs10	O	NN1	I-NP	share	NN	t151:NMOD	O
,	t153	5	,	O	O	O	O	O	O	cs10	O	PUN	O	,	,	O	O
which	t154	5	which	O	O	O	O	O	O	cs10	O	DTQ	B-NP	which	WDT	O	O
was	t155	5	be	O	O	O	O	O	O	cs10	O	VBD	B-VP	be	VBD	t154:SBJ||t156:PRD	O
in	t156	5	in	O	O	O	O	O	O	cs10	O	PRP	B-PP	in	IN	t157:PMOD	O
line	t157	5	line	O	O	O	O	O	O	cs10	O	PRP	B-NP	line	NN	t158:NMOD	O
with	t158	5	with	O	O	O	O	O	O	cs10	O	PRP	B-PP	with	IN	t161:PMOD	O
Wall	t159	5	Wall	O	O	O	O	O	O	cs10	O	NP0	B-NP	wall	NNP	O	O
Street	t160	5	Street	O	O	O	O	O	O	cs10	O	NP0	I-NP	street	NNP	t159:NAME	O
estimates	t161	5	estimate	e18	I_STATE	NONE+NONE+POS	O	O	O	cs10	O	NN2	I-NP	estimate	NNS	t160:NMOD	O
.	t162	5	.	O	O	O	O	O	O	cs10	O	PUN	O	.	.	O	O

In	t163	6	in	O	O	O	O	O	O	cs10	O	PRP	B-PP	in	IN	t166:PMOD	O
the	t164	6	the	O	O	O	tmx19	DATE	1988-Q3	cs10	O	AT0	B-NP	the	DT	O	O
year-earlier	t165	6	year-earlier	O	O	O	tmx19	DATE	1988-Q3	cs10	O	AJC	I-NP	year-earlier	JJR	O	O
period	t166	6	period	O	O	O	tmx19	DATE	1988-Q3	cs10	O	NN1	I-NP	period	NN	t164:NMOD||t165:NMOD	O
,	t167	6	,	O	O	O	O	O	O	cs10	O	PUN	O	,	,	O	O
the	t168	6	the	O	O	O	O	O	O	cs10	O	AT0	B-NP	the	DT	O	O
company	t169	6	company	O	O	O	O	O	O	cs10	O	NN1	I-NP	company	NN	t168:NMOD	O
earned	t170	6	earn	e20	OCCURRENCE	PAST+NONE+POS	O	O	O	cs10	O	VVD	B-VP	earn	VBD	t163:TMP||t167:P||t169:SBJ||t171:OBJ||t180:P	mainVb
$	t171	6	$	O	O	O	O	O	O	cs10	O	NN0	B-NP	$	$	t172:DEP||t173:DEP||t174:P||t175:COORD	O
461	t172	6	461	O	O	O	O	O	O	cs10	O	CRD	I-NP	461	CD	O	O
million	t173	6	million	O	O	O	O	O	O	cs10	O	CRD	I-NP	million	CD	O	O
,	t174	6	,	O	O	O	O	O	O	cs10	O	PUN	O	,	,	O	O
or	t175	6	or	O	O	O	O	O	O	cs10	O	CJC	O	or	CC	t176:CONJ	O
$	t176	6	$	O	O	O	O	O	O	cs10	O	CRD	B-NP	$	$	t177:NMOD||t179:ADV	O
1.91	t177	6	1.91	O	O	O	O	O	O	cs10	O	CRD	I-NP	1.91	CD	O	O
a	t178	6	a	O	O	O	O	O	O	cs10	O	AT0	B-NP	a	DT	O	O
share	t179	6	share	O	O	O	O	O	O	cs10	O	NN1	I-NP	share	NN	t178:NMOD	O
.	t180	6	.	O	O	O	O	O	O	cs10	O	PUN	O	.	.	O	O

Sales	t181	7	sale	O	O	O	O	O	O	cs10	O	NP0	B-NP	sales	NNS	t182:TMP	O
in	t182	7	in	O	O	O	O	O	O	cs10	O	PRP	B-PP	in	IN	t185:PMOD	O
the	t183	7	the	O	O	O	tmx21	DATE	1989-Q3	cs10	O	AT0	B-NP	the	DT	O	O
latest	t184	7	latest	O	O	O	tmx21	DATE	1989-Q3	cs10	O	AJS	I-NP	latest	JJS	O	O
quarter	t185	7	quarter	O	O	O	tmx21	DATE	1989-Q3	cs10	O	NN1	I-NP	quarter	NN	t183:NMOD||t184:NMOD	O
were	t186	7	be	O	O	O	O	O	O	cs10	O	VBD	B-VP	be	VBD	t181:SBJ||t187:PRD||t190:P||t191:ADV||t198:P	mainVb
$	t187	7	$	O	O	O	O	O	O	cs10	O	CRD	B-NP	$	$	t188:DEP||t189:DEP	O
8.59	t188	7	8.59	O	O	O	O	O	O	cs10	O	CRD	I-NP	8.59	CD	O	O
billion	t189	7	billion	O	O	O	O	O	O	cs10	O	CRD	I-NP	billion	CD	O	O
,	t190	7	,	O	O	O	O	O	O	cs10	O	PUN	O	,	,	O	O
up	t191	7	up	O	O	O	O	O	O	cs10	O	AV0	B-ADVP	up	IN	t193:AMOD||t194:AMOD	O
9.4	t192	7	9.4	O	O	O	O	O	O	cs10	O	CRD	B-NP	9.4	CD	O	O
%	t193	7	%	O	O	O	O	O	O	cs10	O	UNC	I-NP	%	NN	t192:NMOD	O
from	t194	7	from	O	O	O	O	O	O	cs10	O	PRP	B-PP	from	IN	t195:PMOD	O
$	t195	7	$	O	O	O	O	O	O	cs10	O	CRD	B-NP	$	$	t196:DEP||t197:DEP	O
7.85	t196	7	7.85	O	O	O	O	O	O	cs10	O	CRD	I-NP	7.85	CD	O	O
billion	t197	7	billion	O	O	O	O	O	O	cs10	O	CRD	I-NP	billion	CD	O	O
.	t198	7	.	O	O	O	O	O	O	cs10	O	PUN	O	.	.	O	O

The	t199	8	the	O	O	O	O	O	O	cs10	O	AT0	B-NP	the	DT	O	O
dividend	t200	8	dividend	O	O	O	O	O	O	cs10	O	NN1	I-NP	dividend	NN	O	O
increase	t201	8	increase	e22	OCCURRENCE	NONE+NONE+POS	O	O	O	cs10	O	NN1	I-NP	increase	NN	t199:NMOD||t200:NMOD	O
was	t202	8	be	O	O	O	O	O	O	cs10	O	VBD	B-VP	be	VBD	t201:SBJ||t204:PRD||t208:TMP||t209:P||t211:ADV||t225:P||t226:P	mainVb
Du	t203	8	Du	O	O	O	O	O	O	cs10	O	NP0	B-NP	du	NNP	O	O
Pont	t204	8	Pont	O	O	O	O	O	O	cs10	O	NP0	I-NP	pont	NNP	t203:NAME||t205:SUFFIX||t206:NMOD	O
's	t205	8	's	O	O	O	O	O	O	cs10	O	POS	B-NP	's	POS	O	O
second	t206	8	second	O	O	O	O	O	O	cs10	O	ORD	I-NP	second	JJ	O	O
this	t207	8	this	O	O	O	tmx23	DATE	1989	cs10	O	DT0	I-NP	this	DT	O	O
year	t208	8	year	O	O	O	tmx23	DATE	1989	cs10	O	NN1	I-NP	year	NN	t207:NMOD	O
,	t209	8	,	O	O	O	O	O	O	cs10	O	PUN	O	,	,	O	O
an	t210	8	a	O	O	O	O	O	O	cs10	O	AT0	B-NP	an	DT	O	O
affirmation	t211	8	affirmation	e24	REPORTING	NONE+NONE+POS	O	O	O	cs10	O	NN1	I-NP	affirmation	NN	t210:NMOD||t212:NMOD	O
of	t212	8	of	O	O	O	O	O	O	cs10	O	PRF	B-PP	of	IN	t213:PMOD	O
statements	t213	8	statement	O	O	O	O	O	O	cs10	O	NN2	B-NP	statement	NNS	t214:NMOD||t217:NMOD	O
by	t214	8	by	O	O	O	O	O	O	cs10	O	PRP	B-PP	by	IN	t216:PMOD	O
top	t215	8	top	O	O	O	O	O	O	cs10	O	AJ0	B-NP	top	JJ	O	O
executives	t216	8	executive	O	O	O	O	O	O	cs10	O	NN2	I-NP	executive	NNS	t215:NMOD	O
that	t217	8	that	O	O	O	O	O	O	cs10	O	CJT	B-SBAR	that	IN	t219:SUB	O
they	t218	8	they	O	O	O	O	O	O	cs10	O	PNP	B-NP	they	PRP	O	O
intend	t219	8	intend	e25	I_STATE	PRESENT+NONE+POS	O	O	O	cs10	O	VVB	B-VP	intend	VBP	t218:SBJ||t220:OPRD	O
to	t220	8	to	O	O	O	O	O	O	cs10	O	TO0	I-VP	to	TO	t221:IM	O
increase	t221	8	increase	e26	OCCURRENCE	INFINITIVE+NONE+POS	O	O	O	cs10	O	VVI	I-VP	increase	VB	t222:OBJ	O
rewards	t222	8	reward	O	O	O	O	O	O	cs10	O	NN2	B-NP	reward	NNS	t223:NMOD	O
to	t223	8	to	O	O	O	O	O	O	cs10	O	PRP	B-PP	to	TO	t224:PMOD	O
shareholders	t224	8	shareholder	O	O	O	O	O	O	cs10	O	NN2	B-NP	shareholder	NNS	O	O
.	t225	8	.	O	O	O	O	O	O	cs10	O	PUN	O	.	.	O	O
"	t226	8	"	O	O	O	O	O	O	cs10	O	PUQ	O	"	''	O	O

We	t227	9	we	O	O	O	O	O	O	cs10	O	PNP	B-NP	we	PRP	O	O
have	t228	9	have	O	O	O	O	O	O	cs10	O	VHB	B-VP	have	VBP	t227:SBJ||t229:ADV||t230:VC	O
n't	t229	9	not	O	O	O	O	O	O	cs10	O	XX0	I-VP	not	RB	O	O
benefited	t230	9	benefit	e27	OCCURRENCE	PRESENT+PERFECTIVE+NEG	O	O	O	cs10	O	VVN	I-VP	benefit	VBN	t232:OBJ||t234:ADV	O
the	t231	9	the	O	O	O	O	O	O	cs10	O	AT0	B-NP	the	DT	O	O
shareholder	t232	9	shareholder	O	O	O	O	O	O	cs10	O	NN1	I-NP	shareholder	NN	t231:NMOD	O
as	t233	9	as	O	O	O	O	O	O	cs10	O	AV0	B-ADVP	as	RB	O	O
much	t234	9	much	O	O	O	O	O	O	cs10	O	DT0	I-ADVP	much	JJ	t233:DEP||t235:AMOD	O
as	t235	9	as	O	O	O	O	O	O	cs10	O	CJS	B-SBAR	as	IN	t237:SUB	O
we	t236	9	we	O	O	O	O	O	O	cs10	O	PNP	B-NP	we	PRP	O	O
need	t237	9	need	e28	I_STATE	PRESENT+NONE+POS	O	O	O	cs10	O	VVB	B-VP	need	VBP	t236:SBJ||t238:OPRD	O
to	t238	9	to	O	O	O	O	O	O	cs10	O	PRP	B-PP	to	TO	O	O
,	t239	9	,	O	O	O	O	O	O	cs10	O	PUN	O	,	,	O	O
"	t240	9	"	O	O	O	O	O	O	cs10	O	PUQ	O	"	PRP	O	O
said	t241	9	say	e29	REPORTING	PAST+NONE+POS	O	O	O	cs10	O	VVD	B-VP	say	VBD	t228:OBJ||t239:P||t240:SBJ||t243:OBJ||t255:LOC||t260:TMP||t268:P	mainVb
Edgar	t242	9	Edgar	O	O	O	O	O	O	cs10	O	NP0	B-NP	edgar	NNP	O	O
Woolard	t243	9	Woolard	O	O	O	O	O	O	cs10	O	NP0	I-NP	woolard	NNP	t242:NAME||t244:POSTHON||t245:P||t249:APPO||t254:P	O
Jr.	t244	9	Jr.	O	O	O	O	O	O	cs10	O	NP0	I-NP	jr.	NNP	O	O
,	t245	9	,	O	O	O	O	O	O	cs10	O	PUN	O	,	,	O	O
Du	t246	9	Du	O	O	O	O	O	O	cs10	O	NP0	B-NP	du	NNP	O	O
Pont	t247	9	Pont	O	O	O	O	O	O	cs10	O	NP0	I-NP	pont	NNP	t246:NAME||t248:SUFFIX	O
's	t248	9	's	O	O	O	O	O	O	cs10	O	POS	B-NP	's	POS	O	O
chairman	t249	9	chairman	O	O	O	O	O	O	cs10	O	NN1	I-NP	chairman	NN	t247:NMOD||t250:COORD	O
and	t250	9	and	O	O	O	O	O	O	cs10	O	CJC	O	and	CC	t253:CONJ	O
chief	t251	9	chief	O	O	O	O	O	O	cs10	O	AJ0	B-NP	chief	NN	O	O
executive	t252	9	executive	O	O	O	O	O	O	cs10	O	NN1	I-NP	executive	NN	O	O
officer	t253	9	officer	O	O	O	O	O	O	cs10	O	NN1	I-NP	officer	NN	t251:NMOD||t252:NMOD	O
,	t254	9	,	O	O	O	O	O	O	cs10	O	PUN	O	,	,	O	O
in	t255	9	in	O	O	O	O	O	O	cs10	O	PRP	B-PP	in	IN	t257:PMOD	O
an	t256	9	a	O	O	O	O	O	O	cs10	O	AT0	B-NP	an	DT	O	O
interview	t257	9	interview	e30	OCCURRENCE	NONE+NONE+POS	O	O	O	cs10	O	AJ0	I-NP	interview	NN	t256:NMOD	O
several	t258	9	several	O	O	O	tmx31	DURATION	PXM	cs10	O	DT0	I-NP	several	DT	O	O
months	t259	9	month	O	O	O	tmx31	DURATION	PXM	cs10	O	NN2	I-NP	month	NNS	t258:NMOD	O
before	t260	9	before	O	O	O	O	O	O	cs10	O	CJS	B-SBAR	before	IN	t259:ADV||t262:SUB	O
he	t261	9	he	O	O	O	O	O	O	cs10	O	PNP	B-NP	he	PRP	O	O
entered	t262	9	enter	e32	ASPECTUAL	PAST+NONE+POS	O	O	O	cs10	O	VVD	B-VP	enter	VBD	t261:SBJ||t265:OBJ||t266:TMP	O
his	t263	9	he	O	O	O	O	O	O	cs10	O	DPS	B-NP	his	PRP$	O	O
current	t264	9	current	O	O	O	tmx33	DATE	PRESENT_REF	cs10	O	AJ0	I-NP	current	JJ	O	O
position	t265	9	position	O	O	O	O	O	O	cs10	O	NN1	I-NP	position	NN	t263:NMOD||t264:NMOD	O
in	t266	9	in	O	O	O	O	O	O	cs10	O	PRP	B-PP	in	IN	t267:PMOD	O
April	t267	9	April	O	O	O	tmx34	DATE	1989-04	cs10	O	NP0	B-NP	april	NNP	O	O
.	t268	9	.	O	O	O	O	O	O	cs10	O	PUN	O	.	.	O	O

The	t269	10	the	O	O	O	O	O	O	cs10	O	AT0	B-NP	the	DT	O	O
largest	t270	10	largest	O	O	O	O	O	O	cs10	O	AJS	I-NP	large	JJS	O	O
beneficiary	t271	10	beneficiary	O	O	O	O	O	O	cs10	O	NN1	I-NP	beneficiary	NN	t269:NMOD||t270:NMOD	O
will	t272	10	will	O	O	O	O	O	O	cs10	O	VM0	B-VP	will	MD	t271:SBJ||t273:VC||t285:P	mainVb
be	t273	10	be	O	O	O	O	O	O	cs10	O	VBI	I-VP	be	VB	t274:PRD	mainVb
Seagram	t274	10	Seagram	O	O	O	O	O	O	cs10	O	NP0	B-NP	seagram	NNP	t275:POSTHON||t276:P||t278:NMOD	O
Co.	t275	10	Co.	O	O	O	O	O	O	cs10	O	NP0	I-NP	co.	NNP	O	O
,	t276	10	,	O	O	O	O	O	O	cs10	O	PUN	O	,	,	O	O
which	t277	10	which	O	O	O	O	O	O	cs10	O	DTQ	B-NP	which	WDT	O	O
owns	t278	10	own	O	O	O	O	O	O	cs10	O	VVZ	B-VP	own	VBZ	t277:SBJ||t281:OBJ	O
about	t279	10	about	O	O	O	O	O	O	cs10	O	AV0	B-NP	about	RB	O	O
23	t280	10	23	O	O	O	O	O	O	cs10	O	CRD	I-NP	23	CD	t279:DEP	O
%	t281	10	%	O	O	O	O	O	O	cs10	O	NN0	I-NP	%	NN	t280:NMOD||t282:NMOD	O
of	t282	10	of	O	O	O	O	O	O	cs10	O	PRF	B-PP	of	IN	t284:PMOD	O
Du	t283	10	Du	O	O	O	O	O	O	cs10	O	NP0	B-NP	du	NNP	O	O
Pont	t284	10	Pont	O	O	O	O	O	O	cs10	O	NP0	I-NP	pont	NNP	t283:NAME	O
.	t285	10	.	O	O	O	O	O	O	cs10	O	PUN	O	.	.	O	O

A	t286	11	a	O	O	O	O	O	O	cs10	O	AT0	B-NP	a	DT	O	O
spokesman	t287	11	spokesman	O	O	O	O	O	O	cs10	O	NN1	I-NP	spokesman	NN	t286:NMOD||t288:NMOD	O
for	t288	11	for	O	O	O	O	O	O	cs10	O	PRP	B-PP	for	IN	t289:PMOD	O
Seagram	t289	11	Seagram	O	O	O	O	O	O	cs10	O	NP0	B-NP	seagram	NNP	t290:P||t296:APPO||t302:P	O
,	t290	11	,	O	O	O	O	O	O	cs10	O	PUN	O	,	,	O	O
the	t291	11	the	O	O	O	O	O	O	cs10	O	AT0	B-NP	the	DT	O	O
Montreal	t292	11	Montreal	O	O	O	O	O	O	cs10	O	AJ0	I-NP	montreal	NNP	O	O
wine	t293	11	wine	O	O	O	O	O	O	cs10	O	NN1	I-NP	wine	NN	t294:COORD	O
and	t294	11	and	O	O	O	O	O	O	cs10	O	CJC	O	and	CC	t295:CONJ	O
spirits	t295	11	spirit	O	O	O	O	O	O	cs10	O	VVZ	B-VP	spirits	NNS	O	O
concern	t296	11	concern	O	O	O	O	O	O	cs10	O	NN1	B-NP	concern	NN	t291:NMOD||t292:NMOD||t293:NMOD||t297:APPO	O
controlled	t297	11	control	O	O	O	O	O	O	cs10	O	VVN	B-VP	control	VBN	t298:LGS	O
by	t298	11	by	O	O	O	O	O	O	cs10	O	PRP	B-PP	by	IN	t301:PMOD	O
the	t299	11	the	O	O	O	O	O	O	cs10	O	AT0	B-NP	the	DT	O	O
Bronfman	t300	11	Bronfman	O	O	O	O	O	O	cs10	O	NP0	I-NP	bronfman	NNP	O	O
family	t301	11	family	O	O	O	O	O	O	cs10	O	NN1	I-NP	family	NN	t299:NMOD||t300:NMOD	O
,	t302	11	,	O	O	O	O	O	O	cs10	O	PUN	O	,	,	O	O
said	t303	11	say	e35	REPORTING	PAST+NONE+POS	O	O	O	cs10	O	VVD	B-VP	say	VBD	t287:SBJ||t306:OBJ||t325:P	mainVb
the	t304	11	the	O	O	O	O	O	O	cs10	O	AT0	B-NP	the	DT	O	O
company	t305	11	company	O	O	O	O	O	O	cs10	O	NN1	I-NP	company	NN	t304:NMOD	O
will	t306	11	will	O	O	O	O	O	O	cs10	O	VM0	B-VP	will	MD	t305:SBJ||t307:VC	O
post	t307	11	post	e36	REPORTING	FUTURE+NONE+POS	O	O	O	cs10	O	VVI	I-VP	post	VB	t310:OBJ||t318:PRP	O
additional	t308	11	additional	O	O	O	O	O	O	cs10	O	AJ0	B-NP	additional	JJ	O	O
pretax	t309	11	pretax	O	O	O	O	O	O	cs10	O	AJ0	I-NP	pretax	JJ	O	O
profit	t310	11	profit	e37	OCCURRENCE	NONE+NONE+POS	O	O	O	cs10	O	NN1	I-NP	profit	NN	t308:NMOD||t309:NMOD||t311:NMOD	O
of	t311	11	of	O	O	O	O	O	O	cs10	O	PRF	B-PP	of	IN	t313:PMOD	O
about	t312	11	about	O	O	O	O	O	O	cs10	O	AV0	B-NP	about	IN	O	O
$	t313	11	$	O	O	O	O	O	O	cs10	O	CRD	I-NP	$	$	t312:DEP||t314:DEP||t315:DEP||t317:ADV	O
33	t314	11	33	O	O	O	O	O	O	cs10	O	CRD	B-NP	33	CD	O	O
million	t315	11	million	O	O	O	O	O	O	cs10	O	CRD	I-NP	million	CD	O	O
a	t316	11	a	O	O	O	tmx38	SET	P1Y	cs10	O	AT0	B-NP	a	DT	O	O
year	t317	11	year	O	O	O	tmx38	SET	P1Y	cs10	O	NN1	I-NP	year	NN	t316:NMOD	O
because	t318	11	because	O	O	O	O	O	O	cs39	O	PRP	B-PP	because	IN	t319:DEP||t324:PMOD	O
of	t319	11	of	O	O	O	O	O	O	cs39	O	PRP	I-PP	of	IN	O	O
the	t320	11	the	O	O	O	O	O	O	cs39	O	AT0	B-NP	the	DT	O	O
additional	t321	11	additional	O	O	O	O	O	O	cs39	O	AJ0	I-NP	additional	JJ	O	O
Du	t322	11	Du	O	O	O	O	O	O	cs39	O	NP0	I-NP	du	NNP	O	O
Pont	t323	11	Pont	O	O	O	O	O	O	cs39	O	NP0	I-NP	pont	NNP	t322:NAME	O
dividends	t324	11	dividend	O	O	O	O	O	O	cs39	O	VVZ	B-VP	dividend	NNS	t320:NMOD||t321:NMOD||t323:NMOD	O
.	t325	11	.	O	O	O	O	O	O	cs39	O	PUN	O	.	.	O	O

Du	t326	12	Du	O	O	O	O	O	O	cs39	O	NP0	B-NP	du	NNP	O	O
Pont	t327	12	Pont	O	O	O	O	O	O	cs39	O	NP0	I-NP	pont	NNP	t326:NAME	O
also	t328	12	also	O	O	O	O	O	O	cs39	O	AV0	B-ADVP	also	RB	O	O
announced	t329	12	announce	e40	REPORTING	PAST+NONE+POS	O	O	O	cs39	O	VVD	B-VP	announce	VBD	t327:SBJ||t328:ADV||t330:OBJ||t336:P||t337:ADV||t348:P	mainVb
plans	t330	12	plan	e41	I_STATE	NONE+NONE+POS	O	O	O	cs39	O	NN2	B-NP	plan	NNS	t331:NMOD	O
for	t331	12	for	O	O	O	O	O	O	cs39	O	PRP	B-PP	for	IN	t335:PMOD	O
a	t332	12	a	O	O	O	O	O	O	cs39	O	AT0	B-NP	a	DT	O	O
3-for-1	t333	12	3-for-1	O	O	O	O	O	O	cs39	O	AJ0	I-NP	3-for-1	CD	O	O
stock	t334	12	stock	O	O	O	O	O	O	cs39	O	NN1	I-NP	stock	NN	O	O
split	t335	12	split	e42	OCCURRENCE	NONE+NONE+POS	O	O	O	cs39	O	NN1	I-NP	split	NN	t332:NMOD||t333:NMOD||t334:NMOD	O
,	t336	12	,	O	O	O	O	O	O	cs39	O	PUN	O	,	,	O	O
although	t337	12	although	O	O	O	O	O	O	cs39	O	CJS	B-SBAR	although	IN	t342:SUB	O
the	t338	12	the	O	O	O	O	O	O	cs39	O	AT0	B-NP	the	DT	O	O
initial	t339	12	initial	O	O	O	O	O	O	cs39	O	AJ0	I-NP	initial	JJ	O	O
higher	t340	12	higher	O	O	O	O	O	O	cs39	O	AJC	I-NP	higher	JJR	O	O
dividend	t341	12	dividend	O	O	O	O	O	O	cs39	O	NN1	I-NP	dividend	NN	t338:NMOD||t339:NMOD||t340:NMOD	O
will	t342	12	will	O	O	O	O	O	O	cs39	O	VM0	B-VP	will	MD	t341:SBJ||t343:VC	O
be	t343	12	be	O	O	O	O	O	O	cs39	O	VBI	I-VP	be	VB	t344:VC	O
paid	t344	12	pay	e43	OCCURRENCE	FUTURE+NONE+POS	O	O	O	cs39	O	VVN	I-VP	pay	VBN	t345:ADV	O
on	t345	12	on	O	O	O	O	O	O	cs39	O	PRP	B-PP	on	IN	t347:PMOD	O
pre-split	t346	12	pre-split	O	O	O	O	O	O	cs39	O	AJ0	B-NP	pre-split	NN	O	O
shares	t347	12	share	O	O	O	O	O	O	cs39	O	NN2	I-NP	share	NNS	t346:NMOD	O
.	t348	12	.	O	O	O	O	O	O	cs39	O	PUN	O	.	.	O	O

Du	t349	13	Du	O	O	O	O	O	O	cs39	O	NP0	B-NP	du	NNP	O	O
Pont	t350	13	Pont	O	O	O	O	O	O	cs39	O	NP0	I-NP	pont	NNP	t349:NAME||t351:SUFFIX	O
's	t351	13	's	O	O	O	O	O	O	cs39	O	POS	B-NP	's	POS	O	O
stock	t352	13	stock	O	O	O	O	O	O	cs39	O	NN1	I-NP	stock	NN	t350:NMOD	O
rose	t353	13	rise	e44	OCCURRENCE	PAST+NONE+POS	O	O	O	cs39	O	VVD	B-VP	rise	VBD	t352:SBJ||t354:EXT||t358:OPRD||t363:LOC||t370:TMP||t371:P	mainVb
$	t354	13	$	O	O	O	O	O	O	cs39	O	CRD	B-NP	$	$	t355:NMOD||t357:ADV	O
2.50	t355	13	2.50	O	O	O	O	O	O	cs39	O	CRD	I-NP	2.50	CD	O	O
a	t356	13	a	O	O	O	O	O	O	cs39	O	AT0	B-NP	a	DT	O	O
share	t357	13	share	O	O	O	O	O	O	cs39	O	NN1	I-NP	share	NN	t356:NMOD	O
to	t358	13	to	O	O	O	O	O	O	cs39	O	TO0	B-VP	to	TO	t359:IM	O
close	t359	13	close	e45	OCCURRENCE	INFINITIVE+NONE+POS	O	O	O	cs39	O	VVI	I-VP	close	VB	t360:ADV	O
at	t360	13	at	O	O	O	O	O	O	cs39	O	PRP	B-PP	at	IN	t361:PMOD	O
$	t361	13	$	O	O	O	O	O	O	cs39	O	NN0	B-NP	$	$	t362:NMOD	O
117.375	t362	13	117.375	O	O	O	O	O	O	cs39	O	CRD	I-NP	117.375	CD	O	O
in	t363	13	in	O	O	O	O	O	O	cs39	O	PRP	B-PP	in	IN	t369:PMOD	O
New	t364	13	New	O	O	O	O	O	O	cs39	O	NP0	B-NP	new	NNP	O	O
York	t365	13	York	O	O	O	O	O	O	cs39	O	NP0	I-NP	york	NNP	t364:NAME	O
Stock	t366	13	Stock	O	O	O	O	O	O	cs39	O	NP0	I-NP	stock	NNP	O	O
Exchange	t367	13	Exchange	O	O	O	O	O	O	cs39	O	NP0	I-NP	exchange	NNP	t365:NAME||t366:NAME	O
composite	t368	13	composite	O	O	O	O	O	O	cs39	O	AJ0	I-NP	composite	JJ	O	O
trading	t369	13	trading	O	O	O	O	O	O	cs39	O	NN1	I-NP	trading	NN	t367:NMOD||t368:NMOD	O
yesterday	t370	13	yesterday	O	O	O	tmx46	DATE	1989-10-25	cs39	O	AV0	B-NP	yesterday	NN	O	O
.	t371	13	.	O	O	O	O	O	O	cs39	O	PUN	O	.	.	O	O

Seagram	t372	14	Seagram	O	O	O	O	O	O	cs39	O	NP0	B-NP	seagram	NNP	O	O
closed	t373	14	close	e47	OCCURRENCE	PAST+NONE+POS	O	O	O	cs39	O	VVD	B-VP	close	VBD	t372:SBJ||t374:ADV||t377:P||t378:ADV||t383:LOC||t387:P	mainVb
at	t374	14	at	O	O	O	O	O	O	cs39	O	PRP	B-PP	at	IN	t375:PMOD	O
$	t375	14	$	O	O	O	O	O	O	cs39	O	NN1	B-NP	$	$	t376:NMOD	O
84.75	t376	14	84.75	O	O	O	O	O	O	cs39	O	CRD	I-NP	84.75	CD	O	O
,	t377	14	,	O	O	O	O	O	O	cs39	O	PUN	O	,	,	O	O
up	t378	14	up	O	O	O	O	O	O	cs39	O	AV0	B-ADVP	up	IN	t380:AMOD	O
12.5	t379	14	12.5	O	O	O	O	O	O	cs39	O	CRD	B-NP	12.5	CD	O	O
cents	t380	14	cent	O	O	O	O	O	O	cs39	O	NN2	I-NP	cent	NNS	t379:NMOD||t382:ADV	O
a	t381	14	a	O	O	O	O	O	O	cs39	O	AT0	B-NP	a	DT	O	O
share	t382	14	share	O	O	O	O	O	O	cs39	O	NN1	I-NP	share	NN	t381:NMOD	O
in	t383	14	in	O	O	O	O	O	O	cs39	O	PRP	B-PP	in	IN	t386:PMOD	O
Big	t384	14	Big	O	O	O	O	O	O	cs39	O	AJ0	B-NP	big	NNP	O	O
Board	t385	14	Board	O	O	O	O	O	O	cs39	O	NN1	I-NP	board	NNP	t384:NAME	O
trading	t386	14	trading	O	O	O	O	O	O	cs39	O	NN1	I-NP	trading	NN	t385:NMOD	O
.	t387	14	.	O	O	O	O	O	O	cs39	O	PUN	O	.	.	O	O

Leading	t388	15	lead	e48	STATE	PRESPART+NONE+POS	O	O	O	cs39	O	VVG	B-VP	lead	VBG	t390:OBJ||t394:TMP	O
the	t389	15	the	O	O	O	O	O	O	cs39	O	AT0	B-NP	the	DT	O	O
gains	t390	15	gain	O	O	O	O	O	O	cs39	O	NN2	I-NP	gain	NNS	t389:NMOD||t391:NMOD	O
for	t391	15	for	O	O	O	O	O	O	cs39	O	PRP	B-PP	for	IN	t393:PMOD	O
Du	t392	15	Du	O	O	O	O	O	O	cs39	O	NP0	B-NP	du	NNP	O	O
Pont	t393	15	Pont	O	O	O	O	O	O	cs39	O	NP0	I-NP	pont	NNP	t392:NAME	O
in	t394	15	in	O	O	O	O	O	O	cs39	O	PRP	B-PP	in	IN	t397:PMOD	O
the	t395	15	the	O	O	O	tmx49	DATE	1989-Q3	cs39	O	AT0	B-NP	the	DT	O	O
latest	t396	15	latest	O	O	O	tmx49	DATE	1989-Q3	cs39	O	AJS	I-NP	latest	JJS	O	O
quarter	t397	15	quarter	O	O	O	tmx49	DATE	1989-Q3	cs39	O	NN1	I-NP	quarter	NN	t395:NMOD||t396:NMOD	O
was	t398	15	be	O	O	O	O	O	O	cs39	O	VBD	B-VP	be	VBD	t388:VC||t402:SBJ||t418:P	mainVb
its	t399	15	its	O	O	O	O	O	O	cs39	O	DPS	B-NP	its	PRP$	O	O
industrial	t400	15	industrial	O	O	O	O	O	O	cs39	O	AJ0	I-NP	industrial	JJ	O	O
products	t401	15	product	O	O	O	O	O	O	cs39	O	NN2	I-NP	product	NNS	t400:NMOD	O
segment	t402	15	segment	O	O	O	O	O	O	cs39	O	NN1	I-NP	segment	NN	t399:NMOD||t401:NMOD||t403:P||t406:NMOD	O
,	t403	15	,	O	O	O	O	O	O	cs39	O	PUN	O	,	,	O	O
where	t404	15	where	O	O	O	O	O	O	cs39	O	CJS	B-ADVP	where	WRB	O	O
profit	t405	15	profit	O	O	O	O	O	O	cs39	O	NN1	B-NP	profit	NN	O	O
soared	t406	15	soar	e50	OCCURRENCE	PAST+NONE+POS	O	O	O	cs39	O	VVD	B-VP	soar	VBD	t404:LOC||t405:SBJ||t407:DIR||t411:DIR	O
to	t407	15	to	O	O	O	O	O	O	cs39	O	PRP	B-PP	to	TO	t408:PMOD	O
$	t408	15	$	O	O	O	O	O	O	cs39	O	CRD	B-NP	$	$	t409:DEP||t410:DEP	O
155	t409	15	155	O	O	O	O	O	O	cs39	O	CRD	I-NP	155	CD	O	O
million	t410	15	million	O	O	O	O	O	O	cs39	O	CRD	I-NP	million	CD	O	O
from	t411	15	from	O	O	O	O	O	O	cs39	O	PRP	B-PP	from	IN	t412:PMOD||t417:TMP	O
$	t412	15	$	O	O	O	O	O	O	cs39	O	ZZ0	B-NP	$	$	t413:DEP||t414:DEP	O
99	t413	15	99	O	O	O	O	O	O	cs39	O	CRD	I-NP	99	CD	O	O
million	t414	15	million	O	O	O	O	O	O	cs39	O	CRD	I-NP	million	CD	O	O
a	t415	15	a	O	O	O	tmx51	DATE	1988-Q3	cs39	O	AT0	B-NP	a	DT	O	O
year	t416	15	year	O	O	O	tmx51	DATE	1988-Q3	cs39	O	NN1	I-NP	year	NN	t415:NMOD	O
earlier	t417	15	earlier	O	O	O	tmx51	DATE	1988-Q3	cs39	O	AV0	B-ADVP	earlier	RBR	t416:AMOD	O
.	t418	15	.	O	O	O	O	O	O	cs39	O	PUN	O	.	.	O	O

The	t419	16	the	O	O	O	O	O	O	cs39	O	AT0	B-NP	the	DT	O	O
company	t420	16	company	O	O	O	O	O	O	cs39	O	NN1	I-NP	company	NN	t419:NMOD	O
benefited	t421	16	benefit	e52	OCCURRENCE	PAST+NONE+POS	O	O	O	cs39	O	VVN	B-VP	benefit	VBD	t420:SBJ||t422:ADV||t444:P	mainVb
from	t422	16	from	O	O	O	O	O	O	cs39	O	PRP	B-PP	from	IN	t425:PMOD	O
continued	t423	16	continue	O	O	O	O	O	O	cs39	O	AJ0	B-NP	continue	VBN	O	O
strong	t424	16	strong	O	O	O	O	O	O	cs39	O	AJ0	I-NP	strong	JJ	O	O
demand	t425	16	demand	e53	OCCURRENCE	NONE+NONE+POS	O	O	O	cs39	O	NN1	I-NP	demand	NN	t423:NMOD||t424:NMOD||t426:COORD||t430:NMOD	O
and	t426	16	and	O	O	O	O	O	O	cs39	O	CJC	O	and	CC	t429:CONJ	O
higher	t427	16	higher	O	O	O	O	O	O	cs39	O	AJC	B-NP	higher	JJR	O	O
selling	t428	16	sell	O	O	O	O	O	O	cs39	O	NN1	I-NP	sell	VBG	O	O
prices	t429	16	price	O	O	O	O	O	O	cs39	O	NN2	I-NP	price	NNS	t427:NMOD||t428:NMOD	O
for	t430	16	for	O	O	O	O	O	O	cs39	O	PRP	B-PP	for	IN	t432:PMOD	O
titanium	t431	16	titanium	O	O	O	O	O	O	cs39	O	NN1	B-NP	titanium	NN	O	O
dioxide	t432	16	dioxide	O	O	O	O	O	O	cs39	O	NN1	I-NP	dioxide	NN	t431:NMOD||t433:P||t436:APPO	O
,	t433	16	,	O	O	O	O	O	O	cs39	O	PUN	O	,	,	O	O
a	t434	16	a	O	O	O	O	O	O	cs39	O	AT0	B-NP	a	DT	O	O
white	t435	16	white	O	O	O	O	O	O	cs39	O	AJ0	I-NP	white	JJ	O	O
pigment	t436	16	pigment	O	O	O	O	O	O	cs39	O	NN1	I-NP	pigment	NN	t434:NMOD||t435:NMOD||t437:APPO	O
used	t437	16	use	O	O	O	O	O	O	cs39	O	VVN	B-VP	use	VBN	t438:LOC	O
in	t438	16	in	O	O	O	O	O	O	cs39	O	PRP	B-PP	in	IN	t439:PMOD	O
paints	t439	16	paint	O	O	O	O	O	O	cs39	O	NN2	B-NP	paint	NNS	t440:P||t441:COORD	O
,	t440	16	,	O	O	O	O	O	O	cs39	O	PUN	O	,	,	O	O
paper	t441	16	paper	O	O	O	O	O	O	cs39	O	NN1	B-NP	paper	NN	t442:COORD	O
and	t442	16	and	O	O	O	O	O	O	cs39	O	CJC	I-NP	and	CC	t443:CONJ	O
plastics	t443	16	plastic	O	O	O	O	O	O	cs39	O	NN2	I-NP	plastic	NNS	O	O
.	t444	16	.	O	O	O	O	O	O	cs39	O	PUN	O	.	.	O	O

James	t445	17	James	O	O	O	O	O	O	cs39	O	NP0	B-NP	james	NNP	O	O
Fallon	t446	17	Fallon	O	O	O	O	O	O	cs39	O	NP0	I-NP	fallon	NNP	t445:NAME||t447:P||t455:APPO||t460:P	O
,	t447	17	,	O	O	O	O	O	O	cs39	O	PUN	O	,	,	O	O
a	t448	17	a	O	O	O	O	O	O	cs39	O	AT0	B-NP	a	DT	O	O
New	t449	17	New	O	O	O	O	O	O	cs39	O	AJ0	I-NP	new	NNP	O	O
Providence	t450	17	Providence	O	O	O	O	O	O	cs39	O	NN1	I-NP	providence	NNP	t449:NAME	O
,	t451	17	,	O	O	O	O	O	O	cs39	O	PUN	O	,	,	O	O
N.J.	t452	17	N.J.	O	O	O	O	O	O	cs39	O	NP0	B-NP	n.j.	NNP	t450:NMOD||t451:P||t453:P	O
,	t453	17	,	O	O	O	O	O	O	cs39	O	PUN	O	,	,	O	O
marketing	t454	17	marketing	O	O	O	O	O	O	cs39	O	VVG	B-VP	marketing	NN	O	O
consultant	t455	17	consultant	O	O	O	O	O	O	cs39	O	NN1	B-NP	consultant	NN	t448:NMOD||t452:LOC||t454:NMOD||t456:NMOD	O
to	t456	17	to	O	O	O	O	O	O	cs39	O	PRP	B-PP	to	TO	t459:PMOD	O
the	t457	17	the	O	O	O	O	O	O	cs39	O	AT0	B-NP	the	DT	O	O
chemicals	t458	17	chemical	O	O	O	O	O	O	cs39	O	NN2	I-NP	chemical	NNS	O	O
industry	t459	17	industry	O	O	O	O	O	O	cs39	O	NN1	I-NP	industry	NN	t457:NMOD||t458:NMOD	O
,	t460	17	,	O	O	O	O	O	O	cs39	O	PUN	O	,	,	O	O
says	t461	17	say	e54	REPORTING	PRESENT+NONE+POS	O	O	O	cs39	O	VVZ	B-VP	say	VBZ	t446:SBJ||t465:OBJ||t486:P	mainVb
Du	t462	17	Du	O	O	O	O	O	O	cs39	O	NP0	B-NP	du	NNP	O	O
Pont	t463	17	Pont	O	O	O	O	O	O	cs39	O	NP0	I-NP	pont	NNP	t462:NAME	O
still	t464	17	still	O	O	O	O	O	O	cs39	O	AV0	B-ADVP	still	RB	O	O
holds	t465	17	hold	e55	STATE	PRESENT+NONE+POS	O	O	O	cs39	O	VVZ	B-VP	hold	VBZ	t463:SBJ||t464:ADV||t467:OBJ||t468:LOC||t472:PRP	O
an	t466	17	a	O	O	O	O	O	O	cs39	O	AT0	B-NP	an	DT	O	O
edge	t467	17	edge	O	O	O	O	O	O	cs39	O	NN1	I-NP	edge	NN	t466:NMOD	O
in	t468	17	in	O	O	O	O	O	O	cs39	O	PRP	B-PP	in	IN	t469:PMOD	O
making	t469	17	make	O	O	O	O	O	O	cs39	O	VVG	B-VP	make	VBG	t471:OBJ	O
the	t470	17	the	O	O	O	O	O	O	cs39	O	AT0	B-NP	the	DT	O	O
pigment	t471	17	pigment	O	O	O	O	O	O	cs39	O	NN1	I-NP	pigment	NN	t470:NMOD	O
because	t472	17	because	O	O	O	O	O	O	cs56	O	CJS	B-SBAR	because	IN	t475:SUB	O
the	t473	17	the	O	O	O	O	O	O	cs56	O	AT0	B-NP	the	DT	O	O
company	t474	17	company	O	O	O	O	O	O	cs56	O	NN1	I-NP	company	NN	t473:NMOD	O
was	t475	17	be	e57	STATE	PAST+NONE+POS	O	O	O	cs56	O	VBD	B-VP	be	VBD	t474:SBJ||t477:PRD	O
"	t476	17	"	O	O	O	O	O	O	cs56	O	PUQ	I-VP	"	NN	O	O
first	t477	17	first	O	O	O	O	O	O	cs56	O	ORD	B-ADVP	first	JJ	t476:NMOD||t478:AMOD||t479:AMOD	O
in	t478	17	in	O	O	O	O	O	O	cs56	O	AVP	I-ADVP	in	IN	O	O
with	t479	17	with	O	O	O	O	O	O	cs56	O	PRP	B-PP	with	IN	t481:PMOD	O
the	t480	17	the	O	O	O	O	O	O	cs56	O	AT0	B-NP	the	DT	O	O
technology	t481	17	technology	O	O	O	O	O	O	cs56	O	NN1	I-NP	technology	NN	t480:NMOD||t482:NMOD||t483:NMOD	O
"	t482	17	"	O	O	O	O	O	O	cs56	O	PUQ	I-NP	"	NIL	O	O
to	t483	17	to	O	O	O	O	O	O	cs56	O	PRP	B-PP	to	TO	t484:IM	O
lower	t484	17	lower	O	O	O	O	O	O	cs56	O	AJC	B-NP	lower	VB	t485:OBJ	O
costs	t485	17	cost	O	O	O	O	O	O	cs56	O	NN2	I-NP	costs	NNS	O	O
.	t486	17	.	O	O	O	O	O	O	cs56	O	PUN	O	.	.	O	O

He	t487	18	he	O	O	O	O	O	O	cs56	O	PNP	B-NP	he	PRP	O	O
said	t488	18	say	e58	REPORTING	PAST+NONE+POS	O	O	O	cs56	O	VVD	B-VP	say	VBD	t487:SBJ||t491:OBJ||t529:P	mainVb
Du	t489	18	Du	O	O	O	O	O	O	cs56	O	NP0	B-NP	du	NNP	O	O
Pont	t490	18	Pont	O	O	O	O	O	O	cs56	O	NP0	I-NP	pont	NNP	t489:NAME	O
holds	t491	18	hold	e59	STATE	PRESENT+NONE+POS	O	O	O	cs56	O	VVZ	B-VP	hold	VBZ	t490:SBJ||t494:OBJ||t505:TMP||t520:P||t521:ADV	O
about	t492	18	about	O	O	O	O	O	O	cs56	O	AV0	B-NP	about	IN	t493:DEP	O
23	t493	18	23	O	O	O	O	O	O	cs56	O	CRD	I-NP	23	CD	O	O
%	t494	18	%	O	O	O	O	O	O	cs56	O	NN0	I-NP	%	NN	t492:NMOD||t495:NMOD||t499:P||t503:APPO||t504:P	O
of	t495	18	of	O	O	O	O	O	O	cs56	O	PRF	B-PP	of	IN	t498:PMOD	O
the	t496	18	the	O	O	O	O	O	O	cs56	O	AT0	B-NP	the	DT	O	O
world-wide	t497	18	world-wide	O	O	O	O	O	O	cs56	O	AJ0	I-NP	world-wide	JJ	O	O
market	t498	18	market	O	O	O	O	O	O	cs56	O	NN1	I-NP	market	NN	t496:NMOD||t497:NMOD	O
,	t499	18	,	O	O	O	O	O	O	cs56	O	PUN	O	,	,	O	O
the	t500	18	the	O	O	O	O	O	O	cs56	O	AT0	B-NP	the	DT	O	O
largest	t501	18	largest	O	O	O	O	O	O	cs56	O	AJS	I-NP	large	JJS	O	O
single	t502	18	single	O	O	O	O	O	O	cs56	O	AJ0	I-NP	single	JJ	O	O
share	t503	18	share	O	O	O	O	O	O	cs56	O	NN1	I-NP	share	NN	t500:NMOD||t501:NMOD||t502:NMOD	O
,	t504	18	,	O	O	O	O	O	O	cs56	O	PUN	O	,	,	O	O
at	t505	18	at	O	O	O	O	O	O	cs56	O	PRP	B-PP	at	IN	t507:PMOD	O
a	t506	18	a	O	O	O	O	O	O	cs56	O	AT0	B-NP	a	DT	O	O
time	t507	18	time	O	O	O	O	O	O	cs56	O	NN1	I-NP	time	NN	t506:NMOD||t514:TMP	O
when	t508	18	when	O	O	O	O	O	O	cs56	O	AVQ	B-ADVP	when	WRB	O	O
growing	t509	18	grow	O	O	O	O	O	O	cs56	O	AJ0	B-NP	grow	VBG	O	O
uses	t510	18	use	O	O	O	O	O	O	cs56	O	NN2	I-NP	use	NNS	t509:NMOD||t511:NMOD	O
for	t511	18	for	O	O	O	O	O	O	cs56	O	PRP	B-PP	for	IN	t513:PMOD	O
the	t512	18	the	O	O	O	O	O	O	cs56	O	AT0	B-NP	the	DT	O	O
pigment	t513	18	pigment	O	O	O	O	O	O	cs56	O	NN1	I-NP	pigment	NN	t512:NMOD	O
have	t514	18	have	O	O	O	O	O	O	cs56	O	VHB	B-VP	have	VBP	t510:SBJ||t515:VC	O
kept	t515	18	keep	O	O	O	O	O	O	cs56	O	VVN	I-VP	keep	VBN	t508:TMP||t516:OBJ||t517:LOC	O
it	t516	18	it	O	O	O	O	O	O	cs56	O	PNP	B-NP	it	PRP	O	O
in	t517	18	in	O	O	O	O	O	O	cs56	O	PRP	B-PP	in	IN	t518:PMOD	O
tight	t518	18	tight	O	O	O	O	O	O	cs56	O	AJ0	B-NP	tight	RB	t519:AMOD	O
supply	t519	18	supply	O	O	O	O	O	O	cs56	O	NN1	I-NP	supply	RB	O	O
,	t520	18	,	O	O	O	O	O	O	cs56	O	PUN	O	,	,	O	O
although	t521	18	although	O	O	O	O	O	O	cs56	O	CJS	B-SBAR	although	IN	t523:SUB	O
others	t522	18	other	O	O	O	O	O	O	cs56	O	NN2	B-NP	others	NNS	O	O
are	t523	18	be	O	O	O	O	O	O	cs56	O	VBB	B-VP	be	VBP	t522:SBJ||t524:TMP||t525:VC	O
now	t524	18	now	O	O	O	O	O	O	cs56	O	AV0	I-VP	now	RB	O	O
adding	t525	18	add	O	O	O	O	O	O	cs56	O	VVG	I-VP	add	VBG	t528:OBJ	O
low-cost	t526	18	low-cost	O	O	O	O	O	O	cs56	O	AJ0	B-NP	low-cost	NN	O	O
production	t527	18	production	O	O	O	O	O	O	cs56	O	NN1	I-NP	production	NN	t526:NMOD	O
capacity	t528	18	capacity	O	O	O	O	O	O	cs56	O	NN1	I-NP	capacity	NN	t527:NMOD	O
.	t529	18	.	O	O	O	O	O	O	cs56	O	PUN	O	.	.	O	O

Profit	t530	19	profit	O	O	O	O	O	O	cs56	O	NP0	B-NP	profit	NN	O	O
climbed	t531	19	climb	e60	OCCURRENCE	PAST+NONE+POS	O	O	O	cs56	O	VVD	B-VP	climb	VBD	t530:SBJ||t532:DIR||t536:DIR||t544:P||t545:TMP||t572:P	mainVb
to	t532	19	to	O	O	O	O	O	O	cs56	O	PRP	B-PP	to	TO	t533:PMOD	O
$	t533	19	$	O	O	O	O	O	O	cs56	O	CRD	B-NP	$	$	t534:DEP||t535:DEP	O
98	t534	19	98	O	O	O	O	O	O	cs56	O	CRD	B-NP	98	CD	O	O
million	t535	19	million	O	O	O	O	O	O	cs56	O	CRD	I-NP	million	CD	O	O
from	t536	19	from	O	O	O	O	O	O	cs56	O	PRP	B-PP	from	IN	t537:PMOD	O
$	t537	19	$	O	O	O	O	O	O	cs56	O	ZZ0	B-NP	$	$	t538:DEP||t539:DEP||t540:LOC	O
71	t538	19	71	O	O	O	O	O	O	cs56	O	CRD	I-NP	71	CD	O	O
million	t539	19	million	O	O	O	O	O	O	cs56	O	CRD	I-NP	million	CD	O	O
in	t540	19	in	O	O	O	O	O	O	cs56	O	PRP	B-PP	in	IN	t543:PMOD	O
the	t541	19	the	O	O	O	O	O	O	cs56	O	AT0	B-NP	the	DT	O	O
petroleum	t542	19	petroleum	O	O	O	O	O	O	cs56	O	NN1	I-NP	petroleum	NN	O	O
segment	t543	19	segment	O	O	O	O	O	O	cs56	O	NN1	I-NP	segment	NN	t541:NMOD||t542:NMOD	O
,	t544	19	,	O	O	O	O	O	O	cs56	O	PUN	O	,	,	O	O
as	t545	19	as	O	O	O	O	O	O	cs61	O	CJS	B-SBAR	as	IN	t553:SUB	O
Du	t546	19	Du	O	O	O	O	O	O	cs61	O	NP0	B-NP	du	NNP	O	O
Pont	t547	19	Pont	O	O	O	O	O	O	cs61	O	NP0	I-NP	pont	NNP	t546:NAME||t548:SUFFIX	O
's	t548	19	's	O	O	O	O	O	O	cs61	O	POS	B-NP	's	POS	O	O
Conoco	t549	19	Conoco	O	O	O	O	O	O	cs61	O	NN1	I-NP	conoco	NNP	t550:POSTHON	O
Inc.	t550	19	Inc.	O	O	O	O	O	O	cs61	O	NN1	I-NP	inc.	NNP	O	O
oil	t551	19	oil	O	O	O	O	O	O	cs61	O	NN1	I-NP	oil	NN	O	O
company	t552	19	company	O	O	O	O	O	O	cs61	O	NN1	I-NP	company	NN	t547:NMOD||t549:NMOD||t551:NMOD	O
was	t553	19	be	O	O	O	O	O	O	cs61	O	VBD	B-VP	be	VBD	t552:SBJ||t554:VC	O
helped	t554	19	help	e62	I_STATE	PAST+NONE+POS	O	O	O	cs61	O	VVN	I-VP	help	VBN	t555:ADV	O
by	t555	19	by	O	O	O	O	O	O	cs61	O	PRP	B-PP	by	IN	t558:PMOD||t564:COORD||t565:LGS	O
crude	t556	19	crude	O	O	O	O	O	O	cs61	O	AJ0	B-NP	crude	JJ	O	O
oil	t557	19	oil	O	O	O	O	O	O	cs61	O	NN1	I-NP	oil	NN	t556:NMOD	O
prices	t558	19	price	O	O	O	O	O	O	cs61	O	NN2	I-NP	price	NNS	t557:NMOD||t559:APPO	O
higher	t559	19	higher	O	O	O	O	O	O	cs61	O	AJC	B-ADJP	higher	JJR	t560:AMOD	O
than	t560	19	than	O	O	O	O	O	O	cs61	O	CJS	B-PP	than	IN	t563:TMP	O
a	t561	19	a	O	O	O	tmx63	DATE	1988-Q3	cs61	O	AT0	B-NP	a	DT	O	O
year	t562	19	year	O	O	O	tmx63	DATE	1988-Q3	cs61	O	NN1	I-NP	year	NN	t561:NMOD	O
ago	t563	19	ago	O	O	O	tmx63	DATE	1988-Q3	cs61	O	AV0	B-ADVP	ago	IN	t562:AMOD	O
and	t564	19	and	O	O	O	O	O	O	cs61	O	CJC	O	and	CC	O	O
by	t565	19	by	O	O	O	O	O	O	cs61	O	PRP	B-PP	by	IN	t569:PMOD	O
higher	t566	19	higher	O	O	O	O	O	O	cs61	O	AJC	B-NP	higher	JJR	O	O
natural	t567	19	natural	O	O	O	O	O	O	cs61	O	AJ0	I-NP	natural	JJ	O	O
gas	t568	19	gas	O	O	O	O	O	O	cs61	O	NN1	I-NP	gas	NN	t567:NMOD	O
prices	t569	19	price	O	O	O	O	O	O	cs61	O	NN2	I-NP	price	NNS	t566:NMOD||t568:NMOD||t570:COORD	O
and	t570	19	and	O	O	O	O	O	O	cs61	O	CJC	I-NP	and	CC	t571:CONJ	O
volume	t571	19	volume	O	O	O	O	O	O	cs61	O	NN1	I-NP	volume	NN	O	O
.	t572	19	.	O	O	O	O	O	O	cs61	O	PUN	O	.	.	O	O

In	t573	20	in	O	O	O	O	O	O	cs61	O	PRP	B-PP	in	IN	t577:PMOD	O
the	t574	20	the	O	O	O	O	O	O	cs61	O	AT0	B-NP	the	DT	O	O
diversifed	t575	20	diversife	O	O	O	O	O	O	cs61	O	AJ0	I-NP	diversifed	VBN	O	O
businesses	t576	20	business	O	O	O	O	O	O	cs61	O	NN2	I-NP	business	NNS	O	O
segment	t577	20	segment	O	O	O	O	O	O	cs61	O	NN1	I-NP	segment	NN	t574:NMOD||t575:NMOD||t576:NMOD||t578:P||t580:NMOD	O
,	t578	20	,	O	O	O	O	O	O	cs61	O	PUN	O	,	,	O	O
which	t579	20	which	O	O	O	O	O	O	cs61	O	DTQ	B-NP	which	WDT	O	O
includes	t580	20	include	O	O	O	O	O	O	cs61	O	VVZ	B-VP	include	VBZ	t579:SBJ||t581:OBJ	O
herbicides	t581	20	herbicide	O	O	O	O	O	O	cs61	O	NN2	B-NP	herbicide	NNS	O	O
,	t582	20	,	O	O	O	O	O	O	cs61	O	PUN	O	,	,	O	O
profit	t583	20	profit	O	O	O	O	O	O	cs61	O	NN1	B-NP	profit	NN	O	O
grew	t584	20	grow	e64	OCCURRENCE	PAST+NONE+POS	O	O	O	cs61	O	VVD	B-VP	grow	VBD	t573:LOC||t582:P||t583:SBJ||t585:DIR||t589:DIR||t593:P	mainVb
to	t585	20	to	O	O	O	O	O	O	cs61	O	PRP	B-PP	to	TO	t586:PMOD	O
$	t586	20	$	O	O	O	O	O	O	cs61	O	CRD	B-NP	$	$	t587:DEP||t588:DEP	O
64	t587	20	64	O	O	O	O	O	O	cs61	O	CRD	I-NP	64	CD	O	O
million	t588	20	million	O	O	O	O	O	O	cs61	O	CRD	I-NP	million	CD	O	O
from	t589	20	from	O	O	O	O	O	O	cs61	O	PRP	B-PP	from	IN	t590:PMOD	O
$	t590	20	$	O	O	O	O	O	O	cs61	O	ZZ0	B-NP	$	$	t591:DEP||t592:DEP	O
27	t591	20	27	O	O	O	O	O	O	cs61	O	CRD	I-NP	27	CD	O	O
million	t592	20	million	O	O	O	O	O	O	cs61	O	CRD	I-NP	million	CD	O	O
.	t593	20	.	O	O	O	O	O	O	cs61	O	PUN	O	.	.	O	O

A	t594	21	a	O	O	O	O	O	O	cs61	O	AT0	B-NP	a	DT	O	O
spokesman	t595	21	spokesman	O	O	O	O	O	O	cs61	O	NN1	I-NP	spokesman	NN	t594:NMOD	O
said	t596	21	say	e65	REPORTING	PAST+NONE+POS	O	O	O	cs61	O	VVD	B-VP	say	VBD	t595:SBJ||t605:OBJ||t622:P	mainVb
herbicide	t597	21	herbicide	O	O	O	O	O	O	cs61	O	NN1	B-NP	herbicide	NN	O	O
use	t598	21	use	e66	OCCURRENCE	NONE+NONE+POS	O	O	O	cs61	O	NN1	I-NP	use	NN	t597:NMOD||t599:LOC	O
in	t599	21	in	O	O	O	O	O	O	cs61	O	PRP	B-PP	in	IN	t601:PMOD	O
some	t600	21	some	O	O	O	O	O	O	cs61	O	DT0	B-NP	some	DT	O	O
areas	t601	21	area	O	O	O	O	O	O	cs61	O	NN2	I-NP	area	NNS	t600:NMOD||t602:NMOD	O
of	t602	21	of	O	O	O	O	O	O	cs61	O	PRF	B-PP	of	IN	t604:PMOD	O
the	t603	21	the	O	O	O	O	O	O	cs61	O	AT0	B-NP	the	DT	O	O
U.S.	t604	21	U.S.	O	O	O	O	O	O	cs61	O	NN0	I-NP	u.s.	NNP	t603:NMOD	O
was	t605	21	be	O	O	O	O	O	O	cs61	O	VBD	B-VP	be	VBD	t598:SBJ||t606:VC	O
delayed	t606	21	delay	e67	I_ACTION	PAST+NONE+POS	O	O	O	cs61	O	VVN	I-VP	delay	VBN	t607:TMP||t611:LGS||t614:P||t615:ADV||t616:ADV	O
earlier	t607	21	earlier	O	O	O	tmx68	DATE	1989	cs61	O	AV0	B-ADVP	earlier	RBR	t608:AMOD	O
in	t608	21	in	O	O	O	tmx68	DATE	1989	cs61	O	PRP	B-PP	in	IN	t610:PMOD	O
the	t609	21	the	O	O	O	tmx68	DATE	1989	cs61	O	AT0	B-NP	the	DT	O	O
year	t610	21	year	O	O	O	tmx68	DATE	1989	cs61	O	NN1	I-NP	year	NN	t609:NMOD	O
by	t611	21	by	O	O	O	O	O	O	cs69	O	PRP	B-PP	by	IN	t613:PMOD	O
heavy	t612	21	heavy	O	O	O	O	O	O	cs69	O	AJ0	B-NP	heavy	JJ	O	O
rains	t613	21	rain	e70	OCCURRENCE	NONE+NONE+POS	O	O	O	cs69	O	NN2	I-NP	rain	NNS	t612:NMOD	O
,	t614	21	,	O	O	O	O	O	O	cs69	O	PUN	O	,	,	O	O
thus	t615	21	thus	O	O	O	O	O	O	cs71	O	AV0	B-NP	thus	RB	O	O
increasing	t616	21	increase	e72	OCCURRENCE	PRESPART+NONE+POS	O	O	O	cs71	O	AJ0	I-NP	increase	VBG	t617:OBJ||t618:TMP	O
sales	t617	21	sale	O	O	O	O	O	O	cs71	O	NN0	I-NP	sales	NNS	O	O
in	t618	21	in	O	O	O	O	O	O	cs71	O	PRP	B-PP	in	IN	t621:PMOD	O
the	t619	21	the	O	O	O	tmx73	DATE	1989-Q3	cs71	O	AT0	B-NP	the	DT	O	O
third	t620	21	third	O	O	O	tmx73	DATE	1989-Q3	cs71	O	ORD	I-NP	third	JJ	O	O
quarter	t621	21	quarter	O	O	O	tmx73	DATE	1989-Q3	cs71	O	NN1	I-NP	quarter	NN	t619:NMOD||t620:NMOD	O
.	t622	21	.	O	O	O	O	O	O	cs71	O	PUN	O	.	.	O	O

In	t623	22	in	O	O	O	O	O	O	cs71	O	PRP	B-PP	in	IN	t626:PMOD	O
the	t624	22	the	O	O	O	O	O	O	cs71	O	AT0	B-NP	the	DT	O	O
fibers	t625	22	fiber	O	O	O	O	O	O	cs71	O	NN2	I-NP	fiber	NNS	O	O
segment	t626	22	segment	O	O	O	O	O	O	cs71	O	NN1	I-NP	segment	NN	t624:NMOD||t625:NMOD	O
,	t627	22	,	O	O	O	O	O	O	cs71	O	PUN	O	,	,	O	O
profit	t628	22	profit	O	O	O	O	O	O	cs71	O	NN1	B-NP	profit	NN	O	O
rose	t629	22	rise	e74	OCCURRENCE	PAST+NONE+POS	O	O	O	cs71	O	VVD	B-VP	rise	VBD	t623:LOC||t627:P||t628:SBJ||t630:DIR||t634:DIR||t638:P||t640:ADV||t654:P	mainVb
to	t630	22	to	O	O	O	O	O	O	cs71	O	PRP	B-PP	to	TO	t631:PMOD	O
$	t631	22	$	O	O	O	O	O	O	cs71	O	CRD	B-NP	$	$	t632:DEP||t633:DEP	O
180	t632	22	180	O	O	O	O	O	O	cs71	O	CRD	B-NP	180	CD	O	O
million	t633	22	million	O	O	O	O	O	O	cs71	O	CRD	I-NP	million	CD	O	O
from	t634	22	from	O	O	O	O	O	O	cs71	O	PRP	B-PP	from	IN	t635:PMOD	O
$	t635	22	$	O	O	O	O	O	O	cs71	O	ZZ0	B-NP	$	$	t636:DEP||t637:DEP	O
155	t636	22	155	O	O	O	O	O	O	cs71	O	CRD	I-NP	155	CD	O	O
million	t637	22	million	O	O	O	O	O	O	cs71	O	CRD	I-NP	million	CD	O	O
,	t638	22	,	O	O	O	O	O	O	cs71	O	PUN	O	,	,	O	O
a	t639	22	a	O	O	O	O	O	O	cs71	O	AT0	B-NP	a	DT	O	O
gain	t640	22	gain	O	O	O	O	O	O	cs71	O	NN1	I-NP	gain	NN	t639:NMOD||t643:NMOD	O
Du	t641	22	Du	O	O	O	O	O	O	cs71	O	NP0	I-NP	du	NNP	O	O
Pont	t642	22	Pont	O	O	O	O	O	O	cs71	O	NP0	I-NP	pont	NNP	t641:NAME	O
attributed	t643	22	attribute	e75	I_ACTION	PAST+NONE+POS	O	O	O	cs71	O	VVD	B-VP	attribute	VBD	t642:SBJ||t644:ADV	O
to	t644	22	to	O	O	O	O	O	O	cs71	O	PRP	B-PP	to	TO	t646:PMOD	O
higher	t645	22	higher	O	O	O	O	O	O	cs71	O	AJC	B-NP	higher	JJR	O	O
demand	t646	22	demand	e76	OCCURRENCE	NONE+NONE+POS	O	O	O	cs71	O	NN1	I-NP	demand	NN	t645:NMOD||t647:LOC||t650:NMOD	O
in	t647	22	in	O	O	O	O	O	O	cs71	O	PRP	B-PP	in	IN	t649:PMOD	O
the	t648	22	the	O	O	O	O	O	O	cs71	O	AT0	B-NP	the	DT	O	O
U.S.	t649	22	U.S.	O	O	O	O	O	O	cs71	O	NP0	I-NP	u.s.	NNP	t648:NMOD	O
for	t650	22	for	O	O	O	O	O	O	cs71	O	PRP	B-PP	for	IN	t653:PMOD	O
most	t651	22	most	O	O	O	O	O	O	cs71	O	DT0	B-NP	most	DT	O	O
textile	t652	22	textile	O	O	O	O	O	O	cs71	O	AJ0	I-NP	textile	NN	O	O
products	t653	22	product	O	O	O	O	O	O	cs71	O	NN2	I-NP	product	NNS	t651:NMOD||t652:NMOD	O
.	t654	22	.	O	O	O	O	O	O	cs71	O	PUN	O	.	.	O	O

Two	t655	23	two	O	O	O	O	O	O	cs71	O	CRD	B-NP	two	CD	O	O
segments	t656	23	segment	O	O	O	O	O	O	cs71	O	NN2	I-NP	segment	NNS	t655:NMOD	O
posted	t657	23	post	e77	REPORTING	PAST+NONE+POS	O	O	O	cs71	O	VVD	B-VP	post	VBD	t656:SBJ||t659:OBJ||t663:P	mainVb
lower	t658	23	lower	O	O	O	O	O	O	cs71	O	AJC	B-NP	low	JJR	O	O
earnings	t659	23	earnings	e78	STATE	NONE+NONE+POS	O	O	O	cs71	O	NN2	I-NP	earnings	NNS	t658:NMOD||t660:NMOD	O
for	t660	23	for	O	O	O	O	O	O	cs71	O	PRP	B-PP	for	IN	t662:PMOD	O
the	t661	23	the	O	O	O	tmx79	DATE	1989-Q3	cs71	O	AT0	B-NP	the	DT	O	O
quarter	t662	23	quarter	O	O	O	tmx79	DATE	1989-Q3	cs71	O	NN1	I-NP	quarter	NN	t661:NMOD	O
.	t663	23	.	O	O	O	O	O	O	cs71	O	PUN	O	.	.	O	O

Profit	t664	24	profit	O	O	O	O	O	O	cs71	O	NP0	B-NP	profit	NN	t665:NMOD	O
from	t665	24	from	O	O	O	O	O	O	cs71	O	PRP	B-PP	from	IN	t666:PMOD	O
coal	t666	24	coal	O	O	O	O	O	O	cs71	O	NN1	B-NP	coal	NN	O	O
fell	t667	24	fall	e80	OCCURRENCE	PAST+NONE+POS	O	O	O	cs71	O	VVD	B-VP	fell	VBD	t664:SBJ||t668:DIR||t672:DIR||t676:P||t678:PRP||t684:P	mainVb
to	t668	24	to	O	O	O	O	O	O	cs71	O	PRP	B-PP	to	TO	t669:PMOD	O
$	t669	24	$	O	O	O	O	O	O	cs71	O	CRD	B-NP	$	$	t670:DEP||t671:DEP	O
41	t670	24	41	O	O	O	O	O	O	cs71	O	CRD	I-NP	41	CD	O	O
million	t671	24	million	O	O	O	O	O	O	cs71	O	CRD	I-NP	million	CD	O	O
from	t672	24	from	O	O	O	O	O	O	cs71	O	PRP	B-PP	from	IN	t673:PMOD	O
$	t673	24	$	O	O	O	O	O	O	cs71	O	ZZ0	B-NP	$	$	t674:DEP||t675:DEP	O
58	t674	24	58	O	O	O	O	O	O	cs71	O	CRD	I-NP	58	CD	O	O
million	t675	24	million	O	O	O	O	O	O	cs71	O	CRD	I-NP	million	CD	O	O
,	t676	24	,	O	O	O	O	O	O	cs71	O	PUN	O	,	,	O	O
partly	t677	24	partly	O	O	O	O	O	O	cs71	O	AV0	B-ADVP	partly	RB	O	O
because	t678	24	because	O	O	O	O	O	O	cs81	O	PRP	B-PP	because	IN	t677:PMOD||t679:DEP||t683:PMOD	O
of	t679	24	of	O	O	O	O	O	O	cs81	O	PRP	I-PP	of	IN	O	O
a	t680	24	a	O	O	O	O	O	O	cs81	O	AT0	B-NP	a	DT	O	O
miners	t681	24	miner	O	O	O	O	O	O	cs81	O	NN2	I-NP	miner	NNS	t680:NMOD||t682:SUFFIX	O
'	t682	24	'	O	O	O	O	O	O	cs81	O	POS	B-NP	'	POS	O	O
strike	t683	24	strike	e82	OCCURRENCE	NONE+NONE+POS	O	O	O	cs81	O	NN1	I-NP	strike	NN	t681:NMOD	O
.	t684	24	.	O	O	O	O	O	O	cs81	O	PUN	O	.	.	O	O

And	t685	25	and	O	O	O	O	O	O	cs81	O	CJC	O	and	CC	O	O
profit	t686	25	profit	O	O	O	O	O	O	cs81	O	VVB	B-VP	profit	NN	t687:NMOD	O
from	t687	25	from	O	O	O	O	O	O	cs81	O	PRP	B-PP	from	IN	t688:PMOD	O
polymers	t688	25	polymer	O	O	O	O	O	O	cs81	O	NN2	B-NP	polymer	NNS	O	O
dropped	t689	25	drop	e83	OCCURRENCE	PAST+NONE+POS	O	O	O	cs81	O	VVD	B-VP	drop	VBD	t685:DEP||t686:SBJ||t690:DIR||t694:DIR||t698:LOC||t714:P	mainVb
to	t690	25	to	O	O	O	O	O	O	cs81	O	PRP	B-PP	to	TO	t691:PMOD	O
$	t691	25	$	O	O	O	O	O	O	cs81	O	CRD	B-NP	$	$	t692:DEP||t693:DEP	O
107	t692	25	107	O	O	O	O	O	O	cs81	O	CRD	I-NP	107	CD	O	O
million	t693	25	million	O	O	O	O	O	O	cs81	O	CRD	I-NP	million	CD	O	O
from	t694	25	from	O	O	O	O	O	O	cs81	O	PRP	B-PP	from	IN	t695:PMOD	O
$	t695	25	$	O	O	O	O	O	O	cs81	O	ZZ0	B-NP	$	$	t696:DEP||t697:DEP	O
122	t696	25	122	O	O	O	O	O	O	cs81	O	CRD	I-NP	122	CD	O	O
million	t697	25	million	O	O	O	O	O	O	cs81	O	CRD	I-NP	million	CD	O	O
amid	t698	25	amid	O	O	O	O	O	O	cs81	O	PRP	B-PP	amid	IN	t702:PMOD	O
what	t699	25	what	O	O	O	O	O	O	cs81	O	DTQ	B-NP	what	WP	O	O
Du	t700	25	Du	O	O	O	O	O	O	cs81	O	NP0	I-NP	du	NNP	O	O
Pont	t701	25	Pont	O	O	O	O	O	O	cs81	O	NP0	I-NP	pont	NNP	t700:NAME	O
called	t702	25	call	O	O	O	O	O	O	cs81	O	VVD	B-VP	call	VBD	t699:OBJ||t701:SBJ||t704:OPRD	O
lower	t703	25	lower	O	O	O	O	O	O	cs81	O	AJC	B-NP	low	JJR	O	O
demand	t704	25	demand	O	O	O	O	O	O	cs81	O	NN1	I-NP	demand	NN	t703:NMOD||t705:COORD||t708:LOC	O
and	t705	25	and	O	O	O	O	O	O	cs81	O	CJC	O	and	CC	t707:CONJ	O
selling	t706	25	selling	O	O	O	O	O	O	cs81	O	VVG	B-VP	sell	VBG	O	O
prices	t707	25	price	O	O	O	O	O	O	cs81	O	NN2	B-NP	price	NNS	t706:NMOD	O
in	t708	25	in	O	O	O	O	O	O	cs81	O	PRP	B-PP	in	IN	t713:PMOD	O
certain	t709	25	certain	O	O	O	O	O	O	cs81	O	AJ0	B-NP	certain	JJ	O	O
packaging	t710	25	packaging	O	O	O	O	O	O	cs81	O	NN1	I-NP	packaging	NN	t711:COORD	O
and	t711	25	and	O	O	O	O	O	O	cs81	O	CJC	O	and	CC	t712:CONJ	O
industrial	t712	25	industrial	O	O	O	O	O	O	cs81	O	AJ0	B-NP	industrial	JJ	O	O
markets	t713	25	market	O	O	O	O	O	O	cs81	O	NN2	I-NP	market	NNS	t709:NMOD||t710:NMOD	O
.	t714	25	.	O	O	O	O	O	O	cs81	O	PUN	O	.	.	O	O

For	t715	26	for	O	O	O	O	O	O	cs81	O	PRP	B-PP	for	IN	t718:PMOD	O
the	t716	26	the	O	O	O	tmx84	DURATION	P9M	cs81	O	AT0	B-NP	the	DT	O	O
nine	t717	26	nine	O	O	O	tmx84	DURATION	P9M	cs81	O	CRD	I-NP	nine	CD	O	O
months	t718	26	month	O	O	O	tmx84	DURATION	P9M	cs81	O	NN2	I-NP	month	NNS	t716:NMOD||t717:NMOD	O
,	t719	26	,	O	O	O	O	O	O	cs81	O	PUN	O	,	,	O	O
Du	t720	26	Du	O	O	O	O	O	O	cs81	O	NP0	B-NP	du	NNP	O	O
Pont	t721	26	Pont	O	O	O	O	O	O	cs81	O	NP0	I-NP	pont	NNP	t720:NAME	O
earned	t722	26	earn	e85	OCCURRENCE	PAST+NONE+POS	O	O	O	cs81	O	VVD	B-VP	earn	VBD	t715:TMP||t719:P||t721:SBJ||t723:OBJ||t750:P	mainVb
$	t723	26	$	O	O	O	O	O	O	cs81	O	CRD	B-NP	$	$	t724:DEP||t725:DEP||t726:P||t727:COORD||t732:P||t733:NMOD	O
2	t724	26	2	O	O	O	O	O	O	cs81	O	CRD	I-NP	2	CD	O	O
billion	t725	26	billion	O	O	O	O	O	O	cs81	O	CRD	I-NP	billion	CD	O	O
,	t726	26	,	O	O	O	O	O	O	cs81	O	PUN	O	,	,	O	O
or	t727	26	or	O	O	O	O	O	O	cs81	O	CJC	O	or	CC	t728:CONJ	O
$	t728	26	$	O	O	O	O	O	O	cs81	O	CRD	B-NP	$	$	t729:NMOD||t731:ADV	O
8.46	t729	26	8.46	O	O	O	O	O	O	cs81	O	CRD	I-NP	8.46	CD	O	O
a	t730	26	a	O	O	O	O	O	O	cs81	O	AT0	B-NP	a	DT	O	O
share	t731	26	share	O	O	O	O	O	O	cs81	O	NN1	I-NP	share	NN	t730:NMOD	O
,	t732	26	,	O	O	O	O	O	O	cs81	O	PUN	O	,	,	O	O
up	t733	26	up	O	O	O	O	O	O	cs81	O	PRP	B-ADVP	up	IN	t735:AMOD||t736:AMOD	O
18	t734	26	18	O	O	O	O	O	O	cs81	O	CRD	B-NP	18	CD	O	O
%	t735	26	%	O	O	O	O	O	O	cs81	O	UNC	I-NP	%	NN	t734:NMOD	O
from	t736	26	from	O	O	O	O	O	O	cs81	O	PRP	B-PP	from	IN	t737:PMOD||t749:TMP	O
$	t737	26	$	O	O	O	O	O	O	cs81	O	CRD	B-NP	$	$	t738:DEP||t739:DEP||t740:P||t741:COORD||t746:P	O
1.69	t738	26	1.69	O	O	O	O	O	O	cs81	O	CRD	I-NP	1.69	CD	O	O
billion	t739	26	billion	O	O	O	O	O	O	cs81	O	CRD	I-NP	billion	CD	O	O
,	t740	26	,	O	O	O	O	O	O	cs81	O	PUN	O	,	,	O	O
or	t741	26	or	O	O	O	O	O	O	cs81	O	CJC	O	or	CC	t742:CONJ	O
$	t742	26	$	O	O	O	O	O	O	cs81	O	CRD	B-NP	$	$	t743:NMOD||t745:ADV	O
7.03	t743	26	7.03	O	O	O	O	O	O	cs81	O	CRD	I-NP	7.03	CD	O	O
a	t744	26	a	O	O	O	O	O	O	cs81	O	AT0	B-NP	a	DT	O	O
share	t745	26	share	O	O	O	O	O	O	cs81	O	NN1	I-NP	share	NN	t744:NMOD	O
,	t746	26	,	O	O	O	O	O	O	cs81	O	PUN	O	,	,	O	O
a	t747	26	a	O	O	O	tmx86	DATE	1988-Q3	cs81	O	AT0	B-NP	a	DT	O	O
year	t748	26	year	O	O	O	tmx86	DATE	1988-Q3	cs81	O	NN1	I-NP	year	NN	t747:NMOD	O
earlier	t749	26	earlier	O	O	O	tmx86	DATE	1988-Q3	cs81	O	AV0	B-ADVP	earlier	RBR	t748:AMOD	O
.	t750	26	.	O	O	O	O	O	O	cs81	O	PUN	O	.	.	O	O

Sales	t751	27	sale	O	O	O	O	O	O	cs81	O	NP0	B-NP	sales	NNS	O	O
increased	t752	27	increase	e87	OCCURRENCE	PAST+NONE+POS	O	O	O	cs81	O	VVD	B-VP	increase	VBD	t751:SBJ||t754:EXT||t755:DIR||t759:DIR||t763:P	mainVb
10	t753	27	10	O	O	O	O	O	O	cs81	O	CRD	B-NP	10	CD	O	O
%	t754	27	%	O	O	O	O	O	O	cs81	O	UNC	I-NP	%	NN	t753:NMOD	O
to	t755	27	to	O	O	O	O	O	O	cs81	O	PRP	B-PP	to	TO	t756:PMOD	O
$	t756	27	$	O	O	O	O	O	O	cs81	O	NN0	B-NP	$	$	t757:DEP||t758:DEP	O
26.54	t757	27	26.54	O	O	O	O	O	O	cs81	O	CRD	I-NP	26.54	CD	O	O
billion	t758	27	billion	O	O	O	O	O	O	cs81	O	CRD	I-NP	billion	CD	O	O
from	t759	27	from	O	O	O	O	O	O	cs81	O	PRP	B-PP	from	IN	t760:PMOD	O
$	t760	27	$	O	O	O	O	O	O	cs81	O	ZZ0	B-NP	$	$	t761:DEP||t762:DEP	O
24.05	t761	27	24.05	O	O	O	O	O	O	cs81	O	CRD	I-NP	24.05	CD	O	O
billion	t762	27	billion	O	O	O	O	O	O	cs81	O	CRD	I-NP	billion	CD	O	O
.	t763	27	.	O	O	O	O	O	O	cs81	O	PUN	O	.	.	O	O

The	t764	28	the	O	O	O	O	O	O	cs81	O	AT0	B-NP	the	DT	O	O
increased	t765	28	increase	O	O	O	O	O	O	cs81	O	AJ0	I-NP	increase	VBN	O	O
dividend	t766	28	dividend	O	O	O	O	O	O	cs81	O	NN1	I-NP	dividend	NN	t764:NMOD||t765:NMOD	O
will	t767	28	will	O	O	O	O	O	O	cs81	O	VM0	B-VP	will	MD	t766:SBJ||t768:VC||t778:P	mainVb
be	t768	28	be	O	O	O	O	O	O	cs81	O	VBI	I-VP	be	VB	t769:VC	mainVb
paid	t769	28	pay	e88	OCCURRENCE	FUTURE+NONE+POS	O	O	O	cs81	O	VVN	I-VP	pay	VBN	t771:TMP||t772:DTV	mainVb
Dec.	t770	28	Dec.	O	O	O	tmx89	DATE	1989-12-14	cs81	O	NP0	B-NP	dec.	NNP	O	O
14	t771	28	14	O	O	O	tmx89	DATE	1989-12-14	cs81	O	CRD	I-NP	14	CD	t770:NMOD	O
to	t772	28	to	O	O	O	O	O	O	cs81	O	PRP	B-PP	to	TO	t773:PMOD	O
holders	t773	28	holder	O	O	O	O	O	O	cs81	O	NN2	B-NP	holder	NNS	t774:NMOD||t777:TMP	O
of	t774	28	of	O	O	O	O	O	O	cs81	O	PRF	B-PP	of	IN	t775:PMOD	O
record	t775	28	record	O	O	O	O	O	O	cs81	O	NN1	B-NP	record	NN	O	O
Nov.	t776	28	Nov.	O	O	O	tmx90	DATE	1989-11-15	cs81	O	NP0	B-NP	nov.	NNP	O	O
15	t777	28	15	O	O	O	tmx90	DATE	1989-11-15	cs81	O	CRD	I-NP	15	CD	t776:NMOD	O
.	t778	28	.	O	O	O	O	O	O	cs81	O	PUN	O	.	.	O	O

The	t779	29	the	O	O	O	O	O	O	cs81	O	AT0	B-NP	the	DT	O	O
stock	t780	29	stock	O	O	O	O	O	O	cs81	O	NN1	I-NP	stock	NN	O	O
split	t781	29	split	e91	OCCURRENCE	NONE+NONE+POS	O	O	O	cs81	O	NN1	I-NP	split	NN	t779:NMOD||t780:NMOD||t782:P||t784:NMOD||t789:P	O
,	t782	29	,	O	O	O	O	O	O	cs81	O	PUN	O	,	,	O	O
which	t783	29	which	O	O	O	O	O	O	cs81	O	DTQ	B-NP	which	WDT	O	O
is	t784	29	be	O	O	O	O	O	O	cs81	O	VBZ	B-VP	be	VBZ	t783:SBJ||t785:PRD	O
subject	t785	29	subject	O	O	O	O	O	O	cs81	O	PRP	B-ADJP	subject	JJ	t786:AMOD	O
to	t786	29	to	O	O	O	O	O	O	cs81	O	PRP	B-PP	to	TO	t788:PMOD	O
holder	t787	29	holder	O	O	O	O	O	O	cs81	O	NN1	B-NP	holder	NN	O	O
approval	t788	29	approval	e92	I_ACTION	NONE+NONE+POS	O	O	O	cs81	O	NN1	I-NP	approval	NN	t787:NMOD	O
,	t789	29	,	O	O	O	O	O	O	cs81	O	PUN	O	,	,	O	O
would	t790	29	would	O	O	O	O	O	O	cs81	O	VM0	B-VP	would	MD	t781:SBJ||t791:VC||t806:P	mainVb
be	t791	29	be	O	O	O	O	O	O	cs81	O	VBI	I-VP	be	VB	t792:VC	mainVb
paid	t792	29	pay	e93	OCCURRENCE	NONE+NONE+POS	O	O	O	cs81	O	VVN	I-VP	pay	VBN	t793:TMP||t800:DTV	mainVb
on	t793	29	on	O	O	O	O	O	O	cs81	O	PRP	B-PP	on	IN	t797:PMOD	O
a	t794	29	a	O	O	O	O	O	O	cs81	O	AT0	B-NP	a	DT	O	O
still	t795	29	still	O	O	O	O	O	O	cs81	O	AV0	I-NP	still	RB	O	O
unspecified	t796	29	unspecified	O	O	O	O	O	O	cs81	O	AJ0	I-NP	unspecified	JJ	t795:AMOD	O
date	t797	29	date	O	O	O	O	O	O	cs81	O	NN1	I-NP	date	NN	t794:NMOD||t796:NMOD||t798:TMP	O
in	t798	29	in	O	O	O	O	O	O	cs81	O	PRP	B-PP	in	IN	t799:PMOD	O
January	t799	29	January	O	O	O	tmx94	DATE	1990-01	cs81	O	NP0	B-NP	january	NNP	O	O
to	t800	29	to	O	O	O	O	O	O	cs81	O	PRP	B-PP	to	TO	t801:PMOD	O
holders	t801	29	holder	O	O	O	O	O	O	cs81	O	NN2	B-NP	holder	NNS	t802:NMOD||t805:TMP	O
of	t802	29	of	O	O	O	O	O	O	cs81	O	PRF	B-PP	of	IN	t803:PMOD	O
record	t803	29	record	O	O	O	O	O	O	cs81	O	NN1	B-NP	record	NN	O	O
Dec.	t804	29	Dec.	O	O	O	tmx95	DATE	1989-12-21	cs81	O	NP0	B-NP	dec.	NNP	O	O
21	t805	29	21	O	O	O	tmx95	DATE	1989-12-21	cs81	O	CRD	I-NP	21	CD	t804:NMOD	O
.	t806	29	.	O	O	O	O	O	O	cs81	O	PUN	O	.	.	O	O
