DCT_1999-03-13	O	O	O	O	O	O	tmx0	DATE	1999-03-13	O	O	NP0	B-NP	dct_1999-03-13	LS	O	O

BUDAPEST	t1	1	BUDAPEST	O	O	O+O+O	O	O	O	O	O	NP0	B-NP	budapest	NNP	t2:P||t4:TMP	O
,	t2	1	,	O	O	O+O+O	O	O	O	O	O	PUN	O	,	,	O	O
March	t3	1	March	O	O	O+O+O	tmx111	DATE	1999-03-12	O	O	NP0	B-NP	march	NNP	O	O
12	t4	1	12	O	O	O+O+O	tmx111	DATE	1999-03-12	O	O	CRD	I-NP	12	CD	t3:NMOD	O
-LRB-	t5	1	-lrb-	O	O	O+O+O	O	O	O	O	O	NP0	I-NP	-lrb-	NNP	O	O
Xinhua	t6	1	Xinhua	O	O	O+O+O	O	O	O	O	O	NP0	I-NP	xinhua	NNP	O	O
-RRB-	t7	1	-rrb-	O	O	O+O+O	O	O	O	O	O	NP0	I-NP	-rrb-	NNP	t5:NAME||t6:NAME||t8:P	O
--	t8	1	--	O	O	O+O+O	O	O	O	O	O	NP0	O	--	:	O	O
Hungary	t9	1	Hungary	O	O	O+O+O	O	O	O	O	O	NP0	B-NP	hungary	NNP	t7:NAME||t10:SUFFIX	O
's	t10	1	's	O	O	O+O+O	O	O	O	O	O	POS	B-NP	's	POS	O	O
accession	t11	1	accession	e1	OCCURRENCE	NONE+NONE+POS	O	O	O	O	O	NN1	I-NP	accession	NN	t9:NMOD||t12:NMOD	O
to	t12	1	to	O	O	O	O	O	O	O	O	PRP	B-PP	to	TO	t13:PMOD	O
NATO	t13	1	NATO	O	O	O	O	O	O	O	O	NP0	B-NP	nato	NNP	O	O
has	t14	1	have	O	O	O	O	O	O	O	O	VHZ	I-NP	have	VBZ	t11:SBJ||t15:VC	O
brought	t15	1	bring	e2	OCCURRENCE	PRESENT+PERFECTIVE+POS	O	O	O	O	O	VVN	B-ADJP	bring	VBN	t16:ADV||t28:P||t29:ADV	O
about	t16	1	about	O	O	O	O	O	O	O	O	PRP	B-PP	about	IN	t18:PMOD	O
new	t17	1	new	O	O	O	O	O	O	O	O	AJ0	B-NP	new	JJ	O	O
changes	t18	1	change	O	O	O	O	O	O	O	O	NN2	I-NP	change	NNS	t17:NMOD||t19:NMOD||t23:LOC	O
to	t19	1	to	O	O	O	O	O	O	O	O	PRP	B-PP	to	TO	t22:PMOD	O
the	t20	1	the	O	O	O	O	O	O	O	O	AT0	B-NP	the	DT	O	O
political	t21	1	political	O	O	O	O	O	O	O	O	AJ0	I-NP	political	JJ	O	O
balance	t22	1	balance	O	O	O	O	O	O	O	O	NN1	I-NP	balance	NN	t20:NMOD||t21:NMOD	O
in	t23	1	in	O	O	O	O	O	O	O	O	PRP	B-PP	in	IN	t27:PMOD	O
central	t24	1	central	O	O	O	O	O	O	O	O	AJ0	B-NP	central	JJ	t25:COORD	O
and	t25	1	and	O	O	O	O	O	O	O	O	CJC	I-NP	and	CC	t26:CONJ	O
eastern	t26	1	eastern	O	O	O	O	O	O	O	O	AJ0	I-NP	eastern	JJ	O	O
Europe	t27	1	Europe	O	O	O	O	O	O	O	O	NP0	I-NP	europe	NNP	t24:NMOD	O
,	t28	1	,	O	O	O	O	O	O	O	O	PUN	O	,	,	O	O
shattering	t29	1	shatter	e3	OCCURRENCE	PRESPART+NONE+POS	O	O	O	O	O	VVG	B-VP	shatter	VBG	t32:OBJ||t33:LOC||t37:TMP	O
the	t30	1	the	O	O	O	O	O	O	O	O	AT0	B-NP	the	DT	O	O
world	t31	1	world	O	O	O	O	O	O	O	O	NN1	I-NP	world	NN	O	O
configuration	t32	1	configuration	O	O	O	O	O	O	O	O	NN1	I-NP	configuration	NN	t30:NMOD||t31:NMOD	O
under	t33	1	under	O	O	O	O	O	O	O	O	PRP	B-PP	under	IN	t36:PMOD	O
the	t34	1	the	O	O	O	O	O	O	O	O	AT0	B-NP	the	DT	O	O
Yalta	t35	1	Yalta	O	O	O	O	O	O	O	O	NP0	I-NP	yalta	NNP	O	O
accord	t36	1	accord	O	O	O	O	O	O	O	O	NN1	I-NP	accord	NN	t34:NMOD||t35:NMOD	O
since	t37	1	since	O	O	O	O	O	O	s1	O	PRP	B-PP	since	IN	t39:PMOD	O
World	t38	1	World	O	O	O	O	O	O	O	O	NN1	B-NP	world	NNP	O	O
War	t39	1	War	e4	OCCURRENCE	NONE+NONE+POS	O	O	O	O	O	NN1	I-NP	war	NNP	t38:NAME||t40:POSTHON	O
II	t40	1	II	O	O	O	O	O	O	O	O	CRD	I-NP	ii	NNP	O	O
,	t41	1	,	O	O	O	O	O	O	O	O	PUN	O	,	,	O	O
Hungarian	t42	1	hungarian	O	O	O	O	O	O	O	O	AJ0	B-NP	hungarian	JJ	O	O
Prime	t43	1	Prime	O	O	O	O	O	O	O	O	AJ0	I-NP	prime	NN	O	O
Minister	t44	1	Minister	O	O	O	O	O	O	O	O	NN1	I-NP	minister	NN	t42:NMOD||t43:NMOD	O
Viktor	t45	1	Viktor	O	O	O	O	O	O	O	O	NP0	I-NP	viktor	NNP	O	O
Orban	t46	1	Orban	O	O	O	O	O	O	O	O	NP0	I-NP	orban	NNP	t44:NMOD||t45:NAME	O
said	t47	1	say	e5	REPORTING	PAST+NONE+POS	O	O	O	O	O	VVD	B-VP	say	VBD	t1:TMP||t14:OBJ||t41:P||t46:SBJ||t48:LOC||t49:TMP||t50:P	mainVb
here	t48	1	here	O	O	O	O	O	O	O	O	AV0	B-ADVP	here	RB	O	O
Friday	t49	1	Friday	O	O	O	tmx2	DATE	1999-03-12	O	O	NP0	B-NP	friday	NNP	O	O
.	t50	1	.	O	O	O	O	O	O	O	O	PUN	O	.	.	O	O

Addressing	t51	2	address	e6	STATE	PRESPART+NONE+POS	O	O	O	O	O	VVG	B-VP	address	VBG	t55:OBJ	O
a	t52	2	a	O	O	O	O	O	O	O	O	AT0	B-NP	a	DT	O	O
NATO	t53	2	NATO	O	O	O	O	O	O	O	O	NP0	I-NP	nato	NNP	O	O
flag-lowering	t54	2	flag-lowering	O	O	O	O	O	O	O	O	VVG	B-VP	flag-lowering	NN	t53:NMOD	O
ceremony	t55	2	ceremony	e7	OCCURRENCE	NONE+NONE+POS	O	O	O	O	O	NN1	B-NP	ceremony	NN	t52:NMOD||t54:NMOD||t56:LOC	O
at	t56	2	at	O	O	O	O	O	O	O	O	PRP	B-PP	at	IN	t59:PMOD	O
the	t57	2	the	O	O	O	O	O	O	O	O	AT0	B-NP	the	DT	O	O
Dutch	t58	2	dutch	O	O	O	O	O	O	O	O	AJ0	I-NP	dutch	JJ	O	O
embassy	t59	2	embassy	O	O	O	O	O	O	O	O	NN1	I-NP	embassy	NN	t57:NMOD||t58:NMOD	O
,	t60	2	,	O	O	O	O	O	O	O	O	PUN	O	,	,	O	O
Orban	t61	2	Orban	O	O	O	O	O	O	O	O	NP0	B-NP	orban	NNP	O	O
said	t62	2	say	e8	REPORTING	PAST+NONE+POS	O	O	O	O	O	VVD	B-VP	say	VBD	t51:ADV||t60:P||t61:SBJ||t65:OBJ||t85:P	mainVb
the	t63	2	the	O	O	O	O	O	O	O	O	AT0	B-NP	the	DT	O	O
occasion	t64	2	occasion	e37	OCCURRENCE	NONE+NONE+POS	O	O	O	O	O	NN1	I-NP	occasion	NN	t63:NMOD	O
indicated	t65	2	indicate	e9	I_ACTION	PAST+NONE+POS	O	O	O	O	O	VVD	B-VP	indicate	VBD	t64:SBJ||t67:OBJ	O
the	t66	2	the	O	O	O	O	O	O	O	O	AT0	B-NP	the	DT	O	O
end	t67	2	end	e10	ASPECTUAL	NONE+NONE+POS	O	O	O	O	O	NN1	I-NP	end	NN	t66:NMOD||t68:NMOD	O
of	t68	2	of	O	O	O	O	O	O	O	O	PRF	B-PP	of	IN	t72:PMOD	O
the	t69	2	the	O	O	O	O	O	O	O	O	AT0	B-NP	the	DT	O	O
embassy	t70	2	embassy	O	O	O	O	O	O	O	O	NN1	I-NP	embassy	NN	t69:NMOD||t71:SUFFIX	O
's	t71	2	's	O	O	O	O	O	O	O	O	POS	B-NP	's	POS	O	O
mission	t72	2	mission	e11	STATE	NONE+NONE+POS	O	O	O	O	O	NN1	I-NP	mission	NN	t70:NMOD||t73:NMOD	O
of	t73	2	of	O	O	O	O	O	O	O	O	PRF	B-PP	of	IN	t74:PMOD	O
liaison	t74	2	liaison	O	O	O	O	O	O	O	O	NN1	B-NP	liaison	NN	t75:NMOD	O
between	t75	2	between	O	O	O	O	O	O	O	O	PRP	B-PP	between	IN	t76:PMOD	O
Hungary	t76	2	Hungary	O	O	O	O	O	O	O	O	NP0	B-NP	hungary	NNP	t77:COORD	O
and	t77	2	and	O	O	O	O	O	O	O	O	CJC	O	and	CC	t84:CONJ	O
NATO	t78	2	NATO	O	O	O	O	O	O	O	O	NP0	B-NP	nato	NNP	O	O
-LRB-	t79	2	-lrb-	O	O	O	O	O	O	O	O	NP0	I-NP	-lrb-	NNP	O	O
North	t80	2	North	O	O	O	O	O	O	O	O	NP0	I-NP	north	NNP	O	O
Atlantic	t81	2	Atlantic	O	O	O	O	O	O	O	O	NP0	I-NP	atlantic	NNP	t80:NAME	O
Treaty	t82	2	Treaty	O	O	O	O	O	O	O	O	NN1	I-NP	treaty	NNP	t81:NMOD	O
Organization	t83	2	Organization	O	O	O	O	O	O	O	O	NN1	I-NP	organization	NNP	O	O
-RRB-	t84	2	-rrb-	O	O	O	O	O	O	O	O	NN1	I-NP	-rrb-	NNP	t78:NAME||t79:NAME||t82:NAME||t83:NAME	O
.	t85	2	.	O	O	O	O	O	O	O	O	PUN	O	.	.	O	O

The	t86	3	the	O	O	O	O	O	O	O	O	AT0	B-NP	the	DT	O	O
Hungarian	t87	3	hungarian	O	O	O	O	O	O	O	O	AJ0	I-NP	hungarian	JJ	O	O
government	t88	3	government	O	O	O	O	O	O	O	O	NN1	I-NP	government	NN	t86:NMOD||t87:NMOD	O
staged	t89	3	stage	e12	OCCURRENCE	PAST+NONE+POS	O	O	O	O	O	VVD	B-VP	stage	VBD	t88:SBJ||t91:OBJ||t94:PRP||t104:P	mainVb
a	t90	3	a	O	O	O	O	O	O	O	O	AT0	B-NP	a	DT	O	O
number	t91	3	number	O	O	O	O	O	O	O	O	NN1	I-NP	number	NN	t90:NMOD||t92:NMOD	O
of	t92	3	of	O	O	O	O	O	O	O	O	PRF	B-PP	of	IN	t93:PMOD	O
celebrations	t93	3	celebration	e13	OCCURRENCE	NONE+NONE+POS	O	O	O	O	O	NN2	B-NP	celebration	NNS	O	O
to	t94	3	to	O	O	O	O	O	O	O	O	TO0	B-VP	to	TO	t95:IM	O
mark	t95	3	mark	e14	I_ACTION	INFINITIVE+NONE+POS	O	O	O	O	O	VVI	I-VP	mark	VB	t99:OBJ	O
the	t96	3	the	O	O	O	O	O	O	O	O	AT0	B-NP	the	DT	O	O
country	t97	3	country	O	O	O	O	O	O	O	O	NN1	I-NP	country	NN	t96:NMOD||t98:SUFFIX	O
's	t98	3	's	O	O	O	O	O	O	O	O	POS	B-NP	's	POS	O	O
entry	t99	3	entry	e15	OCCURRENCE	NONE+NONE+POS	O	O	O	O	O	NN1	I-NP	entry	NN	t97:NMOD||t100:NMOD||t102:TMP	O
into	t100	3	into	O	O	O	O	O	O	O	O	PRP	B-PP	into	IN	t101:PMOD	O
NATO	t101	3	NATO	O	O	O	O	O	O	O	O	NP0	B-NP	nato	NNP	O	O
on	t102	3	on	O	O	O	O	O	O	s2	O	PRP	B-PP	on	IN	t103:PMOD	O
Friday	t103	3	Friday	O	O	O	tmx3	DATE	1999-03-12	O	O	NP0	B-NP	friday	NNP	O	O
.	t104	3	.	O	O	O	O	O	O	O	O	PUN	O	.	.	O	O

In	t105	4	in	O	O	O	O	O	O	O	O	PRP	B-PP	in	IN	t108:PMOD	O
a	t106	4	a	O	O	O	O	O	O	O	O	AT0	B-NP	a	DT	O	O
televised	t107	4	televise	O	O	O	O	O	O	O	O	AJ0	I-NP	televise	VBN	O	O
address	t108	4	address	e16	OCCURRENCE	NONE+NONE+POS	O	O	O	O	O	NN1	I-NP	address	NN	t106:NMOD||t107:NMOD	O
Friday	t109	4	Friday	O	O	O	tmx4	DATE	1999-03-12	O	O	NP0	B-NP	friday	NNP	O	O
,	t110	4	,	O	O	O	O	O	O	O	O	PUN	O	,	,	O	O
President	t111	4	President	O	O	O	O	O	O	O	O	NP0	B-NP	president	NN	O	O
Arpad	t112	4	Arpad	O	O	O	O	O	O	O	O	NP0	I-NP	arpad	NNP	O	O
Gencz	t113	4	Gencz	O	O	O	O	O	O	O	O	NP0	I-NP	gencz	NNP	t111:TITLE||t112:NAME	O
described	t114	4	describe	e17	REPORTING	PAST+NONE+POS	O	O	O	O	O	VVD	B-VP	describe	VBD	t105:LOC||t109:TMP||t110:P||t113:SBJ||t116:OBJ||t137:P	mainVb
the	t115	4	the	O	O	O	O	O	O	O	O	AT0	B-NP	the	DT	O	O
entry	t116	4	entry	e18	OCCURRENCE	NONE+NONE+POS	O	O	O	O	O	NN1	I-NP	entry	NN	t115:NMOD||t117:NMOD	O
as	t117	4	as	O	O	O	O	O	O	O	O	CJS	B-PP	as	IN	t122:PMOD	O
"	t118	4	"	O	O	O	O	O	O	O	O	PUQ	O	"	PDT	O	O
a	t119	4	a	O	O	O	O	O	O	O	O	AT0	B-NP	a	DT	O	O
historic	t120	4	historic	O	O	O	O	O	O	O	O	AJ0	I-NP	historic	JJ	O	O
event	t121	4	event	e19	OCCURRENCE	NONE+NONE+POS	O	O	O	O	O	NN1	I-NP	event	NN	O	O
"	t122	4	"	O	O	O	O	O	O	O	O	PUQ	O	"	NN	t118:NMOD||t119:NMOD||t120:NMOD||t121:NMOD||t124:NMOD	O
which	t123	4	which	O	O	O	O	O	O	O	O	DTQ	B-NP	which	WDT	O	O
proves	t124	4	prove	e20	OCCURRENCE	PRESENT+NONE+POS	O	O	O	O	O	VVZ	B-VP	prove	VBZ	t123:SBJ||t126:OBJ	O
the	t125	4	the	O	O	O	O	O	O	O	O	AT0	B-NP	the	DT	O	O
credibility	t126	4	credibility	O	O	O	O	O	O	O	O	NN1	I-NP	credibility	NN	t125:NMOD||t127:COORD	O
and	t127	4	and	O	O	O	O	O	O	O	O	CJC	O	and	CC	t130:CONJ	O
the	t128	4	the	O	O	O	O	O	O	O	O	AT0	B-NP	the	DT	O	O
realistic	t129	4	realistic	O	O	O	O	O	O	O	O	AJ0	I-NP	realistic	JJ	O	O
approaches	t130	4	approach	O	O	O	O	O	O	O	O	NN2	I-NP	approach	NNS	t128:NMOD||t129:NMOD||t131:NMOD	O
of	t131	4	of	O	O	O	O	O	O	O	O	PRF	B-PP	of	IN	t136:PMOD	O
the	t132	4	the	O	O	O	O	O	O	O	O	AT0	B-NP	the	DT	O	O
country	t133	4	country	O	O	O	O	O	O	O	O	NN1	I-NP	country	NN	t132:NMOD||t134:SUFFIX	O
's	t134	4	's	O	O	O	O	O	O	O	O	POS	B-NP	's	POS	O	O
foreign	t135	4	foreign	O	O	O	O	O	O	O	O	AJ0	I-NP	foreign	JJ	O	O
policy	t136	4	policy	O	O	O	O	O	O	O	O	NN1	I-NP	policy	NN	t133:NMOD||t135:NMOD	O
.	t137	4	.	O	O	O	O	O	O	O	O	PUN	O	.	.	O	O

Among	t138	5	among	O	O	O	O	O	O	O	O	PRP	B-PP	among	IN	t145:PMOD	O
the	t139	5	the	O	O	O	O	O	O	O	O	AT0	B-NP	the	DT	O	O
first	t140	5	first	O	O	O	O	O	O	O	O	ORD	I-NP	first	JJ	O	O
three	t141	5	three	O	O	O	O	O	O	O	O	CRD	I-NP	three	CD	O	O
former	t142	5	former	O	O	O	O	O	O	O	O	DT0	B-NP	former	JJ	O	O
Warsaw	t143	5	Warsaw	O	O	O	O	O	O	O	O	NP0	I-NP	warsaw	NNP	O	O
Pact	t144	5	Pact	O	O	O	O	O	O	O	O	NN1	I-NP	pact	NNP	t143:NAME	O
countries	t145	5	country	O	O	O	O	O	O	O	O	NN2	I-NP	country	NNS	t139:NMOD||t140:NMOD||t141:NMOD||t142:NMOD||t144:NMOD||t146:NMOD	O
to	t146	5	to	O	O	O	O	O	O	O	O	TO0	B-VP	to	TO	t147:IM	O
accede	t147	5	accede	e21	OCCURRENCE	INFINITIVE+NONE+POS	O	O	O	O	O	VVI	I-VP	accede	VB	t148:DIR||t150:TMP	O
to	t148	5	to	O	O	O	O	O	O	O	O	PRP	B-PP	to	TO	t149:PMOD	O
NATO	t149	5	NATO	O	O	O	O	O	O	O	O	NP0	B-NP	nato	NNP	O	O
on	t150	5	on	O	O	O	O	O	O	s3	O	PRP	B-PP	on	IN	t151:PMOD	O
Friday	t151	5	Friday	O	O	O	tmx5	DATE	1999-03-12	O	O	NP0	B-NP	friday	NNP	O	O
were	t152	5	be	e22	STATE	PAST+NONE+POS	O	O	O	O	O	VBD	B-VP	be	VBD	t138:LOC-PRD||t153:ADV||t154:PRD||t159:P	mainVb
also	t153	5	also	O	O	O	O	O	O	O	O	AV0	B-ADVP	also	RB	O	O
Poland	t154	5	Poland	O	O	O	O	O	O	O	O	NP0	B-NP	poland	NNP	t155:COORD	O
and	t155	5	and	O	O	O	O	O	O	O	O	CJC	O	and	CC	t158:CONJ	O
the	t156	5	the	O	O	O	O	O	O	O	O	AT0	B-NP	the	DT	O	O
Czech	t157	5	Czech	O	O	O	O	O	O	O	O	AJ0	I-NP	czech	JJ	O	O
Republic	t158	5	Republic	O	O	O	O	O	O	O	O	NN1	I-NP	republic	NN	t156:NMOD||t157:NMOD	O
.	t159	5	.	O	O	O	O	O	O	O	O	PUN	O	.	.	O	O

The	t160	6	the	O	O	O	O	O	O	O	O	AT0	B-NP	the	DT	O	O
ambassadors	t161	6	ambassador	O	O	O	O	O	O	O	O	NN2	I-NP	ambassador	NNS	t160:NMOD||t162:NMOD	O
of	t162	6	of	O	O	O	O	O	O	O	O	PRF	B-PP	of	IN	t163:PMOD	O
Hungary	t163	6	Hungary	O	O	O	O	O	O	O	O	NP0	B-NP	hungary	NNP	t164:P||t165:COORD	O
,	t164	6	,	O	O	O	O	O	O	O	O	PUN	O	,	,	O	O
Poland	t165	6	Poland	O	O	O	O	O	O	O	O	NP0	B-NP	poland	NNP	t166:COORD	O
and	t166	6	and	O	O	O	O	O	O	O	O	CJC	O	and	CC	t169:CONJ	O
the	t167	6	the	O	O	O	O	O	O	O	O	AT0	B-NP	the	DT	O	O
Czech	t168	6	Czech	O	O	O	O	O	O	O	O	AJ0	I-NP	czech	NNP	O	O
Republic	t169	6	Republic	O	O	O	O	O	O	O	O	NN1	I-NP	republic	NNP	t167:NMOD||t168:NAME	O
issued	t170	6	issue	e23	OCCURRENCE	PAST+NONE+POS	O	O	O	O	O	VVD	B-VP	issue	VBD	t161:SBJ||t173:OBJ||t174:TMP||t194:P	mainVb
a	t171	6	a	O	O	O	O	O	O	O	O	AT0	B-NP	a	DT	O	O
joint	t172	6	joint	O	O	O	O	O	O	O	O	AJ0	I-NP	joint	JJ	O	O
statement	t173	6	statement	O	O	O	O	O	O	O	O	NN1	I-NP	statement	NN	t171:NMOD||t172:NMOD||t175:APPO	O
Friday	t174	6	Friday	O	O	O	tmx6	DATE	1999-03-12	O	O	NP0	B-NP	friday	NNP	O	O
saying	t175	6	say	e24	REPORTING	PRESPART+NONE+POS	O	O	O	O	O	VVG	B-VP	say	VBG	t183:OBJ	O
the	t176	6	the	O	O	O	O	O	O	O	O	AT0	B-NP	the	DT	O	O
three	t177	6	three	O	O	O	O	O	O	O	O	CRD	I-NP	three	CD	O	O
countries	t178	6	country	O	O	O	O	O	O	O	O	NN2	I-NP	country	NNS	t176:NMOD||t177:NMOD||t179:SUFFIX	O
'	t179	6	'	O	O	O	O	O	O	O	O	POS	B-NP	'	POS	O	O
entry	t180	6	entry	e25	OCCURRENCE	NONE+NONE+POS	O	O	O	O	O	NN1	I-NP	entry	NN	t178:NMOD||t181:NMOD	O
into	t181	6	into	O	O	O	O	O	O	O	O	PRP	B-PP	into	IN	t182:PMOD	O
NATO	t182	6	NATO	O	O	O	O	O	O	O	O	NP0	B-NP	nato	NNP	O	O
will	t183	6	will	O	O	O	O	O	O	O	O	VM0	B-VP	will	MD	t180:SBJ||t184:VC	O
consolidate	t184	6	consolidate	e26	OCCURRENCE	FUTURE+NONE+POS	O	O	O	O	O	VVI	I-VP	consolidate	VB	t187:OBJ||t188:COORD	O
Europe	t185	6	Europe	O	O	O	O	O	O	O	O	NP0	B-NP	europe	NNP	t186:SUFFIX	O
's	t186	6	's	O	O	O	O	O	O	O	O	POS	B-NP	's	POS	O	O
security	t187	6	security	O	O	O	O	O	O	O	O	NN1	I-NP	security	NN	t185:NMOD	O
and	t188	6	and	O	O	O	O	O	O	O	O	CJC	I-NP	and	CC	t189:CONJ	O
help	t189	6	help	e27	I_ACTION	FUTURE+NONE+POS	O	O	O	O	O	NN1	I-NP	help	VB	t190:OPRD	O
eliminate	t190	6	eliminate	e28	OCCURRENCE	INFINITIVE+NONE+POS	O	O	O	O	O	AJ0	I-NP	eliminate	VB	t191:OBJ	O
threats	t191	6	threat	O	O	O	O	O	O	O	O	NN2	I-NP	threat	NNS	t192:NMOD	O
to	t192	6	to	O	O	O	O	O	O	O	O	PRP	B-PP	to	TO	t193:PMOD	O
it	t193	6	it	O	O	O	O	O	O	O	O	PNP	B-NP	it	PRP	O	O
.	t194	6	.	O	O	O	O	O	O	O	O	PUN	O	.	.	O	O

Five	t195	7	five	O	O	O	O	O	O	O	O	CRD	B-NP	five	CD	O	O
major	t196	7	major	O	O	O	O	O	O	O	O	AJ0	I-NP	major	JJ	O	O
political	t197	7	political	O	O	O	O	O	O	O	O	AJ0	I-NP	political	JJ	O	O
parties	t198	7	party	O	O	O	O	O	O	O	O	NN2	I-NP	party	NNS	t195:NMOD||t196:NMOD||t197:NMOD||t199:LOC	O
in	t199	7	in	O	O	O	O	O	O	O	O	PRP	B-PP	in	IN	t201:PMOD	O
the	t200	7	the	O	O	O	O	O	O	O	O	AT0	B-NP	the	DT	O	O
country	t201	7	country	O	O	O	O	O	O	O	O	NN1	I-NP	country	NN	t200:NMOD	O
issued	t202	7	issue	e29	OCCURRENCE	PAST+NONE+POS	O	O	O	O	O	VVD	B-VP	issue	VBD	t198:SBJ||t203:OBJ||t210:P	mainVb
statements	t203	7	statement	O	O	O	O	O	O	O	O	NN2	B-NP	statement	NNS	t204:APPO	O
supporting	t204	7	support	e30	I_ACTION	PRESPART+NONE+POS	O	O	O	O	O	VVG	B-VP	support	VBG	t209:OBJ	O
the	t205	7	the	O	O	O	O	O	O	O	O	AT0	B-NP	the	DT	O	O
country	t206	7	country	O	O	O	O	O	O	O	O	NN1	I-NP	country	NN	t205:NMOD||t207:SUFFIX	O
's	t207	7	's	O	O	O	O	O	O	O	O	POS	B-NP	's	POS	O	O
NATO	t208	7	NATO	O	O	O	O	O	O	O	O	NP0	I-NP	nato	NNP	O	O
membership	t209	7	membership	e31	OCCURRENCE	NONE+NONE+POS	O	O	O	O	O	NN1	I-NP	membership	NN	t206:NMOD||t208:NMOD	O
.	t210	7	.	O	O	O	O	O	O	O	O	PUN	O	.	.	O	O

But	t211	8	but	O	O	O	O	O	O	O	O	CJC	O	but	CC	O	O
some	t212	8	some	O	O	O	O	O	O	O	O	DT0	B-NP	some	DT	O	O
other	t213	8	other	O	O	O	O	O	O	O	O	AJ0	I-NP	other	JJ	O	O
parties	t214	8	party	O	O	O	O	O	O	O	O	NN2	I-NP	party	NNS	t212:NMOD||t213:NMOD||t215:COORD	O
and	t215	8	and	O	O	O	O	O	O	O	O	CJC	O	and	CC	t217:CONJ	O
social	t216	8	social	O	O	O	O	O	O	O	O	AJ0	B-NP	social	JJ	O	O
organizations	t217	8	organization	O	O	O	O	O	O	O	O	NN2	I-NP	organization	NNS	t216:NMOD	O
are	t218	8	be	e32	STATE	PRESENT+NONE+POS	O	O	O	O	O	VBB	B-VP	be	VBP	t211:DEP||t214:SBJ||t219:PRD||t223:P||t224:ADV||t249:P	mainVb
against	t219	8	against	O	O	O	O	O	O	O	O	PRP	B-PP	against	IN	t222:PMOD	O
NATO	t220	8	NATO	O	O	O	O	O	O	O	O	NP0	B-NP	nato	NNP	t221:SUFFIX	O
's	t221	8	's	O	O	O	O	O	O	O	O	POS	B-NP	's	POS	O	O
expansion	t222	8	expansion	O	O	O	O	O	O	O	O	NN1	I-NP	expansion	NN	t220:NMOD	O
,	t223	8	,	O	O	O	O	O	O	O	O	PUN	O	,	,	O	O
claiming	t224	8	claim	e33	REPORTING	PRESPART+NONE+POS	O	O	O	O	O	VVG	B-VP	claim	VBG	t230:OBJ	O
Hungary	t225	8	Hungary	O	O	O	O	O	O	O	O	NP0	B-NP	hungary	NNP	t226:SUFFIX	O
's	t226	8	's	O	O	O	O	O	O	O	O	POS	B-NP	's	POS	O	O
accession	t227	8	accession	e34	OCCURRENCE	NONE+NONE+POS	O	O	O	O	O	NN1	I-NP	accession	NN	t225:NMOD||t228:NMOD	O
to	t228	8	to	O	O	O	O	O	O	O	O	PRP	B-PP	to	TO	t229:PMOD	O
NATO	t229	8	NATO	O	O	O	O	O	O	O	O	NP0	B-NP	nato	NNP	O	O
would	t230	8	would	O	O	O	O	O	O	O	O	VM0	B-VP	would	MD	t227:SBJ||t231:VC	O
be	t231	8	be	e35	STATE	PRESENT+NONE+POS	O	O	O	O	O	VBI	I-VP	be	VB	t232:PRD||t238:COORD	O
detrimental	t232	8	detrimental	O	O	O	O	O	O	O	O	AJ0	B-ADJP	detrimental	JJ	t233:AMOD	O
to	t233	8	to	O	O	O	O	O	O	O	O	PRP	B-PP	to	TO	t237:PMOD	O
the	t234	8	the	O	O	O	O	O	O	O	O	AT0	B-NP	the	DT	O	O
country	t235	8	country	O	O	O	O	O	O	O	O	NN1	I-NP	country	NN	t234:NMOD||t236:SUFFIX	O
's	t236	8	's	O	O	O	O	O	O	O	O	POS	B-NP	's	POS	O	O
independence	t237	8	independence	O	O	O	O	O	O	O	O	NN1	I-NP	independence	NN	t235:NMOD	O
and	t238	8	and	O	O	O	O	O	O	O	O	CJC	O	and	CC	t239:CONJ	O
bring	t239	8	bring	e36	OCCURRENCE	PRESENT+NONE+POS	O	O	O	O	O	VVB	B-VP	bring	VB	t240:PRT||t242:OBJ||t246:ADV	O
about	t240	8	about	O	O	O	O	O	O	O	O	PRP	B-PP	about	RP	O	O
new	t241	8	new	O	O	O	O	O	O	O	O	AJ0	B-NP	new	JJ	O	O
problems	t242	8	problem	O	O	O	O	O	O	O	O	NN2	I-NP	problem	NNS	t241:NMOD||t243:COORD	O
and	t243	8	and	O	O	O	O	O	O	O	O	CJC	O	and	CC	t245:CONJ	O
economic	t244	8	economic	O	O	O	O	O	O	O	O	AJ0	B-NP	economic	JJ	O	O
burdens	t245	8	burden	O	O	O	O	O	O	O	O	NN2	I-NP	burden	NNS	t244:NMOD	O
to	t246	8	to	O	O	O	O	O	O	O	O	PRP	B-PP	to	TO	t248:PMOD	O
the	t247	8	the	O	O	O	O	O	O	O	O	AT0	B-NP	the	DT	O	O
country	t248	8	country	O	O	O	O	O	O	O	O	NN1	I-NP	country	NN	t247:NMOD	O
.	t249	8	.	O	O	O	O	O	O	O	O	PUN	O	.	.	O	O
