DCT_2013-03-21	O	O	O	O	O	O	tmx0	DATE	2013-03-21	O	O	NP0	B-NP	dct_2013-03-21	LS	O	O

Barack	t1	1	Barack	O	O	O+O+O	O	O	O	O	O	NP0	B-NP	barack	NNP	O	O
Obama	t2	1	Obama	O	O	O+O+O	O	O	O	O	O	NP0	I-NP	obama	NNP	t1:NAME	O
would	t3	1	would	O	O	O+O+O	O	O	O	O	O	VM0	B-VP	would	MD	t2:SBJ||t4:VC||t35:P	mainVb
make	t4	1	make	e1	OCCURRENCE	FUTURE+NONE+POS	O	O	O	O	O	VVI	I-VP	make	VB	t8:OBJ||t9:P||t11:ADV	mainVb
a	t5	1	a	O	O	O	O	O	O	O	O	AT0	B-NP	a	DT	O	O
great	t6	1	great	O	O	O	O	O	O	O	O	AJ0	I-NP	great	JJ	O	O
stand-up	t7	1	stand-up	O	O	O	O	O	O	O	O	AJ0	I-NP	stand-up	NN	O	O
comic	t8	1	comic	O	O	O	O	O	O	O	O	AJ0	I-NP	comic	NN	t5:NMOD||t6:NMOD||t7:NMOD	O
,	t9	1	,	O	O	O	O	O	O	O	O	PUN	O	,	,	O	O
not	t10	1	not	O	O	O	O	O	O	O	O	XX0	O	not	RB	t18:COORD	O
because	t11	1	because	O	O	O	O	O	O	O	O	CJS	B-SBAR	because	IN	t10:ADV||t13:SUB	O
he	t12	1	he	O	O	O	O	O	O	O	O	PNP	B-NP	he	PRP	O	O
's	t13	1	be	O	O	O	O	O	O	O	O	VBZ	B-VP	's	VBZ	t12:SBJ||t16:PRD	O
the	t14	1	the	O	O	O	O	O	O	O	O	AT0	B-NP	the	DT	O	O
funniest	t15	1	funniest	O	O	O	O	O	O	O	O	AJS	I-NP	funny	JJS	O	O
president	t16	1	president	O	O	O	O	O	O	O	O	NN1	I-NP	president	NN	t14:NMOD||t15:NMOD||t17:TMP||t25:APPO||t31:P||t32:NMOD	O
ever	t17	1	ever	O	O	O	O	O	O	O	O	AV0	B-ADVP	ever	RB	O	O
but	t18	1	but	O	O	O	O	O	O	O	O	CJC	I-ADVP	but	CC	t19:CONJ	O
because	t19	1	because	O	O	O	O	O	O	O	O	CJS	B-SBAR	because	IN	t21:SUB	O
he	t20	1	he	O	O	O	O	O	O	O	O	PNP	B-NP	he	PRP	O	O
uses	t21	1	use	O	O	O	O	O	O	O	O	VVZ	B-VP	use	VBZ	t20:SBJ||t22:OBJ	O
jokes	t22	1	joke	O	O	O	O	O	O	O	O	VVZ	B-VP	joke	NNS	O	O
the	t23	1	the	O	O	O	O	O	O	O	O	AT0	B-NP	the	DT	O	O
same	t24	1	same	O	O	O	O	O	O	O	O	DT0	I-NP	same	JJ	O	O
way	t25	1	way	O	O	O	O	O	O	O	O	NN1	I-NP	way	NN	t23:NMOD||t24:NMOD||t30:NMOD	O
many	t26	1	many	O	O	O	O	O	O	O	O	DT0	B-NP	many	DT	t27:NMOD	O
of	t27	1	of	O	O	O	O	O	O	O	O	PRF	B-PP	of	IN	t28:PMOD	O
us	t28	1	we	O	O	O	O	O	O	O	O	PNP	B-NP	us	PRP	O	O
comedians	t29	1	comedian	O	O	O	O	O	O	O	O	NN2	B-VP	comedian	NNS	t26:SBJ	O
do	t30	1	do	O	O	O	O	O	O	O	O	VDB	B-NP	do	VBP	t29:SBJ	O
:	t31	1	:	O	O	O	O	O	O	O	O	PUN	O	:	:	O	O
as	t32	1	as	O	O	O	O	O	O	O	O	PRP	B-PP	as	IN	t34:PMOD	O
a	t33	1	a	O	O	O	O	O	O	O	O	AT0	B-NP	a	DT	O	O
weapon	t34	1	weapon	O	O	O	O	O	O	O	O	NN1	I-NP	weapon	NN	t33:NMOD	O
.	t35	1	.	O	O	O	O	O	O	O	O	PUN	O	.	.	O	O

Traditionally	t36	2	traditionally	O	O	O	O	O	O	O	O	AV0	B-ADVP	traditionally	RB	O	O
,	t37	2	,	O	O	O	O	O	O	O	O	PUN	O	,	,	O	O
the	t38	2	the	O	O	O	O	O	O	O	O	AT0	B-NP	the	DT	O	O
-LRB-	t39	2	-lrb-	O	O	O	O	O	O	O	O	NN1	I-NP	-lrb-	NN	t38:NMOD	O
intentionally	t40	2	intentionally	O	O	O	O	O	O	O	O	AV0	I-NP	intentionally	RB	O	O
-RRB-	t41	2	-rrb-	O	O	O	O	O	O	O	O	AJ0	I-NP	-rrb-	VBZ	t36:ADV||t37:P||t39:SBJ||t40:MNR||t47:OBJ||t57:P	mainVb
funny	t42	2	funny	O	O	O	O	O	O	O	O	AJ0	I-NP	funny	JJ	O	O
lines	t43	2	line	O	O	O	O	O	O	O	O	NN2	I-NP	line	NNS	t42:NMOD||t44:NMOD	O
by	t44	2	by	O	O	O	O	O	O	O	O	PRP	B-PP	by	IN	t46:PMOD	O
our	t45	2	we	O	O	O	O	O	O	O	O	DPS	B-NP	our	PRP$	O	O
presidents	t46	2	president	O	O	O	O	O	O	O	O	NN2	I-NP	president	NNS	t45:NMOD	O
have	t47	2	have	O	O	O	O	O	O	O	O	VHB	B-VP	have	VBP	t43:SBJ||t48:VC||t53:P||t55:COORD	O
had	t48	2	have	e4	STATE	PRESENT+PERFECTIVE+POS	O	O	O	O	O	VHN	I-VP	have	VBN	t50:OBJ||t51:LOC	O
one	t49	2	one	O	O	O	O	O	O	O	O	CRD	B-NP	one	CD	O	O
thing	t50	2	thing	O	O	O	O	O	O	O	O	NN1	I-NP	thing	NN	t49:NMOD	O
in	t51	2	in	O	O	O	O	O	O	O	O	PRP	B-PP	in	IN	t52:PMOD	O
common	t52	2	common	O	O	O	O	O	O	O	O	AJ0	B-NP	common	JJ	O	O
:	t53	2	:	O	O	O	O	O	O	O	O	PUN	O	:	:	O	O
They	t54	2	they	O	O	O	O	O	O	O	O	PNP	B-NP	they	PRP	O	O
were	t55	2	be	O	O	O	O	O	O	O	O	VBD	B-VP	be	VBD	t54:SBJ||t56:VC	O
self-deprecating	t56	2	self-deprecating	O	O	O	O	O	O	O	O	AJ0	B-ADJP	self-deprecate	VBG	O	O
.	t57	2	.	O	O	O	O	O	O	O	O	PUN	O	.	.	O	O

Sure	t58	3	sure	O	O	O	O	O	O	O	O	AJ0	B-NP	sure	VB	t59:P||t62:COORD||t79:P	mainVb
,	t59	3	,	O	O	O	O	O	O	O	O	PUN	O	,	,	O	O
some	t60	3	some	O	O	O	O	O	O	O	O	DT0	B-NP	some	DT	O	O
presidents	t61	3	president	O	O	O	O	O	O	O	O	NN2	I-NP	president	NNS	t60:NMOD	O
have	t62	3	have	O	O	O	O	O	O	O	O	VHB	B-VP	have	VBP	t61:SBJ||t63:VC||t71:P||t72:COORD	O
used	t63	3	use	e5	OCCURRENCE	PRESENT+PERFECTIVE+POS	O	O	O	O	O	VVN	I-VP	use	VBN	t64:OBJ||t65:OPRD	O
jokes	t64	3	joke	O	O	O	O	O	O	O	O	NN2	B-NP	joke	NNS	O	O
to	t65	3	to	O	O	O	O	O	O	O	O	TO0	B-VP	to	TO	t66:IM	O
take	t66	3	take	O	O	O	O	O	O	O	O	VVI	I-VP	take	VB	t67:OBJ||t68:ADV	O
jabs	t67	3	jab	O	O	O	O	O	O	O	O	NN2	B-NP	jab	NNS	O	O
at	t68	3	at	O	O	O	O	O	O	O	O	PRP	B-PP	at	IN	t70:PMOD	O
their	t69	3	they	O	O	O	O	O	O	O	O	DPS	B-NP	their	PRP$	O	O
opponents	t70	3	opponent	O	O	O	O	O	O	O	O	NN2	I-NP	opponent	NNS	t69:NMOD	O
,	t71	3	,	O	O	O	O	O	O	O	O	PUN	O	,	,	O	O
but	t72	3	but	O	O	O	O	O	O	O	O	CJC	O	but	CC	t73:CONJ	O
not	t73	3	not	O	O	O	O	O	O	O	O	XX0	O	not	RB	t74:COORD	O
to	t74	3	to	O	O	O	O	O	O	O	O	PRP	B-PP	to	TO	t76:PMOD	O
the	t75	3	the	O	O	O	O	O	O	O	O	AT0	B-NP	the	DT	O	O
extent	t76	3	extent	O	O	O	O	O	O	O	O	NN1	I-NP	extent	NN	t75:NMOD||t77:NMOD	O
of	t77	3	of	O	O	O	O	O	O	O	O	PRF	B-PP	of	IN	t78:PMOD	O
Obama	t78	3	Obama	O	O	O	O	O	O	O	O	NN1	B-NP	obama	NNP	O	O
.	t79	3	.	O	O	O	O	O	O	O	O	PUN	O	.	.	O	O

During	t80	4	during	O	O	O	O	O	O	O	O	PRP	B-PP	during	IN	t82:PMOD	O
his	t81	4	he	O	O	O	O	O	O	O	O	DPS	B-NP	his	PRP$	O	O
tenure	t82	4	tenure	O	O	O	tmx1	DURATION	P5Y	O	O	NN1	I-NP	tenure	NN	t81:NMOD	O
,	t83	4	,	O	O	O	O	O	O	O	O	PUN	O	,	,	O	O
he	t84	4	he	O	O	O	O	O	O	O	O	PNP	B-NP	he	PRP	O	O
has	t85	4	have	O	O	O	O	O	O	O	O	VHZ	B-VP	have	VBZ	t80:TMP||t83:P||t84:SBJ||t86:ADV||t87:VC||t97:P	mainVb
increasingly	t86	4	increasingly	O	O	O	O	O	O	O	O	AV0	I-VP	increasingly	RB	O	mainVb
unleashed	t87	4	unleash	e8	OCCURRENCE	PAST+NONE+POS	O	O	O	O	O	VVN	I-VP	unleashed	VBN	t88:OPRD	mainVb
biting	t88	4	bite	O	O	O	O	O	O	O	O	VVG	I-VP	bite	VBG	t90:OBJ||t91:ADV	mainVb
comedic	t89	4	comedic	O	O	O	O	O	O	O	O	AJ0	B-NP	comedic	JJ	O	O
barbs	t90	4	barb	O	O	O	O	O	O	O	O	NN2	I-NP	barb	NNS	t89:NMOD	O
against	t91	4	against	O	O	O	O	O	O	O	O	PRP	B-PP	against	IN	t93:PMOD	O
his	t92	4	he	O	O	O	O	O	O	O	O	DPS	B-NP	his	PRP$	O	O
critics	t93	4	critic	O	O	O	O	O	O	O	O	NN2	I-NP	critic	NNS	t92:NMOD||t94:COORD	O
and	t94	4	and	O	O	O	O	O	O	O	O	CJC	O	and	CC	t96:CONJ	O
political	t95	4	political	O	O	O	O	O	O	O	O	AJ0	B-NP	political	JJ	O	O
adversaries	t96	4	adversary	O	O	O	O	O	O	O	O	NN2	I-NP	adversary	NNS	t95:NMOD	O
.	t97	4	.	O	O	O	O	O	O	O	O	PUN	O	.	.	O	O

These	t98	5	these	O	O	O	O	O	O	O	O	DT0	B-NP	these	DT	O	O
jokes	t99	5	joke	O	O	O	O	O	O	O	O	NN2	I-NP	joke	NNS	t98:NMOD	O
are	t100	5	be	O	O	O	O	O	O	O	O	VBB	B-VP	be	VBP	t99:SBJ||t101:VC||t109:P	mainVb
intended	t101	5	intend	e1000	I_ACTION	PRESENT+NONE+POS	O	O	O	O	O	VVN	I-VP	intend	VBN	t102:OPRD	mainVb
to	t102	5	to	O	O	O	O	O	O	O	O	TO0	I-VP	to	TO	t103:IM	mainVb
do	t103	5	do	O	O	O	O	O	O	O	O	VDI	I-VP	do	VB	t104:OBJ	mainVb
more	t104	5	more	O	O	O	O	O	O	O	O	AV0	B-ADVP	more	RBR	t105:NMOD	O
than	t105	5	than	O	O	O	O	O	O	O	O	CJS	B-SBAR	than	IN	t107:SUB	O
simply	t106	5	simply	O	O	O	O	O	O	O	O	AV0	B-ADVP	simply	RB	O	O
entertain	t107	5	entertain	O	O	O	O	O	O	O	O	VVB	B-VP	entertain	VB	t106:ADV||t108:OBJ	O
you	t108	5	you	O	O	O	O	O	O	O	O	PNP	B-NP	you	PRP	O	O
.	t109	5	.	O	O	O	O	O	O	O	O	PUN	O	.	.	O	O

They	t110	6	they	O	O	O	O	O	O	O	O	PNP	B-NP	they	PRP	O	O
have	t111	6	have	O	O	O	O	O	O	O	O	VHB	B-VP	have	VBP	t110:SBJ||t113:OBJ||t114:P	mainVb
an	t112	6	a	O	O	O	O	O	O	O	O	AT0	B-NP	an	DT	O	O
agenda	t113	6	agenda	O	O	O	O	O	O	O	O	NN1	I-NP	agenda	NN	t112:NMOD	O
.	t114	6	.	O	O	O	O	O	O	O	O	PUN	O	.	.	O	O

Obama	t115	7	Obama	O	O	O	O	O	O	O	O	NP0	B-NP	obama	NNP	t116:SUFFIX	O
's	t116	7	's	O	O	O	O	O	O	O	O	POS	B-NP	's	POS	O	O
humor	t117	7	humor	O	O	O	O	O	O	O	O	NN1	I-NP	humor	NN	t115:NMOD	O
is	t118	7	be	O	O	O	O	O	O	O	O	VBZ	B-VP	be	VBZ	t117:SBJ||t119:TMP||t120:VC||t132:P	mainVb
often	t119	7	often	O	O	O	O	O	O	O	O	AV0	I-VP	often	RB	O	mainVb
delivered	t120	7	deliver	O	O	O	O	O	O	O	O	VVN	I-VP	deliver	VBN	t122:OBJ	mainVb
the	t121	7	the	O	O	O	O	O	O	O	O	AT0	B-NP	the	DT	O	O
way	t122	7	way	O	O	O	O	O	O	O	O	NN1	I-NP	way	NN	t121:NMOD||t129:NMOD	O
a	t123	7	a	O	O	O	O	O	O	O	O	AT0	B-NP	a	DT	O	O
comedian	t124	7	comedian	O	O	O	O	O	O	O	O	NN1	I-NP	comedian	NN	t123:NMOD||t125:APPO	O
dealing	t125	7	deal	O	O	O	O	O	O	O	O	VVG	B-VP	deal	VBG	t126:ADV	O
with	t126	7	with	O	O	O	O	O	O	O	O	PRP	B-PP	with	IN	t128:PMOD	O
a	t127	7	a	O	O	O	O	O	O	O	O	AT0	B-NP	a	DT	O	O
heckler	t128	7	heckler	O	O	O	O	O	O	O	O	NN1	I-NP	heckler	NN	t127:NMOD	O
would	t129	7	would	O	O	O	O	O	O	O	O	VM0	B-VP	would	MD	t124:SBJ||t130:VC	O
do	t130	7	do	O	O	O	O	O	O	O	O	VDI	I-VP	do	VB	t131:OBJ	O
it	t131	7	it	O	O	O	O	O	O	O	O	PNP	B-NP	it	PRP	O	O
.	t132	7	.	O	O	O	O	O	O	O	O	PUN	O	.	.	O	O

He	t133	8	he	O	O	O	O	O	O	O	O	PNP	B-NP	he	PRP	O	O
tries	t134	8	try	e1002	I_ACTION	PRESENT+NONE+POS	O	O	O	O	O	VVZ	B-VP	try	VBZ	t133:SBJ||t135:OPRD||t155:P	mainVb
to	t135	8	to	O	O	O	O	O	O	O	O	TO0	I-VP	to	TO	t136:IM	mainVb
undermine	t136	8	undermine	e1003	OCCURRENCE	INFINITIVE+NONE+POS	O	O	O	O	O	VVI	I-VP	undermine	VB	t138:OBJ||t139:ADV||t141:COORD	mainVb
his	t137	8	he	O	O	O	O	O	O	O	O	DPS	B-NP	his	PRP$	O	O
opponents	t138	8	opponent	O	O	O	O	O	O	O	O	NN2	I-NP	opponent	NNS	t137:NMOD	O
with	t139	8	with	O	O	O	O	O	O	O	O	PRP	B-PP	with	IN	t140:PMOD	O
it	t140	8	it	O	O	O	O	O	O	O	O	PNP	B-NP	it	PRP	O	O
and	t141	8	and	O	O	O	O	O	O	O	O	CJC	O	and	CC	t142:CONJ	O
get	t142	8	get	O	O	O	O	O	O	O	O	VVB	B-VP	get	VB	t144:OBJ	O
the	t143	8	the	O	O	O	O	O	O	O	O	AT0	B-NP	the	DT	O	O
crowd	t144	8	crowd	O	O	O	O	O	O	O	O	NN1	I-NP	crowd	NN	t143:NMOD||t150:PRN||t152:NMOD	O
--	t145	8	--	O	O	O	O	O	O	O	O	UNC	O	--	:	O	O
in	t146	8	in	O	O	O	O	O	O	O	O	PRP	B-PP	in	IN	t148:PMOD	O
this	t147	8	this	O	O	O	O	O	O	O	O	DT0	B-NP	this	DT	O	O
case	t148	8	case	O	O	O	O	O	O	O	O	NN1	I-NP	case	NN	t147:NMOD	O
the	t149	8	the	O	O	O	O	O	O	O	O	AT0	B-NP	the	DT	O	O
public	t150	8	public	O	O	O	O	O	O	O	O	NN1	I-NP	public	NN	t145:P||t146:LOC||t149:NMOD||t151:P	O
--	t151	8	--	O	O	O	O	O	O	O	O	UNC	O	--	:	O	O
on	t152	8	on	O	O	O	O	O	O	O	O	PRP	B-PP	on	IN	t154:PMOD	O
his	t153	8	he	O	O	O	O	O	O	O	O	DPS	B-NP	his	PRP$	O	O
side	t154	8	side	O	O	O	O	O	O	O	O	NN1	I-NP	side	NN	t153:NMOD	O
.	t155	8	.	O	O	O	O	O	O	O	O	PUN	O	.	.	O	O

I	t156	9	I	O	O	O	O	O	O	O	O	PNP	B-NP	i	PRP	O	O
can	t157	9	can	O	O	O	O	O	O	O	O	VM0	B-VP	can	MD	t156:SBJ||t158:VC||t181:P	mainVb
assure	t158	9	assure	e20	I_ACTION	PRESENT+NONE+POS	O	O	O	O	O	VVI	I-VP	assure	VB	t159:OBJ||t160:OBJ	mainVb
you	t159	9	you	O	O	O	O	O	O	O	O	PNP	B-NP	you	PRP	O	O
that	t160	9	that	O	O	O	O	O	O	O	O	AV0	B-NP	that	IN	t168:SUB	O
having	t161	9	have	O	O	O	O	O	O	O	O	VHG	B-VP	have	VBG	t164:OBJ||t165:LOC	O
a	t162	9	a	O	O	O	O	O	O	O	O	AT0	B-NP	a	DT	O	O
crowd	t163	9	crowd	O	O	O	O	O	O	O	O	NN1	I-NP	crowd	NN	O	O
laugh	t164	9	laugh	O	O	O	O	O	O	O	O	NN1	I-NP	laugh	NN	t162:NMOD||t163:NMOD	O
at	t165	9	at	O	O	O	O	O	O	O	O	PRP	B-PP	at	IN	t167:PMOD	O
your	t166	9	you	O	O	O	O	O	O	O	O	DPS	B-NP	your	PRP$	O	O
critic/heckler	t167	9	critic/heckler	O	O	O	O	O	O	O	O	NN1	I-NP	critic/heckler	NN	t166:NMOD	O
is	t168	9	be	O	O	O	O	O	O	O	O	VBZ	B-VP	be	VBZ	t161:SBJ||t169:ADV||t171:PRD||t175:P||t177:PRD	O
not	t169	9	not	O	O	O	O	O	O	O	O	XX0	O	not	RB	t170:DEP	O
only	t170	9	only	O	O	O	O	O	O	O	O	AV0	B-ADJP	only	RB	O	O
effective	t171	9	effective	O	O	O	O	O	O	O	O	AJ0	I-ADJP	effective	JJ	t172:AMOD	O
in	t172	9	in	O	O	O	O	O	O	O	O	PRP	B-PP	in	IN	t173:PMOD	O
dominating	t173	9	dominate	O	O	O	O	O	O	O	O	VVG	B-VP	dominate	VBG	t174:OBJ	O
them	t174	9	they	O	O	O	O	O	O	O	O	PNP	B-NP	them	PRP	O	O
,	t175	9	,	O	O	O	O	O	O	O	O	PUN	O	,	,	O	O
it	t176	9	it	O	O	O	O	O	O	O	O	PNP	B-NP	it	PRP	O	O
's	t177	9	be	O	O	O	O	O	O	O	O	VBZ	B-VP	's	VBZ	t176:SBJ||t178:ADV||t180:PRD	O
also	t178	9	also	O	O	O	O	O	O	O	O	AV0	B-ADVP	also	RB	O	O
very	t179	9	very	O	O	O	O	O	O	O	O	AV0	B-ADJP	very	RB	O	O
satisfying	t180	9	satisfying	O	O	O	O	O	O	O	O	AJ0	I-ADJP	satisfying	JJ	t179:AMOD	O
.	t181	9	.	O	O	O	O	O	O	O	O	PUN	O	.	.	O	O
